<svg 
 xmlns="http://www.w3.org/2000/svg"
 xmlns:xlink="http://www.w3.org/1999/xlink"
 width="205px" height="55px">
<defs>
<linearGradient id="PSgrad_0" x1="0%" x2="68.2%" y1="0%" y2="73.135%">
  <stop offset="0%" stop-color="rgb(238,117,24)" stop-opacity="0.95" />
  <stop offset="100%" stop-color="rgb(253,91,47)" stop-opacity="0.95" />
</linearGradient>

</defs>
<path fill-rule="evenodd"  fill="rgb(227, 114, 34)"
 d="M201.753,38.331 L201.753,48.827 L196.761,48.827 L196.761,38.331 L194.265,38.331 L194.265,34.427 L196.761,34.427 L196.761,30.459 L201.753,30.459 L201.753,34.427 L204.569,34.427 L204.569,38.331 L201.753,38.331 ZM187.641,40.603 C187.641,39.984 187.481,39.488 187.161,39.115 C186.841,38.742 186.372,38.555 185.753,38.555 C185.241,38.555 184.798,38.694 184.425,38.971 C184.052,39.248 183.801,39.632 183.673,40.123 L183.673,48.827 L178.649,48.827 L178.649,34.427 L183.673,34.427 L183.673,35.675 C184.612,34.630 185.902,34.107 187.545,34.107 C189.124,34.107 190.366,34.582 191.273,35.531 C192.180,36.480 192.633,37.766 192.633,39.387 L192.633,48.827 L187.641,48.827 L187.641,40.603 ZM171.386,48.091 C171.130,48.347 170.682,48.576 170.042,48.779 C169.402,48.981 168.719,49.083 167.994,49.083 C166.500,49.083 165.247,48.672 164.234,47.851 C163.220,47.030 162.714,45.894 162.714,44.443 C162.714,43.078 163.242,41.974 164.298,41.131 C165.354,40.288 166.671,39.867 168.250,39.867 C169.594,39.867 170.639,40.134 171.386,40.667 L171.386,40.155 C171.386,39.579 171.124,39.115 170.602,38.763 C170.079,38.411 169.316,38.235 168.314,38.235 C166.863,38.235 165.551,38.576 164.378,39.259 L164.378,35.227 C165.764,34.480 167.482,34.107 169.530,34.107 C171.663,34.107 173.311,34.603 174.474,35.595 C175.636,36.587 176.218,38.032 176.218,39.931 L176.218,48.827 L171.386,48.827 L171.386,48.091 ZM171.386,43.963 C171.044,43.302 170.372,42.971 169.370,42.971 C168.815,42.971 168.346,43.088 167.962,43.323 C167.578,43.558 167.386,43.899 167.386,44.347 C167.386,44.816 167.578,45.168 167.962,45.403 C168.346,45.638 168.815,45.755 169.370,45.755 C170.351,45.755 171.023,45.435 171.386,44.795 L171.386,43.963 ZM153.754,48.827 L151.706,41.531 L149.658,48.827 L145.402,48.827 L140.762,34.427 L145.754,34.427 L148.026,42.235 L150.202,34.427 L153.402,34.427 L155.546,42.235 L157.850,34.427 L162.650,34.427 L158.010,48.827 L153.754,48.827 ZM146.137,17.211 C147.630,17.211 149.017,16.827 150.297,16.059 L150.297,19.867 C149.145,20.720 147.492,21.147 145.337,21.147 C143.012,21.147 141.140,20.486 139.721,19.163 C138.302,17.840 137.593,16.027 137.593,13.723 C137.593,11.483 138.254,9.654 139.577,8.235 C140.900,6.816 142.564,6.107 144.569,6.107 C146.745,6.107 148.414,6.758 149.577,8.059 C150.740,9.360 151.321,11.110 151.321,13.307 L151.321,14.779 L142.457,14.779 C142.841,16.400 144.068,17.211 146.137,17.211 ZM146.841,11.963 C146.777,11.344 146.564,10.848 146.201,10.475 C145.838,10.102 145.358,9.915 144.761,9.915 C143.630,9.915 142.884,10.598 142.521,11.963 L146.841,11.963 ZM130.905,12.603 C130.905,11.984 130.745,11.488 130.425,11.115 C130.105,10.742 129.636,10.555 129.017,10.555 C128.505,10.555 128.062,10.694 127.689,10.971 C127.316,11.248 127.065,11.632 126.937,12.123 L126.937,20.827 L121.913,20.827 L121.913,0.027 L126.937,0.027 L126.937,7.675 C127.876,6.630 129.166,6.107 130.809,6.107 C132.388,6.107 133.630,6.582 134.537,7.531 C135.444,8.480 135.897,9.766 135.897,11.387 L135.897,20.827 L130.905,20.827 L130.905,12.603 ZM117.402,20.827 L112.410,20.827 L112.410,10.331 L109.914,10.331 L109.914,6.427 L112.410,6.427 L112.410,2.459 L117.402,2.459 L117.402,6.427 L120.218,6.427 L120.218,10.331 L117.402,10.331 L117.402,20.827 ZM115.434,36.203 C116.788,37.600 117.466,39.408 117.466,41.627 C117.466,43.846 116.788,45.654 115.434,47.051 C114.079,48.448 112.303,49.147 110.106,49.147 C107.930,49.147 106.159,48.448 104.794,47.051 C103.428,45.654 102.746,43.846 102.746,41.627 C102.746,39.408 103.428,37.600 104.794,36.203 C106.159,34.806 107.930,34.107 110.106,34.107 C112.303,34.107 114.079,34.806 115.434,36.203 ZM108.346,39.163 C107.919,39.782 107.706,40.603 107.706,41.627 C107.706,42.630 107.919,43.440 108.346,44.059 C108.772,44.678 109.359,44.987 110.106,44.987 C110.874,44.987 111.471,44.683 111.898,44.075 C112.324,43.467 112.538,42.651 112.538,41.627 C112.538,40.603 112.324,39.782 111.898,39.163 C111.471,38.544 110.874,38.235 110.106,38.235 C109.359,38.235 108.772,38.544 108.346,39.163 ZM90.746,25.915 L92.858,20.475 L87.482,6.427 L92.698,6.427 L95.450,14.619 L98.138,6.427 L103.130,6.427 L95.706,25.915 L90.746,25.915 ZM92.314,34.427 L95.066,42.619 L97.754,34.427 L102.746,34.427 L95.322,53.915 L90.362,53.915 L92.474,48.475 L87.098,34.427 L92.314,34.427 ZM81.050,19.579 C80.154,20.624 78.874,21.147 77.210,21.147 C75.631,21.147 74.394,20.672 73.498,19.723 C72.602,18.774 72.154,17.488 72.154,15.867 L72.154,6.427 L77.146,6.427 L77.146,14.683 C77.146,16.070 77.764,16.763 79.002,16.763 C79.471,16.763 79.898,16.619 80.282,16.331 C80.666,16.043 80.922,15.654 81.050,15.163 L81.050,6.427 L86.074,6.427 L86.074,20.827 L81.050,20.827 L81.050,19.579 ZM79.322,35.387 L79.322,39.515 C77.786,38.406 76.271,37.851 74.778,37.851 C73.818,37.851 73.338,38.139 73.338,38.715 C73.338,38.971 73.429,39.163 73.610,39.291 C73.791,39.419 74.074,39.536 74.458,39.643 L75.770,40.027 C77.349,40.454 78.474,41.014 79.146,41.707 C79.818,42.400 80.154,43.355 80.154,44.571 C80.154,46.064 79.583,47.200 78.442,47.979 C77.301,48.758 75.802,49.147 73.946,49.147 C71.663,49.147 69.839,48.688 68.474,47.771 L68.474,43.547 C69.135,44.080 69.957,44.518 70.938,44.859 C71.919,45.200 72.794,45.371 73.562,45.371 C74.650,45.371 75.194,45.083 75.194,44.507 C75.194,44.038 74.757,43.707 73.882,43.515 L72.762,43.227 C69.861,42.608 68.410,41.136 68.410,38.811 C68.410,37.339 68.954,36.187 70.042,35.355 C71.130,34.523 72.549,34.107 74.298,34.107 C76.261,34.107 77.935,34.534 79.322,35.387 ZM64.026,21.147 C63.322,21.147 62.645,21.003 61.994,20.715 C61.343,20.427 60.837,20.080 60.474,19.675 L60.474,20.827 L55.450,20.827 L55.450,0.027 L60.474,0.027 L60.474,7.579 C60.837,7.174 61.343,6.827 61.994,6.539 C62.645,6.251 63.322,6.107 64.026,6.107 C66.031,6.107 67.605,6.816 68.746,8.235 C69.887,9.654 70.458,11.451 70.458,13.627 C70.458,15.803 69.887,17.600 68.746,19.019 C67.605,20.438 66.031,21.147 64.026,21.147 ZM64.698,11.275 C64.207,10.667 63.535,10.363 62.682,10.363 C62.213,10.363 61.775,10.491 61.370,10.747 C60.965,11.003 60.666,11.323 60.474,11.707 L60.474,15.515 C60.901,16.411 61.637,16.859 62.682,16.859 C63.535,16.859 64.207,16.555 64.698,15.947 C65.189,15.339 65.434,14.566 65.434,13.627 C65.434,12.667 65.189,11.883 64.698,11.275 ZM58.074,34.107 C59.546,34.107 60.677,34.576 61.466,35.515 L61.466,34.427 L66.426,34.427 L66.426,46.747 C66.426,49.264 65.647,51.141 64.090,52.379 C62.533,53.616 60.517,54.235 58.042,54.235 C55.845,54.235 54.117,53.829 52.858,53.019 L52.858,48.411 C54.245,49.584 55.919,50.171 57.882,50.171 C58.927,50.171 59.786,49.941 60.458,49.483 C61.130,49.024 61.466,48.315 61.466,47.355 L61.466,46.875 C60.655,47.814 59.525,48.283 58.074,48.283 C56.090,48.283 54.533,47.611 53.402,46.267 C52.271,44.923 51.706,43.227 51.706,41.179 C51.706,39.131 52.271,37.440 53.402,36.107 C54.533,34.774 56.090,34.107 58.074,34.107 ZM57.386,43.419 C57.866,43.995 58.511,44.283 59.322,44.283 C60.282,44.283 60.997,43.888 61.466,43.099 L61.466,39.291 C60.975,38.480 60.261,38.075 59.322,38.075 C58.511,38.075 57.866,38.363 57.386,38.939 C56.906,39.515 56.666,40.262 56.666,41.179 C56.666,42.096 56.906,42.843 57.386,43.419 ZM45.018,40.603 C45.018,39.984 44.858,39.488 44.538,39.115 C44.218,38.742 43.749,38.555 43.130,38.555 C42.618,38.555 42.175,38.694 41.802,38.971 C41.429,39.248 41.178,39.632 41.050,40.123 L41.050,48.827 L36.026,48.827 L36.026,34.427 L41.050,34.427 L41.050,35.675 C41.989,34.630 43.279,34.107 44.922,34.107 C46.501,34.107 47.743,34.582 48.650,35.531 C49.557,36.480 50.010,37.766 50.010,39.387 L50.010,48.827 L45.018,48.827 L45.018,40.603 ZM41.659,19.675 C41.296,20.080 40.789,20.427 40.139,20.715 C39.488,21.003 38.811,21.147 38.107,21.147 C36.101,21.147 34.528,20.438 33.387,19.019 C32.245,17.600 31.675,15.803 31.675,13.627 C31.675,11.451 32.245,9.654 33.387,8.235 C34.528,6.816 36.101,6.107 38.107,6.107 C38.811,6.107 39.488,6.251 40.139,6.539 C40.789,6.827 41.296,7.174 41.659,7.579 L41.659,0.027 L46.683,0.027 L46.683,20.827 L41.659,20.827 L41.659,19.675 ZM41.659,11.707 C41.467,11.323 41.168,11.003 40.763,10.747 C40.357,10.491 39.920,10.363 39.451,10.363 C38.597,10.363 37.925,10.667 37.435,11.275 C36.944,11.883 36.699,12.667 36.699,13.627 C36.699,14.566 36.944,15.339 37.435,15.947 C37.925,16.555 38.597,16.859 39.451,16.859 C40.496,16.859 41.232,16.411 41.659,15.515 L41.659,11.707 ZM32.987,28.555 C33.541,29.056 33.819,29.712 33.819,30.523 C33.819,31.312 33.541,31.958 32.987,32.459 C32.432,32.960 31.760,33.211 30.971,33.211 C30.181,33.211 29.509,32.960 28.955,32.459 C28.400,31.958 28.123,31.312 28.123,30.523 C28.123,29.712 28.400,29.056 28.955,28.555 C29.509,28.054 30.181,27.803 30.971,27.803 C31.760,27.803 32.432,28.054 32.987,28.555 ZM24.987,12.603 C24.987,11.984 24.827,11.488 24.507,11.115 C24.187,10.742 23.717,10.555 23.099,10.555 C22.587,10.555 22.144,10.694 21.771,10.971 C21.397,11.248 21.147,11.632 21.019,12.123 L21.019,20.827 L15.995,20.827 L15.995,6.427 L21.019,6.427 L21.019,7.675 C21.957,6.630 23.248,6.107 24.891,6.107 C26.469,6.107 27.712,6.582 28.619,7.531 C29.525,8.480 29.979,9.766 29.979,11.387 L29.979,20.827 L24.987,20.827 L24.987,12.603 ZM8.731,20.091 C8.475,20.347 8.027,20.576 7.387,20.779 C6.747,20.981 6.064,21.083 5.339,21.083 C3.846,21.083 2.592,20.672 1.579,19.851 C0.566,19.030 0.059,17.894 0.059,16.443 C0.059,15.078 0.587,13.974 1.643,13.131 C2.699,12.288 4.016,11.867 5.595,11.867 C6.939,11.867 7.984,12.134 8.731,12.667 L8.731,12.155 C8.731,11.579 8.470,11.115 7.947,10.763 C7.424,10.411 6.662,10.235 5.659,10.235 C4.208,10.235 2.896,10.576 1.723,11.259 L1.723,7.227 C3.110,6.480 4.827,6.107 6.875,6.107 C9.008,6.107 10.656,6.603 11.819,7.595 C12.982,8.587 13.563,10.032 13.563,11.931 L13.563,20.827 L8.731,20.827 L8.731,20.091 ZM8.731,15.963 C8.390,15.302 7.718,14.971 6.715,14.971 C6.160,14.971 5.691,15.088 5.307,15.323 C4.923,15.558 4.731,15.899 4.731,16.347 C4.731,16.816 4.923,17.168 5.307,17.403 C5.691,17.638 6.160,17.755 6.715,17.755 C7.696,17.755 8.368,17.435 8.731,16.795 L8.731,15.963 ZM2.491,30.459 L7.483,30.459 L7.483,34.427 L10.299,34.427 L10.299,38.331 L7.483,38.331 L7.483,48.827 L2.491,48.827 L2.491,38.331 L-0.005,38.331 L-0.005,34.427 L2.491,34.427 L2.491,30.459 ZM17.019,35.675 C17.957,34.630 19.248,34.107 20.891,34.107 C22.469,34.107 23.712,34.582 24.619,35.531 C25.525,36.480 25.979,37.766 25.979,39.387 L25.979,48.827 L20.987,48.827 L20.987,40.603 C20.987,39.984 20.827,39.488 20.507,39.115 C20.187,38.742 19.717,38.555 19.099,38.555 C18.587,38.555 18.144,38.694 17.771,38.971 C17.397,39.248 17.147,39.632 17.019,40.123 L17.019,48.827 L11.995,48.827 L11.995,28.027 L17.019,28.027 L17.019,35.675 ZM33.467,48.827 L28.443,48.827 L28.443,34.427 L33.467,34.427 L33.467,48.827 ZM124.186,42.683 C124.186,44.070 124.804,44.763 126.042,44.763 C126.511,44.763 126.938,44.619 127.322,44.331 C127.706,44.043 127.962,43.654 128.090,43.163 L128.090,34.427 L133.114,34.427 L133.114,48.827 L128.090,48.827 L128.090,47.579 C127.194,48.624 125.914,49.147 124.250,49.147 C122.671,49.147 121.434,48.672 120.538,47.723 C119.642,46.774 119.194,45.488 119.194,43.867 L119.194,34.427 L124.186,34.427 L124.186,42.683 Z"/>
<path fill="url(#PSgrad_0)"
 d="M201.753,38.331 L201.753,48.827 L196.761,48.827 L196.761,38.331 L194.265,38.331 L194.265,34.427 L196.761,34.427 L196.761,30.459 L201.753,30.459 L201.753,34.427 L204.569,34.427 L204.569,38.331 L201.753,38.331 ZM187.641,40.603 C187.641,39.984 187.481,39.488 187.161,39.115 C186.841,38.742 186.372,38.555 185.753,38.555 C185.241,38.555 184.798,38.694 184.425,38.971 C184.052,39.248 183.801,39.632 183.673,40.123 L183.673,48.827 L178.649,48.827 L178.649,34.427 L183.673,34.427 L183.673,35.675 C184.612,34.630 185.902,34.107 187.545,34.107 C189.124,34.107 190.366,34.582 191.273,35.531 C192.180,36.480 192.633,37.766 192.633,39.387 L192.633,48.827 L187.641,48.827 L187.641,40.603 ZM171.386,48.091 C171.130,48.347 170.682,48.576 170.042,48.779 C169.402,48.981 168.719,49.083 167.994,49.083 C166.500,49.083 165.247,48.672 164.234,47.851 C163.220,47.030 162.714,45.894 162.714,44.443 C162.714,43.078 163.242,41.974 164.298,41.131 C165.354,40.288 166.671,39.867 168.250,39.867 C169.594,39.867 170.639,40.134 171.386,40.667 L171.386,40.155 C171.386,39.579 171.124,39.115 170.602,38.763 C170.079,38.411 169.316,38.235 168.314,38.235 C166.863,38.235 165.551,38.576 164.378,39.259 L164.378,35.227 C165.764,34.480 167.482,34.107 169.530,34.107 C171.663,34.107 173.311,34.603 174.474,35.595 C175.636,36.587 176.218,38.032 176.218,39.931 L176.218,48.827 L171.386,48.827 L171.386,48.091 ZM171.386,43.963 C171.044,43.302 170.372,42.971 169.370,42.971 C168.815,42.971 168.346,43.088 167.962,43.323 C167.578,43.558 167.386,43.899 167.386,44.347 C167.386,44.816 167.578,45.168 167.962,45.403 C168.346,45.638 168.815,45.755 169.370,45.755 C170.351,45.755 171.023,45.435 171.386,44.795 L171.386,43.963 ZM153.754,48.827 L151.706,41.531 L149.658,48.827 L145.402,48.827 L140.762,34.427 L145.754,34.427 L148.026,42.235 L150.202,34.427 L153.402,34.427 L155.546,42.235 L157.850,34.427 L162.650,34.427 L158.010,48.827 L153.754,48.827 ZM146.137,17.211 C147.630,17.211 149.017,16.827 150.297,16.059 L150.297,19.867 C149.145,20.720 147.492,21.147 145.337,21.147 C143.012,21.147 141.140,20.486 139.721,19.163 C138.302,17.840 137.593,16.027 137.593,13.723 C137.593,11.483 138.254,9.654 139.577,8.235 C140.900,6.816 142.564,6.107 144.569,6.107 C146.745,6.107 148.414,6.758 149.577,8.059 C150.740,9.360 151.321,11.110 151.321,13.307 L151.321,14.779 L142.457,14.779 C142.841,16.400 144.068,17.211 146.137,17.211 ZM146.841,11.963 C146.777,11.344 146.564,10.848 146.201,10.475 C145.838,10.102 145.358,9.915 144.761,9.915 C143.630,9.915 142.884,10.598 142.521,11.963 L146.841,11.963 ZM130.905,12.603 C130.905,11.984 130.745,11.488 130.425,11.115 C130.105,10.742 129.636,10.555 129.017,10.555 C128.505,10.555 128.062,10.694 127.689,10.971 C127.316,11.248 127.065,11.632 126.937,12.123 L126.937,20.827 L121.913,20.827 L121.913,0.027 L126.937,0.027 L126.937,7.675 C127.876,6.630 129.166,6.107 130.809,6.107 C132.388,6.107 133.630,6.582 134.537,7.531 C135.444,8.480 135.897,9.766 135.897,11.387 L135.897,20.827 L130.905,20.827 L130.905,12.603 ZM117.402,20.827 L112.410,20.827 L112.410,10.331 L109.914,10.331 L109.914,6.427 L112.410,6.427 L112.410,2.459 L117.402,2.459 L117.402,6.427 L120.218,6.427 L120.218,10.331 L117.402,10.331 L117.402,20.827 ZM115.434,36.203 C116.788,37.600 117.466,39.408 117.466,41.627 C117.466,43.846 116.788,45.654 115.434,47.051 C114.079,48.448 112.303,49.147 110.106,49.147 C107.930,49.147 106.159,48.448 104.794,47.051 C103.428,45.654 102.746,43.846 102.746,41.627 C102.746,39.408 103.428,37.600 104.794,36.203 C106.159,34.806 107.930,34.107 110.106,34.107 C112.303,34.107 114.079,34.806 115.434,36.203 ZM108.346,39.163 C107.919,39.782 107.706,40.603 107.706,41.627 C107.706,42.630 107.919,43.440 108.346,44.059 C108.772,44.678 109.359,44.987 110.106,44.987 C110.874,44.987 111.471,44.683 111.898,44.075 C112.324,43.467 112.538,42.651 112.538,41.627 C112.538,40.603 112.324,39.782 111.898,39.163 C111.471,38.544 110.874,38.235 110.106,38.235 C109.359,38.235 108.772,38.544 108.346,39.163 ZM90.746,25.915 L92.858,20.475 L87.482,6.427 L92.698,6.427 L95.450,14.619 L98.138,6.427 L103.130,6.427 L95.706,25.915 L90.746,25.915 ZM92.314,34.427 L95.066,42.619 L97.754,34.427 L102.746,34.427 L95.322,53.915 L90.362,53.915 L92.474,48.475 L87.098,34.427 L92.314,34.427 ZM81.050,19.579 C80.154,20.624 78.874,21.147 77.210,21.147 C75.631,21.147 74.394,20.672 73.498,19.723 C72.602,18.774 72.154,17.488 72.154,15.867 L72.154,6.427 L77.146,6.427 L77.146,14.683 C77.146,16.070 77.764,16.763 79.002,16.763 C79.471,16.763 79.898,16.619 80.282,16.331 C80.666,16.043 80.922,15.654 81.050,15.163 L81.050,6.427 L86.074,6.427 L86.074,20.827 L81.050,20.827 L81.050,19.579 ZM79.322,35.387 L79.322,39.515 C77.786,38.406 76.271,37.851 74.778,37.851 C73.818,37.851 73.338,38.139 73.338,38.715 C73.338,38.971 73.429,39.163 73.610,39.291 C73.791,39.419 74.074,39.536 74.458,39.643 L75.770,40.027 C77.349,40.454 78.474,41.014 79.146,41.707 C79.818,42.400 80.154,43.355 80.154,44.571 C80.154,46.064 79.583,47.200 78.442,47.979 C77.301,48.758 75.802,49.147 73.946,49.147 C71.663,49.147 69.839,48.688 68.474,47.771 L68.474,43.547 C69.135,44.080 69.957,44.518 70.938,44.859 C71.919,45.200 72.794,45.371 73.562,45.371 C74.650,45.371 75.194,45.083 75.194,44.507 C75.194,44.038 74.757,43.707 73.882,43.515 L72.762,43.227 C69.861,42.608 68.410,41.136 68.410,38.811 C68.410,37.339 68.954,36.187 70.042,35.355 C71.130,34.523 72.549,34.107 74.298,34.107 C76.261,34.107 77.935,34.534 79.322,35.387 ZM64.026,21.147 C63.322,21.147 62.645,21.003 61.994,20.715 C61.343,20.427 60.837,20.080 60.474,19.675 L60.474,20.827 L55.450,20.827 L55.450,0.027 L60.474,0.027 L60.474,7.579 C60.837,7.174 61.343,6.827 61.994,6.539 C62.645,6.251 63.322,6.107 64.026,6.107 C66.031,6.107 67.605,6.816 68.746,8.235 C69.887,9.654 70.458,11.451 70.458,13.627 C70.458,15.803 69.887,17.600 68.746,19.019 C67.605,20.438 66.031,21.147 64.026,21.147 ZM64.698,11.275 C64.207,10.667 63.535,10.363 62.682,10.363 C62.213,10.363 61.775,10.491 61.370,10.747 C60.965,11.003 60.666,11.323 60.474,11.707 L60.474,15.515 C60.901,16.411 61.637,16.859 62.682,16.859 C63.535,16.859 64.207,16.555 64.698,15.947 C65.189,15.339 65.434,14.566 65.434,13.627 C65.434,12.667 65.189,11.883 64.698,11.275 ZM58.074,34.107 C59.546,34.107 60.677,34.576 61.466,35.515 L61.466,34.427 L66.426,34.427 L66.426,46.747 C66.426,49.264 65.647,51.141 64.090,52.379 C62.533,53.616 60.517,54.235 58.042,54.235 C55.845,54.235 54.117,53.829 52.858,53.019 L52.858,48.411 C54.245,49.584 55.919,50.171 57.882,50.171 C58.927,50.171 59.786,49.941 60.458,49.483 C61.130,49.024 61.466,48.315 61.466,47.355 L61.466,46.875 C60.655,47.814 59.525,48.283 58.074,48.283 C56.090,48.283 54.533,47.611 53.402,46.267 C52.271,44.923 51.706,43.227 51.706,41.179 C51.706,39.131 52.271,37.440 53.402,36.107 C54.533,34.774 56.090,34.107 58.074,34.107 ZM57.386,43.419 C57.866,43.995 58.511,44.283 59.322,44.283 C60.282,44.283 60.997,43.888 61.466,43.099 L61.466,39.291 C60.975,38.480 60.261,38.075 59.322,38.075 C58.511,38.075 57.866,38.363 57.386,38.939 C56.906,39.515 56.666,40.262 56.666,41.179 C56.666,42.096 56.906,42.843 57.386,43.419 ZM45.018,40.603 C45.018,39.984 44.858,39.488 44.538,39.115 C44.218,38.742 43.749,38.555 43.130,38.555 C42.618,38.555 42.175,38.694 41.802,38.971 C41.429,39.248 41.178,39.632 41.050,40.123 L41.050,48.827 L36.026,48.827 L36.026,34.427 L41.050,34.427 L41.050,35.675 C41.989,34.630 43.279,34.107 44.922,34.107 C46.501,34.107 47.743,34.582 48.650,35.531 C49.557,36.480 50.010,37.766 50.010,39.387 L50.010,48.827 L45.018,48.827 L45.018,40.603 ZM41.659,19.675 C41.296,20.080 40.789,20.427 40.139,20.715 C39.488,21.003 38.811,21.147 38.107,21.147 C36.101,21.147 34.528,20.438 33.387,19.019 C32.245,17.600 31.675,15.803 31.675,13.627 C31.675,11.451 32.245,9.654 33.387,8.235 C34.528,6.816 36.101,6.107 38.107,6.107 C38.811,6.107 39.488,6.251 40.139,6.539 C40.789,6.827 41.296,7.174 41.659,7.579 L41.659,0.027 L46.683,0.027 L46.683,20.827 L41.659,20.827 L41.659,19.675 ZM41.659,11.707 C41.467,11.323 41.168,11.003 40.763,10.747 C40.357,10.491 39.920,10.363 39.451,10.363 C38.597,10.363 37.925,10.667 37.435,11.275 C36.944,11.883 36.699,12.667 36.699,13.627 C36.699,14.566 36.944,15.339 37.435,15.947 C37.925,16.555 38.597,16.859 39.451,16.859 C40.496,16.859 41.232,16.411 41.659,15.515 L41.659,11.707 ZM32.987,28.555 C33.541,29.056 33.819,29.712 33.819,30.523 C33.819,31.312 33.541,31.958 32.987,32.459 C32.432,32.960 31.760,33.211 30.971,33.211 C30.181,33.211 29.509,32.960 28.955,32.459 C28.400,31.958 28.123,31.312 28.123,30.523 C28.123,29.712 28.400,29.056 28.955,28.555 C29.509,28.054 30.181,27.803 30.971,27.803 C31.760,27.803 32.432,28.054 32.987,28.555 ZM24.987,12.603 C24.987,11.984 24.827,11.488 24.507,11.115 C24.187,10.742 23.717,10.555 23.099,10.555 C22.587,10.555 22.144,10.694 21.771,10.971 C21.397,11.248 21.147,11.632 21.019,12.123 L21.019,20.827 L15.995,20.827 L15.995,6.427 L21.019,6.427 L21.019,7.675 C21.957,6.630 23.248,6.107 24.891,6.107 C26.469,6.107 27.712,6.582 28.619,7.531 C29.525,8.480 29.979,9.766 29.979,11.387 L29.979,20.827 L24.987,20.827 L24.987,12.603 ZM8.731,20.091 C8.475,20.347 8.027,20.576 7.387,20.779 C6.747,20.981 6.064,21.083 5.339,21.083 C3.846,21.083 2.592,20.672 1.579,19.851 C0.566,19.030 0.059,17.894 0.059,16.443 C0.059,15.078 0.587,13.974 1.643,13.131 C2.699,12.288 4.016,11.867 5.595,11.867 C6.939,11.867 7.984,12.134 8.731,12.667 L8.731,12.155 C8.731,11.579 8.470,11.115 7.947,10.763 C7.424,10.411 6.662,10.235 5.659,10.235 C4.208,10.235 2.896,10.576 1.723,11.259 L1.723,7.227 C3.110,6.480 4.827,6.107 6.875,6.107 C9.008,6.107 10.656,6.603 11.819,7.595 C12.982,8.587 13.563,10.032 13.563,11.931 L13.563,20.827 L8.731,20.827 L8.731,20.091 ZM8.731,15.963 C8.390,15.302 7.718,14.971 6.715,14.971 C6.160,14.971 5.691,15.088 5.307,15.323 C4.923,15.558 4.731,15.899 4.731,16.347 C4.731,16.816 4.923,17.168 5.307,17.403 C5.691,17.638 6.160,17.755 6.715,17.755 C7.696,17.755 8.368,17.435 8.731,16.795 L8.731,15.963 ZM2.491,30.459 L7.483,30.459 L7.483,34.427 L10.299,34.427 L10.299,38.331 L7.483,38.331 L7.483,48.827 L2.491,48.827 L2.491,38.331 L-0.005,38.331 L-0.005,34.427 L2.491,34.427 L2.491,30.459 ZM17.019,35.675 C17.957,34.630 19.248,34.107 20.891,34.107 C22.469,34.107 23.712,34.582 24.619,35.531 C25.525,36.480 25.979,37.766 25.979,39.387 L25.979,48.827 L20.987,48.827 L20.987,40.603 C20.987,39.984 20.827,39.488 20.507,39.115 C20.187,38.742 19.717,38.555 19.099,38.555 C18.587,38.555 18.144,38.694 17.771,38.971 C17.397,39.248 17.147,39.632 17.019,40.123 L17.019,48.827 L11.995,48.827 L11.995,28.027 L17.019,28.027 L17.019,35.675 ZM33.467,48.827 L28.443,48.827 L28.443,34.427 L33.467,34.427 L33.467,48.827 ZM124.186,42.683 C124.186,44.070 124.804,44.763 126.042,44.763 C126.511,44.763 126.938,44.619 127.322,44.331 C127.706,44.043 127.962,43.654 128.090,43.163 L128.090,34.427 L133.114,34.427 L133.114,48.827 L128.090,48.827 L128.090,47.579 C127.194,48.624 125.914,49.147 124.250,49.147 C122.671,49.147 121.434,48.672 120.538,47.723 C119.642,46.774 119.194,45.488 119.194,43.867 L119.194,34.427 L124.186,34.427 L124.186,42.683 Z"/>
</svg>