<svg 
 xmlns="http://www.w3.org/2000/svg"
 xmlns:xlink="http://www.w3.org/1999/xlink"
 width="4.022cm" height="5.786cm">
<defs>
<linearGradient id="PSgrad_0" x1="0%" x2="68.2%" y1="0%" y2="73.135%">
  <stop offset="0%" stop-color="rgb(238,117,24)" stop-opacity="0.95" />
  <stop offset="100%" stop-color="rgb(253,91,47)" stop-opacity="0.95" />
</linearGradient>

</defs>
<path fill-rule="evenodd"  fill="rgb(227, 114, 34)"
 d="M107.931,122.483 C108.090,122.595 108.337,122.698 108.673,122.791 L109.821,123.127 C111.203,123.500 112.187,123.990 112.775,124.597 C113.363,125.204 113.657,126.039 113.657,127.103 C113.657,128.410 113.158,129.404 112.159,130.085 C111.161,130.766 109.849,131.107 108.225,131.107 C106.228,131.107 104.632,130.706 103.437,129.903 L103.437,126.207 C104.016,126.674 104.735,127.056 105.593,127.355 C106.452,127.654 107.217,127.803 107.889,127.803 C108.841,127.803 109.317,127.551 109.317,127.047 C109.317,126.636 108.935,126.347 108.169,126.179 L107.189,125.927 C104.651,125.386 103.381,124.098 103.381,122.063 C103.381,120.775 103.857,119.767 104.809,119.039 C105.761,118.311 107.003,117.947 108.533,117.947 C110.251,117.947 111.716,118.320 112.929,119.067 L112.929,122.679 C111.585,121.708 110.260,121.223 108.953,121.223 C108.113,121.223 107.693,121.475 107.693,121.979 C107.693,122.203 107.773,122.371 107.931,122.483 ZM100.105,107.279 L101.953,102.519 L97.249,90.227 L101.813,90.227 L104.221,97.395 L106.573,90.227 L110.941,90.227 L104.445,107.279 L100.105,107.279 ZM102.598,73.735 C101.814,74.650 100.694,75.107 99.238,75.107 C97.856,75.107 96.774,74.692 95.990,73.861 C95.206,73.030 94.814,71.906 94.814,70.487 L94.814,62.227 L99.182,62.227 L99.182,69.451 C99.182,70.664 99.723,71.271 100.806,71.271 C101.216,71.271 101.590,71.145 101.926,70.893 C102.262,70.641 102.486,70.300 102.598,69.871 L102.598,62.227 L106.994,62.227 L106.994,74.827 L102.598,74.827 L102.598,73.735 ZM91.524,73.273 C90.338,74.496 88.784,75.107 86.862,75.107 C84.958,75.107 83.408,74.496 82.214,73.273 C81.019,72.050 80.422,70.468 80.422,68.527 C80.422,66.586 81.019,65.004 82.214,63.781 C83.408,62.558 84.958,61.947 86.862,61.947 C88.784,61.947 90.338,62.558 91.524,63.781 C92.709,65.004 93.302,66.586 93.302,68.527 C93.302,70.468 92.709,72.050 91.524,73.273 ZM88.430,66.371 C88.056,65.830 87.534,65.559 86.862,65.559 C86.208,65.559 85.695,65.830 85.322,66.371 C84.948,66.912 84.762,67.631 84.762,68.527 C84.762,69.404 84.948,70.114 85.322,70.655 C85.695,71.196 86.208,71.467 86.862,71.467 C87.534,71.467 88.056,71.201 88.430,70.669 C88.803,70.137 88.990,69.423 88.990,68.527 C88.990,67.631 88.803,66.912 88.430,66.371 ZM77.481,15.663 C78.788,15.663 80.001,15.327 81.121,14.655 L81.121,17.987 C80.113,18.734 78.666,19.107 76.781,19.107 C74.746,19.107 73.108,18.528 71.867,17.371 C70.626,16.214 70.005,14.627 70.005,12.611 C70.005,10.651 70.584,9.050 71.741,7.809 C72.898,6.568 74.354,5.947 76.109,5.947 C78.013,5.947 79.474,6.516 80.491,7.655 C81.508,8.794 82.017,10.324 82.017,12.247 L82.017,13.535 L74.261,13.535 C74.597,14.954 75.670,15.663 77.481,15.663 ZM78.097,11.071 C78.041,10.530 77.854,10.096 77.537,9.769 C77.220,9.442 76.800,9.279 76.277,9.279 C75.288,9.279 74.634,9.876 74.317,11.071 L78.097,11.071 ZM70.930,38.567 L70.930,46.827 L66.562,46.827 L66.562,39.631 C66.562,39.090 66.422,38.656 66.142,38.329 C65.862,38.002 65.451,37.839 64.910,37.839 C64.462,37.839 64.074,37.960 63.748,38.203 C63.421,38.446 63.202,38.782 63.090,39.211 L63.090,46.827 L58.694,46.827 L58.694,28.627 L63.090,28.627 L63.090,35.319 C63.911,34.404 65.040,33.947 66.478,33.947 C67.859,33.947 68.946,34.362 69.740,35.193 C70.533,36.024 70.930,37.148 70.930,38.567 ZM64.153,11.631 C64.153,11.090 64.013,10.656 63.733,10.329 C63.453,10.002 63.042,9.839 62.501,9.839 C62.053,9.839 61.666,9.960 61.339,10.203 C61.012,10.446 60.793,10.782 60.681,11.211 L60.681,18.827 L56.285,18.827 L56.285,0.627 L60.681,0.627 L60.681,7.319 C61.502,6.404 62.632,5.947 64.069,5.947 C65.450,5.947 66.538,6.362 67.331,7.193 C68.124,8.024 68.521,9.148 68.521,10.567 L68.521,18.827 L64.153,18.827 L64.153,11.631 ZM52.338,18.827 L47.970,18.827 L47.970,9.643 L45.786,9.643 L45.786,6.227 L47.970,6.227 L47.970,2.755 L52.338,2.755 L52.338,6.227 L54.802,6.227 L54.802,9.643 L52.338,9.643 L52.338,18.827 ZM46.682,46.827 L42.286,46.827 L42.286,28.627 L46.682,28.627 L46.682,46.827 ZM49.021,63.655 C50.038,64.794 50.547,66.324 50.547,68.247 L50.547,69.535 L42.791,69.535 C43.127,70.954 44.200,71.663 46.011,71.663 C47.317,71.663 48.531,71.327 49.651,70.655 L49.651,73.987 C48.643,74.734 47.196,75.107 45.311,75.107 C43.276,75.107 41.638,74.528 40.397,73.371 C39.155,72.214 38.535,70.627 38.535,68.611 C38.535,66.651 39.113,65.050 40.271,63.809 C41.428,62.568 42.884,61.947 44.639,61.947 C46.543,61.947 48.003,62.516 49.021,63.655 ZM42.847,67.071 L46.627,67.071 C46.571,66.530 46.384,66.096 46.067,65.769 C45.749,65.442 45.329,65.279 44.807,65.279 C43.817,65.279 43.164,65.876 42.847,67.071 ZM35.931,46.183 C35.707,46.407 35.315,46.608 34.755,46.785 C34.195,46.962 33.597,47.051 32.963,47.051 C31.656,47.051 30.559,46.692 29.673,45.973 C28.786,45.254 28.343,44.260 28.343,42.991 C28.343,41.796 28.805,40.830 29.729,40.093 C30.653,39.356 31.805,38.987 33.187,38.987 C34.363,38.987 35.277,39.220 35.931,39.687 L35.931,39.239 C35.931,38.735 35.702,38.329 35.245,38.021 C34.787,37.713 34.120,37.559 33.243,37.559 C31.973,37.559 30.825,37.858 29.799,38.455 L29.799,34.927 C31.012,34.274 32.515,33.947 34.307,33.947 C36.173,33.947 37.615,34.381 38.633,35.249 C39.650,36.117 40.159,37.382 40.159,39.043 L40.159,46.827 L35.931,46.827 L35.931,46.183 ZM35.931,42.571 C35.632,41.992 35.044,41.703 34.167,41.703 C33.681,41.703 33.271,41.806 32.935,42.011 C32.599,42.216 32.431,42.515 32.431,42.907 C32.431,43.318 32.599,43.626 32.935,43.831 C33.271,44.036 33.681,44.139 34.167,44.139 C35.025,44.139 35.613,43.859 35.931,43.299 L35.931,42.571 ZM37.106,18.827 L32.738,18.827 L32.738,9.643 L30.554,9.643 L30.554,6.227 L32.738,6.227 L32.738,2.755 L37.106,2.755 L37.106,6.227 L39.570,6.227 L39.570,9.643 L37.106,9.643 L37.106,18.827 ZM25.178,15.663 C26.485,15.663 27.698,15.327 28.818,14.655 L28.818,17.987 C27.810,18.734 26.364,19.107 24.478,19.107 C22.444,19.107 20.806,18.528 19.564,17.371 C18.323,16.214 17.702,14.627 17.702,12.611 C17.702,10.651 18.281,9.050 19.438,7.809 C20.596,6.568 22.052,5.947 23.806,5.947 C25.710,5.947 27.171,6.516 28.188,7.655 C29.206,8.794 29.714,10.324 29.714,12.247 L29.714,13.535 L21.958,13.535 C22.294,14.954 23.368,15.663 25.178,15.663 ZM25.794,11.071 C25.738,10.530 25.552,10.096 25.234,9.769 C24.917,9.442 24.497,9.279 23.974,9.279 C22.985,9.279 22.332,9.876 22.014,11.071 L25.794,11.071 ZM25.865,35.655 C26.882,36.794 27.391,38.324 27.391,40.247 L27.391,41.535 L19.635,41.535 C19.971,42.954 21.044,43.663 22.855,43.663 C24.161,43.663 25.375,43.327 26.495,42.655 L26.495,45.987 C25.487,46.734 24.040,47.107 22.155,47.107 C20.120,47.107 18.482,46.528 17.241,45.371 C15.999,44.214 15.379,42.627 15.379,40.611 C15.379,38.651 15.957,37.050 17.115,35.809 C18.272,34.568 19.728,33.947 21.483,33.947 C23.387,33.947 24.847,34.516 25.865,35.655 ZM19.691,39.071 L23.471,39.071 C23.415,38.530 23.228,38.096 22.911,37.769 C22.593,37.442 22.173,37.279 21.651,37.279 C20.661,37.279 20.008,37.876 19.691,39.071 ZM3.479,16.657 C1.892,15.024 1.099,12.900 1.099,10.287 C1.099,7.599 1.943,5.438 3.633,3.805 C5.322,2.172 7.539,1.355 10.283,1.355 C12.224,1.355 13.885,1.803 15.267,2.699 L15.267,7.067 C13.829,6.022 12.168,5.499 10.283,5.499 C8.901,5.499 7.777,5.928 6.909,6.787 C6.041,7.646 5.607,8.812 5.607,10.287 C5.607,11.743 6.008,12.910 6.811,13.787 C7.613,14.664 8.668,15.103 9.975,15.103 C10.908,15.103 11.645,14.898 12.187,14.487 L12.187,12.807 L9.695,12.807 L9.695,9.223 L16.163,9.223 L16.163,16.811 C14.501,18.342 12.392,19.107 9.835,19.107 C7.184,19.107 5.065,18.290 3.479,16.657 ZM2.835,63.739 C4.067,62.544 5.644,61.947 7.567,61.947 C8.985,61.947 10.115,62.246 10.955,62.843 L10.955,66.539 C10.133,65.942 9.228,65.643 8.239,65.643 C7.399,65.643 6.703,65.895 6.153,66.399 C5.602,66.903 5.327,67.612 5.327,68.527 C5.327,69.442 5.602,70.151 6.153,70.655 C6.703,71.159 7.399,71.411 8.239,71.411 C9.228,71.411 10.133,71.112 10.955,70.515 L10.955,74.211 C10.115,74.808 8.985,75.107 7.567,75.107 C5.644,75.107 4.067,74.510 2.835,73.315 C1.603,72.120 0.987,70.524 0.987,68.527 C0.987,66.530 1.603,64.934 2.835,63.739 ZM3.115,114.755 L7.483,114.755 L7.483,118.227 L9.947,118.227 L9.947,121.643 L7.483,121.643 L7.483,130.827 L3.115,130.827 L3.115,121.643 L0.931,121.643 L0.931,118.227 L3.115,118.227 L3.115,114.755 ZM5.243,146.227 L7.651,153.395 L10.003,146.227 L14.371,146.227 L7.875,163.279 L3.535,163.279 L5.383,158.519 L0.679,146.227 L5.243,146.227 ZM16.163,147.781 C17.357,146.558 18.907,145.947 20.811,145.947 C22.733,145.947 24.287,146.558 25.473,147.781 C26.658,149.004 27.251,150.586 27.251,152.527 C27.251,154.468 26.658,156.050 25.473,157.273 C24.287,158.496 22.733,159.107 20.811,159.107 C18.907,159.107 17.357,158.496 16.163,157.273 C14.968,156.050 14.371,154.468 14.371,152.527 C14.371,150.586 14.968,149.004 16.163,147.781 ZM19.271,154.655 C19.644,155.196 20.157,155.467 20.811,155.467 C21.483,155.467 22.005,155.201 22.379,154.669 C22.752,154.137 22.939,153.423 22.939,152.527 C22.939,151.631 22.752,150.912 22.379,150.371 C22.005,149.830 21.483,149.559 20.811,149.559 C20.157,149.559 19.644,149.830 19.271,150.371 C18.897,150.912 18.711,151.631 18.711,152.527 C18.711,153.404 18.897,154.114 19.271,154.655 ZM40.467,96.247 L40.467,97.535 L32.711,97.535 C33.047,98.954 34.120,99.663 35.931,99.663 C37.237,99.663 38.451,99.327 39.571,98.655 L39.571,101.987 C38.563,102.734 37.116,103.107 35.231,103.107 C33.196,103.107 31.558,102.528 30.317,101.371 C29.075,100.214 28.455,98.627 28.455,96.611 C28.455,94.651 29.033,93.050 30.191,91.809 C31.348,90.568 32.804,89.947 34.559,89.947 C36.463,89.947 37.923,90.516 38.941,91.655 C39.958,92.794 40.467,94.324 40.467,96.247 ZM35.987,93.769 C35.669,93.442 35.249,93.279 34.727,93.279 C33.737,93.279 33.084,93.876 32.767,95.071 L36.547,95.071 C36.491,94.530 36.304,94.096 35.987,93.769 ZM31.871,69.451 L34.223,62.227 L38.535,62.227 L33.719,74.827 L29.771,74.827 L24.983,62.227 L29.463,62.227 L31.871,69.451 ZM32.627,127.663 C33.933,127.663 35.147,127.327 36.267,126.655 L36.267,129.987 C35.259,130.734 33.812,131.107 31.927,131.107 C29.892,131.107 28.254,130.528 27.013,129.371 C25.771,128.214 25.151,126.627 25.151,124.611 C25.151,122.651 25.729,121.050 26.887,119.809 C28.044,118.568 29.500,117.947 31.255,117.947 C33.159,117.947 34.619,118.516 35.637,119.655 C36.654,120.794 37.163,122.324 37.163,124.247 L37.163,125.535 L29.407,125.535 C29.743,126.954 30.816,127.663 32.627,127.663 ZM33.243,123.071 C33.187,122.530 33.000,122.096 32.683,121.769 C32.365,121.442 31.945,121.279 31.423,121.279 C30.433,121.279 29.780,121.876 29.463,123.071 L33.243,123.071 ZM27.391,96.247 L27.391,97.535 L19.635,97.535 C19.971,98.954 21.044,99.663 22.855,99.663 C24.161,99.663 25.375,99.327 26.495,98.655 L26.495,101.987 C25.487,102.734 24.040,103.107 22.155,103.107 C20.120,103.107 18.482,102.528 17.241,101.371 C15.999,100.214 15.379,98.627 15.379,96.611 C15.379,94.651 15.957,93.050 17.115,91.809 C18.272,90.568 19.728,89.947 21.483,89.947 C23.387,89.947 24.847,90.516 25.865,91.655 C26.882,92.794 27.391,94.324 27.391,96.247 ZM22.911,93.769 C22.593,93.442 22.173,93.279 21.651,93.279 C20.661,93.279 20.008,93.876 19.691,95.071 L23.471,95.071 C23.415,94.530 23.228,94.096 22.911,93.769 ZM11.431,130.827 L11.431,112.627 L15.827,112.627 L15.827,119.319 C16.648,118.404 17.777,117.947 19.215,117.947 C20.596,117.947 21.683,118.362 22.477,119.193 C23.270,120.024 23.667,121.148 23.667,122.567 L23.667,130.827 L19.299,130.827 L19.299,123.631 C19.299,123.090 19.159,122.656 18.879,122.329 C18.599,122.002 18.188,121.839 17.647,121.839 C17.199,121.839 16.811,121.960 16.485,122.203 C16.158,122.446 15.939,122.782 15.827,123.211 L15.827,130.827 L11.431,130.827 ZM1.659,102.827 L1.659,90.227 L6.055,90.227 L6.055,91.319 C6.876,90.404 8.005,89.947 9.443,89.947 C10.824,89.947 11.911,90.362 12.705,91.193 C13.498,92.024 13.895,93.148 13.895,94.567 L13.895,102.827 L9.527,102.827 L9.527,95.631 C9.527,95.090 9.387,94.656 9.107,94.329 C8.827,94.002 8.416,93.839 7.875,93.839 C7.427,93.839 7.039,93.960 6.713,94.203 C6.386,94.446 6.167,94.782 6.055,95.211 L6.055,102.827 L1.659,102.827 ZM23.149,63.781 C24.334,65.004 24.927,66.586 24.927,68.527 C24.927,70.468 24.334,72.050 23.149,73.273 C21.963,74.496 20.409,75.107 18.487,75.107 C16.583,75.107 15.033,74.496 13.839,73.273 C12.644,72.050 12.047,70.468 12.047,68.527 C12.047,66.586 12.644,65.004 13.839,63.781 C15.033,62.558 16.583,61.947 18.487,61.947 C20.409,61.947 21.963,62.558 23.149,63.781 ZM16.387,68.527 C16.387,69.404 16.573,70.114 16.947,70.655 C17.320,71.196 17.833,71.467 18.487,71.467 C19.159,71.467 19.681,71.201 20.055,70.669 C20.428,70.137 20.615,69.423 20.615,68.527 C20.615,67.631 20.428,66.912 20.055,66.371 C19.681,65.830 19.159,65.559 18.487,65.559 C17.833,65.559 17.320,65.830 16.947,66.371 C16.573,66.912 16.387,67.631 16.387,68.527 ZM1.659,46.827 L1.659,28.627 L6.055,28.627 L6.055,35.319 C6.876,34.404 8.005,33.947 9.443,33.947 C10.824,33.947 11.911,34.362 12.705,35.193 C13.498,36.024 13.895,37.148 13.895,38.567 L13.895,46.827 L9.527,46.827 L9.527,39.631 C9.527,39.090 9.387,38.656 9.107,38.329 C8.827,38.002 8.416,37.839 7.875,37.839 C7.427,37.839 7.039,37.960 6.713,38.203 C6.386,38.446 6.167,38.782 6.055,39.211 L6.055,46.827 L1.659,46.827 ZM33.131,153.451 C33.131,154.664 33.672,155.271 34.755,155.271 C35.165,155.271 35.539,155.145 35.875,154.893 C36.211,154.641 36.435,154.300 36.547,153.871 L36.547,146.227 L40.943,146.227 L40.943,158.827 L36.547,158.827 L36.547,157.735 C35.763,158.650 34.643,159.107 33.187,159.107 C31.805,159.107 30.723,158.692 29.939,157.861 C29.155,157.030 28.763,155.906 28.763,154.487 L28.763,146.227 L33.131,146.227 L33.131,153.451 ZM47.158,89.947 C47.774,89.947 48.367,90.073 48.936,90.325 C49.505,90.577 49.949,90.880 50.266,91.235 L50.266,84.627 L54.662,84.627 L54.662,102.827 L50.266,102.827 L50.266,101.819 C49.949,102.174 49.505,102.477 48.936,102.729 C48.367,102.981 47.774,103.107 47.158,103.107 C45.403,103.107 44.027,102.486 43.028,101.245 C42.029,100.004 41.530,98.431 41.530,96.527 C41.530,94.623 42.029,93.050 43.028,91.809 C44.027,90.568 45.403,89.947 47.158,89.947 ZM46.570,98.557 C46.999,99.089 47.587,99.355 48.334,99.355 C49.249,99.355 49.893,98.963 50.266,98.179 L50.266,94.847 C50.098,94.511 49.837,94.231 49.482,94.007 C49.127,93.783 48.745,93.671 48.334,93.671 C47.587,93.671 46.999,93.937 46.570,94.469 C46.141,95.001 45.926,95.687 45.926,96.527 C45.926,97.348 46.141,98.025 46.570,98.557 ZM45.702,114.755 L50.070,114.755 L50.070,118.227 L52.534,118.227 L52.534,121.643 L50.070,121.643 L50.070,130.827 L45.702,130.827 L45.702,121.643 L43.518,121.643 L43.518,118.227 L45.702,118.227 L45.702,114.755 ZM65.064,119.193 C65.857,120.024 66.254,121.148 66.254,122.567 L66.254,130.827 L61.886,130.827 L61.886,123.631 C61.886,123.090 61.746,122.656 61.466,122.329 C61.186,122.002 60.775,121.839 60.234,121.839 C59.786,121.839 59.398,121.960 59.072,122.203 C58.745,122.446 58.526,122.782 58.414,123.211 L58.414,130.827 L54.018,130.827 L54.018,112.627 L58.414,112.627 L58.414,119.319 C59.235,118.404 60.364,117.947 61.802,117.947 C63.183,117.947 64.270,118.362 65.064,119.193 ZM61.410,100.391 C61.410,101.138 61.158,101.763 60.654,102.267 C60.150,102.771 59.534,103.023 58.806,103.023 C58.096,103.023 57.490,102.771 56.986,102.267 C56.482,101.763 56.230,101.138 56.230,100.391 C56.230,99.663 56.477,99.047 56.972,98.543 C57.466,98.039 58.078,97.787 58.806,97.787 C59.534,97.787 60.150,98.034 60.654,98.529 C61.158,99.024 61.410,99.644 61.410,100.391 ZM60.626,62.171 L60.626,66.399 C60.122,66.138 59.516,66.007 58.806,66.007 C57.556,66.007 56.809,66.483 56.566,67.435 L56.566,74.827 L52.170,74.827 L52.170,62.227 L56.566,62.227 L56.566,63.347 C57.257,62.414 58.209,61.947 59.422,61.947 C59.964,61.947 60.365,62.022 60.626,62.171 ZM54.746,30.755 L54.746,34.227 L57.210,34.227 L57.210,37.643 L54.746,37.643 L54.746,46.827 L50.378,46.827 L50.378,37.643 L48.194,37.643 L48.194,34.227 L50.378,34.227 L50.378,30.755 L54.746,30.755 ZM53.991,153.059 L55.895,146.227 L58.695,146.227 L60.571,153.059 L62.587,146.227 L66.787,146.227 L62.727,158.827 L59.003,158.827 L57.211,152.443 L55.419,158.827 L51.695,158.827 L47.635,146.227 L52.003,146.227 L53.991,153.059 ZM68.229,152.093 C69.153,151.356 70.305,150.987 71.687,150.987 C72.863,150.987 73.777,151.220 74.431,151.687 L74.431,151.239 C74.431,150.735 74.202,150.329 73.745,150.021 C73.287,149.713 72.620,149.559 71.743,149.559 C70.473,149.559 69.325,149.858 68.299,150.455 L68.299,146.927 C69.512,146.274 71.015,145.947 72.807,145.947 C74.673,145.947 76.115,146.381 77.133,147.249 C78.150,148.117 78.659,149.382 78.659,151.043 L78.659,158.827 L74.431,158.827 L74.431,158.183 C74.207,158.407 73.815,158.608 73.255,158.785 C72.695,158.962 72.097,159.051 71.463,159.051 C70.156,159.051 69.059,158.692 68.173,157.973 C67.286,157.254 66.843,156.260 66.843,154.991 C66.843,153.796 67.305,152.830 68.229,152.093 ZM71.435,155.831 C71.771,156.036 72.181,156.139 72.667,156.139 C73.525,156.139 74.113,155.859 74.431,155.299 L74.431,154.571 C74.132,153.992 73.544,153.703 72.667,153.703 C72.181,153.703 71.771,153.806 71.435,154.011 C71.099,154.216 70.931,154.515 70.931,154.907 C70.931,155.318 71.099,155.626 71.435,155.831 ZM71.294,62.227 L73.702,69.395 L76.054,62.227 L80.422,62.227 L73.926,79.279 L69.586,79.279 L71.434,74.519 L66.730,62.227 L71.294,62.227 ZM72.806,130.827 L68.410,130.827 L68.410,118.227 L72.806,118.227 L72.806,130.827 ZM68.858,113.089 C69.343,112.650 69.931,112.431 70.622,112.431 C71.312,112.431 71.900,112.650 72.386,113.089 C72.871,113.528 73.114,114.102 73.114,114.811 C73.114,115.502 72.871,116.066 72.386,116.505 C71.900,116.944 71.312,117.163 70.622,117.163 C69.931,117.163 69.343,116.944 68.858,116.505 C68.372,116.066 68.130,115.502 68.130,114.811 C68.130,114.102 68.372,113.528 68.858,113.089 ZM82.158,98.011 C82.158,99.560 81.658,100.750 80.660,101.581 C79.661,102.412 78.256,102.827 76.446,102.827 L68.550,102.827 L68.550,85.635 L75.914,85.635 C77.724,85.635 79.134,86.036 80.142,86.839 C81.150,87.642 81.654,88.799 81.654,90.311 C81.654,91.207 81.434,91.977 80.996,92.621 C80.557,93.265 80.011,93.708 79.358,93.951 C80.179,94.212 80.851,94.716 81.374,95.463 C81.896,96.210 82.158,97.059 82.158,98.011 ZM75.410,89.331 L72.834,89.331 L72.834,92.439 L75.410,92.439 C76.754,92.439 77.426,91.916 77.426,90.871 C77.426,89.844 76.754,89.331 75.410,89.331 ZM77.300,96.247 C76.954,95.948 76.474,95.799 75.858,95.799 L72.834,95.799 L72.834,99.131 L75.858,99.131 C76.474,99.131 76.954,98.982 77.300,98.683 C77.645,98.384 77.818,97.983 77.818,97.479 C77.818,96.956 77.645,96.546 77.300,96.247 ZM75.046,130.827 L75.046,118.227 L79.442,118.227 L79.442,119.319 C80.263,118.404 81.392,117.947 82.830,117.947 C84.211,117.947 85.298,118.362 86.092,119.193 C86.885,120.024 87.282,121.148 87.282,122.567 L87.282,130.827 L82.914,130.827 L82.914,123.631 C82.914,123.090 82.774,122.656 82.494,122.329 C82.214,122.002 81.803,121.839 81.262,121.839 C80.814,121.839 80.426,121.960 80.100,122.203 C79.773,122.446 79.554,122.782 79.442,123.211 L79.442,130.827 L75.046,130.827 ZM85.183,147.319 C86.004,146.404 87.133,145.947 88.571,145.947 C89.952,145.947 91.039,146.362 91.833,147.193 C92.626,148.024 93.023,149.148 93.023,150.567 L93.023,158.827 L88.655,158.827 L88.655,151.631 C88.655,151.090 88.515,150.656 88.235,150.329 C87.955,150.002 87.544,149.839 87.003,149.839 C86.555,149.839 86.167,149.960 85.841,150.203 C85.514,150.446 85.295,150.782 85.183,151.211 L85.183,158.827 L80.787,158.827 L80.787,146.227 L85.183,146.227 L85.183,147.319 ZM96.017,90.227 L96.017,102.827 L91.621,102.827 L91.621,101.735 C90.837,102.650 89.717,103.107 88.261,103.107 C86.880,103.107 85.797,102.692 85.013,101.861 C84.229,101.030 83.837,99.906 83.837,98.487 L83.837,90.227 L88.205,90.227 L88.205,97.451 C88.205,98.664 88.747,99.271 89.829,99.271 C90.240,99.271 90.613,99.145 90.949,98.893 C91.285,98.641 91.509,98.300 91.621,97.871 L91.621,90.227 L96.017,90.227 ZM89.773,130.463 C90.987,131.489 92.452,132.003 94.169,132.003 C95.084,132.003 95.835,131.802 96.423,131.401 C97.011,130.999 97.305,130.379 97.305,129.539 L97.305,129.119 C96.596,129.940 95.607,130.351 94.337,130.351 C92.601,130.351 91.239,129.763 90.249,128.587 C89.260,127.411 88.765,125.927 88.765,124.135 C88.765,122.343 89.260,120.864 90.249,119.697 C91.239,118.530 92.601,117.947 94.337,117.947 C95.625,117.947 96.615,118.358 97.305,119.179 L97.305,118.227 L101.645,118.227 L101.645,129.007 C101.645,131.209 100.964,132.852 99.601,133.935 C98.239,135.017 96.475,135.559 94.309,135.559 C92.387,135.559 90.875,135.204 89.773,134.495 L89.773,130.463 ZM97.305,122.483 C96.876,121.774 96.251,121.419 95.429,121.419 C94.720,121.419 94.155,121.671 93.735,122.175 C93.315,122.679 93.105,123.332 93.105,124.135 C93.105,124.938 93.315,125.591 93.735,126.095 C94.155,126.599 94.720,126.851 95.429,126.851 C96.269,126.851 96.895,126.506 97.305,125.815 L97.305,122.483 ZM96.635,142.755 L101.003,142.755 L101.003,146.227 L103.467,146.227 L103.467,149.643 L101.003,149.643 L101.003,158.827 L96.635,158.827 L96.635,149.643 L94.451,149.643 L94.451,146.227 L96.635,146.227 L96.635,142.755 ZM104.040,154.543 C104.535,154.039 105.146,153.787 105.874,153.787 C106.602,153.787 107.218,154.034 107.722,154.529 C108.226,155.024 108.478,155.644 108.478,156.391 C108.478,157.138 108.226,157.763 107.722,158.267 C107.218,158.771 106.602,159.023 105.874,159.023 C105.165,159.023 104.558,158.771 104.054,158.267 C103.550,157.763 103.298,157.138 103.298,156.391 C103.298,155.663 103.546,155.047 104.040,154.543 Z"/>
<path fill="url(#PSgrad_0)"
 d="M107.931,122.483 C108.090,122.595 108.337,122.698 108.673,122.791 L109.821,123.127 C111.203,123.500 112.187,123.990 112.775,124.597 C113.363,125.204 113.657,126.039 113.657,127.103 C113.657,128.410 113.158,129.404 112.159,130.085 C111.161,130.766 109.849,131.107 108.225,131.107 C106.228,131.107 104.632,130.706 103.437,129.903 L103.437,126.207 C104.016,126.674 104.735,127.056 105.593,127.355 C106.452,127.654 107.217,127.803 107.889,127.803 C108.841,127.803 109.317,127.551 109.317,127.047 C109.317,126.636 108.935,126.347 108.169,126.179 L107.189,125.927 C104.651,125.386 103.381,124.098 103.381,122.063 C103.381,120.775 103.857,119.767 104.809,119.039 C105.761,118.311 107.003,117.947 108.533,117.947 C110.251,117.947 111.716,118.320 112.929,119.067 L112.929,122.679 C111.585,121.708 110.260,121.223 108.953,121.223 C108.113,121.223 107.693,121.475 107.693,121.979 C107.693,122.203 107.773,122.371 107.931,122.483 ZM100.105,107.279 L101.953,102.519 L97.249,90.227 L101.813,90.227 L104.221,97.395 L106.573,90.227 L110.941,90.227 L104.445,107.279 L100.105,107.279 ZM102.598,73.735 C101.814,74.650 100.694,75.107 99.238,75.107 C97.856,75.107 96.774,74.692 95.990,73.861 C95.206,73.030 94.814,71.906 94.814,70.487 L94.814,62.227 L99.182,62.227 L99.182,69.451 C99.182,70.664 99.723,71.271 100.806,71.271 C101.216,71.271 101.590,71.145 101.926,70.893 C102.262,70.641 102.486,70.300 102.598,69.871 L102.598,62.227 L106.994,62.227 L106.994,74.827 L102.598,74.827 L102.598,73.735 ZM91.524,73.273 C90.338,74.496 88.784,75.107 86.862,75.107 C84.958,75.107 83.408,74.496 82.214,73.273 C81.019,72.050 80.422,70.468 80.422,68.527 C80.422,66.586 81.019,65.004 82.214,63.781 C83.408,62.558 84.958,61.947 86.862,61.947 C88.784,61.947 90.338,62.558 91.524,63.781 C92.709,65.004 93.302,66.586 93.302,68.527 C93.302,70.468 92.709,72.050 91.524,73.273 ZM88.430,66.371 C88.056,65.830 87.534,65.559 86.862,65.559 C86.208,65.559 85.695,65.830 85.322,66.371 C84.948,66.912 84.762,67.631 84.762,68.527 C84.762,69.404 84.948,70.114 85.322,70.655 C85.695,71.196 86.208,71.467 86.862,71.467 C87.534,71.467 88.056,71.201 88.430,70.669 C88.803,70.137 88.990,69.423 88.990,68.527 C88.990,67.631 88.803,66.912 88.430,66.371 ZM77.481,15.663 C78.788,15.663 80.001,15.327 81.121,14.655 L81.121,17.987 C80.113,18.734 78.666,19.107 76.781,19.107 C74.746,19.107 73.108,18.528 71.867,17.371 C70.626,16.214 70.005,14.627 70.005,12.611 C70.005,10.651 70.584,9.050 71.741,7.809 C72.898,6.568 74.354,5.947 76.109,5.947 C78.013,5.947 79.474,6.516 80.491,7.655 C81.508,8.794 82.017,10.324 82.017,12.247 L82.017,13.535 L74.261,13.535 C74.597,14.954 75.670,15.663 77.481,15.663 ZM78.097,11.071 C78.041,10.530 77.854,10.096 77.537,9.769 C77.220,9.442 76.800,9.279 76.277,9.279 C75.288,9.279 74.634,9.876 74.317,11.071 L78.097,11.071 ZM70.930,38.567 L70.930,46.827 L66.562,46.827 L66.562,39.631 C66.562,39.090 66.422,38.656 66.142,38.329 C65.862,38.002 65.451,37.839 64.910,37.839 C64.462,37.839 64.074,37.960 63.748,38.203 C63.421,38.446 63.202,38.782 63.090,39.211 L63.090,46.827 L58.694,46.827 L58.694,28.627 L63.090,28.627 L63.090,35.319 C63.911,34.404 65.040,33.947 66.478,33.947 C67.859,33.947 68.946,34.362 69.740,35.193 C70.533,36.024 70.930,37.148 70.930,38.567 ZM64.153,11.631 C64.153,11.090 64.013,10.656 63.733,10.329 C63.453,10.002 63.042,9.839 62.501,9.839 C62.053,9.839 61.666,9.960 61.339,10.203 C61.012,10.446 60.793,10.782 60.681,11.211 L60.681,18.827 L56.285,18.827 L56.285,0.627 L60.681,0.627 L60.681,7.319 C61.502,6.404 62.632,5.947 64.069,5.947 C65.450,5.947 66.538,6.362 67.331,7.193 C68.124,8.024 68.521,9.148 68.521,10.567 L68.521,18.827 L64.153,18.827 L64.153,11.631 ZM52.338,18.827 L47.970,18.827 L47.970,9.643 L45.786,9.643 L45.786,6.227 L47.970,6.227 L47.970,2.755 L52.338,2.755 L52.338,6.227 L54.802,6.227 L54.802,9.643 L52.338,9.643 L52.338,18.827 ZM46.682,46.827 L42.286,46.827 L42.286,28.627 L46.682,28.627 L46.682,46.827 ZM49.021,63.655 C50.038,64.794 50.547,66.324 50.547,68.247 L50.547,69.535 L42.791,69.535 C43.127,70.954 44.200,71.663 46.011,71.663 C47.317,71.663 48.531,71.327 49.651,70.655 L49.651,73.987 C48.643,74.734 47.196,75.107 45.311,75.107 C43.276,75.107 41.638,74.528 40.397,73.371 C39.155,72.214 38.535,70.627 38.535,68.611 C38.535,66.651 39.113,65.050 40.271,63.809 C41.428,62.568 42.884,61.947 44.639,61.947 C46.543,61.947 48.003,62.516 49.021,63.655 ZM42.847,67.071 L46.627,67.071 C46.571,66.530 46.384,66.096 46.067,65.769 C45.749,65.442 45.329,65.279 44.807,65.279 C43.817,65.279 43.164,65.876 42.847,67.071 ZM35.931,46.183 C35.707,46.407 35.315,46.608 34.755,46.785 C34.195,46.962 33.597,47.051 32.963,47.051 C31.656,47.051 30.559,46.692 29.673,45.973 C28.786,45.254 28.343,44.260 28.343,42.991 C28.343,41.796 28.805,40.830 29.729,40.093 C30.653,39.356 31.805,38.987 33.187,38.987 C34.363,38.987 35.277,39.220 35.931,39.687 L35.931,39.239 C35.931,38.735 35.702,38.329 35.245,38.021 C34.787,37.713 34.120,37.559 33.243,37.559 C31.973,37.559 30.825,37.858 29.799,38.455 L29.799,34.927 C31.012,34.274 32.515,33.947 34.307,33.947 C36.173,33.947 37.615,34.381 38.633,35.249 C39.650,36.117 40.159,37.382 40.159,39.043 L40.159,46.827 L35.931,46.827 L35.931,46.183 ZM35.931,42.571 C35.632,41.992 35.044,41.703 34.167,41.703 C33.681,41.703 33.271,41.806 32.935,42.011 C32.599,42.216 32.431,42.515 32.431,42.907 C32.431,43.318 32.599,43.626 32.935,43.831 C33.271,44.036 33.681,44.139 34.167,44.139 C35.025,44.139 35.613,43.859 35.931,43.299 L35.931,42.571 ZM37.106,18.827 L32.738,18.827 L32.738,9.643 L30.554,9.643 L30.554,6.227 L32.738,6.227 L32.738,2.755 L37.106,2.755 L37.106,6.227 L39.570,6.227 L39.570,9.643 L37.106,9.643 L37.106,18.827 ZM25.178,15.663 C26.485,15.663 27.698,15.327 28.818,14.655 L28.818,17.987 C27.810,18.734 26.364,19.107 24.478,19.107 C22.444,19.107 20.806,18.528 19.564,17.371 C18.323,16.214 17.702,14.627 17.702,12.611 C17.702,10.651 18.281,9.050 19.438,7.809 C20.596,6.568 22.052,5.947 23.806,5.947 C25.710,5.947 27.171,6.516 28.188,7.655 C29.206,8.794 29.714,10.324 29.714,12.247 L29.714,13.535 L21.958,13.535 C22.294,14.954 23.368,15.663 25.178,15.663 ZM25.794,11.071 C25.738,10.530 25.552,10.096 25.234,9.769 C24.917,9.442 24.497,9.279 23.974,9.279 C22.985,9.279 22.332,9.876 22.014,11.071 L25.794,11.071 ZM25.865,35.655 C26.882,36.794 27.391,38.324 27.391,40.247 L27.391,41.535 L19.635,41.535 C19.971,42.954 21.044,43.663 22.855,43.663 C24.161,43.663 25.375,43.327 26.495,42.655 L26.495,45.987 C25.487,46.734 24.040,47.107 22.155,47.107 C20.120,47.107 18.482,46.528 17.241,45.371 C15.999,44.214 15.379,42.627 15.379,40.611 C15.379,38.651 15.957,37.050 17.115,35.809 C18.272,34.568 19.728,33.947 21.483,33.947 C23.387,33.947 24.847,34.516 25.865,35.655 ZM19.691,39.071 L23.471,39.071 C23.415,38.530 23.228,38.096 22.911,37.769 C22.593,37.442 22.173,37.279 21.651,37.279 C20.661,37.279 20.008,37.876 19.691,39.071 ZM3.479,16.657 C1.892,15.024 1.099,12.900 1.099,10.287 C1.099,7.599 1.943,5.438 3.633,3.805 C5.322,2.172 7.539,1.355 10.283,1.355 C12.224,1.355 13.885,1.803 15.267,2.699 L15.267,7.067 C13.829,6.022 12.168,5.499 10.283,5.499 C8.901,5.499 7.777,5.928 6.909,6.787 C6.041,7.646 5.607,8.812 5.607,10.287 C5.607,11.743 6.008,12.910 6.811,13.787 C7.613,14.664 8.668,15.103 9.975,15.103 C10.908,15.103 11.645,14.898 12.187,14.487 L12.187,12.807 L9.695,12.807 L9.695,9.223 L16.163,9.223 L16.163,16.811 C14.501,18.342 12.392,19.107 9.835,19.107 C7.184,19.107 5.065,18.290 3.479,16.657 ZM2.835,63.739 C4.067,62.544 5.644,61.947 7.567,61.947 C8.985,61.947 10.115,62.246 10.955,62.843 L10.955,66.539 C10.133,65.942 9.228,65.643 8.239,65.643 C7.399,65.643 6.703,65.895 6.153,66.399 C5.602,66.903 5.327,67.612 5.327,68.527 C5.327,69.442 5.602,70.151 6.153,70.655 C6.703,71.159 7.399,71.411 8.239,71.411 C9.228,71.411 10.133,71.112 10.955,70.515 L10.955,74.211 C10.115,74.808 8.985,75.107 7.567,75.107 C5.644,75.107 4.067,74.510 2.835,73.315 C1.603,72.120 0.987,70.524 0.987,68.527 C0.987,66.530 1.603,64.934 2.835,63.739 ZM3.115,114.755 L7.483,114.755 L7.483,118.227 L9.947,118.227 L9.947,121.643 L7.483,121.643 L7.483,130.827 L3.115,130.827 L3.115,121.643 L0.931,121.643 L0.931,118.227 L3.115,118.227 L3.115,114.755 ZM5.243,146.227 L7.651,153.395 L10.003,146.227 L14.371,146.227 L7.875,163.279 L3.535,163.279 L5.383,158.519 L0.679,146.227 L5.243,146.227 ZM16.163,147.781 C17.357,146.558 18.907,145.947 20.811,145.947 C22.733,145.947 24.287,146.558 25.473,147.781 C26.658,149.004 27.251,150.586 27.251,152.527 C27.251,154.468 26.658,156.050 25.473,157.273 C24.287,158.496 22.733,159.107 20.811,159.107 C18.907,159.107 17.357,158.496 16.163,157.273 C14.968,156.050 14.371,154.468 14.371,152.527 C14.371,150.586 14.968,149.004 16.163,147.781 ZM19.271,154.655 C19.644,155.196 20.157,155.467 20.811,155.467 C21.483,155.467 22.005,155.201 22.379,154.669 C22.752,154.137 22.939,153.423 22.939,152.527 C22.939,151.631 22.752,150.912 22.379,150.371 C22.005,149.830 21.483,149.559 20.811,149.559 C20.157,149.559 19.644,149.830 19.271,150.371 C18.897,150.912 18.711,151.631 18.711,152.527 C18.711,153.404 18.897,154.114 19.271,154.655 ZM40.467,96.247 L40.467,97.535 L32.711,97.535 C33.047,98.954 34.120,99.663 35.931,99.663 C37.237,99.663 38.451,99.327 39.571,98.655 L39.571,101.987 C38.563,102.734 37.116,103.107 35.231,103.107 C33.196,103.107 31.558,102.528 30.317,101.371 C29.075,100.214 28.455,98.627 28.455,96.611 C28.455,94.651 29.033,93.050 30.191,91.809 C31.348,90.568 32.804,89.947 34.559,89.947 C36.463,89.947 37.923,90.516 38.941,91.655 C39.958,92.794 40.467,94.324 40.467,96.247 ZM35.987,93.769 C35.669,93.442 35.249,93.279 34.727,93.279 C33.737,93.279 33.084,93.876 32.767,95.071 L36.547,95.071 C36.491,94.530 36.304,94.096 35.987,93.769 ZM31.871,69.451 L34.223,62.227 L38.535,62.227 L33.719,74.827 L29.771,74.827 L24.983,62.227 L29.463,62.227 L31.871,69.451 ZM32.627,127.663 C33.933,127.663 35.147,127.327 36.267,126.655 L36.267,129.987 C35.259,130.734 33.812,131.107 31.927,131.107 C29.892,131.107 28.254,130.528 27.013,129.371 C25.771,128.214 25.151,126.627 25.151,124.611 C25.151,122.651 25.729,121.050 26.887,119.809 C28.044,118.568 29.500,117.947 31.255,117.947 C33.159,117.947 34.619,118.516 35.637,119.655 C36.654,120.794 37.163,122.324 37.163,124.247 L37.163,125.535 L29.407,125.535 C29.743,126.954 30.816,127.663 32.627,127.663 ZM33.243,123.071 C33.187,122.530 33.000,122.096 32.683,121.769 C32.365,121.442 31.945,121.279 31.423,121.279 C30.433,121.279 29.780,121.876 29.463,123.071 L33.243,123.071 ZM27.391,96.247 L27.391,97.535 L19.635,97.535 C19.971,98.954 21.044,99.663 22.855,99.663 C24.161,99.663 25.375,99.327 26.495,98.655 L26.495,101.987 C25.487,102.734 24.040,103.107 22.155,103.107 C20.120,103.107 18.482,102.528 17.241,101.371 C15.999,100.214 15.379,98.627 15.379,96.611 C15.379,94.651 15.957,93.050 17.115,91.809 C18.272,90.568 19.728,89.947 21.483,89.947 C23.387,89.947 24.847,90.516 25.865,91.655 C26.882,92.794 27.391,94.324 27.391,96.247 ZM22.911,93.769 C22.593,93.442 22.173,93.279 21.651,93.279 C20.661,93.279 20.008,93.876 19.691,95.071 L23.471,95.071 C23.415,94.530 23.228,94.096 22.911,93.769 ZM11.431,130.827 L11.431,112.627 L15.827,112.627 L15.827,119.319 C16.648,118.404 17.777,117.947 19.215,117.947 C20.596,117.947 21.683,118.362 22.477,119.193 C23.270,120.024 23.667,121.148 23.667,122.567 L23.667,130.827 L19.299,130.827 L19.299,123.631 C19.299,123.090 19.159,122.656 18.879,122.329 C18.599,122.002 18.188,121.839 17.647,121.839 C17.199,121.839 16.811,121.960 16.485,122.203 C16.158,122.446 15.939,122.782 15.827,123.211 L15.827,130.827 L11.431,130.827 ZM1.659,102.827 L1.659,90.227 L6.055,90.227 L6.055,91.319 C6.876,90.404 8.005,89.947 9.443,89.947 C10.824,89.947 11.911,90.362 12.705,91.193 C13.498,92.024 13.895,93.148 13.895,94.567 L13.895,102.827 L9.527,102.827 L9.527,95.631 C9.527,95.090 9.387,94.656 9.107,94.329 C8.827,94.002 8.416,93.839 7.875,93.839 C7.427,93.839 7.039,93.960 6.713,94.203 C6.386,94.446 6.167,94.782 6.055,95.211 L6.055,102.827 L1.659,102.827 ZM23.149,63.781 C24.334,65.004 24.927,66.586 24.927,68.527 C24.927,70.468 24.334,72.050 23.149,73.273 C21.963,74.496 20.409,75.107 18.487,75.107 C16.583,75.107 15.033,74.496 13.839,73.273 C12.644,72.050 12.047,70.468 12.047,68.527 C12.047,66.586 12.644,65.004 13.839,63.781 C15.033,62.558 16.583,61.947 18.487,61.947 C20.409,61.947 21.963,62.558 23.149,63.781 ZM16.387,68.527 C16.387,69.404 16.573,70.114 16.947,70.655 C17.320,71.196 17.833,71.467 18.487,71.467 C19.159,71.467 19.681,71.201 20.055,70.669 C20.428,70.137 20.615,69.423 20.615,68.527 C20.615,67.631 20.428,66.912 20.055,66.371 C19.681,65.830 19.159,65.559 18.487,65.559 C17.833,65.559 17.320,65.830 16.947,66.371 C16.573,66.912 16.387,67.631 16.387,68.527 ZM1.659,46.827 L1.659,28.627 L6.055,28.627 L6.055,35.319 C6.876,34.404 8.005,33.947 9.443,33.947 C10.824,33.947 11.911,34.362 12.705,35.193 C13.498,36.024 13.895,37.148 13.895,38.567 L13.895,46.827 L9.527,46.827 L9.527,39.631 C9.527,39.090 9.387,38.656 9.107,38.329 C8.827,38.002 8.416,37.839 7.875,37.839 C7.427,37.839 7.039,37.960 6.713,38.203 C6.386,38.446 6.167,38.782 6.055,39.211 L6.055,46.827 L1.659,46.827 ZM33.131,153.451 C33.131,154.664 33.672,155.271 34.755,155.271 C35.165,155.271 35.539,155.145 35.875,154.893 C36.211,154.641 36.435,154.300 36.547,153.871 L36.547,146.227 L40.943,146.227 L40.943,158.827 L36.547,158.827 L36.547,157.735 C35.763,158.650 34.643,159.107 33.187,159.107 C31.805,159.107 30.723,158.692 29.939,157.861 C29.155,157.030 28.763,155.906 28.763,154.487 L28.763,146.227 L33.131,146.227 L33.131,153.451 ZM47.158,89.947 C47.774,89.947 48.367,90.073 48.936,90.325 C49.505,90.577 49.949,90.880 50.266,91.235 L50.266,84.627 L54.662,84.627 L54.662,102.827 L50.266,102.827 L50.266,101.819 C49.949,102.174 49.505,102.477 48.936,102.729 C48.367,102.981 47.774,103.107 47.158,103.107 C45.403,103.107 44.027,102.486 43.028,101.245 C42.029,100.004 41.530,98.431 41.530,96.527 C41.530,94.623 42.029,93.050 43.028,91.809 C44.027,90.568 45.403,89.947 47.158,89.947 ZM46.570,98.557 C46.999,99.089 47.587,99.355 48.334,99.355 C49.249,99.355 49.893,98.963 50.266,98.179 L50.266,94.847 C50.098,94.511 49.837,94.231 49.482,94.007 C49.127,93.783 48.745,93.671 48.334,93.671 C47.587,93.671 46.999,93.937 46.570,94.469 C46.141,95.001 45.926,95.687 45.926,96.527 C45.926,97.348 46.141,98.025 46.570,98.557 ZM45.702,114.755 L50.070,114.755 L50.070,118.227 L52.534,118.227 L52.534,121.643 L50.070,121.643 L50.070,130.827 L45.702,130.827 L45.702,121.643 L43.518,121.643 L43.518,118.227 L45.702,118.227 L45.702,114.755 ZM65.064,119.193 C65.857,120.024 66.254,121.148 66.254,122.567 L66.254,130.827 L61.886,130.827 L61.886,123.631 C61.886,123.090 61.746,122.656 61.466,122.329 C61.186,122.002 60.775,121.839 60.234,121.839 C59.786,121.839 59.398,121.960 59.072,122.203 C58.745,122.446 58.526,122.782 58.414,123.211 L58.414,130.827 L54.018,130.827 L54.018,112.627 L58.414,112.627 L58.414,119.319 C59.235,118.404 60.364,117.947 61.802,117.947 C63.183,117.947 64.270,118.362 65.064,119.193 ZM61.410,100.391 C61.410,101.138 61.158,101.763 60.654,102.267 C60.150,102.771 59.534,103.023 58.806,103.023 C58.096,103.023 57.490,102.771 56.986,102.267 C56.482,101.763 56.230,101.138 56.230,100.391 C56.230,99.663 56.477,99.047 56.972,98.543 C57.466,98.039 58.078,97.787 58.806,97.787 C59.534,97.787 60.150,98.034 60.654,98.529 C61.158,99.024 61.410,99.644 61.410,100.391 ZM60.626,62.171 L60.626,66.399 C60.122,66.138 59.516,66.007 58.806,66.007 C57.556,66.007 56.809,66.483 56.566,67.435 L56.566,74.827 L52.170,74.827 L52.170,62.227 L56.566,62.227 L56.566,63.347 C57.257,62.414 58.209,61.947 59.422,61.947 C59.964,61.947 60.365,62.022 60.626,62.171 ZM54.746,30.755 L54.746,34.227 L57.210,34.227 L57.210,37.643 L54.746,37.643 L54.746,46.827 L50.378,46.827 L50.378,37.643 L48.194,37.643 L48.194,34.227 L50.378,34.227 L50.378,30.755 L54.746,30.755 ZM53.991,153.059 L55.895,146.227 L58.695,146.227 L60.571,153.059 L62.587,146.227 L66.787,146.227 L62.727,158.827 L59.003,158.827 L57.211,152.443 L55.419,158.827 L51.695,158.827 L47.635,146.227 L52.003,146.227 L53.991,153.059 ZM68.229,152.093 C69.153,151.356 70.305,150.987 71.687,150.987 C72.863,150.987 73.777,151.220 74.431,151.687 L74.431,151.239 C74.431,150.735 74.202,150.329 73.745,150.021 C73.287,149.713 72.620,149.559 71.743,149.559 C70.473,149.559 69.325,149.858 68.299,150.455 L68.299,146.927 C69.512,146.274 71.015,145.947 72.807,145.947 C74.673,145.947 76.115,146.381 77.133,147.249 C78.150,148.117 78.659,149.382 78.659,151.043 L78.659,158.827 L74.431,158.827 L74.431,158.183 C74.207,158.407 73.815,158.608 73.255,158.785 C72.695,158.962 72.097,159.051 71.463,159.051 C70.156,159.051 69.059,158.692 68.173,157.973 C67.286,157.254 66.843,156.260 66.843,154.991 C66.843,153.796 67.305,152.830 68.229,152.093 ZM71.435,155.831 C71.771,156.036 72.181,156.139 72.667,156.139 C73.525,156.139 74.113,155.859 74.431,155.299 L74.431,154.571 C74.132,153.992 73.544,153.703 72.667,153.703 C72.181,153.703 71.771,153.806 71.435,154.011 C71.099,154.216 70.931,154.515 70.931,154.907 C70.931,155.318 71.099,155.626 71.435,155.831 ZM71.294,62.227 L73.702,69.395 L76.054,62.227 L80.422,62.227 L73.926,79.279 L69.586,79.279 L71.434,74.519 L66.730,62.227 L71.294,62.227 ZM72.806,130.827 L68.410,130.827 L68.410,118.227 L72.806,118.227 L72.806,130.827 ZM68.858,113.089 C69.343,112.650 69.931,112.431 70.622,112.431 C71.312,112.431 71.900,112.650 72.386,113.089 C72.871,113.528 73.114,114.102 73.114,114.811 C73.114,115.502 72.871,116.066 72.386,116.505 C71.900,116.944 71.312,117.163 70.622,117.163 C69.931,117.163 69.343,116.944 68.858,116.505 C68.372,116.066 68.130,115.502 68.130,114.811 C68.130,114.102 68.372,113.528 68.858,113.089 ZM82.158,98.011 C82.158,99.560 81.658,100.750 80.660,101.581 C79.661,102.412 78.256,102.827 76.446,102.827 L68.550,102.827 L68.550,85.635 L75.914,85.635 C77.724,85.635 79.134,86.036 80.142,86.839 C81.150,87.642 81.654,88.799 81.654,90.311 C81.654,91.207 81.434,91.977 80.996,92.621 C80.557,93.265 80.011,93.708 79.358,93.951 C80.179,94.212 80.851,94.716 81.374,95.463 C81.896,96.210 82.158,97.059 82.158,98.011 ZM75.410,89.331 L72.834,89.331 L72.834,92.439 L75.410,92.439 C76.754,92.439 77.426,91.916 77.426,90.871 C77.426,89.844 76.754,89.331 75.410,89.331 ZM77.300,96.247 C76.954,95.948 76.474,95.799 75.858,95.799 L72.834,95.799 L72.834,99.131 L75.858,99.131 C76.474,99.131 76.954,98.982 77.300,98.683 C77.645,98.384 77.818,97.983 77.818,97.479 C77.818,96.956 77.645,96.546 77.300,96.247 ZM75.046,130.827 L75.046,118.227 L79.442,118.227 L79.442,119.319 C80.263,118.404 81.392,117.947 82.830,117.947 C84.211,117.947 85.298,118.362 86.092,119.193 C86.885,120.024 87.282,121.148 87.282,122.567 L87.282,130.827 L82.914,130.827 L82.914,123.631 C82.914,123.090 82.774,122.656 82.494,122.329 C82.214,122.002 81.803,121.839 81.262,121.839 C80.814,121.839 80.426,121.960 80.100,122.203 C79.773,122.446 79.554,122.782 79.442,123.211 L79.442,130.827 L75.046,130.827 ZM85.183,147.319 C86.004,146.404 87.133,145.947 88.571,145.947 C89.952,145.947 91.039,146.362 91.833,147.193 C92.626,148.024 93.023,149.148 93.023,150.567 L93.023,158.827 L88.655,158.827 L88.655,151.631 C88.655,151.090 88.515,150.656 88.235,150.329 C87.955,150.002 87.544,149.839 87.003,149.839 C86.555,149.839 86.167,149.960 85.841,150.203 C85.514,150.446 85.295,150.782 85.183,151.211 L85.183,158.827 L80.787,158.827 L80.787,146.227 L85.183,146.227 L85.183,147.319 ZM96.017,90.227 L96.017,102.827 L91.621,102.827 L91.621,101.735 C90.837,102.650 89.717,103.107 88.261,103.107 C86.880,103.107 85.797,102.692 85.013,101.861 C84.229,101.030 83.837,99.906 83.837,98.487 L83.837,90.227 L88.205,90.227 L88.205,97.451 C88.205,98.664 88.747,99.271 89.829,99.271 C90.240,99.271 90.613,99.145 90.949,98.893 C91.285,98.641 91.509,98.300 91.621,97.871 L91.621,90.227 L96.017,90.227 ZM89.773,130.463 C90.987,131.489 92.452,132.003 94.169,132.003 C95.084,132.003 95.835,131.802 96.423,131.401 C97.011,130.999 97.305,130.379 97.305,129.539 L97.305,129.119 C96.596,129.940 95.607,130.351 94.337,130.351 C92.601,130.351 91.239,129.763 90.249,128.587 C89.260,127.411 88.765,125.927 88.765,124.135 C88.765,122.343 89.260,120.864 90.249,119.697 C91.239,118.530 92.601,117.947 94.337,117.947 C95.625,117.947 96.615,118.358 97.305,119.179 L97.305,118.227 L101.645,118.227 L101.645,129.007 C101.645,131.209 100.964,132.852 99.601,133.935 C98.239,135.017 96.475,135.559 94.309,135.559 C92.387,135.559 90.875,135.204 89.773,134.495 L89.773,130.463 ZM97.305,122.483 C96.876,121.774 96.251,121.419 95.429,121.419 C94.720,121.419 94.155,121.671 93.735,122.175 C93.315,122.679 93.105,123.332 93.105,124.135 C93.105,124.938 93.315,125.591 93.735,126.095 C94.155,126.599 94.720,126.851 95.429,126.851 C96.269,126.851 96.895,126.506 97.305,125.815 L97.305,122.483 ZM96.635,142.755 L101.003,142.755 L101.003,146.227 L103.467,146.227 L103.467,149.643 L101.003,149.643 L101.003,158.827 L96.635,158.827 L96.635,149.643 L94.451,149.643 L94.451,146.227 L96.635,146.227 L96.635,142.755 ZM104.040,154.543 C104.535,154.039 105.146,153.787 105.874,153.787 C106.602,153.787 107.218,154.034 107.722,154.529 C108.226,155.024 108.478,155.644 108.478,156.391 C108.478,157.138 108.226,157.763 107.722,158.267 C107.218,158.771 106.602,159.023 105.874,159.023 C105.165,159.023 104.558,158.771 104.054,158.267 C103.550,157.763 103.298,157.138 103.298,156.391 C103.298,155.663 103.546,155.047 104.040,154.543 Z"/>
</svg>