<svg 
 xmlns="http://www.w3.org/2000/svg"
 xmlns:xlink="http://www.w3.org/1999/xlink"
 width="133px" height="82px">
<defs>
<linearGradient id="PSgrad_0" x1="0%" x2="64.279%" y1="0%" y2="76.604%">
  <stop offset="0%" stop-color="rgb(238,117,24)" stop-opacity="0.95" />
  <stop offset="100%" stop-color="rgb(253,91,47)" stop-opacity="0.95" />
</linearGradient>

</defs>
<path fill-rule="evenodd"  fill="rgb(227, 114, 34)"
 d="M127.329,37.851 C126.369,37.851 125.889,38.139 125.889,38.715 C125.889,38.971 125.980,39.163 126.161,39.291 C126.342,39.419 126.625,39.536 127.009,39.643 L128.321,40.027 C129.900,40.454 131.025,41.014 131.697,41.707 C132.369,42.400 132.705,43.355 132.705,44.571 C132.705,46.064 132.134,47.200 130.993,47.979 C129.852,48.758 128.353,49.147 126.497,49.147 C124.214,49.147 122.390,48.688 121.025,47.771 L121.025,43.547 C121.686,44.080 122.508,44.518 123.489,44.859 C124.470,45.200 125.345,45.371 126.113,45.371 C127.201,45.371 127.745,45.083 127.745,44.507 C127.745,44.038 127.308,43.707 126.433,43.515 L125.313,43.227 C122.412,42.608 120.961,41.136 120.961,38.811 C120.961,37.339 121.505,36.187 122.593,35.355 C123.681,34.523 125.100,34.107 126.849,34.107 C128.812,34.107 130.486,34.534 131.873,35.387 L131.873,39.515 C130.337,38.406 128.822,37.851 127.329,37.851 ZM117.603,76.827 L112.611,76.827 L112.611,66.331 L110.115,66.331 L110.115,62.427 L112.611,62.427 L112.611,58.459 L117.603,58.459 L117.603,62.427 L120.419,62.427 L120.419,66.331 L117.603,66.331 L117.603,76.827 ZM110.273,54.235 C108.076,54.235 106.348,53.829 105.089,53.019 L105.089,48.411 C106.476,49.584 108.150,50.171 110.113,50.171 C111.158,50.171 112.017,49.941 112.689,49.483 C113.361,49.024 113.697,48.315 113.697,47.355 L113.697,46.875 C112.886,47.814 111.756,48.283 110.305,48.283 C108.321,48.283 106.764,47.611 105.633,46.267 C104.502,44.923 103.937,43.227 103.937,41.179 C103.937,39.131 104.502,37.440 105.633,36.107 C106.764,34.774 108.321,34.107 110.305,34.107 C111.777,34.107 112.908,34.576 113.697,35.515 L113.697,34.427 L118.657,34.427 L118.657,46.747 C118.657,49.264 117.878,51.141 116.321,52.379 C114.764,53.616 112.748,54.235 110.273,54.235 ZM113.697,39.291 C113.206,38.480 112.492,38.075 111.553,38.075 C110.742,38.075 110.097,38.363 109.617,38.939 C109.137,39.515 108.897,40.262 108.897,41.179 C108.897,42.096 109.137,42.843 109.617,43.419 C110.097,43.995 110.742,44.283 111.553,44.283 C112.513,44.283 113.228,43.888 113.697,43.099 L113.697,39.291 ZM93.666,25.915 L95.778,20.475 L90.402,6.427 L95.618,6.427 L98.370,14.619 L101.058,6.427 L106.050,6.427 L98.626,25.915 L93.666,25.915 ZM83.650,19.579 C82.754,20.624 81.474,21.147 79.810,21.147 C78.231,21.147 76.994,20.672 76.098,19.723 C75.202,18.774 74.754,17.488 74.754,15.867 L74.754,6.427 L79.746,6.427 L79.746,14.683 C79.746,16.070 80.364,16.763 81.602,16.763 C82.071,16.763 82.498,16.619 82.882,16.331 C83.266,16.043 83.522,15.654 83.650,15.163 L83.650,6.427 L88.674,6.427 L88.674,20.827 L83.650,20.827 L83.650,19.579 ZM66.306,21.147 C65.602,21.147 64.925,21.003 64.274,20.715 C63.623,20.427 63.117,20.080 62.754,19.675 L62.754,20.827 L57.730,20.827 L57.730,0.027 L62.754,0.027 L62.754,7.579 C63.117,7.174 63.623,6.827 64.274,6.539 C64.925,6.251 65.602,6.107 66.306,6.107 C68.311,6.107 69.885,6.816 71.026,8.235 C72.167,9.654 72.738,11.451 72.738,13.627 C72.738,15.803 72.167,17.600 71.026,19.019 C69.885,20.438 68.311,21.147 66.306,21.147 ZM66.978,11.275 C66.487,10.667 65.815,10.363 64.962,10.363 C64.493,10.363 64.055,10.491 63.650,10.747 C63.245,11.003 62.946,11.323 62.754,11.707 L62.754,15.515 C63.181,16.411 63.917,16.859 64.962,16.859 C65.815,16.859 66.487,16.555 66.978,15.947 C67.469,15.339 67.714,14.566 67.714,13.627 C67.714,12.667 67.469,11.883 66.978,11.275 ZM58.434,30.459 L58.434,34.427 L61.250,34.427 L61.250,38.331 L58.434,38.331 L58.434,48.827 L53.442,48.827 L53.442,38.331 L50.946,38.331 L50.946,34.427 L53.442,34.427 L53.442,30.459 L58.434,30.459 ZM43.299,19.675 C42.936,20.080 42.429,20.427 41.779,20.715 C41.128,21.003 40.451,21.147 39.747,21.147 C37.741,21.147 36.168,20.438 35.027,19.019 C33.885,17.600 33.315,15.803 33.315,13.627 C33.315,11.451 33.885,9.654 35.027,8.235 C36.168,6.816 37.741,6.107 39.747,6.107 C40.451,6.107 41.128,6.251 41.779,6.539 C42.429,6.827 42.936,7.174 43.299,7.579 L43.299,0.027 L48.323,0.027 L48.323,20.827 L43.299,20.827 L43.299,19.675 ZM43.299,11.707 C43.107,11.323 42.808,11.003 42.403,10.747 C41.997,10.491 41.560,10.363 41.091,10.363 C40.237,10.363 39.565,10.667 39.075,11.275 C38.584,11.883 38.339,12.667 38.339,13.627 C38.339,14.566 38.584,15.339 39.075,15.947 C39.565,16.555 40.237,16.859 41.091,16.859 C42.136,16.859 42.872,16.411 43.299,15.515 L43.299,11.707 ZM41.299,36.059 C42.461,37.360 43.043,39.110 43.043,41.307 L43.043,42.779 L34.179,42.779 C34.563,44.400 35.789,45.211 37.859,45.211 C39.352,45.211 40.739,44.827 42.019,44.059 L42.019,47.867 C40.867,48.720 39.213,49.147 37.059,49.147 C34.733,49.147 32.861,48.486 31.443,47.163 C30.024,45.840 29.315,44.027 29.315,41.723 C29.315,39.483 29.976,37.654 31.299,36.235 C32.621,34.816 34.285,34.107 36.291,34.107 C38.467,34.107 40.136,34.758 41.299,36.059 ZM34.243,39.963 L38.563,39.963 C38.499,39.344 38.285,38.848 37.923,38.475 C37.560,38.102 37.080,37.915 36.483,37.915 C35.352,37.915 34.605,38.598 34.243,39.963 ZM26.307,12.603 C26.307,11.984 26.147,11.488 25.827,11.115 C25.507,10.742 25.037,10.555 24.419,10.555 C23.907,10.555 23.464,10.694 23.091,10.971 C22.717,11.248 22.467,11.632 22.339,12.123 L22.339,20.827 L17.315,20.827 L17.315,6.427 L22.339,6.427 L22.339,7.675 C23.277,6.630 24.568,6.107 26.211,6.107 C27.789,6.107 29.032,6.582 29.939,7.531 C30.845,8.480 31.299,9.766 31.299,11.387 L31.299,20.827 L26.307,20.827 L26.307,12.603 ZM9.731,20.091 C9.475,20.347 9.027,20.576 8.387,20.779 C7.747,20.981 7.064,21.083 6.339,21.083 C4.846,21.083 3.592,20.672 2.579,19.851 C1.566,19.030 1.059,17.894 1.059,16.443 C1.059,15.078 1.587,13.974 2.643,13.131 C3.699,12.288 5.016,11.867 6.595,11.867 C7.939,11.867 8.984,12.134 9.731,12.667 L9.731,12.155 C9.731,11.579 9.470,11.115 8.947,10.763 C8.424,10.411 7.662,10.235 6.659,10.235 C5.208,10.235 3.896,10.576 2.723,11.259 L2.723,7.227 C4.110,6.480 5.827,6.107 7.875,6.107 C10.008,6.107 11.656,6.603 12.819,7.595 C13.982,8.587 14.563,10.032 14.563,11.931 L14.563,20.827 L9.731,20.827 L9.731,20.091 ZM9.731,15.963 C9.390,15.302 8.718,14.971 7.715,14.971 C7.160,14.971 6.691,15.088 6.307,15.323 C5.923,15.558 5.731,15.899 5.731,16.347 C5.731,16.816 5.923,17.168 6.307,17.403 C6.691,17.638 7.160,17.755 7.715,17.755 C8.696,17.755 9.368,17.435 9.731,16.795 L9.731,15.963 ZM3.491,30.459 L8.483,30.459 L8.483,34.427 L11.299,34.427 L11.299,38.331 L8.483,38.331 L8.483,48.827 L3.491,48.827 L3.491,38.331 L0.995,38.331 L0.995,34.427 L3.491,34.427 L3.491,30.459 ZM5.923,62.427 L8.675,70.619 L11.363,62.427 L16.355,62.427 L8.931,81.915 L3.971,81.915 L6.083,76.475 L0.707,62.427 L5.923,62.427 ZM13.315,48.827 L13.315,28.027 L18.339,28.027 L18.339,35.675 C19.277,34.630 20.568,34.107 22.211,34.107 C23.789,34.107 25.032,34.582 25.939,35.531 C26.845,36.480 27.299,37.766 27.299,39.387 L27.299,48.827 L22.307,48.827 L22.307,40.603 C22.307,39.984 22.147,39.488 21.827,39.115 C21.507,38.742 21.037,38.555 20.419,38.555 C19.907,38.555 19.464,38.694 19.091,38.971 C18.717,39.248 18.467,39.632 18.339,40.123 L18.339,48.827 L13.315,48.827 ZM24.035,62.107 C26.232,62.107 28.008,62.806 29.363,64.203 C30.718,65.600 31.395,67.408 31.395,69.627 C31.395,71.846 30.718,73.654 29.363,75.051 C28.008,76.448 26.232,77.147 24.035,77.147 C21.859,77.147 20.088,76.448 18.723,75.051 C17.358,73.654 16.675,71.846 16.675,69.627 C16.675,67.408 17.358,65.600 18.723,64.203 C20.088,62.806 21.859,62.107 24.035,62.107 ZM22.275,72.059 C22.702,72.678 23.288,72.987 24.035,72.987 C24.803,72.987 25.400,72.683 25.827,72.075 C26.254,71.467 26.467,70.651 26.467,69.627 C26.467,68.603 26.254,67.782 25.827,67.163 C25.400,66.544 24.803,66.235 24.035,66.235 C23.288,66.235 22.702,66.544 22.275,67.163 C21.848,67.782 21.635,68.603 21.635,69.627 C21.635,70.630 21.848,71.440 22.275,72.059 ZM38.435,70.683 C38.435,72.070 39.053,72.763 40.291,72.763 C40.760,72.763 41.187,72.619 41.571,72.331 C41.955,72.043 42.211,71.654 42.339,71.163 L42.339,62.427 L47.363,62.427 L47.363,76.827 L42.339,76.827 L42.339,75.579 C41.443,76.624 40.163,77.147 38.499,77.147 C36.920,77.147 35.683,76.672 34.787,75.723 C33.891,74.774 33.443,73.488 33.443,71.867 L33.443,62.427 L38.435,62.427 L38.435,70.683 ZM63.266,48.827 L63.266,28.027 L68.290,28.027 L68.290,35.675 C69.228,34.630 70.519,34.107 72.162,34.107 C73.740,34.107 74.983,34.582 75.890,35.531 C76.796,36.480 77.250,37.766 77.250,39.387 L77.250,48.827 L72.258,48.827 L72.258,40.603 C72.258,39.984 72.098,39.488 71.778,39.115 C71.458,38.742 70.988,38.555 70.370,38.555 C69.858,38.555 69.415,38.694 69.042,38.971 C68.668,39.248 68.418,39.632 68.290,40.123 L68.290,48.827 L63.266,48.827 ZM62.915,70.235 L65.091,62.427 L68.291,62.427 L70.435,70.235 L72.739,62.427 L77.539,62.427 L72.899,76.827 L68.643,76.827 L66.595,69.531 L64.547,76.827 L60.291,76.827 L55.651,62.427 L60.643,62.427 L62.915,70.235 ZM85.058,48.827 L80.034,48.827 L80.034,34.427 L85.058,34.427 L85.058,48.827 ZM80.546,28.555 C81.100,28.054 81.772,27.803 82.562,27.803 C83.351,27.803 84.023,28.054 84.578,28.555 C85.132,29.056 85.410,29.712 85.410,30.523 C85.410,31.312 85.132,31.958 84.578,32.459 C84.023,32.960 83.351,33.211 82.562,33.211 C81.772,33.211 81.100,32.960 80.546,32.459 C79.991,31.958 79.714,31.312 79.714,30.523 C79.714,29.712 79.991,29.056 80.546,28.555 ZM83.459,67.867 C84.803,67.867 85.848,68.134 86.595,68.667 L86.595,68.155 C86.595,67.579 86.334,67.115 85.811,66.763 C85.288,66.411 84.526,66.235 83.523,66.235 C82.072,66.235 80.760,66.576 79.587,67.259 L79.587,63.227 C80.974,62.480 82.691,62.107 84.739,62.107 C86.872,62.107 88.520,62.603 89.683,63.595 C90.846,64.587 91.427,66.032 91.427,67.931 L91.427,76.827 L86.595,76.827 L86.595,76.091 C86.339,76.347 85.891,76.576 85.251,76.779 C84.611,76.981 83.928,77.083 83.203,77.083 C81.710,77.083 80.456,76.672 79.443,75.851 C78.430,75.030 77.923,73.894 77.923,72.443 C77.923,71.078 78.451,69.974 79.507,69.131 C80.563,68.288 81.880,67.867 83.459,67.867 ZM83.171,73.403 C83.555,73.638 84.024,73.755 84.579,73.755 C85.560,73.755 86.232,73.435 86.595,72.795 L86.595,71.963 C86.254,71.302 85.582,70.971 84.579,70.971 C84.024,70.971 83.555,71.088 83.171,71.323 C82.787,71.558 82.595,71.899 82.595,72.347 C82.595,72.816 82.787,73.168 83.171,73.403 ZM87.937,48.827 L87.937,34.427 L92.961,34.427 L92.961,35.675 C93.900,34.630 95.190,34.107 96.833,34.107 C98.412,34.107 99.654,34.582 100.561,35.531 C101.468,36.480 101.921,37.766 101.921,39.387 L101.921,48.827 L96.929,48.827 L96.929,40.603 C96.929,39.984 96.769,39.488 96.449,39.115 C96.129,38.742 95.660,38.555 95.041,38.555 C94.529,38.555 94.086,38.694 93.713,38.971 C93.340,39.248 93.089,39.632 92.961,40.123 L92.961,48.827 L87.937,48.827 ZM99.203,63.675 C100.141,62.630 101.432,62.107 103.075,62.107 C104.653,62.107 105.896,62.582 106.803,63.531 C107.709,64.480 108.163,65.766 108.163,67.387 L108.163,76.827 L103.171,76.827 L103.171,68.603 C103.171,67.984 103.011,67.488 102.691,67.115 C102.371,66.742 101.901,66.555 101.283,66.555 C100.771,66.555 100.328,66.694 99.955,66.971 C99.581,67.248 99.331,67.632 99.203,68.123 L99.203,76.827 L94.179,76.827 L94.179,62.427 L99.203,62.427 L99.203,63.675 Z"/>
<path fill="url(#PSgrad_0)"
 d="M127.329,37.851 C126.369,37.851 125.889,38.139 125.889,38.715 C125.889,38.971 125.980,39.163 126.161,39.291 C126.342,39.419 126.625,39.536 127.009,39.643 L128.321,40.027 C129.900,40.454 131.025,41.014 131.697,41.707 C132.369,42.400 132.705,43.355 132.705,44.571 C132.705,46.064 132.134,47.200 130.993,47.979 C129.852,48.758 128.353,49.147 126.497,49.147 C124.214,49.147 122.390,48.688 121.025,47.771 L121.025,43.547 C121.686,44.080 122.508,44.518 123.489,44.859 C124.470,45.200 125.345,45.371 126.113,45.371 C127.201,45.371 127.745,45.083 127.745,44.507 C127.745,44.038 127.308,43.707 126.433,43.515 L125.313,43.227 C122.412,42.608 120.961,41.136 120.961,38.811 C120.961,37.339 121.505,36.187 122.593,35.355 C123.681,34.523 125.100,34.107 126.849,34.107 C128.812,34.107 130.486,34.534 131.873,35.387 L131.873,39.515 C130.337,38.406 128.822,37.851 127.329,37.851 ZM117.603,76.827 L112.611,76.827 L112.611,66.331 L110.115,66.331 L110.115,62.427 L112.611,62.427 L112.611,58.459 L117.603,58.459 L117.603,62.427 L120.419,62.427 L120.419,66.331 L117.603,66.331 L117.603,76.827 ZM110.273,54.235 C108.076,54.235 106.348,53.829 105.089,53.019 L105.089,48.411 C106.476,49.584 108.150,50.171 110.113,50.171 C111.158,50.171 112.017,49.941 112.689,49.483 C113.361,49.024 113.697,48.315 113.697,47.355 L113.697,46.875 C112.886,47.814 111.756,48.283 110.305,48.283 C108.321,48.283 106.764,47.611 105.633,46.267 C104.502,44.923 103.937,43.227 103.937,41.179 C103.937,39.131 104.502,37.440 105.633,36.107 C106.764,34.774 108.321,34.107 110.305,34.107 C111.777,34.107 112.908,34.576 113.697,35.515 L113.697,34.427 L118.657,34.427 L118.657,46.747 C118.657,49.264 117.878,51.141 116.321,52.379 C114.764,53.616 112.748,54.235 110.273,54.235 ZM113.697,39.291 C113.206,38.480 112.492,38.075 111.553,38.075 C110.742,38.075 110.097,38.363 109.617,38.939 C109.137,39.515 108.897,40.262 108.897,41.179 C108.897,42.096 109.137,42.843 109.617,43.419 C110.097,43.995 110.742,44.283 111.553,44.283 C112.513,44.283 113.228,43.888 113.697,43.099 L113.697,39.291 ZM93.666,25.915 L95.778,20.475 L90.402,6.427 L95.618,6.427 L98.370,14.619 L101.058,6.427 L106.050,6.427 L98.626,25.915 L93.666,25.915 ZM83.650,19.579 C82.754,20.624 81.474,21.147 79.810,21.147 C78.231,21.147 76.994,20.672 76.098,19.723 C75.202,18.774 74.754,17.488 74.754,15.867 L74.754,6.427 L79.746,6.427 L79.746,14.683 C79.746,16.070 80.364,16.763 81.602,16.763 C82.071,16.763 82.498,16.619 82.882,16.331 C83.266,16.043 83.522,15.654 83.650,15.163 L83.650,6.427 L88.674,6.427 L88.674,20.827 L83.650,20.827 L83.650,19.579 ZM66.306,21.147 C65.602,21.147 64.925,21.003 64.274,20.715 C63.623,20.427 63.117,20.080 62.754,19.675 L62.754,20.827 L57.730,20.827 L57.730,0.027 L62.754,0.027 L62.754,7.579 C63.117,7.174 63.623,6.827 64.274,6.539 C64.925,6.251 65.602,6.107 66.306,6.107 C68.311,6.107 69.885,6.816 71.026,8.235 C72.167,9.654 72.738,11.451 72.738,13.627 C72.738,15.803 72.167,17.600 71.026,19.019 C69.885,20.438 68.311,21.147 66.306,21.147 ZM66.978,11.275 C66.487,10.667 65.815,10.363 64.962,10.363 C64.493,10.363 64.055,10.491 63.650,10.747 C63.245,11.003 62.946,11.323 62.754,11.707 L62.754,15.515 C63.181,16.411 63.917,16.859 64.962,16.859 C65.815,16.859 66.487,16.555 66.978,15.947 C67.469,15.339 67.714,14.566 67.714,13.627 C67.714,12.667 67.469,11.883 66.978,11.275 ZM58.434,30.459 L58.434,34.427 L61.250,34.427 L61.250,38.331 L58.434,38.331 L58.434,48.827 L53.442,48.827 L53.442,38.331 L50.946,38.331 L50.946,34.427 L53.442,34.427 L53.442,30.459 L58.434,30.459 ZM43.299,19.675 C42.936,20.080 42.429,20.427 41.779,20.715 C41.128,21.003 40.451,21.147 39.747,21.147 C37.741,21.147 36.168,20.438 35.027,19.019 C33.885,17.600 33.315,15.803 33.315,13.627 C33.315,11.451 33.885,9.654 35.027,8.235 C36.168,6.816 37.741,6.107 39.747,6.107 C40.451,6.107 41.128,6.251 41.779,6.539 C42.429,6.827 42.936,7.174 43.299,7.579 L43.299,0.027 L48.323,0.027 L48.323,20.827 L43.299,20.827 L43.299,19.675 ZM43.299,11.707 C43.107,11.323 42.808,11.003 42.403,10.747 C41.997,10.491 41.560,10.363 41.091,10.363 C40.237,10.363 39.565,10.667 39.075,11.275 C38.584,11.883 38.339,12.667 38.339,13.627 C38.339,14.566 38.584,15.339 39.075,15.947 C39.565,16.555 40.237,16.859 41.091,16.859 C42.136,16.859 42.872,16.411 43.299,15.515 L43.299,11.707 ZM41.299,36.059 C42.461,37.360 43.043,39.110 43.043,41.307 L43.043,42.779 L34.179,42.779 C34.563,44.400 35.789,45.211 37.859,45.211 C39.352,45.211 40.739,44.827 42.019,44.059 L42.019,47.867 C40.867,48.720 39.213,49.147 37.059,49.147 C34.733,49.147 32.861,48.486 31.443,47.163 C30.024,45.840 29.315,44.027 29.315,41.723 C29.315,39.483 29.976,37.654 31.299,36.235 C32.621,34.816 34.285,34.107 36.291,34.107 C38.467,34.107 40.136,34.758 41.299,36.059 ZM34.243,39.963 L38.563,39.963 C38.499,39.344 38.285,38.848 37.923,38.475 C37.560,38.102 37.080,37.915 36.483,37.915 C35.352,37.915 34.605,38.598 34.243,39.963 ZM26.307,12.603 C26.307,11.984 26.147,11.488 25.827,11.115 C25.507,10.742 25.037,10.555 24.419,10.555 C23.907,10.555 23.464,10.694 23.091,10.971 C22.717,11.248 22.467,11.632 22.339,12.123 L22.339,20.827 L17.315,20.827 L17.315,6.427 L22.339,6.427 L22.339,7.675 C23.277,6.630 24.568,6.107 26.211,6.107 C27.789,6.107 29.032,6.582 29.939,7.531 C30.845,8.480 31.299,9.766 31.299,11.387 L31.299,20.827 L26.307,20.827 L26.307,12.603 ZM9.731,20.091 C9.475,20.347 9.027,20.576 8.387,20.779 C7.747,20.981 7.064,21.083 6.339,21.083 C4.846,21.083 3.592,20.672 2.579,19.851 C1.566,19.030 1.059,17.894 1.059,16.443 C1.059,15.078 1.587,13.974 2.643,13.131 C3.699,12.288 5.016,11.867 6.595,11.867 C7.939,11.867 8.984,12.134 9.731,12.667 L9.731,12.155 C9.731,11.579 9.470,11.115 8.947,10.763 C8.424,10.411 7.662,10.235 6.659,10.235 C5.208,10.235 3.896,10.576 2.723,11.259 L2.723,7.227 C4.110,6.480 5.827,6.107 7.875,6.107 C10.008,6.107 11.656,6.603 12.819,7.595 C13.982,8.587 14.563,10.032 14.563,11.931 L14.563,20.827 L9.731,20.827 L9.731,20.091 ZM9.731,15.963 C9.390,15.302 8.718,14.971 7.715,14.971 C7.160,14.971 6.691,15.088 6.307,15.323 C5.923,15.558 5.731,15.899 5.731,16.347 C5.731,16.816 5.923,17.168 6.307,17.403 C6.691,17.638 7.160,17.755 7.715,17.755 C8.696,17.755 9.368,17.435 9.731,16.795 L9.731,15.963 ZM3.491,30.459 L8.483,30.459 L8.483,34.427 L11.299,34.427 L11.299,38.331 L8.483,38.331 L8.483,48.827 L3.491,48.827 L3.491,38.331 L0.995,38.331 L0.995,34.427 L3.491,34.427 L3.491,30.459 ZM5.923,62.427 L8.675,70.619 L11.363,62.427 L16.355,62.427 L8.931,81.915 L3.971,81.915 L6.083,76.475 L0.707,62.427 L5.923,62.427 ZM13.315,48.827 L13.315,28.027 L18.339,28.027 L18.339,35.675 C19.277,34.630 20.568,34.107 22.211,34.107 C23.789,34.107 25.032,34.582 25.939,35.531 C26.845,36.480 27.299,37.766 27.299,39.387 L27.299,48.827 L22.307,48.827 L22.307,40.603 C22.307,39.984 22.147,39.488 21.827,39.115 C21.507,38.742 21.037,38.555 20.419,38.555 C19.907,38.555 19.464,38.694 19.091,38.971 C18.717,39.248 18.467,39.632 18.339,40.123 L18.339,48.827 L13.315,48.827 ZM24.035,62.107 C26.232,62.107 28.008,62.806 29.363,64.203 C30.718,65.600 31.395,67.408 31.395,69.627 C31.395,71.846 30.718,73.654 29.363,75.051 C28.008,76.448 26.232,77.147 24.035,77.147 C21.859,77.147 20.088,76.448 18.723,75.051 C17.358,73.654 16.675,71.846 16.675,69.627 C16.675,67.408 17.358,65.600 18.723,64.203 C20.088,62.806 21.859,62.107 24.035,62.107 ZM22.275,72.059 C22.702,72.678 23.288,72.987 24.035,72.987 C24.803,72.987 25.400,72.683 25.827,72.075 C26.254,71.467 26.467,70.651 26.467,69.627 C26.467,68.603 26.254,67.782 25.827,67.163 C25.400,66.544 24.803,66.235 24.035,66.235 C23.288,66.235 22.702,66.544 22.275,67.163 C21.848,67.782 21.635,68.603 21.635,69.627 C21.635,70.630 21.848,71.440 22.275,72.059 ZM38.435,70.683 C38.435,72.070 39.053,72.763 40.291,72.763 C40.760,72.763 41.187,72.619 41.571,72.331 C41.955,72.043 42.211,71.654 42.339,71.163 L42.339,62.427 L47.363,62.427 L47.363,76.827 L42.339,76.827 L42.339,75.579 C41.443,76.624 40.163,77.147 38.499,77.147 C36.920,77.147 35.683,76.672 34.787,75.723 C33.891,74.774 33.443,73.488 33.443,71.867 L33.443,62.427 L38.435,62.427 L38.435,70.683 ZM63.266,48.827 L63.266,28.027 L68.290,28.027 L68.290,35.675 C69.228,34.630 70.519,34.107 72.162,34.107 C73.740,34.107 74.983,34.582 75.890,35.531 C76.796,36.480 77.250,37.766 77.250,39.387 L77.250,48.827 L72.258,48.827 L72.258,40.603 C72.258,39.984 72.098,39.488 71.778,39.115 C71.458,38.742 70.988,38.555 70.370,38.555 C69.858,38.555 69.415,38.694 69.042,38.971 C68.668,39.248 68.418,39.632 68.290,40.123 L68.290,48.827 L63.266,48.827 ZM62.915,70.235 L65.091,62.427 L68.291,62.427 L70.435,70.235 L72.739,62.427 L77.539,62.427 L72.899,76.827 L68.643,76.827 L66.595,69.531 L64.547,76.827 L60.291,76.827 L55.651,62.427 L60.643,62.427 L62.915,70.235 ZM85.058,48.827 L80.034,48.827 L80.034,34.427 L85.058,34.427 L85.058,48.827 ZM80.546,28.555 C81.100,28.054 81.772,27.803 82.562,27.803 C83.351,27.803 84.023,28.054 84.578,28.555 C85.132,29.056 85.410,29.712 85.410,30.523 C85.410,31.312 85.132,31.958 84.578,32.459 C84.023,32.960 83.351,33.211 82.562,33.211 C81.772,33.211 81.100,32.960 80.546,32.459 C79.991,31.958 79.714,31.312 79.714,30.523 C79.714,29.712 79.991,29.056 80.546,28.555 ZM83.459,67.867 C84.803,67.867 85.848,68.134 86.595,68.667 L86.595,68.155 C86.595,67.579 86.334,67.115 85.811,66.763 C85.288,66.411 84.526,66.235 83.523,66.235 C82.072,66.235 80.760,66.576 79.587,67.259 L79.587,63.227 C80.974,62.480 82.691,62.107 84.739,62.107 C86.872,62.107 88.520,62.603 89.683,63.595 C90.846,64.587 91.427,66.032 91.427,67.931 L91.427,76.827 L86.595,76.827 L86.595,76.091 C86.339,76.347 85.891,76.576 85.251,76.779 C84.611,76.981 83.928,77.083 83.203,77.083 C81.710,77.083 80.456,76.672 79.443,75.851 C78.430,75.030 77.923,73.894 77.923,72.443 C77.923,71.078 78.451,69.974 79.507,69.131 C80.563,68.288 81.880,67.867 83.459,67.867 ZM83.171,73.403 C83.555,73.638 84.024,73.755 84.579,73.755 C85.560,73.755 86.232,73.435 86.595,72.795 L86.595,71.963 C86.254,71.302 85.582,70.971 84.579,70.971 C84.024,70.971 83.555,71.088 83.171,71.323 C82.787,71.558 82.595,71.899 82.595,72.347 C82.595,72.816 82.787,73.168 83.171,73.403 ZM87.937,48.827 L87.937,34.427 L92.961,34.427 L92.961,35.675 C93.900,34.630 95.190,34.107 96.833,34.107 C98.412,34.107 99.654,34.582 100.561,35.531 C101.468,36.480 101.921,37.766 101.921,39.387 L101.921,48.827 L96.929,48.827 L96.929,40.603 C96.929,39.984 96.769,39.488 96.449,39.115 C96.129,38.742 95.660,38.555 95.041,38.555 C94.529,38.555 94.086,38.694 93.713,38.971 C93.340,39.248 93.089,39.632 92.961,40.123 L92.961,48.827 L87.937,48.827 ZM99.203,63.675 C100.141,62.630 101.432,62.107 103.075,62.107 C104.653,62.107 105.896,62.582 106.803,63.531 C107.709,64.480 108.163,65.766 108.163,67.387 L108.163,76.827 L103.171,76.827 L103.171,68.603 C103.171,67.984 103.011,67.488 102.691,67.115 C102.371,66.742 101.901,66.555 101.283,66.555 C100.771,66.555 100.328,66.694 99.955,66.971 C99.581,67.248 99.331,67.632 99.203,68.123 L99.203,76.827 L94.179,76.827 L94.179,62.427 L99.203,62.427 L99.203,63.675 Z"/>
</svg>