<svg 
 xmlns="http://www.w3.org/2000/svg"
 xmlns:xlink="http://www.w3.org/1999/xlink"
 width="123px" height="165px">
<defs>
<linearGradient id="PSgrad_0" x1="0%" x2="68.2%" y1="0%" y2="73.135%">
  <stop offset="0%" stop-color="rgb(238,117,24)" stop-opacity="0.95" />
  <stop offset="100%" stop-color="rgb(253,91,47)" stop-opacity="0.95" />
</linearGradient>

</defs>
<path fill-rule="evenodd"  fill="rgb(227, 114, 34)"
 d="M114.665,42.535 C115.001,43.954 116.075,44.663 117.885,44.663 C119.192,44.663 120.405,44.327 121.525,43.655 L121.525,46.987 C120.517,47.734 119.071,48.107 117.185,48.107 C115.151,48.107 113.513,47.528 112.271,46.371 C111.030,45.214 110.409,43.627 110.409,41.611 C110.409,39.651 110.988,38.050 112.145,36.809 C113.303,35.568 114.759,34.947 116.513,34.947 C118.417,34.947 119.878,35.516 120.895,36.655 C121.913,37.794 122.421,39.324 122.421,41.247 L122.421,42.535 L114.665,42.535 ZM117.941,38.769 C117.624,38.442 117.204,38.279 116.681,38.279 C115.692,38.279 115.039,38.876 114.721,40.071 L118.501,40.071 C118.445,39.530 118.259,39.096 117.941,38.769 ZM106.014,68.631 C106.014,68.090 105.874,67.656 105.594,67.329 C105.314,67.002 104.903,66.839 104.362,66.839 C103.914,66.839 103.526,66.960 103.200,67.203 C102.873,67.446 102.654,67.782 102.542,68.211 L102.542,75.827 L98.146,75.827 L98.146,57.627 L102.542,57.627 L102.542,64.319 C103.363,63.404 104.492,62.947 105.930,62.947 C107.311,62.947 108.398,63.362 109.192,64.193 C109.985,65.024 110.382,66.148 110.382,67.567 L110.382,75.827 L106.014,75.827 L106.014,68.631 ZM104.558,40.631 C104.558,40.090 104.418,39.656 104.138,39.329 C103.858,39.002 103.447,38.839 102.906,38.839 C102.458,38.839 102.070,38.960 101.744,39.203 C101.417,39.446 101.198,39.782 101.086,40.211 L101.086,47.827 L96.690,47.827 L96.690,29.627 L101.086,29.627 L101.086,36.319 C101.907,35.404 103.036,34.947 104.474,34.947 C105.855,34.947 106.942,35.362 107.736,36.193 C108.529,37.024 108.926,38.148 108.926,39.567 L108.926,47.827 L104.558,47.827 L104.558,40.631 ZM94.198,75.827 L89.830,75.827 L89.830,66.643 L87.646,66.643 L87.646,63.227 L89.830,63.227 L89.830,59.755 L94.198,59.755 L94.198,63.227 L96.662,63.227 L96.662,66.643 L94.198,66.643 L94.198,75.827 ZM92.742,47.827 L88.374,47.827 L88.374,38.643 L86.190,38.643 L86.190,35.227 L88.374,35.227 L88.374,31.755 L92.742,31.755 L92.742,35.227 L95.206,35.227 L95.206,38.643 L92.742,38.643 L92.742,47.827 ZM86.218,75.827 L81.850,75.827 L81.850,68.631 C81.850,68.090 81.710,67.656 81.430,67.329 C81.150,67.002 80.739,66.839 80.198,66.839 C79.750,66.839 79.362,66.960 79.036,67.203 C78.709,67.446 78.490,67.782 78.378,68.211 L78.378,75.827 L73.982,75.827 L73.982,63.227 L78.378,63.227 L78.378,64.319 C79.199,63.404 80.328,62.947 81.766,62.947 C83.147,62.947 84.234,63.362 85.028,64.193 C85.821,65.024 86.218,66.148 86.218,67.567 L86.218,75.827 ZM74.850,46.819 C74.533,47.174 74.089,47.477 73.520,47.729 C72.951,47.981 72.358,48.107 71.742,48.107 C69.987,48.107 68.611,47.486 67.612,46.245 C66.613,45.004 66.114,43.431 66.114,41.527 C66.114,39.623 66.613,38.050 67.612,36.809 C68.611,35.568 69.987,34.947 71.742,34.947 C72.358,34.947 72.951,35.073 73.520,35.325 C74.089,35.577 74.533,35.880 74.850,36.235 L74.850,29.627 L79.246,29.627 L79.246,47.827 L74.850,47.827 L74.850,46.819 ZM74.850,39.847 C74.682,39.511 74.421,39.231 74.066,39.007 C73.711,38.783 73.329,38.671 72.918,38.671 C72.171,38.671 71.583,38.937 71.154,39.469 C70.725,40.001 70.510,40.687 70.510,41.527 C70.510,42.348 70.725,43.025 71.154,43.557 C71.583,44.089 72.171,44.355 72.918,44.355 C73.833,44.355 74.477,43.963 74.850,43.179 L74.850,39.847 ZM62.447,14.663 C63.753,14.663 64.967,14.327 66.087,13.655 L66.087,16.987 C65.079,17.734 63.632,18.107 61.747,18.107 C59.712,18.107 58.074,17.528 56.833,16.371 C55.591,15.214 54.971,13.627 54.971,11.611 C54.971,9.651 55.549,8.050 56.707,6.809 C57.864,5.568 59.320,4.947 61.075,4.947 C62.979,4.947 64.439,5.516 65.457,6.655 C66.474,7.794 66.983,9.324 66.983,11.247 L66.983,12.535 L59.227,12.535 C59.563,13.954 60.636,14.663 62.447,14.663 ZM63.063,10.071 C63.007,9.530 62.820,9.096 62.503,8.769 C62.185,8.442 61.765,8.279 61.243,8.279 C60.253,8.279 59.600,8.876 59.283,10.071 L63.063,10.071 ZM46.207,17.827 L41.419,5.227 L45.899,5.227 L48.307,12.451 L50.659,5.227 L54.971,5.227 L50.155,17.827 L46.207,17.827 ZM38.535,8.279 L35.763,8.279 L37.807,5.087 C37.265,4.975 36.817,4.723 36.463,4.331 C36.108,3.939 35.931,3.435 35.931,2.819 C35.931,2.110 36.178,1.522 36.673,1.055 C37.167,0.588 37.779,0.355 38.507,0.355 C39.235,0.355 39.846,0.598 40.341,1.083 C40.835,1.568 41.083,2.240 41.083,3.099 C41.083,3.939 40.728,4.900 40.019,5.983 L38.535,8.279 ZM30.415,14.663 C31.721,14.663 32.935,14.327 34.055,13.655 L34.055,16.987 C33.047,17.734 31.600,18.107 29.715,18.107 C27.680,18.107 26.042,17.528 24.801,16.371 C23.559,15.214 22.939,13.627 22.939,11.611 C22.939,9.651 23.517,8.050 24.675,6.809 C25.832,5.568 27.288,4.947 29.043,4.947 C30.947,4.947 32.407,5.516 33.425,6.655 C34.442,7.794 34.951,9.324 34.951,11.247 L34.951,12.535 L27.195,12.535 C27.531,13.954 28.604,14.663 30.415,14.663 ZM31.031,10.071 C30.975,9.530 30.788,9.096 30.471,8.769 C30.153,8.442 29.733,8.279 29.211,8.279 C28.221,8.279 27.568,8.876 27.251,10.071 L31.031,10.071 ZM14.623,17.827 L11.963,7.747 L9.275,17.827 L5.159,17.827 L0.651,0.635 L5.243,0.635 L7.651,10.743 L10.311,0.635 L13.727,0.635 L16.359,10.743 L18.739,0.635 L23.275,0.635 L18.739,17.827 L14.623,17.827 ZM7.035,42.059 L8.939,35.227 L11.739,35.227 L13.615,42.059 L15.631,35.227 L19.831,35.227 L15.771,47.827 L12.047,47.827 L10.255,41.443 L8.463,47.827 L4.739,47.827 L0.679,35.227 L5.047,35.227 L7.035,42.059 ZM5.705,67.483 C5.863,67.595 6.111,67.698 6.447,67.791 L7.595,68.127 C8.976,68.500 9.961,68.990 10.549,69.597 C11.137,70.204 11.431,71.039 11.431,72.103 C11.431,73.410 10.931,74.404 9.933,75.085 C8.934,75.766 7.623,76.107 5.999,76.107 C4.001,76.107 2.405,75.706 1.211,74.903 L1.211,71.207 C1.789,71.674 2.508,72.056 3.367,72.355 C4.225,72.654 4.991,72.803 5.663,72.803 C6.615,72.803 7.091,72.551 7.091,72.047 C7.091,71.636 6.708,71.347 5.943,71.179 L4.963,70.927 C2.424,70.386 1.155,69.098 1.155,67.063 C1.155,65.775 1.631,64.767 2.583,64.039 C3.535,63.311 4.776,62.947 6.307,62.947 C8.024,62.947 9.489,63.320 10.703,64.067 L10.703,67.679 C9.359,66.708 8.033,66.223 6.727,66.223 C5.887,66.223 5.467,66.475 5.467,66.979 C5.467,67.203 5.546,67.371 5.705,67.483 ZM17.423,75.827 L13.027,75.827 L13.027,63.227 L17.423,63.227 L17.423,75.827 ZM13.475,58.089 C13.960,57.650 14.548,57.431 15.239,57.431 C15.929,57.431 16.517,57.650 17.003,58.089 C17.488,58.528 17.731,59.102 17.731,59.811 C17.731,60.502 17.488,61.066 17.003,61.505 C16.517,61.944 15.929,62.163 15.239,62.163 C14.548,62.163 13.960,61.944 13.475,61.505 C12.989,61.066 12.747,60.502 12.747,59.811 C12.747,59.102 12.989,58.528 13.475,58.089 ZM7.035,98.059 L8.939,91.227 L11.739,91.227 L13.615,98.059 L15.631,91.227 L19.831,91.227 L15.771,103.827 L12.047,103.827 L10.255,97.443 L8.463,103.827 L4.739,103.827 L0.679,91.227 L5.047,91.227 L7.035,98.059 ZM2.779,148.781 C3.973,147.558 5.523,146.947 7.427,146.947 C9.349,146.947 10.903,147.558 12.089,148.781 C13.274,150.004 13.867,151.586 13.867,153.527 C13.867,155.468 13.274,157.050 12.089,158.273 C10.903,159.496 9.349,160.107 7.427,160.107 C5.523,160.107 3.973,159.496 2.779,158.273 C1.584,157.050 0.987,155.468 0.987,153.527 C0.987,151.586 1.584,150.004 2.779,148.781 ZM5.887,155.655 C6.260,156.196 6.773,156.467 7.427,156.467 C8.099,156.467 8.621,156.201 8.995,155.669 C9.368,155.137 9.555,154.423 9.555,153.527 C9.555,152.631 9.368,151.912 8.995,151.371 C8.621,150.830 8.099,150.559 7.427,150.559 C6.773,150.559 6.260,150.830 5.887,151.371 C5.513,151.912 5.327,152.631 5.327,153.527 C5.327,154.404 5.513,155.114 5.887,155.655 ZM1.659,136.279 L1.659,119.227 L6.055,119.227 L6.055,120.235 C6.372,119.880 6.815,119.577 7.385,119.325 C7.954,119.073 8.547,118.947 9.163,118.947 C10.917,118.947 12.294,119.572 13.293,120.823 C14.291,122.074 14.791,123.642 14.791,125.527 C14.791,127.394 14.291,128.957 13.293,130.217 C12.294,131.477 10.917,132.107 9.163,132.107 C8.547,132.107 7.954,131.981 7.385,131.729 C6.815,131.477 6.372,131.174 6.055,130.819 L6.055,136.279 L1.659,136.279 ZM7.987,128.355 C8.733,128.355 9.321,128.089 9.751,127.557 C10.180,127.025 10.395,126.348 10.395,125.527 C10.395,124.687 10.180,124.001 9.751,123.469 C9.321,122.937 8.733,122.671 7.987,122.671 C7.091,122.671 6.447,123.063 6.055,123.847 L6.055,127.179 C6.428,127.963 7.072,128.355 7.987,128.355 ZM19.831,148.235 C20.148,147.880 20.591,147.577 21.161,147.325 C21.730,147.073 22.323,146.947 22.939,146.947 C24.693,146.947 26.070,147.572 27.069,148.823 C28.067,150.074 28.567,151.642 28.567,153.527 C28.567,155.394 28.067,156.957 27.069,158.217 C26.070,159.477 24.693,160.107 22.939,160.107 C22.323,160.107 21.730,159.981 21.161,159.729 C20.591,159.477 20.148,159.174 19.831,158.819 L19.831,164.279 L15.435,164.279 L15.435,147.227 L19.831,147.227 L19.831,148.235 ZM19.831,155.179 C20.204,155.963 20.848,156.355 21.763,156.355 C22.509,156.355 23.097,156.089 23.527,155.557 C23.956,155.025 24.171,154.348 24.171,153.527 C24.171,152.687 23.956,152.001 23.527,151.469 C23.097,150.937 22.509,150.671 21.763,150.671 C20.867,150.671 20.223,151.063 19.831,151.847 L19.831,155.179 ZM31.451,143.755 L35.819,143.755 L35.819,147.227 L38.283,147.227 L38.283,150.643 L35.819,150.643 L35.819,159.827 L31.451,159.827 L31.451,150.643 L29.267,150.643 L29.267,147.227 L31.451,147.227 L31.451,143.755 ZM37.807,89.505 C37.321,89.944 36.733,90.163 36.043,90.163 C35.352,90.163 34.764,89.944 34.279,89.505 C33.793,89.066 33.551,88.502 33.551,87.811 C33.551,87.102 33.793,86.528 34.279,86.089 C34.764,85.650 35.352,85.431 36.043,85.431 C36.733,85.431 37.321,85.650 37.807,86.089 C38.292,86.528 38.535,87.102 38.535,87.811 C38.535,88.502 38.292,89.066 37.807,89.505 ZM38.227,47.827 L33.831,47.827 L33.831,35.227 L38.227,35.227 L38.227,47.827 ZM34.279,30.089 C34.764,29.650 35.352,29.431 36.043,29.431 C36.733,29.431 37.321,29.650 37.807,30.089 C38.292,30.528 38.535,31.102 38.535,31.811 C38.535,32.502 38.292,33.066 37.807,33.505 C37.321,33.944 36.733,34.163 36.043,34.163 C35.352,34.163 34.764,33.944 34.279,33.505 C33.793,33.066 33.551,32.502 33.551,31.811 C33.551,31.102 33.793,30.528 34.279,30.089 ZM33.831,91.227 L38.227,91.227 L38.227,103.827 L33.831,103.827 L33.831,91.227 ZM33.858,120.347 C34.549,119.414 35.501,118.947 36.714,118.947 C37.256,118.947 37.657,119.022 37.918,119.171 L37.918,123.399 C37.414,123.138 36.808,123.007 36.098,123.007 C34.848,123.007 34.101,123.483 33.858,124.435 L33.858,131.827 L29.462,131.827 L29.462,119.227 L33.858,119.227 L33.858,120.347 ZM21.273,97.093 C22.197,96.356 23.350,95.987 24.731,95.987 C25.907,95.987 26.822,96.220 27.475,96.687 L27.475,96.239 C27.475,95.735 27.246,95.329 26.789,95.021 C26.332,94.713 25.664,94.559 24.787,94.559 C23.518,94.559 22.370,94.858 21.343,95.455 L21.343,91.927 C22.556,91.274 24.059,90.947 25.851,90.947 C27.718,90.947 29.160,91.381 30.177,92.249 C31.194,93.117 31.703,94.382 31.703,96.043 L31.703,103.827 L27.475,103.827 L27.475,103.183 C27.251,103.407 26.859,103.608 26.299,103.785 C25.739,103.962 25.142,104.051 24.507,104.051 C23.200,104.051 22.104,103.692 21.217,102.973 C20.330,102.254 19.887,101.260 19.887,99.991 C19.887,98.796 20.349,97.830 21.273,97.093 ZM24.479,100.831 C24.815,101.036 25.226,101.139 25.711,101.139 C26.570,101.139 27.158,100.859 27.475,100.299 L27.475,99.571 C27.176,98.992 26.588,98.703 25.711,98.703 C25.226,98.703 24.815,98.806 24.479,99.011 C24.143,99.216 23.975,99.515 23.975,99.907 C23.975,100.318 24.143,100.626 24.479,100.831 ZM23.303,128.663 C24.609,128.663 25.823,128.327 26.943,127.655 L26.943,130.987 C25.935,131.734 24.488,132.107 22.603,132.107 C20.568,132.107 18.930,131.528 17.689,130.371 C16.447,129.214 15.827,127.627 15.827,125.611 C15.827,123.651 16.405,122.050 17.563,120.809 C18.720,119.568 20.176,118.947 21.931,118.947 C23.835,118.947 25.295,119.516 26.313,120.655 C27.330,121.794 27.839,123.324 27.839,125.247 L27.839,126.535 L20.083,126.535 C20.419,127.954 21.492,128.663 23.303,128.663 ZM23.919,124.071 C23.863,123.530 23.676,123.096 23.359,122.769 C23.041,122.442 22.621,122.279 22.099,122.279 C21.109,122.279 20.456,122.876 20.139,124.071 L23.919,124.071 ZM26.789,39.021 C26.332,38.713 25.664,38.559 24.787,38.559 C23.518,38.559 22.370,38.858 21.343,39.455 L21.343,35.927 C22.556,35.274 24.059,34.947 25.851,34.947 C27.718,34.947 29.160,35.381 30.177,36.249 C31.194,37.117 31.703,38.382 31.703,40.043 L31.703,47.827 L27.475,47.827 L27.475,47.183 C27.251,47.407 26.859,47.608 26.299,47.785 C25.739,47.962 25.142,48.051 24.507,48.051 C23.200,48.051 22.104,47.692 21.217,46.973 C20.330,46.254 19.887,45.260 19.887,43.991 C19.887,42.796 20.349,41.830 21.273,41.093 C22.197,40.356 23.350,39.987 24.731,39.987 C25.907,39.987 26.822,40.220 27.475,40.687 L27.475,40.239 C27.475,39.735 27.246,39.329 26.789,39.021 ZM25.711,42.703 C25.226,42.703 24.815,42.806 24.479,43.011 C24.143,43.216 23.975,43.515 23.975,43.907 C23.975,44.318 24.143,44.626 24.479,44.831 C24.815,45.036 25.226,45.139 25.711,45.139 C26.570,45.139 27.158,44.859 27.475,44.299 L27.475,43.571 C27.176,42.992 26.588,42.703 25.711,42.703 ZM27.447,75.827 L25.291,72.551 L23.135,75.827 L18.599,75.827 L22.995,69.415 L18.795,63.227 L23.527,63.227 L25.487,66.251 L27.475,63.227 L32.011,63.227 L27.783,69.387 L32.207,75.827 L27.447,75.827 ZM43.210,64.263 C43.938,63.386 45.021,62.947 46.458,62.947 C47.914,62.947 49.071,63.451 49.930,64.459 C50.901,63.451 52.198,62.947 53.822,62.947 C55.129,62.947 56.165,63.362 56.930,64.193 C57.695,65.024 58.078,66.148 58.078,67.567 L58.078,75.827 L53.682,75.827 L53.682,68.631 C53.682,67.418 53.206,66.811 52.254,66.811 C51.862,66.811 51.521,66.928 51.232,67.161 C50.943,67.394 50.742,67.726 50.630,68.155 L50.630,75.827 L46.262,75.827 L46.262,68.631 C46.262,67.418 45.786,66.811 44.834,66.811 C44.442,66.811 44.097,66.928 43.798,67.161 C43.499,67.394 43.303,67.726 43.210,68.155 L43.210,75.827 L38.814,75.827 L38.814,63.227 L43.210,63.227 L43.210,64.263 ZM39.990,114.089 C40.475,113.650 41.063,113.431 41.754,113.431 C42.444,113.431 43.032,113.650 43.518,114.089 C44.003,114.528 44.246,115.102 44.246,115.811 C44.246,116.502 44.003,117.066 43.518,117.505 C43.032,117.944 42.444,118.163 41.754,118.163 C41.063,118.163 40.475,117.944 39.990,117.505 C39.504,117.066 39.262,116.502 39.262,115.811 C39.262,115.102 39.504,114.528 39.990,114.089 ZM39.542,119.227 L43.938,119.227 L43.938,131.827 L39.542,131.827 L39.542,119.227 ZM40.214,142.089 C40.700,141.650 41.288,141.431 41.978,141.431 C42.669,141.431 43.257,141.650 43.742,142.089 C44.228,142.528 44.470,143.102 44.470,143.811 C44.470,144.502 44.228,145.066 43.742,145.505 C43.257,145.944 42.669,146.163 41.978,146.163 C41.288,146.163 40.700,145.944 40.214,145.505 C39.729,145.066 39.486,144.502 39.486,143.811 C39.486,143.102 39.729,142.528 40.214,142.089 ZM44.162,159.827 L39.766,159.827 L39.766,147.227 L44.162,147.227 L44.162,159.827 ZM46.291,87.755 L46.291,91.227 L48.755,91.227 L48.755,94.643 L46.291,94.643 L46.291,103.827 L41.923,103.827 L41.923,94.643 L39.739,94.643 L39.739,91.227 L41.923,91.227 L41.923,87.755 L46.291,87.755 ZM54.634,103.827 L50.238,103.827 L50.238,91.227 L54.634,91.227 L54.634,103.827 ZM50.686,86.089 C51.172,85.650 51.760,85.431 52.450,85.431 C53.141,85.431 53.729,85.650 54.214,86.089 C54.700,86.528 54.942,87.102 54.942,87.811 C54.942,88.502 54.700,89.066 54.214,89.505 C53.729,89.944 53.141,90.163 52.450,90.163 C51.760,90.163 51.172,89.944 50.686,89.505 C50.201,89.066 49.958,88.502 49.958,87.811 C49.958,87.102 50.201,86.528 50.686,86.089 ZM47.298,120.781 C48.492,119.558 50.042,118.947 51.946,118.947 C53.868,118.947 55.422,119.558 56.608,120.781 C57.793,122.004 58.386,123.586 58.386,125.527 C58.386,127.468 57.793,129.050 56.608,130.273 C55.422,131.496 53.868,132.107 51.946,132.107 C50.042,132.107 48.492,131.496 47.298,130.273 C46.103,129.050 45.506,127.468 45.506,125.527 C45.506,123.586 46.103,122.004 47.298,120.781 ZM50.406,127.655 C50.779,128.196 51.292,128.467 51.946,128.467 C52.618,128.467 53.140,128.201 53.514,127.669 C53.887,127.137 54.074,126.423 54.074,125.527 C54.074,124.631 53.887,123.912 53.514,123.371 C53.140,122.830 52.618,122.559 51.946,122.559 C51.292,122.559 50.779,122.830 50.406,123.371 C50.032,123.912 49.846,124.631 49.846,125.527 C49.846,126.404 50.032,127.114 50.406,127.655 ZM47.578,148.739 C48.810,147.544 50.387,146.947 52.310,146.947 C53.728,146.947 54.858,147.246 55.698,147.843 L55.698,151.539 C54.876,150.942 53.971,150.643 52.982,150.643 C52.142,150.643 51.446,150.895 50.896,151.399 C50.345,151.903 50.070,152.612 50.070,153.527 C50.070,154.442 50.345,155.151 50.896,155.655 C51.446,156.159 52.142,156.411 52.982,156.411 C53.971,156.411 54.876,156.112 55.698,155.515 L55.698,159.211 C54.858,159.808 53.728,160.107 52.310,160.107 C50.387,160.107 48.810,159.510 47.578,158.315 C46.346,157.120 45.730,155.524 45.730,153.527 C45.730,151.530 46.346,149.934 47.578,148.739 ZM58.176,153.093 C59.100,152.356 60.252,151.987 61.634,151.987 C62.810,151.987 63.724,152.220 64.378,152.687 L64.378,152.239 C64.378,151.735 64.149,151.329 63.692,151.021 C63.234,150.713 62.567,150.559 61.690,150.559 C60.420,150.559 59.272,150.858 58.246,151.455 L58.246,147.927 C59.459,147.274 60.962,146.947 62.754,146.947 C64.620,146.947 66.062,147.381 67.080,148.249 C68.097,149.117 68.606,150.382 68.606,152.043 L68.606,159.827 L64.378,159.827 L64.378,159.183 C64.154,159.407 63.762,159.608 63.202,159.785 C62.642,159.962 62.044,160.051 61.410,160.051 C60.103,160.051 59.006,159.692 58.120,158.973 C57.233,158.254 56.790,157.260 56.790,155.991 C56.790,154.796 57.252,153.830 58.176,153.093 ZM61.382,156.831 C61.718,157.036 62.128,157.139 62.614,157.139 C63.472,157.139 64.060,156.859 64.378,156.299 L64.378,155.571 C64.079,154.992 63.491,154.703 62.614,154.703 C62.128,154.703 61.718,154.806 61.382,155.011 C61.046,155.216 60.878,155.515 60.878,155.907 C60.878,156.318 61.046,156.626 61.382,156.831 ZM75.130,159.827 L70.734,159.827 L70.734,141.627 L75.130,141.627 L75.130,159.827 ZM56.874,91.227 L61.270,91.227 L61.270,92.319 C62.091,91.404 63.220,90.947 64.658,90.947 C66.039,90.947 67.126,91.362 67.920,92.193 C68.713,93.024 69.110,94.148 69.110,95.567 L69.110,103.827 L64.742,103.827 L64.742,96.631 C64.742,96.090 64.602,95.656 64.322,95.329 C64.042,95.002 63.631,94.839 63.090,94.839 C62.642,94.839 62.254,94.960 61.928,95.203 C61.601,95.446 61.382,95.782 61.270,96.211 L61.270,103.827 L56.874,103.827 L56.874,91.227 ZM72.582,113.627 L72.582,131.827 L68.186,131.827 L68.186,130.819 C67.868,131.174 67.425,131.477 66.856,131.729 C66.286,131.981 65.694,132.107 65.078,132.107 C63.323,132.107 61.946,131.486 60.948,130.245 C59.949,129.004 59.450,127.431 59.450,125.527 C59.450,123.623 59.949,122.050 60.948,120.809 C61.946,119.568 63.323,118.947 65.078,118.947 C65.694,118.947 66.286,119.073 66.856,119.325 C67.425,119.577 67.868,119.880 68.186,120.235 L68.186,113.627 L72.582,113.627 ZM67.402,123.007 C67.047,122.783 66.664,122.671 66.254,122.671 C65.507,122.671 64.919,122.937 64.490,123.469 C64.060,124.001 63.846,124.687 63.846,125.527 C63.846,126.348 64.060,127.025 64.490,127.557 C64.919,128.089 65.507,128.355 66.254,128.355 C67.168,128.355 67.812,127.963 68.186,127.179 L68.186,123.847 C68.018,123.511 67.756,123.231 67.402,123.007 ZM70.636,64.781 C71.821,66.004 72.414,67.586 72.414,69.527 C72.414,71.468 71.821,73.050 70.636,74.273 C69.451,75.496 67.897,76.107 65.974,76.107 C64.070,76.107 62.521,75.496 61.326,74.273 C60.131,73.050 59.534,71.468 59.534,69.527 C59.534,67.586 60.131,66.004 61.326,64.781 C62.521,63.558 64.070,62.947 65.974,62.947 C67.897,62.947 69.451,63.558 70.636,64.781 ZM63.874,69.527 C63.874,70.404 64.061,71.114 64.434,71.655 C64.807,72.196 65.321,72.467 65.974,72.467 C66.646,72.467 67.169,72.201 67.542,71.669 C67.915,71.137 68.102,70.423 68.102,69.527 C68.102,68.631 67.915,67.912 67.542,67.371 C67.169,66.830 66.646,66.559 65.974,66.559 C65.321,66.559 64.807,66.830 64.434,67.371 C64.061,67.912 63.874,68.631 63.874,69.527 ZM44.275,47.827 L39.487,35.227 L43.967,35.227 L46.375,42.451 L48.727,35.227 L53.039,35.227 L48.223,47.827 L44.275,47.827 ZM54.775,36.809 C55.932,35.568 57.388,34.947 59.143,34.947 C61.047,34.947 62.507,35.516 63.525,36.655 C64.542,37.794 65.051,39.324 65.051,41.247 L65.051,42.535 L57.295,42.535 C57.631,43.954 58.704,44.663 60.515,44.663 C61.821,44.663 63.035,44.327 64.155,43.655 L64.155,46.987 C63.147,47.734 61.700,48.107 59.815,48.107 C57.780,48.107 56.142,47.528 54.901,46.371 C53.659,45.214 53.039,43.627 53.039,41.611 C53.039,39.651 53.617,38.050 54.775,36.809 ZM61.131,40.071 C61.075,39.530 60.888,39.096 60.571,38.769 C60.253,38.442 59.833,38.279 59.311,38.279 C58.321,38.279 57.668,38.876 57.351,40.071 L61.131,40.071 ZM71.602,103.463 C72.815,104.489 74.280,105.003 75.998,105.003 C76.912,105.003 77.664,104.802 78.252,104.401 C78.840,103.999 79.134,103.379 79.134,102.539 L79.134,102.119 C78.424,102.940 77.435,103.351 76.166,103.351 C74.430,103.351 73.067,102.763 72.078,101.587 C71.088,100.411 70.594,98.927 70.594,97.135 C70.594,95.343 71.088,93.864 72.078,92.697 C73.067,91.530 74.430,90.947 76.166,90.947 C77.454,90.947 78.443,91.358 79.134,92.179 L79.134,91.227 L83.474,91.227 L83.474,102.007 C83.474,104.209 82.792,105.852 81.430,106.935 C80.067,108.017 78.303,108.559 76.138,108.559 C74.215,108.559 72.703,108.204 71.602,107.495 L71.602,103.463 ZM79.134,95.483 C78.704,94.774 78.079,94.419 77.258,94.419 C76.548,94.419 75.984,94.671 75.564,95.175 C75.144,95.679 74.934,96.332 74.934,97.135 C74.934,97.938 75.144,98.591 75.564,99.095 C75.984,99.599 76.548,99.851 77.258,99.851 C78.098,99.851 78.723,99.506 79.134,98.815 L79.134,95.483 ZM77.467,155.543 C77.962,155.039 78.573,154.787 79.301,154.787 C80.029,154.787 80.645,155.034 81.149,155.529 C81.653,156.024 81.905,156.644 81.905,157.391 C81.905,158.138 81.653,158.763 81.149,159.267 C80.645,159.771 80.029,160.023 79.301,160.023 C78.592,160.023 77.985,159.771 77.481,159.267 C76.977,158.763 76.725,158.138 76.725,157.391 C76.725,156.663 76.973,156.047 77.467,155.543 ZM83.293,140.594 L84.501,141.296 L84.501,139.892 L85.725,139.892 L85.725,141.296 L86.917,140.594 L87.537,141.639 L86.313,142.341 L87.537,143.043 L86.917,144.087 L85.725,143.386 L85.725,144.789 L84.501,144.789 L84.501,143.386 L83.293,144.087 L82.689,143.043 L83.897,142.341 L82.689,141.639 L83.293,140.594 ZM81.373,130.273 C80.178,129.050 79.581,127.468 79.581,125.527 C79.581,123.586 80.178,122.004 81.373,120.781 C82.568,119.558 84.117,118.947 86.021,118.947 C87.944,118.947 89.498,119.558 90.683,120.781 C91.868,122.004 92.461,123.586 92.461,125.527 C92.461,127.468 91.868,129.050 90.683,130.273 C89.498,131.496 87.944,132.107 86.021,132.107 C84.117,132.107 82.568,131.496 81.373,130.273 ZM88.149,125.527 C88.149,124.631 87.962,123.912 87.589,123.371 C87.216,122.830 86.693,122.559 86.021,122.559 C85.368,122.559 84.854,122.830 84.481,123.371 C84.108,123.912 83.921,124.631 83.921,125.527 C83.921,126.404 84.108,127.114 84.481,127.655 C84.854,128.196 85.368,128.467 86.021,128.467 C86.693,128.467 87.216,128.201 87.589,127.669 C87.962,127.137 88.149,126.423 88.149,125.527 ZM98.425,120.319 C99.246,119.404 100.375,118.947 101.813,118.947 C103.194,118.947 104.281,119.362 105.075,120.193 C105.868,121.024 106.265,122.148 106.265,123.567 L106.265,131.827 L101.897,131.827 L101.897,124.631 C101.897,124.090 101.757,123.656 101.477,123.329 C101.197,123.002 100.786,122.839 100.245,122.839 C99.797,122.839 99.409,122.960 99.083,123.203 C98.756,123.446 98.537,123.782 98.425,124.211 L98.425,131.827 L94.029,131.827 L94.029,119.227 L98.425,119.227 L98.425,120.319 Z"/>
<path fill="url(#PSgrad_0)"
 d="M114.665,42.535 C115.001,43.954 116.075,44.663 117.885,44.663 C119.192,44.663 120.405,44.327 121.525,43.655 L121.525,46.987 C120.517,47.734 119.071,48.107 117.185,48.107 C115.151,48.107 113.513,47.528 112.271,46.371 C111.030,45.214 110.409,43.627 110.409,41.611 C110.409,39.651 110.988,38.050 112.145,36.809 C113.303,35.568 114.759,34.947 116.513,34.947 C118.417,34.947 119.878,35.516 120.895,36.655 C121.913,37.794 122.421,39.324 122.421,41.247 L122.421,42.535 L114.665,42.535 ZM117.941,38.769 C117.624,38.442 117.204,38.279 116.681,38.279 C115.692,38.279 115.039,38.876 114.721,40.071 L118.501,40.071 C118.445,39.530 118.259,39.096 117.941,38.769 ZM106.014,68.631 C106.014,68.090 105.874,67.656 105.594,67.329 C105.314,67.002 104.903,66.839 104.362,66.839 C103.914,66.839 103.526,66.960 103.200,67.203 C102.873,67.446 102.654,67.782 102.542,68.211 L102.542,75.827 L98.146,75.827 L98.146,57.627 L102.542,57.627 L102.542,64.319 C103.363,63.404 104.492,62.947 105.930,62.947 C107.311,62.947 108.398,63.362 109.192,64.193 C109.985,65.024 110.382,66.148 110.382,67.567 L110.382,75.827 L106.014,75.827 L106.014,68.631 ZM104.558,40.631 C104.558,40.090 104.418,39.656 104.138,39.329 C103.858,39.002 103.447,38.839 102.906,38.839 C102.458,38.839 102.070,38.960 101.744,39.203 C101.417,39.446 101.198,39.782 101.086,40.211 L101.086,47.827 L96.690,47.827 L96.690,29.627 L101.086,29.627 L101.086,36.319 C101.907,35.404 103.036,34.947 104.474,34.947 C105.855,34.947 106.942,35.362 107.736,36.193 C108.529,37.024 108.926,38.148 108.926,39.567 L108.926,47.827 L104.558,47.827 L104.558,40.631 ZM94.198,75.827 L89.830,75.827 L89.830,66.643 L87.646,66.643 L87.646,63.227 L89.830,63.227 L89.830,59.755 L94.198,59.755 L94.198,63.227 L96.662,63.227 L96.662,66.643 L94.198,66.643 L94.198,75.827 ZM92.742,47.827 L88.374,47.827 L88.374,38.643 L86.190,38.643 L86.190,35.227 L88.374,35.227 L88.374,31.755 L92.742,31.755 L92.742,35.227 L95.206,35.227 L95.206,38.643 L92.742,38.643 L92.742,47.827 ZM86.218,75.827 L81.850,75.827 L81.850,68.631 C81.850,68.090 81.710,67.656 81.430,67.329 C81.150,67.002 80.739,66.839 80.198,66.839 C79.750,66.839 79.362,66.960 79.036,67.203 C78.709,67.446 78.490,67.782 78.378,68.211 L78.378,75.827 L73.982,75.827 L73.982,63.227 L78.378,63.227 L78.378,64.319 C79.199,63.404 80.328,62.947 81.766,62.947 C83.147,62.947 84.234,63.362 85.028,64.193 C85.821,65.024 86.218,66.148 86.218,67.567 L86.218,75.827 ZM74.850,46.819 C74.533,47.174 74.089,47.477 73.520,47.729 C72.951,47.981 72.358,48.107 71.742,48.107 C69.987,48.107 68.611,47.486 67.612,46.245 C66.613,45.004 66.114,43.431 66.114,41.527 C66.114,39.623 66.613,38.050 67.612,36.809 C68.611,35.568 69.987,34.947 71.742,34.947 C72.358,34.947 72.951,35.073 73.520,35.325 C74.089,35.577 74.533,35.880 74.850,36.235 L74.850,29.627 L79.246,29.627 L79.246,47.827 L74.850,47.827 L74.850,46.819 ZM74.850,39.847 C74.682,39.511 74.421,39.231 74.066,39.007 C73.711,38.783 73.329,38.671 72.918,38.671 C72.171,38.671 71.583,38.937 71.154,39.469 C70.725,40.001 70.510,40.687 70.510,41.527 C70.510,42.348 70.725,43.025 71.154,43.557 C71.583,44.089 72.171,44.355 72.918,44.355 C73.833,44.355 74.477,43.963 74.850,43.179 L74.850,39.847 ZM62.447,14.663 C63.753,14.663 64.967,14.327 66.087,13.655 L66.087,16.987 C65.079,17.734 63.632,18.107 61.747,18.107 C59.712,18.107 58.074,17.528 56.833,16.371 C55.591,15.214 54.971,13.627 54.971,11.611 C54.971,9.651 55.549,8.050 56.707,6.809 C57.864,5.568 59.320,4.947 61.075,4.947 C62.979,4.947 64.439,5.516 65.457,6.655 C66.474,7.794 66.983,9.324 66.983,11.247 L66.983,12.535 L59.227,12.535 C59.563,13.954 60.636,14.663 62.447,14.663 ZM63.063,10.071 C63.007,9.530 62.820,9.096 62.503,8.769 C62.185,8.442 61.765,8.279 61.243,8.279 C60.253,8.279 59.600,8.876 59.283,10.071 L63.063,10.071 ZM46.207,17.827 L41.419,5.227 L45.899,5.227 L48.307,12.451 L50.659,5.227 L54.971,5.227 L50.155,17.827 L46.207,17.827 ZM38.535,8.279 L35.763,8.279 L37.807,5.087 C37.265,4.975 36.817,4.723 36.463,4.331 C36.108,3.939 35.931,3.435 35.931,2.819 C35.931,2.110 36.178,1.522 36.673,1.055 C37.167,0.588 37.779,0.355 38.507,0.355 C39.235,0.355 39.846,0.598 40.341,1.083 C40.835,1.568 41.083,2.240 41.083,3.099 C41.083,3.939 40.728,4.900 40.019,5.983 L38.535,8.279 ZM30.415,14.663 C31.721,14.663 32.935,14.327 34.055,13.655 L34.055,16.987 C33.047,17.734 31.600,18.107 29.715,18.107 C27.680,18.107 26.042,17.528 24.801,16.371 C23.559,15.214 22.939,13.627 22.939,11.611 C22.939,9.651 23.517,8.050 24.675,6.809 C25.832,5.568 27.288,4.947 29.043,4.947 C30.947,4.947 32.407,5.516 33.425,6.655 C34.442,7.794 34.951,9.324 34.951,11.247 L34.951,12.535 L27.195,12.535 C27.531,13.954 28.604,14.663 30.415,14.663 ZM31.031,10.071 C30.975,9.530 30.788,9.096 30.471,8.769 C30.153,8.442 29.733,8.279 29.211,8.279 C28.221,8.279 27.568,8.876 27.251,10.071 L31.031,10.071 ZM14.623,17.827 L11.963,7.747 L9.275,17.827 L5.159,17.827 L0.651,0.635 L5.243,0.635 L7.651,10.743 L10.311,0.635 L13.727,0.635 L16.359,10.743 L18.739,0.635 L23.275,0.635 L18.739,17.827 L14.623,17.827 ZM7.035,42.059 L8.939,35.227 L11.739,35.227 L13.615,42.059 L15.631,35.227 L19.831,35.227 L15.771,47.827 L12.047,47.827 L10.255,41.443 L8.463,47.827 L4.739,47.827 L0.679,35.227 L5.047,35.227 L7.035,42.059 ZM5.705,67.483 C5.863,67.595 6.111,67.698 6.447,67.791 L7.595,68.127 C8.976,68.500 9.961,68.990 10.549,69.597 C11.137,70.204 11.431,71.039 11.431,72.103 C11.431,73.410 10.931,74.404 9.933,75.085 C8.934,75.766 7.623,76.107 5.999,76.107 C4.001,76.107 2.405,75.706 1.211,74.903 L1.211,71.207 C1.789,71.674 2.508,72.056 3.367,72.355 C4.225,72.654 4.991,72.803 5.663,72.803 C6.615,72.803 7.091,72.551 7.091,72.047 C7.091,71.636 6.708,71.347 5.943,71.179 L4.963,70.927 C2.424,70.386 1.155,69.098 1.155,67.063 C1.155,65.775 1.631,64.767 2.583,64.039 C3.535,63.311 4.776,62.947 6.307,62.947 C8.024,62.947 9.489,63.320 10.703,64.067 L10.703,67.679 C9.359,66.708 8.033,66.223 6.727,66.223 C5.887,66.223 5.467,66.475 5.467,66.979 C5.467,67.203 5.546,67.371 5.705,67.483 ZM17.423,75.827 L13.027,75.827 L13.027,63.227 L17.423,63.227 L17.423,75.827 ZM13.475,58.089 C13.960,57.650 14.548,57.431 15.239,57.431 C15.929,57.431 16.517,57.650 17.003,58.089 C17.488,58.528 17.731,59.102 17.731,59.811 C17.731,60.502 17.488,61.066 17.003,61.505 C16.517,61.944 15.929,62.163 15.239,62.163 C14.548,62.163 13.960,61.944 13.475,61.505 C12.989,61.066 12.747,60.502 12.747,59.811 C12.747,59.102 12.989,58.528 13.475,58.089 ZM7.035,98.059 L8.939,91.227 L11.739,91.227 L13.615,98.059 L15.631,91.227 L19.831,91.227 L15.771,103.827 L12.047,103.827 L10.255,97.443 L8.463,103.827 L4.739,103.827 L0.679,91.227 L5.047,91.227 L7.035,98.059 ZM2.779,148.781 C3.973,147.558 5.523,146.947 7.427,146.947 C9.349,146.947 10.903,147.558 12.089,148.781 C13.274,150.004 13.867,151.586 13.867,153.527 C13.867,155.468 13.274,157.050 12.089,158.273 C10.903,159.496 9.349,160.107 7.427,160.107 C5.523,160.107 3.973,159.496 2.779,158.273 C1.584,157.050 0.987,155.468 0.987,153.527 C0.987,151.586 1.584,150.004 2.779,148.781 ZM5.887,155.655 C6.260,156.196 6.773,156.467 7.427,156.467 C8.099,156.467 8.621,156.201 8.995,155.669 C9.368,155.137 9.555,154.423 9.555,153.527 C9.555,152.631 9.368,151.912 8.995,151.371 C8.621,150.830 8.099,150.559 7.427,150.559 C6.773,150.559 6.260,150.830 5.887,151.371 C5.513,151.912 5.327,152.631 5.327,153.527 C5.327,154.404 5.513,155.114 5.887,155.655 ZM1.659,136.279 L1.659,119.227 L6.055,119.227 L6.055,120.235 C6.372,119.880 6.815,119.577 7.385,119.325 C7.954,119.073 8.547,118.947 9.163,118.947 C10.917,118.947 12.294,119.572 13.293,120.823 C14.291,122.074 14.791,123.642 14.791,125.527 C14.791,127.394 14.291,128.957 13.293,130.217 C12.294,131.477 10.917,132.107 9.163,132.107 C8.547,132.107 7.954,131.981 7.385,131.729 C6.815,131.477 6.372,131.174 6.055,130.819 L6.055,136.279 L1.659,136.279 ZM7.987,128.355 C8.733,128.355 9.321,128.089 9.751,127.557 C10.180,127.025 10.395,126.348 10.395,125.527 C10.395,124.687 10.180,124.001 9.751,123.469 C9.321,122.937 8.733,122.671 7.987,122.671 C7.091,122.671 6.447,123.063 6.055,123.847 L6.055,127.179 C6.428,127.963 7.072,128.355 7.987,128.355 ZM19.831,148.235 C20.148,147.880 20.591,147.577 21.161,147.325 C21.730,147.073 22.323,146.947 22.939,146.947 C24.693,146.947 26.070,147.572 27.069,148.823 C28.067,150.074 28.567,151.642 28.567,153.527 C28.567,155.394 28.067,156.957 27.069,158.217 C26.070,159.477 24.693,160.107 22.939,160.107 C22.323,160.107 21.730,159.981 21.161,159.729 C20.591,159.477 20.148,159.174 19.831,158.819 L19.831,164.279 L15.435,164.279 L15.435,147.227 L19.831,147.227 L19.831,148.235 ZM19.831,155.179 C20.204,155.963 20.848,156.355 21.763,156.355 C22.509,156.355 23.097,156.089 23.527,155.557 C23.956,155.025 24.171,154.348 24.171,153.527 C24.171,152.687 23.956,152.001 23.527,151.469 C23.097,150.937 22.509,150.671 21.763,150.671 C20.867,150.671 20.223,151.063 19.831,151.847 L19.831,155.179 ZM31.451,143.755 L35.819,143.755 L35.819,147.227 L38.283,147.227 L38.283,150.643 L35.819,150.643 L35.819,159.827 L31.451,159.827 L31.451,150.643 L29.267,150.643 L29.267,147.227 L31.451,147.227 L31.451,143.755 ZM37.807,89.505 C37.321,89.944 36.733,90.163 36.043,90.163 C35.352,90.163 34.764,89.944 34.279,89.505 C33.793,89.066 33.551,88.502 33.551,87.811 C33.551,87.102 33.793,86.528 34.279,86.089 C34.764,85.650 35.352,85.431 36.043,85.431 C36.733,85.431 37.321,85.650 37.807,86.089 C38.292,86.528 38.535,87.102 38.535,87.811 C38.535,88.502 38.292,89.066 37.807,89.505 ZM38.227,47.827 L33.831,47.827 L33.831,35.227 L38.227,35.227 L38.227,47.827 ZM34.279,30.089 C34.764,29.650 35.352,29.431 36.043,29.431 C36.733,29.431 37.321,29.650 37.807,30.089 C38.292,30.528 38.535,31.102 38.535,31.811 C38.535,32.502 38.292,33.066 37.807,33.505 C37.321,33.944 36.733,34.163 36.043,34.163 C35.352,34.163 34.764,33.944 34.279,33.505 C33.793,33.066 33.551,32.502 33.551,31.811 C33.551,31.102 33.793,30.528 34.279,30.089 ZM33.831,91.227 L38.227,91.227 L38.227,103.827 L33.831,103.827 L33.831,91.227 ZM33.858,120.347 C34.549,119.414 35.501,118.947 36.714,118.947 C37.256,118.947 37.657,119.022 37.918,119.171 L37.918,123.399 C37.414,123.138 36.808,123.007 36.098,123.007 C34.848,123.007 34.101,123.483 33.858,124.435 L33.858,131.827 L29.462,131.827 L29.462,119.227 L33.858,119.227 L33.858,120.347 ZM21.273,97.093 C22.197,96.356 23.350,95.987 24.731,95.987 C25.907,95.987 26.822,96.220 27.475,96.687 L27.475,96.239 C27.475,95.735 27.246,95.329 26.789,95.021 C26.332,94.713 25.664,94.559 24.787,94.559 C23.518,94.559 22.370,94.858 21.343,95.455 L21.343,91.927 C22.556,91.274 24.059,90.947 25.851,90.947 C27.718,90.947 29.160,91.381 30.177,92.249 C31.194,93.117 31.703,94.382 31.703,96.043 L31.703,103.827 L27.475,103.827 L27.475,103.183 C27.251,103.407 26.859,103.608 26.299,103.785 C25.739,103.962 25.142,104.051 24.507,104.051 C23.200,104.051 22.104,103.692 21.217,102.973 C20.330,102.254 19.887,101.260 19.887,99.991 C19.887,98.796 20.349,97.830 21.273,97.093 ZM24.479,100.831 C24.815,101.036 25.226,101.139 25.711,101.139 C26.570,101.139 27.158,100.859 27.475,100.299 L27.475,99.571 C27.176,98.992 26.588,98.703 25.711,98.703 C25.226,98.703 24.815,98.806 24.479,99.011 C24.143,99.216 23.975,99.515 23.975,99.907 C23.975,100.318 24.143,100.626 24.479,100.831 ZM23.303,128.663 C24.609,128.663 25.823,128.327 26.943,127.655 L26.943,130.987 C25.935,131.734 24.488,132.107 22.603,132.107 C20.568,132.107 18.930,131.528 17.689,130.371 C16.447,129.214 15.827,127.627 15.827,125.611 C15.827,123.651 16.405,122.050 17.563,120.809 C18.720,119.568 20.176,118.947 21.931,118.947 C23.835,118.947 25.295,119.516 26.313,120.655 C27.330,121.794 27.839,123.324 27.839,125.247 L27.839,126.535 L20.083,126.535 C20.419,127.954 21.492,128.663 23.303,128.663 ZM23.919,124.071 C23.863,123.530 23.676,123.096 23.359,122.769 C23.041,122.442 22.621,122.279 22.099,122.279 C21.109,122.279 20.456,122.876 20.139,124.071 L23.919,124.071 ZM26.789,39.021 C26.332,38.713 25.664,38.559 24.787,38.559 C23.518,38.559 22.370,38.858 21.343,39.455 L21.343,35.927 C22.556,35.274 24.059,34.947 25.851,34.947 C27.718,34.947 29.160,35.381 30.177,36.249 C31.194,37.117 31.703,38.382 31.703,40.043 L31.703,47.827 L27.475,47.827 L27.475,47.183 C27.251,47.407 26.859,47.608 26.299,47.785 C25.739,47.962 25.142,48.051 24.507,48.051 C23.200,48.051 22.104,47.692 21.217,46.973 C20.330,46.254 19.887,45.260 19.887,43.991 C19.887,42.796 20.349,41.830 21.273,41.093 C22.197,40.356 23.350,39.987 24.731,39.987 C25.907,39.987 26.822,40.220 27.475,40.687 L27.475,40.239 C27.475,39.735 27.246,39.329 26.789,39.021 ZM25.711,42.703 C25.226,42.703 24.815,42.806 24.479,43.011 C24.143,43.216 23.975,43.515 23.975,43.907 C23.975,44.318 24.143,44.626 24.479,44.831 C24.815,45.036 25.226,45.139 25.711,45.139 C26.570,45.139 27.158,44.859 27.475,44.299 L27.475,43.571 C27.176,42.992 26.588,42.703 25.711,42.703 ZM27.447,75.827 L25.291,72.551 L23.135,75.827 L18.599,75.827 L22.995,69.415 L18.795,63.227 L23.527,63.227 L25.487,66.251 L27.475,63.227 L32.011,63.227 L27.783,69.387 L32.207,75.827 L27.447,75.827 ZM43.210,64.263 C43.938,63.386 45.021,62.947 46.458,62.947 C47.914,62.947 49.071,63.451 49.930,64.459 C50.901,63.451 52.198,62.947 53.822,62.947 C55.129,62.947 56.165,63.362 56.930,64.193 C57.695,65.024 58.078,66.148 58.078,67.567 L58.078,75.827 L53.682,75.827 L53.682,68.631 C53.682,67.418 53.206,66.811 52.254,66.811 C51.862,66.811 51.521,66.928 51.232,67.161 C50.943,67.394 50.742,67.726 50.630,68.155 L50.630,75.827 L46.262,75.827 L46.262,68.631 C46.262,67.418 45.786,66.811 44.834,66.811 C44.442,66.811 44.097,66.928 43.798,67.161 C43.499,67.394 43.303,67.726 43.210,68.155 L43.210,75.827 L38.814,75.827 L38.814,63.227 L43.210,63.227 L43.210,64.263 ZM39.990,114.089 C40.475,113.650 41.063,113.431 41.754,113.431 C42.444,113.431 43.032,113.650 43.518,114.089 C44.003,114.528 44.246,115.102 44.246,115.811 C44.246,116.502 44.003,117.066 43.518,117.505 C43.032,117.944 42.444,118.163 41.754,118.163 C41.063,118.163 40.475,117.944 39.990,117.505 C39.504,117.066 39.262,116.502 39.262,115.811 C39.262,115.102 39.504,114.528 39.990,114.089 ZM39.542,119.227 L43.938,119.227 L43.938,131.827 L39.542,131.827 L39.542,119.227 ZM40.214,142.089 C40.700,141.650 41.288,141.431 41.978,141.431 C42.669,141.431 43.257,141.650 43.742,142.089 C44.228,142.528 44.470,143.102 44.470,143.811 C44.470,144.502 44.228,145.066 43.742,145.505 C43.257,145.944 42.669,146.163 41.978,146.163 C41.288,146.163 40.700,145.944 40.214,145.505 C39.729,145.066 39.486,144.502 39.486,143.811 C39.486,143.102 39.729,142.528 40.214,142.089 ZM44.162,159.827 L39.766,159.827 L39.766,147.227 L44.162,147.227 L44.162,159.827 ZM46.291,87.755 L46.291,91.227 L48.755,91.227 L48.755,94.643 L46.291,94.643 L46.291,103.827 L41.923,103.827 L41.923,94.643 L39.739,94.643 L39.739,91.227 L41.923,91.227 L41.923,87.755 L46.291,87.755 ZM54.634,103.827 L50.238,103.827 L50.238,91.227 L54.634,91.227 L54.634,103.827 ZM50.686,86.089 C51.172,85.650 51.760,85.431 52.450,85.431 C53.141,85.431 53.729,85.650 54.214,86.089 C54.700,86.528 54.942,87.102 54.942,87.811 C54.942,88.502 54.700,89.066 54.214,89.505 C53.729,89.944 53.141,90.163 52.450,90.163 C51.760,90.163 51.172,89.944 50.686,89.505 C50.201,89.066 49.958,88.502 49.958,87.811 C49.958,87.102 50.201,86.528 50.686,86.089 ZM47.298,120.781 C48.492,119.558 50.042,118.947 51.946,118.947 C53.868,118.947 55.422,119.558 56.608,120.781 C57.793,122.004 58.386,123.586 58.386,125.527 C58.386,127.468 57.793,129.050 56.608,130.273 C55.422,131.496 53.868,132.107 51.946,132.107 C50.042,132.107 48.492,131.496 47.298,130.273 C46.103,129.050 45.506,127.468 45.506,125.527 C45.506,123.586 46.103,122.004 47.298,120.781 ZM50.406,127.655 C50.779,128.196 51.292,128.467 51.946,128.467 C52.618,128.467 53.140,128.201 53.514,127.669 C53.887,127.137 54.074,126.423 54.074,125.527 C54.074,124.631 53.887,123.912 53.514,123.371 C53.140,122.830 52.618,122.559 51.946,122.559 C51.292,122.559 50.779,122.830 50.406,123.371 C50.032,123.912 49.846,124.631 49.846,125.527 C49.846,126.404 50.032,127.114 50.406,127.655 ZM47.578,148.739 C48.810,147.544 50.387,146.947 52.310,146.947 C53.728,146.947 54.858,147.246 55.698,147.843 L55.698,151.539 C54.876,150.942 53.971,150.643 52.982,150.643 C52.142,150.643 51.446,150.895 50.896,151.399 C50.345,151.903 50.070,152.612 50.070,153.527 C50.070,154.442 50.345,155.151 50.896,155.655 C51.446,156.159 52.142,156.411 52.982,156.411 C53.971,156.411 54.876,156.112 55.698,155.515 L55.698,159.211 C54.858,159.808 53.728,160.107 52.310,160.107 C50.387,160.107 48.810,159.510 47.578,158.315 C46.346,157.120 45.730,155.524 45.730,153.527 C45.730,151.530 46.346,149.934 47.578,148.739 ZM58.176,153.093 C59.100,152.356 60.252,151.987 61.634,151.987 C62.810,151.987 63.724,152.220 64.378,152.687 L64.378,152.239 C64.378,151.735 64.149,151.329 63.692,151.021 C63.234,150.713 62.567,150.559 61.690,150.559 C60.420,150.559 59.272,150.858 58.246,151.455 L58.246,147.927 C59.459,147.274 60.962,146.947 62.754,146.947 C64.620,146.947 66.062,147.381 67.080,148.249 C68.097,149.117 68.606,150.382 68.606,152.043 L68.606,159.827 L64.378,159.827 L64.378,159.183 C64.154,159.407 63.762,159.608 63.202,159.785 C62.642,159.962 62.044,160.051 61.410,160.051 C60.103,160.051 59.006,159.692 58.120,158.973 C57.233,158.254 56.790,157.260 56.790,155.991 C56.790,154.796 57.252,153.830 58.176,153.093 ZM61.382,156.831 C61.718,157.036 62.128,157.139 62.614,157.139 C63.472,157.139 64.060,156.859 64.378,156.299 L64.378,155.571 C64.079,154.992 63.491,154.703 62.614,154.703 C62.128,154.703 61.718,154.806 61.382,155.011 C61.046,155.216 60.878,155.515 60.878,155.907 C60.878,156.318 61.046,156.626 61.382,156.831 ZM75.130,159.827 L70.734,159.827 L70.734,141.627 L75.130,141.627 L75.130,159.827 ZM56.874,91.227 L61.270,91.227 L61.270,92.319 C62.091,91.404 63.220,90.947 64.658,90.947 C66.039,90.947 67.126,91.362 67.920,92.193 C68.713,93.024 69.110,94.148 69.110,95.567 L69.110,103.827 L64.742,103.827 L64.742,96.631 C64.742,96.090 64.602,95.656 64.322,95.329 C64.042,95.002 63.631,94.839 63.090,94.839 C62.642,94.839 62.254,94.960 61.928,95.203 C61.601,95.446 61.382,95.782 61.270,96.211 L61.270,103.827 L56.874,103.827 L56.874,91.227 ZM72.582,113.627 L72.582,131.827 L68.186,131.827 L68.186,130.819 C67.868,131.174 67.425,131.477 66.856,131.729 C66.286,131.981 65.694,132.107 65.078,132.107 C63.323,132.107 61.946,131.486 60.948,130.245 C59.949,129.004 59.450,127.431 59.450,125.527 C59.450,123.623 59.949,122.050 60.948,120.809 C61.946,119.568 63.323,118.947 65.078,118.947 C65.694,118.947 66.286,119.073 66.856,119.325 C67.425,119.577 67.868,119.880 68.186,120.235 L68.186,113.627 L72.582,113.627 ZM67.402,123.007 C67.047,122.783 66.664,122.671 66.254,122.671 C65.507,122.671 64.919,122.937 64.490,123.469 C64.060,124.001 63.846,124.687 63.846,125.527 C63.846,126.348 64.060,127.025 64.490,127.557 C64.919,128.089 65.507,128.355 66.254,128.355 C67.168,128.355 67.812,127.963 68.186,127.179 L68.186,123.847 C68.018,123.511 67.756,123.231 67.402,123.007 ZM70.636,64.781 C71.821,66.004 72.414,67.586 72.414,69.527 C72.414,71.468 71.821,73.050 70.636,74.273 C69.451,75.496 67.897,76.107 65.974,76.107 C64.070,76.107 62.521,75.496 61.326,74.273 C60.131,73.050 59.534,71.468 59.534,69.527 C59.534,67.586 60.131,66.004 61.326,64.781 C62.521,63.558 64.070,62.947 65.974,62.947 C67.897,62.947 69.451,63.558 70.636,64.781 ZM63.874,69.527 C63.874,70.404 64.061,71.114 64.434,71.655 C64.807,72.196 65.321,72.467 65.974,72.467 C66.646,72.467 67.169,72.201 67.542,71.669 C67.915,71.137 68.102,70.423 68.102,69.527 C68.102,68.631 67.915,67.912 67.542,67.371 C67.169,66.830 66.646,66.559 65.974,66.559 C65.321,66.559 64.807,66.830 64.434,67.371 C64.061,67.912 63.874,68.631 63.874,69.527 ZM44.275,47.827 L39.487,35.227 L43.967,35.227 L46.375,42.451 L48.727,35.227 L53.039,35.227 L48.223,47.827 L44.275,47.827 ZM54.775,36.809 C55.932,35.568 57.388,34.947 59.143,34.947 C61.047,34.947 62.507,35.516 63.525,36.655 C64.542,37.794 65.051,39.324 65.051,41.247 L65.051,42.535 L57.295,42.535 C57.631,43.954 58.704,44.663 60.515,44.663 C61.821,44.663 63.035,44.327 64.155,43.655 L64.155,46.987 C63.147,47.734 61.700,48.107 59.815,48.107 C57.780,48.107 56.142,47.528 54.901,46.371 C53.659,45.214 53.039,43.627 53.039,41.611 C53.039,39.651 53.617,38.050 54.775,36.809 ZM61.131,40.071 C61.075,39.530 60.888,39.096 60.571,38.769 C60.253,38.442 59.833,38.279 59.311,38.279 C58.321,38.279 57.668,38.876 57.351,40.071 L61.131,40.071 ZM71.602,103.463 C72.815,104.489 74.280,105.003 75.998,105.003 C76.912,105.003 77.664,104.802 78.252,104.401 C78.840,103.999 79.134,103.379 79.134,102.539 L79.134,102.119 C78.424,102.940 77.435,103.351 76.166,103.351 C74.430,103.351 73.067,102.763 72.078,101.587 C71.088,100.411 70.594,98.927 70.594,97.135 C70.594,95.343 71.088,93.864 72.078,92.697 C73.067,91.530 74.430,90.947 76.166,90.947 C77.454,90.947 78.443,91.358 79.134,92.179 L79.134,91.227 L83.474,91.227 L83.474,102.007 C83.474,104.209 82.792,105.852 81.430,106.935 C80.067,108.017 78.303,108.559 76.138,108.559 C74.215,108.559 72.703,108.204 71.602,107.495 L71.602,103.463 ZM79.134,95.483 C78.704,94.774 78.079,94.419 77.258,94.419 C76.548,94.419 75.984,94.671 75.564,95.175 C75.144,95.679 74.934,96.332 74.934,97.135 C74.934,97.938 75.144,98.591 75.564,99.095 C75.984,99.599 76.548,99.851 77.258,99.851 C78.098,99.851 78.723,99.506 79.134,98.815 L79.134,95.483 ZM77.467,155.543 C77.962,155.039 78.573,154.787 79.301,154.787 C80.029,154.787 80.645,155.034 81.149,155.529 C81.653,156.024 81.905,156.644 81.905,157.391 C81.905,158.138 81.653,158.763 81.149,159.267 C80.645,159.771 80.029,160.023 79.301,160.023 C78.592,160.023 77.985,159.771 77.481,159.267 C76.977,158.763 76.725,158.138 76.725,157.391 C76.725,156.663 76.973,156.047 77.467,155.543 ZM83.293,140.594 L84.501,141.296 L84.501,139.892 L85.725,139.892 L85.725,141.296 L86.917,140.594 L87.537,141.639 L86.313,142.341 L87.537,143.043 L86.917,144.087 L85.725,143.386 L85.725,144.789 L84.501,144.789 L84.501,143.386 L83.293,144.087 L82.689,143.043 L83.897,142.341 L82.689,141.639 L83.293,140.594 ZM81.373,130.273 C80.178,129.050 79.581,127.468 79.581,125.527 C79.581,123.586 80.178,122.004 81.373,120.781 C82.568,119.558 84.117,118.947 86.021,118.947 C87.944,118.947 89.498,119.558 90.683,120.781 C91.868,122.004 92.461,123.586 92.461,125.527 C92.461,127.468 91.868,129.050 90.683,130.273 C89.498,131.496 87.944,132.107 86.021,132.107 C84.117,132.107 82.568,131.496 81.373,130.273 ZM88.149,125.527 C88.149,124.631 87.962,123.912 87.589,123.371 C87.216,122.830 86.693,122.559 86.021,122.559 C85.368,122.559 84.854,122.830 84.481,123.371 C84.108,123.912 83.921,124.631 83.921,125.527 C83.921,126.404 84.108,127.114 84.481,127.655 C84.854,128.196 85.368,128.467 86.021,128.467 C86.693,128.467 87.216,128.201 87.589,127.669 C87.962,127.137 88.149,126.423 88.149,125.527 ZM98.425,120.319 C99.246,119.404 100.375,118.947 101.813,118.947 C103.194,118.947 104.281,119.362 105.075,120.193 C105.868,121.024 106.265,122.148 106.265,123.567 L106.265,131.827 L101.897,131.827 L101.897,124.631 C101.897,124.090 101.757,123.656 101.477,123.329 C101.197,123.002 100.786,122.839 100.245,122.839 C99.797,122.839 99.409,122.960 99.083,123.203 C98.756,123.446 98.537,123.782 98.425,124.211 L98.425,131.827 L94.029,131.827 L94.029,119.227 L98.425,119.227 L98.425,120.319 Z"/>
</svg>