<svg 
 xmlns="http://www.w3.org/2000/svg"
 xmlns:xlink="http://www.w3.org/1999/xlink"
 width="106px" height="80px">
<defs>
<linearGradient id="PSgrad_0" x1="0%" x2="68.2%" y1="0%" y2="73.135%">
  <stop offset="0%" stop-color="rgb(238,117,24)" stop-opacity="0.95" />
  <stop offset="100%" stop-color="rgb(253,91,47)" stop-opacity="0.95" />
</linearGradient>

</defs>
<path fill-rule="evenodd"  fill="rgb(227, 114, 34)"
 d="M105.353,60.043 L104.733,61.087 L103.541,60.386 L103.541,61.789 L102.317,61.789 L102.317,60.386 L101.109,61.087 L100.505,60.043 L101.713,59.341 L100.505,58.639 L101.109,57.594 L102.317,58.296 L102.317,56.892 L103.541,56.892 L103.541,58.296 L104.733,57.594 L105.353,58.639 L104.129,59.341 L105.353,60.043 ZM97.118,75.023 C96.408,75.023 95.802,74.771 95.298,74.267 C94.794,73.763 94.542,73.138 94.542,72.391 C94.542,71.663 94.789,71.047 95.284,70.543 C95.778,70.039 96.390,69.787 97.118,69.787 C97.846,69.787 98.462,70.034 98.966,70.529 C99.470,71.024 99.722,71.644 99.722,72.391 C99.722,73.138 99.470,73.763 98.966,74.267 C98.462,74.771 97.846,75.023 97.118,75.023 ZM88.578,73.819 C88.260,74.174 87.817,74.477 87.248,74.729 C86.678,74.981 86.086,75.107 85.470,75.107 C83.715,75.107 82.338,74.486 81.340,73.245 C80.341,72.004 79.842,70.431 79.842,68.527 C79.842,66.623 80.341,65.050 81.340,63.809 C82.338,62.568 83.715,61.947 85.470,61.947 C86.086,61.947 86.678,62.073 87.248,62.325 C87.817,62.577 88.260,62.880 88.578,63.235 L88.578,56.627 L92.974,56.627 L92.974,74.827 L88.578,74.827 L88.578,73.819 ZM88.578,66.847 C88.410,66.511 88.148,66.231 87.794,66.007 C87.439,65.783 87.056,65.671 86.646,65.671 C85.899,65.671 85.311,65.937 84.882,66.469 C84.452,67.001 84.238,67.687 84.238,68.527 C84.238,69.348 84.452,70.025 84.882,70.557 C85.311,71.089 85.899,71.355 86.646,71.355 C87.560,71.355 88.204,70.963 88.578,70.179 L88.578,66.847 ZM81.634,18.827 L77.266,18.827 L77.266,9.643 L75.082,9.643 L75.082,6.227 L77.266,6.227 L77.266,2.755 L81.634,2.755 L81.634,6.227 L84.098,6.227 L84.098,9.643 L81.634,9.643 L81.634,18.827 ZM77.854,61.947 C78.395,61.947 78.796,62.022 79.058,62.171 L79.058,66.399 C78.554,66.138 77.947,66.007 77.238,66.007 C75.987,66.007 75.240,66.483 74.998,67.435 L74.998,74.827 L70.602,74.827 L70.602,62.227 L74.998,62.227 L74.998,63.347 C75.688,62.414 76.640,61.947 77.854,61.947 ZM69.706,15.663 C71.013,15.663 72.226,15.327 73.346,14.655 L73.346,17.987 C72.338,18.734 70.891,19.107 69.006,19.107 C66.971,19.107 65.333,18.528 64.092,17.371 C62.851,16.214 62.230,14.627 62.230,12.611 C62.230,10.651 62.809,9.050 63.966,7.809 C65.123,6.568 66.579,5.947 68.334,5.947 C70.238,5.947 71.699,6.516 72.716,7.655 C73.733,8.794 74.242,10.324 74.242,12.247 L74.242,13.535 L66.486,13.535 C66.822,14.954 67.895,15.663 69.706,15.663 ZM70.322,11.071 C70.266,10.530 70.079,10.096 69.762,9.769 C69.445,9.442 69.025,9.279 68.502,9.279 C67.513,9.279 66.859,9.876 66.542,11.071 L70.322,11.071 ZM53.326,23.559 C51.404,23.559 49.892,23.204 48.790,22.495 L48.790,18.463 C50.004,19.489 51.469,20.003 53.186,20.003 C54.101,20.003 54.852,19.802 55.440,19.401 C56.028,18.999 56.322,18.379 56.322,17.539 L56.322,17.119 C55.613,17.940 54.624,18.351 53.354,18.351 C51.618,18.351 50.256,17.763 49.266,16.587 C48.277,15.411 47.782,13.927 47.782,12.135 C47.782,10.343 48.277,8.864 49.266,7.697 C50.256,6.530 51.618,5.947 53.354,5.947 C54.642,5.947 55.632,6.358 56.322,7.179 L56.322,6.227 L60.662,6.227 L60.662,17.007 C60.662,19.209 59.981,20.852 58.618,21.935 C57.256,23.017 55.492,23.559 53.326,23.559 ZM56.322,10.483 C55.893,9.774 55.268,9.419 54.446,9.419 C53.737,9.419 53.172,9.671 52.752,10.175 C52.332,10.679 52.122,11.332 52.122,12.135 C52.122,12.938 52.332,13.591 52.752,14.095 C53.172,14.599 53.737,14.851 54.446,14.851 C55.286,14.851 55.912,14.506 56.322,13.815 L56.322,10.483 ZM52.542,35.067 L52.542,38.679 C51.198,37.708 49.873,37.223 48.566,37.223 C47.726,37.223 47.306,37.475 47.306,37.979 C47.306,38.203 47.385,38.371 47.544,38.483 C47.703,38.595 47.950,38.698 48.286,38.791 L49.434,39.127 C50.815,39.500 51.800,39.990 52.388,40.597 C52.976,41.204 53.270,42.039 53.270,43.103 C53.270,44.410 52.771,45.404 51.772,46.085 C50.773,46.766 49.462,47.107 47.838,47.107 C45.841,47.107 44.245,46.706 43.050,45.903 L43.050,42.207 C43.629,42.674 44.347,43.056 45.206,43.355 C46.065,43.654 46.830,43.803 47.502,43.803 C48.454,43.803 48.930,43.551 48.930,43.047 C48.930,42.636 48.547,42.347 47.782,42.179 L46.802,41.927 C44.263,41.386 42.994,40.098 42.994,38.063 C42.994,36.775 43.470,35.767 44.422,35.039 C45.374,34.311 46.615,33.947 48.146,33.947 C49.863,33.947 51.329,34.320 52.542,35.067 ZM39.075,33.163 C38.384,33.163 37.796,32.944 37.311,32.505 C36.825,32.066 36.583,31.502 36.583,30.811 C36.583,30.102 36.825,29.528 37.311,29.089 C37.796,28.650 38.384,28.431 39.075,28.431 C39.765,28.431 40.353,28.650 40.839,29.089 C41.324,29.528 41.567,30.102 41.567,30.811 C41.567,31.502 41.324,32.066 40.839,32.505 C40.353,32.944 39.765,33.163 39.075,33.163 ZM36.387,17.819 C36.069,18.174 35.626,18.477 35.057,18.729 C34.487,18.981 33.895,19.107 33.279,19.107 C31.524,19.107 30.147,18.486 29.149,17.245 C28.150,16.004 27.651,14.431 27.651,12.527 C27.651,10.623 28.150,9.050 29.149,7.809 C30.147,6.568 31.524,5.947 33.279,5.947 C33.895,5.947 34.487,6.073 35.057,6.325 C35.626,6.577 36.069,6.880 36.387,7.235 L36.387,0.627 L40.783,0.627 L40.783,18.827 L36.387,18.827 L36.387,17.819 ZM36.387,10.847 C36.219,10.511 35.957,10.231 35.603,10.007 C35.248,9.783 34.865,9.671 34.455,9.671 C33.708,9.671 33.120,9.937 32.691,10.469 C32.261,11.001 32.047,11.687 32.047,12.527 C32.047,13.348 32.261,14.025 32.691,14.557 C33.120,15.089 33.708,15.355 34.455,15.355 C35.369,15.355 36.013,14.963 36.387,14.179 L36.387,10.847 ZM35.631,29.635 L29.219,46.827 L24.823,46.827 L18.411,29.635 L23.227,29.635 L27.119,40.751 L31.011,29.635 L35.631,29.635 ZM21.799,11.631 C21.799,11.090 21.659,10.656 21.379,10.329 C21.099,10.002 20.688,9.839 20.147,9.839 C19.699,9.839 19.311,9.960 18.985,10.203 C18.658,10.446 18.439,10.782 18.327,11.211 L18.327,18.827 L13.931,18.827 L13.931,6.227 L18.327,6.227 L18.327,7.319 C19.148,6.404 20.277,5.947 21.715,5.947 C23.096,5.947 24.183,6.362 24.977,7.193 C25.770,8.024 26.167,9.148 26.167,10.567 L26.167,18.827 L21.799,18.827 L21.799,11.631 ZM5.531,79.559 C3.608,79.559 2.096,79.204 0.995,78.495 L0.995,74.463 C2.208,75.489 3.673,76.003 5.391,76.003 C6.305,76.003 7.057,75.802 7.645,75.401 C8.233,74.999 8.527,74.379 8.527,73.539 L8.527,73.119 C7.817,73.940 6.828,74.351 5.559,74.351 C3.823,74.351 2.460,73.763 1.471,72.587 C0.481,71.411 -0.013,69.927 -0.013,68.135 C-0.013,66.343 0.481,64.864 1.471,63.697 C2.460,62.530 3.823,61.947 5.559,61.947 C6.847,61.947 7.836,62.358 8.527,63.179 L8.527,62.227 L12.867,62.227 L12.867,73.007 C12.867,75.209 12.185,76.852 10.823,77.935 C9.460,79.017 7.696,79.559 5.531,79.559 ZM8.527,66.483 C8.097,65.774 7.472,65.419 6.651,65.419 C5.941,65.419 5.377,65.671 4.957,66.175 C4.537,66.679 4.327,67.332 4.327,68.135 C4.327,68.938 4.537,69.591 4.957,70.095 C5.377,70.599 5.941,70.851 6.651,70.851 C7.491,70.851 8.116,70.506 8.527,69.815 L8.527,66.483 ZM7.575,46.183 C7.351,46.407 6.959,46.608 6.399,46.785 C5.839,46.962 5.241,47.051 4.607,47.051 C3.300,47.051 2.203,46.692 1.317,45.973 C0.430,45.254 -0.013,44.260 -0.013,42.991 C-0.013,41.796 0.449,40.830 1.373,40.093 C2.297,39.356 3.449,38.987 4.831,38.987 C6.007,38.987 6.921,39.220 7.575,39.687 L7.575,39.239 C7.575,38.735 7.346,38.329 6.889,38.021 C6.431,37.713 5.764,37.559 4.887,37.559 C3.617,37.559 2.469,37.858 1.443,38.455 L1.443,34.927 C2.656,34.274 4.159,33.947 5.951,33.947 C7.817,33.947 9.259,34.381 10.277,35.249 C11.294,36.117 11.803,37.382 11.803,39.043 L11.803,46.827 L7.575,46.827 L7.575,46.183 ZM7.575,42.571 C7.276,41.992 6.688,41.703 5.811,41.703 C5.325,41.703 4.915,41.806 4.579,42.011 C4.243,42.216 4.075,42.515 4.075,42.907 C4.075,43.318 4.243,43.626 4.579,43.831 C4.915,44.036 5.325,44.139 5.811,44.139 C6.669,44.139 7.257,43.859 7.575,43.299 L7.575,42.571 ZM7.575,18.183 C7.351,18.407 6.959,18.608 6.399,18.785 C5.839,18.962 5.241,19.051 4.607,19.051 C3.300,19.051 2.203,18.692 1.317,17.973 C0.430,17.254 -0.013,16.260 -0.013,14.991 C-0.013,13.796 0.449,12.830 1.373,12.093 C2.297,11.356 3.449,10.987 4.831,10.987 C6.007,10.987 6.921,11.220 7.575,11.687 L7.575,11.239 C7.575,10.735 7.346,10.329 6.889,10.021 C6.431,9.713 5.764,9.559 4.887,9.559 C3.617,9.559 2.469,9.858 1.443,10.455 L1.443,6.927 C2.656,6.274 4.159,5.947 5.951,5.947 C7.817,5.947 9.259,6.381 10.277,7.249 C11.294,8.117 11.803,9.382 11.803,11.043 L11.803,18.827 L7.575,18.827 L7.575,18.183 ZM7.575,14.571 C7.276,13.992 6.688,13.703 5.811,13.703 C5.325,13.703 4.915,13.806 4.579,14.011 C4.243,14.216 4.075,14.515 4.075,14.907 C4.075,15.318 4.243,15.626 4.579,15.831 C4.915,16.036 5.325,16.139 5.811,16.139 C6.669,16.139 7.257,15.859 7.575,15.299 L7.575,14.571 ZM17.319,56.431 C18.009,56.431 18.597,56.650 19.083,57.089 C19.568,57.528 19.811,58.102 19.811,58.811 C19.811,59.502 19.568,60.066 19.083,60.505 C18.597,60.944 18.009,61.163 17.319,61.163 C16.628,61.163 16.040,60.944 15.555,60.505 C15.069,60.066 14.827,59.502 14.827,58.811 C14.827,58.102 15.069,57.528 15.555,57.089 C16.040,56.650 16.628,56.431 17.319,56.431 ZM19.503,74.827 L15.107,74.827 L15.107,62.227 L19.503,62.227 L19.503,74.827 ZM22.807,61.303 C22.807,59.791 23.241,58.592 24.109,57.705 C24.977,56.818 26.176,56.375 27.707,56.375 C28.453,56.375 29.135,56.487 29.751,56.711 L29.751,60.295 C29.452,60.127 29.107,60.043 28.715,60.043 C27.669,60.043 27.147,60.547 27.147,61.555 L27.147,62.227 L29.583,62.227 L29.583,65.643 L27.147,65.643 L27.147,74.827 L22.807,74.827 L22.807,65.643 L20.931,65.643 L20.931,62.227 L22.807,62.227 L22.807,61.303 ZM36.863,34.227 L41.259,34.227 L41.259,46.827 L36.863,46.827 L36.863,34.227 ZM32.495,58.755 L36.863,58.755 L36.863,62.227 L39.327,62.227 L39.327,65.643 L36.863,65.643 L36.863,74.827 L32.495,74.827 L32.495,65.643 L30.311,65.643 L30.311,62.227 L32.495,62.227 L32.495,58.755 ZM52.178,61.947 C53.597,61.947 54.726,62.246 55.566,62.843 L55.566,66.539 C54.745,65.942 53.840,65.643 52.850,65.643 C52.010,65.643 51.315,65.895 50.764,66.399 C50.214,66.903 49.938,67.612 49.938,68.527 C49.938,69.442 50.214,70.151 50.764,70.655 C51.315,71.159 52.010,71.411 52.850,71.411 C53.840,71.411 54.745,71.112 55.566,70.515 L55.566,74.211 C54.726,74.808 53.597,75.107 52.178,75.107 C50.256,75.107 48.678,74.510 47.446,73.315 C46.214,72.120 45.598,70.524 45.598,68.527 C45.598,66.530 46.214,64.934 47.446,63.739 C48.678,62.544 50.256,61.947 52.178,61.947 ZM55.664,40.093 C56.588,39.356 57.740,38.987 59.122,38.987 C60.298,38.987 61.212,39.220 61.866,39.687 L61.866,39.239 C61.866,38.735 61.637,38.329 61.180,38.021 C60.722,37.713 60.055,37.559 59.178,37.559 C57.908,37.559 56.760,37.858 55.734,38.455 L55.734,34.927 C56.947,34.274 58.450,33.947 60.242,33.947 C62.108,33.947 63.550,34.381 64.568,35.249 C65.585,36.117 66.094,37.382 66.094,39.043 L66.094,46.827 L61.866,46.827 L61.866,46.183 C61.642,46.407 61.250,46.608 60.690,46.785 C60.130,46.962 59.532,47.051 58.898,47.051 C57.591,47.051 56.494,46.692 55.608,45.973 C54.721,45.254 54.278,44.260 54.278,42.991 C54.278,41.796 54.740,40.830 55.664,40.093 ZM58.870,43.831 C59.206,44.036 59.616,44.139 60.102,44.139 C60.960,44.139 61.548,43.859 61.866,43.299 L61.866,42.571 C61.567,41.992 60.979,41.703 60.102,41.703 C59.616,41.703 59.206,41.806 58.870,42.011 C58.534,42.216 58.366,42.515 58.366,42.907 C58.366,43.318 58.534,43.626 58.870,43.831 ZM61.502,66.987 C62.678,66.987 63.593,67.220 64.246,67.687 L64.246,67.239 C64.246,66.735 64.017,66.329 63.560,66.021 C63.103,65.713 62.435,65.559 61.558,65.559 C60.289,65.559 59.141,65.858 58.114,66.455 L58.114,62.927 C59.327,62.274 60.830,61.947 62.622,61.947 C64.489,61.947 65.931,62.381 66.948,63.249 C67.965,64.117 68.474,65.382 68.474,67.043 L68.474,74.827 L64.246,74.827 L64.246,74.183 C64.022,74.407 63.630,74.608 63.070,74.785 C62.510,74.962 61.913,75.051 61.278,75.051 C59.971,75.051 58.875,74.692 57.988,73.973 C57.101,73.254 56.658,72.260 56.658,70.991 C56.658,69.796 57.120,68.830 58.044,68.093 C58.968,67.356 60.121,66.987 61.502,66.987 ZM61.250,71.831 C61.586,72.036 61.997,72.139 62.482,72.139 C63.341,72.139 63.929,71.859 64.246,71.299 L64.246,70.571 C63.947,69.992 63.359,69.703 62.482,69.703 C61.997,69.703 61.586,69.806 61.250,70.011 C60.914,70.216 60.746,70.515 60.746,70.907 C60.746,71.318 60.914,71.626 61.250,71.831 Z"/>
<path fill="url(#PSgrad_0)"
 d="M105.353,60.043 L104.733,61.087 L103.541,60.386 L103.541,61.789 L102.317,61.789 L102.317,60.386 L101.109,61.087 L100.505,60.043 L101.713,59.341 L100.505,58.639 L101.109,57.594 L102.317,58.296 L102.317,56.892 L103.541,56.892 L103.541,58.296 L104.733,57.594 L105.353,58.639 L104.129,59.341 L105.353,60.043 ZM97.118,75.023 C96.408,75.023 95.802,74.771 95.298,74.267 C94.794,73.763 94.542,73.138 94.542,72.391 C94.542,71.663 94.789,71.047 95.284,70.543 C95.778,70.039 96.390,69.787 97.118,69.787 C97.846,69.787 98.462,70.034 98.966,70.529 C99.470,71.024 99.722,71.644 99.722,72.391 C99.722,73.138 99.470,73.763 98.966,74.267 C98.462,74.771 97.846,75.023 97.118,75.023 ZM88.578,73.819 C88.260,74.174 87.817,74.477 87.248,74.729 C86.678,74.981 86.086,75.107 85.470,75.107 C83.715,75.107 82.338,74.486 81.340,73.245 C80.341,72.004 79.842,70.431 79.842,68.527 C79.842,66.623 80.341,65.050 81.340,63.809 C82.338,62.568 83.715,61.947 85.470,61.947 C86.086,61.947 86.678,62.073 87.248,62.325 C87.817,62.577 88.260,62.880 88.578,63.235 L88.578,56.627 L92.974,56.627 L92.974,74.827 L88.578,74.827 L88.578,73.819 ZM88.578,66.847 C88.410,66.511 88.148,66.231 87.794,66.007 C87.439,65.783 87.056,65.671 86.646,65.671 C85.899,65.671 85.311,65.937 84.882,66.469 C84.452,67.001 84.238,67.687 84.238,68.527 C84.238,69.348 84.452,70.025 84.882,70.557 C85.311,71.089 85.899,71.355 86.646,71.355 C87.560,71.355 88.204,70.963 88.578,70.179 L88.578,66.847 ZM81.634,18.827 L77.266,18.827 L77.266,9.643 L75.082,9.643 L75.082,6.227 L77.266,6.227 L77.266,2.755 L81.634,2.755 L81.634,6.227 L84.098,6.227 L84.098,9.643 L81.634,9.643 L81.634,18.827 ZM77.854,61.947 C78.395,61.947 78.796,62.022 79.058,62.171 L79.058,66.399 C78.554,66.138 77.947,66.007 77.238,66.007 C75.987,66.007 75.240,66.483 74.998,67.435 L74.998,74.827 L70.602,74.827 L70.602,62.227 L74.998,62.227 L74.998,63.347 C75.688,62.414 76.640,61.947 77.854,61.947 ZM69.706,15.663 C71.013,15.663 72.226,15.327 73.346,14.655 L73.346,17.987 C72.338,18.734 70.891,19.107 69.006,19.107 C66.971,19.107 65.333,18.528 64.092,17.371 C62.851,16.214 62.230,14.627 62.230,12.611 C62.230,10.651 62.809,9.050 63.966,7.809 C65.123,6.568 66.579,5.947 68.334,5.947 C70.238,5.947 71.699,6.516 72.716,7.655 C73.733,8.794 74.242,10.324 74.242,12.247 L74.242,13.535 L66.486,13.535 C66.822,14.954 67.895,15.663 69.706,15.663 ZM70.322,11.071 C70.266,10.530 70.079,10.096 69.762,9.769 C69.445,9.442 69.025,9.279 68.502,9.279 C67.513,9.279 66.859,9.876 66.542,11.071 L70.322,11.071 ZM53.326,23.559 C51.404,23.559 49.892,23.204 48.790,22.495 L48.790,18.463 C50.004,19.489 51.469,20.003 53.186,20.003 C54.101,20.003 54.852,19.802 55.440,19.401 C56.028,18.999 56.322,18.379 56.322,17.539 L56.322,17.119 C55.613,17.940 54.624,18.351 53.354,18.351 C51.618,18.351 50.256,17.763 49.266,16.587 C48.277,15.411 47.782,13.927 47.782,12.135 C47.782,10.343 48.277,8.864 49.266,7.697 C50.256,6.530 51.618,5.947 53.354,5.947 C54.642,5.947 55.632,6.358 56.322,7.179 L56.322,6.227 L60.662,6.227 L60.662,17.007 C60.662,19.209 59.981,20.852 58.618,21.935 C57.256,23.017 55.492,23.559 53.326,23.559 ZM56.322,10.483 C55.893,9.774 55.268,9.419 54.446,9.419 C53.737,9.419 53.172,9.671 52.752,10.175 C52.332,10.679 52.122,11.332 52.122,12.135 C52.122,12.938 52.332,13.591 52.752,14.095 C53.172,14.599 53.737,14.851 54.446,14.851 C55.286,14.851 55.912,14.506 56.322,13.815 L56.322,10.483 ZM52.542,35.067 L52.542,38.679 C51.198,37.708 49.873,37.223 48.566,37.223 C47.726,37.223 47.306,37.475 47.306,37.979 C47.306,38.203 47.385,38.371 47.544,38.483 C47.703,38.595 47.950,38.698 48.286,38.791 L49.434,39.127 C50.815,39.500 51.800,39.990 52.388,40.597 C52.976,41.204 53.270,42.039 53.270,43.103 C53.270,44.410 52.771,45.404 51.772,46.085 C50.773,46.766 49.462,47.107 47.838,47.107 C45.841,47.107 44.245,46.706 43.050,45.903 L43.050,42.207 C43.629,42.674 44.347,43.056 45.206,43.355 C46.065,43.654 46.830,43.803 47.502,43.803 C48.454,43.803 48.930,43.551 48.930,43.047 C48.930,42.636 48.547,42.347 47.782,42.179 L46.802,41.927 C44.263,41.386 42.994,40.098 42.994,38.063 C42.994,36.775 43.470,35.767 44.422,35.039 C45.374,34.311 46.615,33.947 48.146,33.947 C49.863,33.947 51.329,34.320 52.542,35.067 ZM39.075,33.163 C38.384,33.163 37.796,32.944 37.311,32.505 C36.825,32.066 36.583,31.502 36.583,30.811 C36.583,30.102 36.825,29.528 37.311,29.089 C37.796,28.650 38.384,28.431 39.075,28.431 C39.765,28.431 40.353,28.650 40.839,29.089 C41.324,29.528 41.567,30.102 41.567,30.811 C41.567,31.502 41.324,32.066 40.839,32.505 C40.353,32.944 39.765,33.163 39.075,33.163 ZM36.387,17.819 C36.069,18.174 35.626,18.477 35.057,18.729 C34.487,18.981 33.895,19.107 33.279,19.107 C31.524,19.107 30.147,18.486 29.149,17.245 C28.150,16.004 27.651,14.431 27.651,12.527 C27.651,10.623 28.150,9.050 29.149,7.809 C30.147,6.568 31.524,5.947 33.279,5.947 C33.895,5.947 34.487,6.073 35.057,6.325 C35.626,6.577 36.069,6.880 36.387,7.235 L36.387,0.627 L40.783,0.627 L40.783,18.827 L36.387,18.827 L36.387,17.819 ZM36.387,10.847 C36.219,10.511 35.957,10.231 35.603,10.007 C35.248,9.783 34.865,9.671 34.455,9.671 C33.708,9.671 33.120,9.937 32.691,10.469 C32.261,11.001 32.047,11.687 32.047,12.527 C32.047,13.348 32.261,14.025 32.691,14.557 C33.120,15.089 33.708,15.355 34.455,15.355 C35.369,15.355 36.013,14.963 36.387,14.179 L36.387,10.847 ZM35.631,29.635 L29.219,46.827 L24.823,46.827 L18.411,29.635 L23.227,29.635 L27.119,40.751 L31.011,29.635 L35.631,29.635 ZM21.799,11.631 C21.799,11.090 21.659,10.656 21.379,10.329 C21.099,10.002 20.688,9.839 20.147,9.839 C19.699,9.839 19.311,9.960 18.985,10.203 C18.658,10.446 18.439,10.782 18.327,11.211 L18.327,18.827 L13.931,18.827 L13.931,6.227 L18.327,6.227 L18.327,7.319 C19.148,6.404 20.277,5.947 21.715,5.947 C23.096,5.947 24.183,6.362 24.977,7.193 C25.770,8.024 26.167,9.148 26.167,10.567 L26.167,18.827 L21.799,18.827 L21.799,11.631 ZM5.531,79.559 C3.608,79.559 2.096,79.204 0.995,78.495 L0.995,74.463 C2.208,75.489 3.673,76.003 5.391,76.003 C6.305,76.003 7.057,75.802 7.645,75.401 C8.233,74.999 8.527,74.379 8.527,73.539 L8.527,73.119 C7.817,73.940 6.828,74.351 5.559,74.351 C3.823,74.351 2.460,73.763 1.471,72.587 C0.481,71.411 -0.013,69.927 -0.013,68.135 C-0.013,66.343 0.481,64.864 1.471,63.697 C2.460,62.530 3.823,61.947 5.559,61.947 C6.847,61.947 7.836,62.358 8.527,63.179 L8.527,62.227 L12.867,62.227 L12.867,73.007 C12.867,75.209 12.185,76.852 10.823,77.935 C9.460,79.017 7.696,79.559 5.531,79.559 ZM8.527,66.483 C8.097,65.774 7.472,65.419 6.651,65.419 C5.941,65.419 5.377,65.671 4.957,66.175 C4.537,66.679 4.327,67.332 4.327,68.135 C4.327,68.938 4.537,69.591 4.957,70.095 C5.377,70.599 5.941,70.851 6.651,70.851 C7.491,70.851 8.116,70.506 8.527,69.815 L8.527,66.483 ZM7.575,46.183 C7.351,46.407 6.959,46.608 6.399,46.785 C5.839,46.962 5.241,47.051 4.607,47.051 C3.300,47.051 2.203,46.692 1.317,45.973 C0.430,45.254 -0.013,44.260 -0.013,42.991 C-0.013,41.796 0.449,40.830 1.373,40.093 C2.297,39.356 3.449,38.987 4.831,38.987 C6.007,38.987 6.921,39.220 7.575,39.687 L7.575,39.239 C7.575,38.735 7.346,38.329 6.889,38.021 C6.431,37.713 5.764,37.559 4.887,37.559 C3.617,37.559 2.469,37.858 1.443,38.455 L1.443,34.927 C2.656,34.274 4.159,33.947 5.951,33.947 C7.817,33.947 9.259,34.381 10.277,35.249 C11.294,36.117 11.803,37.382 11.803,39.043 L11.803,46.827 L7.575,46.827 L7.575,46.183 ZM7.575,42.571 C7.276,41.992 6.688,41.703 5.811,41.703 C5.325,41.703 4.915,41.806 4.579,42.011 C4.243,42.216 4.075,42.515 4.075,42.907 C4.075,43.318 4.243,43.626 4.579,43.831 C4.915,44.036 5.325,44.139 5.811,44.139 C6.669,44.139 7.257,43.859 7.575,43.299 L7.575,42.571 ZM7.575,18.183 C7.351,18.407 6.959,18.608 6.399,18.785 C5.839,18.962 5.241,19.051 4.607,19.051 C3.300,19.051 2.203,18.692 1.317,17.973 C0.430,17.254 -0.013,16.260 -0.013,14.991 C-0.013,13.796 0.449,12.830 1.373,12.093 C2.297,11.356 3.449,10.987 4.831,10.987 C6.007,10.987 6.921,11.220 7.575,11.687 L7.575,11.239 C7.575,10.735 7.346,10.329 6.889,10.021 C6.431,9.713 5.764,9.559 4.887,9.559 C3.617,9.559 2.469,9.858 1.443,10.455 L1.443,6.927 C2.656,6.274 4.159,5.947 5.951,5.947 C7.817,5.947 9.259,6.381 10.277,7.249 C11.294,8.117 11.803,9.382 11.803,11.043 L11.803,18.827 L7.575,18.827 L7.575,18.183 ZM7.575,14.571 C7.276,13.992 6.688,13.703 5.811,13.703 C5.325,13.703 4.915,13.806 4.579,14.011 C4.243,14.216 4.075,14.515 4.075,14.907 C4.075,15.318 4.243,15.626 4.579,15.831 C4.915,16.036 5.325,16.139 5.811,16.139 C6.669,16.139 7.257,15.859 7.575,15.299 L7.575,14.571 ZM17.319,56.431 C18.009,56.431 18.597,56.650 19.083,57.089 C19.568,57.528 19.811,58.102 19.811,58.811 C19.811,59.502 19.568,60.066 19.083,60.505 C18.597,60.944 18.009,61.163 17.319,61.163 C16.628,61.163 16.040,60.944 15.555,60.505 C15.069,60.066 14.827,59.502 14.827,58.811 C14.827,58.102 15.069,57.528 15.555,57.089 C16.040,56.650 16.628,56.431 17.319,56.431 ZM19.503,74.827 L15.107,74.827 L15.107,62.227 L19.503,62.227 L19.503,74.827 ZM22.807,61.303 C22.807,59.791 23.241,58.592 24.109,57.705 C24.977,56.818 26.176,56.375 27.707,56.375 C28.453,56.375 29.135,56.487 29.751,56.711 L29.751,60.295 C29.452,60.127 29.107,60.043 28.715,60.043 C27.669,60.043 27.147,60.547 27.147,61.555 L27.147,62.227 L29.583,62.227 L29.583,65.643 L27.147,65.643 L27.147,74.827 L22.807,74.827 L22.807,65.643 L20.931,65.643 L20.931,62.227 L22.807,62.227 L22.807,61.303 ZM36.863,34.227 L41.259,34.227 L41.259,46.827 L36.863,46.827 L36.863,34.227 ZM32.495,58.755 L36.863,58.755 L36.863,62.227 L39.327,62.227 L39.327,65.643 L36.863,65.643 L36.863,74.827 L32.495,74.827 L32.495,65.643 L30.311,65.643 L30.311,62.227 L32.495,62.227 L32.495,58.755 ZM52.178,61.947 C53.597,61.947 54.726,62.246 55.566,62.843 L55.566,66.539 C54.745,65.942 53.840,65.643 52.850,65.643 C52.010,65.643 51.315,65.895 50.764,66.399 C50.214,66.903 49.938,67.612 49.938,68.527 C49.938,69.442 50.214,70.151 50.764,70.655 C51.315,71.159 52.010,71.411 52.850,71.411 C53.840,71.411 54.745,71.112 55.566,70.515 L55.566,74.211 C54.726,74.808 53.597,75.107 52.178,75.107 C50.256,75.107 48.678,74.510 47.446,73.315 C46.214,72.120 45.598,70.524 45.598,68.527 C45.598,66.530 46.214,64.934 47.446,63.739 C48.678,62.544 50.256,61.947 52.178,61.947 ZM55.664,40.093 C56.588,39.356 57.740,38.987 59.122,38.987 C60.298,38.987 61.212,39.220 61.866,39.687 L61.866,39.239 C61.866,38.735 61.637,38.329 61.180,38.021 C60.722,37.713 60.055,37.559 59.178,37.559 C57.908,37.559 56.760,37.858 55.734,38.455 L55.734,34.927 C56.947,34.274 58.450,33.947 60.242,33.947 C62.108,33.947 63.550,34.381 64.568,35.249 C65.585,36.117 66.094,37.382 66.094,39.043 L66.094,46.827 L61.866,46.827 L61.866,46.183 C61.642,46.407 61.250,46.608 60.690,46.785 C60.130,46.962 59.532,47.051 58.898,47.051 C57.591,47.051 56.494,46.692 55.608,45.973 C54.721,45.254 54.278,44.260 54.278,42.991 C54.278,41.796 54.740,40.830 55.664,40.093 ZM58.870,43.831 C59.206,44.036 59.616,44.139 60.102,44.139 C60.960,44.139 61.548,43.859 61.866,43.299 L61.866,42.571 C61.567,41.992 60.979,41.703 60.102,41.703 C59.616,41.703 59.206,41.806 58.870,42.011 C58.534,42.216 58.366,42.515 58.366,42.907 C58.366,43.318 58.534,43.626 58.870,43.831 ZM61.502,66.987 C62.678,66.987 63.593,67.220 64.246,67.687 L64.246,67.239 C64.246,66.735 64.017,66.329 63.560,66.021 C63.103,65.713 62.435,65.559 61.558,65.559 C60.289,65.559 59.141,65.858 58.114,66.455 L58.114,62.927 C59.327,62.274 60.830,61.947 62.622,61.947 C64.489,61.947 65.931,62.381 66.948,63.249 C67.965,64.117 68.474,65.382 68.474,67.043 L68.474,74.827 L64.246,74.827 L64.246,74.183 C64.022,74.407 63.630,74.608 63.070,74.785 C62.510,74.962 61.913,75.051 61.278,75.051 C59.971,75.051 58.875,74.692 57.988,73.973 C57.101,73.254 56.658,72.260 56.658,70.991 C56.658,69.796 57.120,68.830 58.044,68.093 C58.968,67.356 60.121,66.987 61.502,66.987 ZM61.250,71.831 C61.586,72.036 61.997,72.139 62.482,72.139 C63.341,72.139 63.929,71.859 64.246,71.299 L64.246,70.571 C63.947,69.992 63.359,69.703 62.482,69.703 C61.997,69.703 61.586,69.806 61.250,70.011 C60.914,70.216 60.746,70.515 60.746,70.907 C60.746,71.318 60.914,71.626 61.250,71.831 Z"/>
</svg>