<svg 
 xmlns="http://www.w3.org/2000/svg"
 xmlns:xlink="http://www.w3.org/1999/xlink"
 width="303px" height="23px">
<defs>
<linearGradient id="PSgrad_0" x1="0%" x2="100%" y1="0%" y2="0%">
  <stop offset="0%" stop-color="rgb(238,117,24)" stop-opacity="0.95" />
  <stop offset="100%" stop-color="rgb(253,91,47)" stop-opacity="0.95" />
</linearGradient>

</defs>
<path fill-rule="evenodd"  fill="rgb(227, 114, 34)"
 d="M300.442,9.299 L300.442,17.827 L296.386,17.827 L296.386,9.299 L294.358,9.299 L294.358,6.127 L296.386,6.127 L296.386,2.903 L300.442,2.903 L300.442,6.127 L302.730,6.127 L302.730,9.299 L300.442,9.299 ZM288.716,11.145 C288.716,10.642 288.586,10.239 288.326,9.936 C288.066,9.633 287.684,9.481 287.182,9.481 C286.766,9.481 286.406,9.594 286.103,9.819 C285.799,10.044 285.596,10.356 285.492,10.755 L285.492,17.827 L281.410,17.827 L281.410,6.127 L285.492,6.127 L285.492,7.141 C286.254,6.292 287.303,5.867 288.638,5.867 C289.920,5.867 290.930,6.253 291.667,7.024 C292.403,7.795 292.772,8.840 292.772,10.157 L292.772,17.827 L288.716,17.827 L288.716,11.145 ZM275.248,17.229 C275.040,17.437 274.676,17.623 274.156,17.788 C273.636,17.952 273.081,18.035 272.492,18.035 C271.279,18.035 270.260,17.701 269.437,17.034 C268.614,16.367 268.202,15.444 268.202,14.265 C268.202,13.156 268.631,12.259 269.489,11.574 C270.347,10.889 271.417,10.547 272.700,10.547 C273.792,10.547 274.641,10.764 275.248,11.197 L275.248,10.781 C275.248,10.313 275.036,9.936 274.611,9.650 C274.186,9.364 273.567,9.221 272.752,9.221 C271.573,9.221 270.507,9.498 269.554,10.053 L269.554,6.777 C270.681,6.170 272.076,5.867 273.740,5.867 C275.473,5.867 276.812,6.270 277.757,7.076 C278.702,7.882 279.174,9.056 279.174,10.599 L279.174,17.827 L275.248,17.827 L275.248,17.229 ZM275.248,13.875 C274.971,13.338 274.425,13.069 273.610,13.069 C273.159,13.069 272.778,13.164 272.466,13.355 C272.154,13.546 271.998,13.823 271.998,14.187 C271.998,14.568 272.154,14.854 272.466,15.045 C272.778,15.236 273.159,15.331 273.610,15.331 C274.407,15.331 274.953,15.071 275.248,14.551 L275.248,13.875 ZM260.662,17.827 L258.998,11.899 L257.334,17.827 L253.876,17.827 L250.106,6.127 L254.162,6.127 L256.008,12.471 L257.776,6.127 L260.376,6.127 L262.118,12.471 L263.990,6.127 L267.890,6.127 L264.120,17.827 L260.662,17.827 ZM239.290,16.813 C238.562,17.662 237.522,18.087 236.170,18.087 C234.887,18.087 233.882,17.701 233.154,16.930 C232.426,16.159 232.062,15.114 232.062,13.797 L232.062,6.127 L236.118,6.127 L236.118,12.835 C236.118,13.962 236.621,14.525 237.626,14.525 C238.007,14.525 238.354,14.408 238.666,14.174 C238.978,13.940 239.186,13.624 239.290,13.225 L239.290,6.127 L243.372,6.127 L243.372,17.827 L239.290,17.827 L239.290,16.813 ZM224.418,18.087 C222.650,18.087 221.211,17.519 220.102,16.384 C218.993,15.249 218.438,13.780 218.438,11.977 C218.438,10.174 218.993,8.705 220.102,7.570 C221.211,6.435 222.650,5.867 224.418,5.867 C226.203,5.867 227.646,6.435 228.747,7.570 C229.848,8.705 230.398,10.174 230.398,11.977 C230.398,13.780 229.848,15.249 228.747,16.384 C227.646,17.519 226.203,18.087 224.418,18.087 ZM225.874,9.975 C225.527,9.472 225.042,9.221 224.418,9.221 C223.811,9.221 223.335,9.472 222.988,9.975 C222.641,10.478 222.468,11.145 222.468,11.977 C222.468,12.792 222.641,13.450 222.988,13.953 C223.335,14.456 223.811,14.707 224.418,14.707 C225.042,14.707 225.527,14.460 225.874,13.966 C226.221,13.472 226.394,12.809 226.394,11.977 C226.394,11.145 226.221,10.478 225.874,9.975 ZM208.116,21.961 L209.832,17.541 L205.464,6.127 L209.702,6.127 L211.938,12.783 L214.122,6.127 L218.178,6.127 L212.146,21.961 L208.116,21.961 ZM194.674,10.365 L195.740,10.677 C197.023,11.024 197.937,11.479 198.483,12.042 C199.029,12.605 199.302,13.381 199.302,14.369 C199.302,15.582 198.838,16.505 197.911,17.138 C196.984,17.771 195.766,18.087 194.258,18.087 C192.403,18.087 190.922,17.714 189.812,16.969 L189.812,13.537 C190.349,13.970 191.017,14.326 191.814,14.603 C192.612,14.880 193.322,15.019 193.946,15.019 C194.830,15.019 195.272,14.785 195.272,14.317 C195.272,13.936 194.917,13.667 194.206,13.511 L193.296,13.277 C190.939,12.774 189.760,11.578 189.760,9.689 C189.760,8.493 190.202,7.557 191.086,6.881 C191.970,6.205 193.123,5.867 194.544,5.867 C196.139,5.867 197.500,6.214 198.626,6.907 L198.626,10.261 C197.378,9.360 196.148,8.909 194.934,8.909 C194.154,8.909 193.764,9.143 193.764,9.611 C193.764,9.819 193.838,9.975 193.985,10.079 C194.133,10.183 194.362,10.278 194.674,10.365 ZM181.077,22.221 C179.291,22.221 177.887,21.891 176.865,21.233 L176.865,17.489 C177.991,18.442 179.352,18.919 180.947,18.919 C181.796,18.919 182.494,18.732 183.040,18.360 C183.586,17.987 183.859,17.411 183.859,16.631 L183.859,16.241 C183.200,17.004 182.281,17.385 181.103,17.385 C179.491,17.385 178.225,16.839 177.307,15.747 C176.388,14.655 175.929,13.277 175.929,11.613 C175.929,9.949 176.388,8.575 177.307,7.492 C178.225,6.409 179.491,5.867 181.103,5.867 C182.299,5.867 183.217,6.248 183.859,7.011 L183.859,6.127 L187.889,6.127 L187.889,16.137 C187.889,18.182 187.256,19.707 185.991,20.713 C184.725,21.718 183.087,22.221 181.077,22.221 ZM183.859,10.079 C183.460,9.420 182.879,9.091 182.117,9.091 C181.458,9.091 180.934,9.325 180.544,9.793 C180.154,10.261 179.959,10.868 179.959,11.613 C179.959,12.358 180.154,12.965 180.544,13.433 C180.934,13.901 181.458,14.135 182.117,14.135 C182.897,14.135 183.477,13.814 183.859,13.173 L183.859,10.079 ZM170.235,11.145 C170.235,10.642 170.105,10.239 169.845,9.936 C169.585,9.633 169.203,9.481 168.701,9.481 C168.285,9.481 167.925,9.594 167.622,9.819 C167.318,10.044 167.115,10.356 167.011,10.755 L167.011,17.827 L162.929,17.827 L162.929,6.127 L167.011,6.127 L167.011,7.141 C167.773,6.292 168.822,5.867 170.157,5.867 C171.439,5.867 172.449,6.253 173.186,7.024 C173.922,7.795 174.291,8.840 174.291,10.157 L174.291,17.827 L170.235,17.827 L170.235,11.145 ZM158.561,5.139 C157.919,5.139 157.373,4.935 156.923,4.528 C156.472,4.121 156.247,3.596 156.247,2.955 C156.247,2.296 156.472,1.763 156.923,1.356 C157.373,0.949 157.919,0.745 158.561,0.745 C159.202,0.745 159.748,0.949 160.199,1.356 C160.649,1.763 160.875,2.296 160.875,2.955 C160.875,3.596 160.649,4.121 160.199,4.528 C159.748,4.935 159.202,5.139 158.561,5.139 ZM150.189,11.145 C150.189,10.642 150.059,10.239 149.799,9.936 C149.539,9.633 149.157,9.481 148.655,9.481 C148.239,9.481 147.879,9.594 147.576,9.819 C147.273,10.044 147.069,10.356 146.965,10.755 L146.965,17.827 L142.883,17.827 L142.883,0.927 L146.965,0.927 L146.965,7.141 C147.728,6.292 148.776,5.867 150.111,5.867 C151.394,5.867 152.403,6.253 153.140,7.024 C153.876,7.795 154.245,8.840 154.245,10.157 L154.245,17.827 L150.189,17.827 L150.189,11.145 ZM138.957,17.827 L134.901,17.827 L134.901,9.299 L132.873,9.299 L132.873,6.127 L134.901,6.127 L134.901,2.903 L138.957,2.903 L138.957,6.127 L141.245,6.127 L141.245,9.299 L138.957,9.299 L138.957,17.827 ZM122.240,14.889 C123.453,14.889 124.580,14.577 125.620,13.953 L125.620,17.047 C124.684,17.740 123.340,18.087 121.590,18.087 C119.700,18.087 118.179,17.550 117.027,16.475 C115.874,15.400 115.298,13.927 115.298,12.055 C115.298,10.235 115.835,8.749 116.910,7.596 C117.984,6.443 119.336,5.867 120.966,5.867 C122.734,5.867 124.090,6.396 125.035,7.453 C125.979,8.510 126.452,9.932 126.452,11.717 L126.452,12.913 L119.250,12.913 C119.562,14.230 120.558,14.889 122.240,14.889 ZM122.812,10.625 C122.760,10.122 122.586,9.719 122.292,9.416 C121.997,9.113 121.607,8.961 121.122,8.961 C120.203,8.961 119.596,9.516 119.302,10.625 L122.812,10.625 ZM109.604,11.145 C109.604,10.642 109.474,10.239 109.214,9.936 C108.954,9.633 108.572,9.481 108.070,9.481 C107.654,9.481 107.294,9.594 106.991,9.819 C106.687,10.044 106.484,10.356 106.380,10.755 L106.380,17.827 L102.298,17.827 L102.298,0.927 L106.380,0.927 L106.380,7.141 C107.142,6.292 108.191,5.867 109.526,5.867 C110.808,5.867 111.818,6.253 112.555,7.024 C113.291,7.795 113.660,8.840 113.660,10.157 L113.660,17.827 L109.604,17.827 L109.604,11.145 ZM98.372,17.827 L94.316,17.827 L94.316,9.299 L92.288,9.299 L92.288,6.127 L94.316,6.127 L94.316,2.903 L98.372,2.903 L98.372,6.127 L100.660,6.127 L100.660,9.299 L98.372,9.299 L98.372,17.827 ZM76.194,21.961 L77.910,17.541 L73.542,6.127 L77.780,6.127 L80.016,12.783 L82.200,6.127 L86.256,6.127 L80.224,21.961 L76.194,21.961 ZM68.056,16.813 C67.328,17.662 66.288,18.087 64.936,18.087 C63.653,18.087 62.648,17.701 61.920,16.930 C61.192,16.159 60.828,15.114 60.828,13.797 L60.828,6.127 L64.884,6.127 L64.884,12.835 C64.884,13.962 65.387,14.525 66.392,14.525 C66.773,14.525 67.120,14.408 67.432,14.174 C67.744,13.940 67.952,13.624 68.056,13.225 L68.056,6.127 L72.138,6.127 L72.138,17.827 L68.056,17.827 L68.056,16.813 ZM53.964,18.087 C53.392,18.087 52.842,17.970 52.313,17.736 C51.784,17.502 51.373,17.220 51.078,16.891 L51.078,17.827 L46.996,17.827 L46.996,0.927 L51.078,0.927 L51.078,7.063 C51.373,6.734 51.784,6.452 52.313,6.218 C52.842,5.984 53.392,5.867 53.964,5.867 C55.593,5.867 56.872,6.443 57.799,7.596 C58.726,8.749 59.190,10.209 59.190,11.977 C59.190,13.745 58.726,15.205 57.799,16.358 C56.872,17.511 55.593,18.087 53.964,18.087 ZM54.510,10.066 C54.111,9.572 53.565,9.325 52.872,9.325 C52.491,9.325 52.135,9.429 51.806,9.637 C51.477,9.845 51.234,10.105 51.078,10.417 L51.078,13.511 C51.425,14.239 52.023,14.603 52.872,14.603 C53.565,14.603 54.111,14.356 54.510,13.862 C54.909,13.368 55.108,12.740 55.108,11.977 C55.108,11.197 54.909,10.560 54.510,10.066 ZM35.271,16.891 C34.976,17.220 34.564,17.502 34.036,17.736 C33.507,17.970 32.957,18.087 32.385,18.087 C30.755,18.087 29.477,17.511 28.550,16.358 C27.622,15.205 27.159,13.745 27.159,11.977 C27.159,10.209 27.622,8.749 28.550,7.596 C29.477,6.443 30.755,5.867 32.385,5.867 C32.957,5.867 33.507,5.984 34.036,6.218 C34.564,6.452 34.976,6.734 35.271,7.063 L35.271,0.927 L39.353,0.927 L39.353,17.827 L35.271,17.827 L35.271,16.891 ZM35.271,10.417 C35.115,10.105 34.872,9.845 34.543,9.637 C34.213,9.429 33.858,9.325 33.477,9.325 C32.783,9.325 32.237,9.572 31.839,10.066 C31.440,10.560 31.241,11.197 31.241,11.977 C31.241,12.740 31.440,13.368 31.839,13.862 C32.237,14.356 32.783,14.603 33.477,14.603 C34.326,14.603 34.924,14.239 35.271,13.511 L35.271,10.417 ZM21.465,11.145 C21.465,10.642 21.335,10.239 21.075,9.936 C20.815,9.633 20.433,9.481 19.931,9.481 C19.515,9.481 19.155,9.594 18.852,9.819 C18.548,10.044 18.345,10.356 18.241,10.755 L18.241,17.827 L14.159,17.827 L14.159,6.127 L18.241,6.127 L18.241,7.141 C19.003,6.292 20.052,5.867 21.387,5.867 C22.669,5.867 23.679,6.253 24.416,7.024 C25.152,7.795 25.521,8.840 25.521,10.157 L25.521,17.827 L21.465,17.827 L21.465,11.145 ZM7.997,17.229 C7.789,17.437 7.425,17.623 6.905,17.788 C6.385,17.952 5.830,18.035 5.241,18.035 C4.028,18.035 3.009,17.701 2.186,17.034 C1.363,16.367 0.951,15.444 0.951,14.265 C0.951,13.156 1.380,12.259 2.238,11.574 C3.096,10.889 4.166,10.547 5.449,10.547 C6.541,10.547 7.390,10.764 7.997,11.197 L7.997,10.781 C7.997,10.313 7.785,9.936 7.360,9.650 C6.935,9.364 6.316,9.221 5.501,9.221 C4.322,9.221 3.256,9.498 2.303,10.053 L2.303,6.777 C3.430,6.170 4.825,5.867 6.489,5.867 C8.222,5.867 9.561,6.270 10.506,7.076 C11.451,7.882 11.923,9.056 11.923,10.599 L11.923,17.827 L7.997,17.827 L7.997,17.229 ZM7.997,13.875 C7.720,13.338 7.174,13.069 6.359,13.069 C5.908,13.069 5.527,13.164 5.215,13.355 C4.903,13.546 4.747,13.823 4.747,14.187 C4.747,14.568 4.903,14.854 5.215,15.045 C5.527,15.236 5.908,15.331 6.359,15.331 C7.156,15.331 7.702,15.071 7.997,14.551 L7.997,13.875 ZM160.589,17.827 L156.507,17.827 L156.507,6.127 L160.589,6.127 L160.589,17.827 Z"/>
<path fill="url(#PSgrad_0)"
 d="M300.442,9.299 L300.442,17.827 L296.386,17.827 L296.386,9.299 L294.358,9.299 L294.358,6.127 L296.386,6.127 L296.386,2.903 L300.442,2.903 L300.442,6.127 L302.730,6.127 L302.730,9.299 L300.442,9.299 ZM288.716,11.145 C288.716,10.642 288.586,10.239 288.326,9.936 C288.066,9.633 287.684,9.481 287.182,9.481 C286.766,9.481 286.406,9.594 286.103,9.819 C285.799,10.044 285.596,10.356 285.492,10.755 L285.492,17.827 L281.410,17.827 L281.410,6.127 L285.492,6.127 L285.492,7.141 C286.254,6.292 287.303,5.867 288.638,5.867 C289.920,5.867 290.930,6.253 291.667,7.024 C292.403,7.795 292.772,8.840 292.772,10.157 L292.772,17.827 L288.716,17.827 L288.716,11.145 ZM275.248,17.229 C275.040,17.437 274.676,17.623 274.156,17.788 C273.636,17.952 273.081,18.035 272.492,18.035 C271.279,18.035 270.260,17.701 269.437,17.034 C268.614,16.367 268.202,15.444 268.202,14.265 C268.202,13.156 268.631,12.259 269.489,11.574 C270.347,10.889 271.417,10.547 272.700,10.547 C273.792,10.547 274.641,10.764 275.248,11.197 L275.248,10.781 C275.248,10.313 275.036,9.936 274.611,9.650 C274.186,9.364 273.567,9.221 272.752,9.221 C271.573,9.221 270.507,9.498 269.554,10.053 L269.554,6.777 C270.681,6.170 272.076,5.867 273.740,5.867 C275.473,5.867 276.812,6.270 277.757,7.076 C278.702,7.882 279.174,9.056 279.174,10.599 L279.174,17.827 L275.248,17.827 L275.248,17.229 ZM275.248,13.875 C274.971,13.338 274.425,13.069 273.610,13.069 C273.159,13.069 272.778,13.164 272.466,13.355 C272.154,13.546 271.998,13.823 271.998,14.187 C271.998,14.568 272.154,14.854 272.466,15.045 C272.778,15.236 273.159,15.331 273.610,15.331 C274.407,15.331 274.953,15.071 275.248,14.551 L275.248,13.875 ZM260.662,17.827 L258.998,11.899 L257.334,17.827 L253.876,17.827 L250.106,6.127 L254.162,6.127 L256.008,12.471 L257.776,6.127 L260.376,6.127 L262.118,12.471 L263.990,6.127 L267.890,6.127 L264.120,17.827 L260.662,17.827 ZM239.290,16.813 C238.562,17.662 237.522,18.087 236.170,18.087 C234.887,18.087 233.882,17.701 233.154,16.930 C232.426,16.159 232.062,15.114 232.062,13.797 L232.062,6.127 L236.118,6.127 L236.118,12.835 C236.118,13.962 236.621,14.525 237.626,14.525 C238.007,14.525 238.354,14.408 238.666,14.174 C238.978,13.940 239.186,13.624 239.290,13.225 L239.290,6.127 L243.372,6.127 L243.372,17.827 L239.290,17.827 L239.290,16.813 ZM224.418,18.087 C222.650,18.087 221.211,17.519 220.102,16.384 C218.993,15.249 218.438,13.780 218.438,11.977 C218.438,10.174 218.993,8.705 220.102,7.570 C221.211,6.435 222.650,5.867 224.418,5.867 C226.203,5.867 227.646,6.435 228.747,7.570 C229.848,8.705 230.398,10.174 230.398,11.977 C230.398,13.780 229.848,15.249 228.747,16.384 C227.646,17.519 226.203,18.087 224.418,18.087 ZM225.874,9.975 C225.527,9.472 225.042,9.221 224.418,9.221 C223.811,9.221 223.335,9.472 222.988,9.975 C222.641,10.478 222.468,11.145 222.468,11.977 C222.468,12.792 222.641,13.450 222.988,13.953 C223.335,14.456 223.811,14.707 224.418,14.707 C225.042,14.707 225.527,14.460 225.874,13.966 C226.221,13.472 226.394,12.809 226.394,11.977 C226.394,11.145 226.221,10.478 225.874,9.975 ZM208.116,21.961 L209.832,17.541 L205.464,6.127 L209.702,6.127 L211.938,12.783 L214.122,6.127 L218.178,6.127 L212.146,21.961 L208.116,21.961 ZM194.674,10.365 L195.740,10.677 C197.023,11.024 197.937,11.479 198.483,12.042 C199.029,12.605 199.302,13.381 199.302,14.369 C199.302,15.582 198.838,16.505 197.911,17.138 C196.984,17.771 195.766,18.087 194.258,18.087 C192.403,18.087 190.922,17.714 189.812,16.969 L189.812,13.537 C190.349,13.970 191.017,14.326 191.814,14.603 C192.612,14.880 193.322,15.019 193.946,15.019 C194.830,15.019 195.272,14.785 195.272,14.317 C195.272,13.936 194.917,13.667 194.206,13.511 L193.296,13.277 C190.939,12.774 189.760,11.578 189.760,9.689 C189.760,8.493 190.202,7.557 191.086,6.881 C191.970,6.205 193.123,5.867 194.544,5.867 C196.139,5.867 197.500,6.214 198.626,6.907 L198.626,10.261 C197.378,9.360 196.148,8.909 194.934,8.909 C194.154,8.909 193.764,9.143 193.764,9.611 C193.764,9.819 193.838,9.975 193.985,10.079 C194.133,10.183 194.362,10.278 194.674,10.365 ZM181.077,22.221 C179.291,22.221 177.887,21.891 176.865,21.233 L176.865,17.489 C177.991,18.442 179.352,18.919 180.947,18.919 C181.796,18.919 182.494,18.732 183.040,18.360 C183.586,17.987 183.859,17.411 183.859,16.631 L183.859,16.241 C183.200,17.004 182.281,17.385 181.103,17.385 C179.491,17.385 178.225,16.839 177.307,15.747 C176.388,14.655 175.929,13.277 175.929,11.613 C175.929,9.949 176.388,8.575 177.307,7.492 C178.225,6.409 179.491,5.867 181.103,5.867 C182.299,5.867 183.217,6.248 183.859,7.011 L183.859,6.127 L187.889,6.127 L187.889,16.137 C187.889,18.182 187.256,19.707 185.991,20.713 C184.725,21.718 183.087,22.221 181.077,22.221 ZM183.859,10.079 C183.460,9.420 182.879,9.091 182.117,9.091 C181.458,9.091 180.934,9.325 180.544,9.793 C180.154,10.261 179.959,10.868 179.959,11.613 C179.959,12.358 180.154,12.965 180.544,13.433 C180.934,13.901 181.458,14.135 182.117,14.135 C182.897,14.135 183.477,13.814 183.859,13.173 L183.859,10.079 ZM170.235,11.145 C170.235,10.642 170.105,10.239 169.845,9.936 C169.585,9.633 169.203,9.481 168.701,9.481 C168.285,9.481 167.925,9.594 167.622,9.819 C167.318,10.044 167.115,10.356 167.011,10.755 L167.011,17.827 L162.929,17.827 L162.929,6.127 L167.011,6.127 L167.011,7.141 C167.773,6.292 168.822,5.867 170.157,5.867 C171.439,5.867 172.449,6.253 173.186,7.024 C173.922,7.795 174.291,8.840 174.291,10.157 L174.291,17.827 L170.235,17.827 L170.235,11.145 ZM158.561,5.139 C157.919,5.139 157.373,4.935 156.923,4.528 C156.472,4.121 156.247,3.596 156.247,2.955 C156.247,2.296 156.472,1.763 156.923,1.356 C157.373,0.949 157.919,0.745 158.561,0.745 C159.202,0.745 159.748,0.949 160.199,1.356 C160.649,1.763 160.875,2.296 160.875,2.955 C160.875,3.596 160.649,4.121 160.199,4.528 C159.748,4.935 159.202,5.139 158.561,5.139 ZM150.189,11.145 C150.189,10.642 150.059,10.239 149.799,9.936 C149.539,9.633 149.157,9.481 148.655,9.481 C148.239,9.481 147.879,9.594 147.576,9.819 C147.273,10.044 147.069,10.356 146.965,10.755 L146.965,17.827 L142.883,17.827 L142.883,0.927 L146.965,0.927 L146.965,7.141 C147.728,6.292 148.776,5.867 150.111,5.867 C151.394,5.867 152.403,6.253 153.140,7.024 C153.876,7.795 154.245,8.840 154.245,10.157 L154.245,17.827 L150.189,17.827 L150.189,11.145 ZM138.957,17.827 L134.901,17.827 L134.901,9.299 L132.873,9.299 L132.873,6.127 L134.901,6.127 L134.901,2.903 L138.957,2.903 L138.957,6.127 L141.245,6.127 L141.245,9.299 L138.957,9.299 L138.957,17.827 ZM122.240,14.889 C123.453,14.889 124.580,14.577 125.620,13.953 L125.620,17.047 C124.684,17.740 123.340,18.087 121.590,18.087 C119.700,18.087 118.179,17.550 117.027,16.475 C115.874,15.400 115.298,13.927 115.298,12.055 C115.298,10.235 115.835,8.749 116.910,7.596 C117.984,6.443 119.336,5.867 120.966,5.867 C122.734,5.867 124.090,6.396 125.035,7.453 C125.979,8.510 126.452,9.932 126.452,11.717 L126.452,12.913 L119.250,12.913 C119.562,14.230 120.558,14.889 122.240,14.889 ZM122.812,10.625 C122.760,10.122 122.586,9.719 122.292,9.416 C121.997,9.113 121.607,8.961 121.122,8.961 C120.203,8.961 119.596,9.516 119.302,10.625 L122.812,10.625 ZM109.604,11.145 C109.604,10.642 109.474,10.239 109.214,9.936 C108.954,9.633 108.572,9.481 108.070,9.481 C107.654,9.481 107.294,9.594 106.991,9.819 C106.687,10.044 106.484,10.356 106.380,10.755 L106.380,17.827 L102.298,17.827 L102.298,0.927 L106.380,0.927 L106.380,7.141 C107.142,6.292 108.191,5.867 109.526,5.867 C110.808,5.867 111.818,6.253 112.555,7.024 C113.291,7.795 113.660,8.840 113.660,10.157 L113.660,17.827 L109.604,17.827 L109.604,11.145 ZM98.372,17.827 L94.316,17.827 L94.316,9.299 L92.288,9.299 L92.288,6.127 L94.316,6.127 L94.316,2.903 L98.372,2.903 L98.372,6.127 L100.660,6.127 L100.660,9.299 L98.372,9.299 L98.372,17.827 ZM76.194,21.961 L77.910,17.541 L73.542,6.127 L77.780,6.127 L80.016,12.783 L82.200,6.127 L86.256,6.127 L80.224,21.961 L76.194,21.961 ZM68.056,16.813 C67.328,17.662 66.288,18.087 64.936,18.087 C63.653,18.087 62.648,17.701 61.920,16.930 C61.192,16.159 60.828,15.114 60.828,13.797 L60.828,6.127 L64.884,6.127 L64.884,12.835 C64.884,13.962 65.387,14.525 66.392,14.525 C66.773,14.525 67.120,14.408 67.432,14.174 C67.744,13.940 67.952,13.624 68.056,13.225 L68.056,6.127 L72.138,6.127 L72.138,17.827 L68.056,17.827 L68.056,16.813 ZM53.964,18.087 C53.392,18.087 52.842,17.970 52.313,17.736 C51.784,17.502 51.373,17.220 51.078,16.891 L51.078,17.827 L46.996,17.827 L46.996,0.927 L51.078,0.927 L51.078,7.063 C51.373,6.734 51.784,6.452 52.313,6.218 C52.842,5.984 53.392,5.867 53.964,5.867 C55.593,5.867 56.872,6.443 57.799,7.596 C58.726,8.749 59.190,10.209 59.190,11.977 C59.190,13.745 58.726,15.205 57.799,16.358 C56.872,17.511 55.593,18.087 53.964,18.087 ZM54.510,10.066 C54.111,9.572 53.565,9.325 52.872,9.325 C52.491,9.325 52.135,9.429 51.806,9.637 C51.477,9.845 51.234,10.105 51.078,10.417 L51.078,13.511 C51.425,14.239 52.023,14.603 52.872,14.603 C53.565,14.603 54.111,14.356 54.510,13.862 C54.909,13.368 55.108,12.740 55.108,11.977 C55.108,11.197 54.909,10.560 54.510,10.066 ZM35.271,16.891 C34.976,17.220 34.564,17.502 34.036,17.736 C33.507,17.970 32.957,18.087 32.385,18.087 C30.755,18.087 29.477,17.511 28.550,16.358 C27.622,15.205 27.159,13.745 27.159,11.977 C27.159,10.209 27.622,8.749 28.550,7.596 C29.477,6.443 30.755,5.867 32.385,5.867 C32.957,5.867 33.507,5.984 34.036,6.218 C34.564,6.452 34.976,6.734 35.271,7.063 L35.271,0.927 L39.353,0.927 L39.353,17.827 L35.271,17.827 L35.271,16.891 ZM35.271,10.417 C35.115,10.105 34.872,9.845 34.543,9.637 C34.213,9.429 33.858,9.325 33.477,9.325 C32.783,9.325 32.237,9.572 31.839,10.066 C31.440,10.560 31.241,11.197 31.241,11.977 C31.241,12.740 31.440,13.368 31.839,13.862 C32.237,14.356 32.783,14.603 33.477,14.603 C34.326,14.603 34.924,14.239 35.271,13.511 L35.271,10.417 ZM21.465,11.145 C21.465,10.642 21.335,10.239 21.075,9.936 C20.815,9.633 20.433,9.481 19.931,9.481 C19.515,9.481 19.155,9.594 18.852,9.819 C18.548,10.044 18.345,10.356 18.241,10.755 L18.241,17.827 L14.159,17.827 L14.159,6.127 L18.241,6.127 L18.241,7.141 C19.003,6.292 20.052,5.867 21.387,5.867 C22.669,5.867 23.679,6.253 24.416,7.024 C25.152,7.795 25.521,8.840 25.521,10.157 L25.521,17.827 L21.465,17.827 L21.465,11.145 ZM7.997,17.229 C7.789,17.437 7.425,17.623 6.905,17.788 C6.385,17.952 5.830,18.035 5.241,18.035 C4.028,18.035 3.009,17.701 2.186,17.034 C1.363,16.367 0.951,15.444 0.951,14.265 C0.951,13.156 1.380,12.259 2.238,11.574 C3.096,10.889 4.166,10.547 5.449,10.547 C6.541,10.547 7.390,10.764 7.997,11.197 L7.997,10.781 C7.997,10.313 7.785,9.936 7.360,9.650 C6.935,9.364 6.316,9.221 5.501,9.221 C4.322,9.221 3.256,9.498 2.303,10.053 L2.303,6.777 C3.430,6.170 4.825,5.867 6.489,5.867 C8.222,5.867 9.561,6.270 10.506,7.076 C11.451,7.882 11.923,9.056 11.923,10.599 L11.923,17.827 L7.997,17.827 L7.997,17.229 ZM7.997,13.875 C7.720,13.338 7.174,13.069 6.359,13.069 C5.908,13.069 5.527,13.164 5.215,13.355 C4.903,13.546 4.747,13.823 4.747,14.187 C4.747,14.568 4.903,14.854 5.215,15.045 C5.527,15.236 5.908,15.331 6.359,15.331 C7.156,15.331 7.702,15.071 7.997,14.551 L7.997,13.875 ZM160.589,17.827 L156.507,17.827 L156.507,6.127 L160.589,6.127 L160.589,17.827 Z"/>
</svg>