<svg 
 xmlns="http://www.w3.org/2000/svg"
 xmlns:xlink="http://www.w3.org/1999/xlink"
 width="242px" height="83px">
<defs>
<linearGradient id="PSgrad_0" x1="0%" x2="64.279%" y1="0%" y2="76.604%">
  <stop offset="0%" stop-color="rgb(238,117,24)" stop-opacity="0.95" />
  <stop offset="100%" stop-color="rgb(253,91,47)" stop-opacity="0.95" />
</linearGradient>

</defs>
<path fill-rule="evenodd"  fill="rgb(227, 114, 34)"
 d="M239.444,62.156 L238.100,59.824 L236.776,62.156 L234.257,62.156 L236.906,57.716 L239.294,57.716 L241.943,62.156 L239.444,62.156 ZM229.367,1.027 L234.391,1.027 L234.391,21.827 L229.367,21.827 L229.367,1.027 ZM232.439,72.915 C233.015,73.480 233.303,74.190 233.303,75.043 C233.303,75.896 233.015,76.611 232.439,77.187 C231.863,77.763 231.159,78.051 230.327,78.051 C229.516,78.051 228.823,77.763 228.247,77.187 C227.671,76.611 227.383,75.896 227.383,75.043 C227.383,74.211 227.665,73.507 228.231,72.931 C228.796,72.355 229.495,72.067 230.327,72.067 C231.159,72.067 231.863,72.350 232.439,72.915 ZM221.464,1.027 L226.488,1.027 L226.488,21.827 L221.464,21.827 L221.464,1.027 ZM224.951,64.387 L224.951,68.515 C223.415,67.406 221.900,66.851 220.407,66.851 C219.447,66.851 218.967,67.139 218.967,67.715 C218.967,67.971 219.058,68.163 219.239,68.291 C219.420,68.419 219.703,68.536 220.087,68.643 L221.399,69.027 C222.978,69.454 224.103,70.014 224.775,70.707 C225.447,71.400 225.783,72.355 225.783,73.571 C225.783,75.064 225.212,76.200 224.071,76.979 C222.930,77.758 221.431,78.147 219.575,78.147 C217.292,78.147 215.468,77.688 214.103,76.771 L214.103,72.547 C214.764,73.080 215.586,73.518 216.567,73.859 C217.548,74.200 218.423,74.371 219.191,74.371 C220.279,74.371 220.823,74.083 220.823,73.507 C220.823,73.038 220.386,72.707 219.511,72.515 L218.391,72.227 C215.490,71.608 214.039,70.136 214.039,67.811 C214.039,66.339 214.583,65.187 215.671,64.355 C216.759,63.523 218.178,63.107 219.927,63.107 C221.890,63.107 223.564,63.534 224.951,64.387 ZM213.880,21.091 C213.624,21.347 213.176,21.576 212.536,21.779 C211.896,21.981 211.213,22.083 210.488,22.083 C208.994,22.083 207.741,21.672 206.728,20.851 C205.714,20.030 205.208,18.894 205.208,17.443 C205.208,16.078 205.736,14.974 206.792,14.131 C207.848,13.288 209.165,12.867 210.744,12.867 C212.088,12.867 213.133,13.134 213.880,13.667 L213.880,13.155 C213.880,12.579 213.618,12.115 213.096,11.763 C212.573,11.411 211.810,11.235 210.808,11.235 C209.357,11.235 208.045,11.576 206.872,12.259 L206.872,8.227 C208.258,7.480 209.976,7.107 212.024,7.107 C214.157,7.107 215.805,7.603 216.968,8.595 C218.130,9.587 218.712,11.032 218.712,12.931 L218.712,21.827 L213.880,21.827 L213.880,21.091 ZM213.880,16.963 C213.538,16.302 212.866,15.971 211.864,15.971 C211.309,15.971 210.840,16.088 210.456,16.323 C210.072,16.558 209.880,16.899 209.880,17.347 C209.880,17.816 210.072,18.168 210.456,18.403 C210.840,18.638 211.309,18.755 211.864,18.755 C212.845,18.755 213.517,18.435 213.880,17.795 L213.880,16.963 ZM210.119,64.595 C211.282,65.587 211.863,67.032 211.863,68.931 L211.863,77.827 L207.031,77.827 L207.031,77.091 C206.775,77.347 206.327,77.576 205.687,77.779 C205.047,77.981 204.364,78.083 203.639,78.083 C202.146,78.083 200.892,77.672 199.879,76.851 C198.866,76.030 198.359,74.894 198.359,73.443 C198.359,72.078 198.887,70.974 199.943,70.131 C200.999,69.288 202.316,68.867 203.895,68.867 C205.239,68.867 206.284,69.134 207.031,69.667 L207.031,69.155 C207.031,68.579 206.770,68.115 206.247,67.763 C205.724,67.411 204.962,67.235 203.959,67.235 C202.508,67.235 201.196,67.576 200.023,68.259 L200.023,64.227 C201.410,63.480 203.127,63.107 205.175,63.107 C207.308,63.107 208.956,63.603 210.119,64.595 ZM207.031,72.963 C206.690,72.302 206.018,71.971 205.015,71.971 C204.460,71.971 203.991,72.088 203.607,72.323 C203.223,72.558 203.031,72.899 203.031,73.347 C203.031,73.816 203.223,74.168 203.607,74.403 C203.991,74.638 204.460,74.755 205.015,74.755 C205.996,74.755 206.668,74.435 207.031,73.795 L207.031,72.963 ZM195.352,67.747 C193.922,67.747 193.069,68.291 192.792,69.379 L192.792,77.827 L187.768,77.827 L187.768,63.427 L192.792,63.427 L192.792,64.707 C193.581,63.640 194.669,63.107 196.056,63.107 C196.674,63.107 197.133,63.192 197.432,63.363 L197.432,68.195 C196.856,67.896 196.162,67.747 195.352,67.747 ZM192.056,18.211 C193.549,18.211 194.936,17.827 196.216,17.059 L196.216,20.867 C195.064,21.720 193.411,22.147 191.256,22.147 C188.931,22.147 187.059,21.486 185.640,20.163 C184.221,18.840 183.512,17.027 183.512,14.723 C183.512,12.483 184.173,10.654 185.496,9.235 C186.819,7.816 188.483,7.107 190.488,7.107 C192.664,7.107 194.333,7.758 195.496,9.059 C196.659,10.360 197.240,12.110 197.240,14.307 L197.240,15.779 L188.376,15.779 C188.760,17.400 189.987,18.211 192.056,18.211 ZM192.760,12.963 C192.696,12.344 192.483,11.848 192.120,11.475 C191.757,11.102 191.277,10.915 190.680,10.915 C189.549,10.915 188.803,11.598 188.440,12.963 L192.760,12.963 ZM186.616,36.515 L186.616,35.427 L191.576,35.427 L191.576,47.747 C191.576,50.264 190.797,52.141 189.240,53.379 C187.682,54.616 185.666,55.235 183.192,55.235 C180.994,55.235 179.266,54.829 178.008,54.019 L178.008,49.411 C179.394,50.584 181.069,51.171 183.032,51.171 C184.077,51.171 184.936,50.941 185.608,50.483 C186.280,50.024 186.616,49.315 186.616,48.355 L186.616,47.875 C185.805,48.814 184.674,49.283 183.224,49.283 C181.240,49.283 179.682,48.611 178.552,47.267 C177.421,45.923 176.856,44.227 176.856,42.179 C176.856,40.131 177.421,38.440 178.552,37.107 C179.682,35.774 181.240,35.107 183.224,35.107 C184.696,35.107 185.826,35.576 186.616,36.515 ZM182.536,39.939 C182.056,40.515 181.816,41.262 181.816,42.179 C181.816,43.096 182.056,43.843 182.536,44.419 C183.016,44.995 183.661,45.283 184.472,45.283 C185.432,45.283 186.146,44.888 186.616,44.099 L186.616,40.291 C186.125,39.480 185.410,39.075 184.472,39.075 C183.661,39.075 183.016,39.363 182.536,39.939 ZM173.177,21.827 L167.705,7.427 L172.825,7.427 L175.577,15.683 L178.265,7.427 L183.193,7.427 L177.689,21.827 L173.177,21.827 ZM173.480,36.531 C174.386,37.480 174.840,38.766 174.840,40.387 L174.840,49.827 L169.848,49.827 L169.848,41.603 C169.848,40.984 169.688,40.488 169.368,40.115 C169.048,39.742 168.578,39.555 167.960,39.555 C167.448,39.555 167.005,39.694 166.632,39.971 C166.258,40.248 166.008,40.632 165.880,41.123 L165.880,49.827 L160.856,49.827 L160.856,35.427 L165.880,35.427 L165.880,36.675 C166.818,35.630 168.109,35.107 169.752,35.107 C171.330,35.107 172.573,35.582 173.480,36.531 ZM165.945,21.827 L160.921,21.827 L160.921,7.427 L165.945,7.427 L165.945,21.827 ZM163.449,6.211 C162.659,6.211 161.987,5.960 161.433,5.459 C160.878,4.958 160.601,4.312 160.601,3.523 C160.601,2.712 160.878,2.056 161.433,1.555 C161.987,1.054 162.659,0.803 163.449,0.803 C164.238,0.803 164.910,1.054 165.465,1.555 C166.019,2.056 166.297,2.712 166.297,3.523 C166.297,4.312 166.019,4.958 165.465,5.459 C164.910,5.960 164.238,6.211 163.449,6.211 ZM164.728,63.427 L166.969,66.883 L169.241,63.427 L174.424,63.427 L169.592,70.467 L174.648,77.827 L169.209,77.827 L166.745,74.083 L164.280,77.827 L159.097,77.827 L164.121,70.499 L159.321,63.427 L164.728,63.427 ZM153.368,74.211 C154.861,74.211 156.248,73.827 157.528,73.059 L157.528,76.867 C156.376,77.720 154.723,78.147 152.568,78.147 C150.243,78.147 148.371,77.486 146.952,76.163 C145.533,74.840 144.824,73.027 144.824,70.723 C144.824,68.483 145.485,66.654 146.808,65.235 C148.131,63.816 149.795,63.107 151.800,63.107 C153.976,63.107 155.645,63.758 156.808,65.059 C157.971,66.360 158.552,68.110 158.552,70.307 L158.552,71.779 L149.688,71.779 C150.072,73.400 151.299,74.211 153.368,74.211 ZM154.072,68.963 C154.008,68.344 153.795,67.848 153.432,67.475 C153.069,67.102 152.589,66.915 151.992,66.915 C150.861,66.915 150.115,67.598 149.752,68.963 L154.072,68.963 ZM157.976,49.827 L152.952,49.827 L152.952,35.427 L157.976,35.427 L157.976,49.827 ZM155.480,34.211 C154.691,34.211 154.019,33.960 153.464,33.459 C152.909,32.958 152.632,32.312 152.632,31.523 C152.632,30.712 152.909,30.056 153.464,29.555 C154.019,29.054 154.691,28.803 155.480,28.803 C156.269,28.803 156.941,29.054 157.496,29.555 C158.051,30.056 158.328,30.712 158.328,31.523 C158.328,32.312 158.051,32.958 157.496,33.459 C156.941,33.960 156.269,34.211 155.480,34.211 ZM153.337,21.091 C153.081,21.347 152.633,21.576 151.993,21.779 C151.353,21.981 150.670,22.083 149.945,22.083 C148.452,22.083 147.198,21.672 146.185,20.851 C145.172,20.030 144.665,18.894 144.665,17.443 C144.665,16.078 145.193,14.974 146.249,14.131 C147.305,13.288 148.622,12.867 150.201,12.867 C151.545,12.867 152.590,13.134 153.337,13.667 L153.337,13.155 C153.337,12.579 153.076,12.115 152.553,11.763 C152.030,11.411 151.268,11.235 150.265,11.235 C148.814,11.235 147.502,11.576 146.329,12.259 L146.329,8.227 C147.716,7.480 149.433,7.107 151.481,7.107 C153.614,7.107 155.262,7.603 156.425,8.595 C157.588,9.587 158.169,11.032 158.169,12.931 L158.169,21.827 L153.337,21.827 L153.337,21.091 ZM153.337,16.963 C152.996,16.302 152.324,15.971 151.321,15.971 C150.766,15.971 150.297,16.088 149.913,16.323 C149.529,16.558 149.337,16.899 149.337,17.347 C149.337,17.816 149.529,18.168 149.913,18.403 C150.297,18.638 150.766,18.755 151.321,18.755 C152.302,18.755 152.974,18.435 153.337,17.795 L153.337,16.963 ZM135.385,21.827 L133.337,14.531 L131.289,21.827 L127.033,21.827 L122.393,7.427 L127.385,7.427 L129.657,15.235 L131.833,7.427 L135.033,7.427 L137.177,15.235 L139.481,7.427 L144.281,7.427 L139.641,21.827 L135.385,21.827 ZM129.065,36.595 C130.228,37.587 130.809,39.032 130.809,40.931 L130.809,49.827 L125.977,49.827 L125.977,49.091 C125.721,49.347 125.273,49.576 124.633,49.779 C123.993,49.981 123.310,50.083 122.585,50.083 C121.092,50.083 119.838,49.672 118.825,48.851 C117.812,48.030 117.305,46.894 117.305,45.443 C117.305,44.078 117.833,42.974 118.889,42.131 C119.945,41.288 121.262,40.867 122.841,40.867 C124.185,40.867 125.230,41.134 125.977,41.667 L125.977,41.155 C125.977,40.579 125.716,40.115 125.193,39.763 C124.670,39.411 123.908,39.235 122.905,39.235 C121.454,39.235 120.142,39.576 118.969,40.259 L118.969,36.227 C120.356,35.480 122.073,35.107 124.121,35.107 C126.254,35.107 127.902,35.603 129.065,36.595 ZM123.961,43.971 C123.406,43.971 122.937,44.088 122.553,44.323 C122.169,44.558 121.977,44.899 121.977,45.347 C121.977,45.816 122.169,46.168 122.553,46.403 C122.937,46.638 123.406,46.755 123.961,46.755 C124.942,46.755 125.614,46.435 125.977,45.795 L125.977,44.963 C125.636,44.302 124.964,43.971 123.961,43.971 ZM108.025,49.827 L105.977,42.531 L103.929,49.827 L99.673,49.827 L95.033,35.427 L100.025,35.427 L102.297,43.235 L104.473,35.427 L107.673,35.427 L109.817,43.235 L112.121,35.427 L116.921,35.427 L112.281,49.827 L108.025,49.827 ZM109.049,1.027 L114.073,1.027 L114.073,21.827 L109.049,21.827 L109.049,1.027 ZM101.146,1.027 L106.170,1.027 L106.170,21.827 L101.146,21.827 L101.146,1.027 ZM96.186,10.915 L93.018,10.915 L95.354,7.267 C94.735,7.139 94.223,6.851 93.818,6.403 C93.413,5.955 93.210,5.379 93.210,4.675 C93.210,3.864 93.493,3.192 94.058,2.659 C94.623,2.126 95.322,1.859 96.154,1.859 C96.986,1.859 97.685,2.136 98.250,2.691 C98.815,3.246 99.098,4.014 99.098,4.995 C99.098,5.955 98.693,7.054 97.882,8.291 L96.186,10.915 ZM86.587,18.211 C88.080,18.211 89.467,17.827 90.747,17.059 L90.747,20.867 C89.595,21.720 87.941,22.147 85.787,22.147 C83.461,22.147 81.589,21.486 80.171,20.163 C78.752,18.840 78.043,17.027 78.043,14.723 C78.043,12.483 78.704,10.654 80.027,9.235 C81.349,7.816 83.013,7.107 85.019,7.107 C87.195,7.107 88.864,7.758 90.027,9.059 C91.189,10.360 91.771,12.110 91.771,14.307 L91.771,15.779 L82.907,15.779 C83.291,17.400 84.517,18.211 86.587,18.211 ZM87.291,12.963 C87.227,12.344 87.013,11.848 86.651,11.475 C86.288,11.102 85.808,10.915 85.211,10.915 C84.080,10.915 83.333,11.598 82.971,12.963 L87.291,12.963 ZM68.602,21.827 L66.554,14.531 L64.506,21.827 L60.250,21.827 L55.610,7.427 L60.602,7.427 L62.874,15.235 L65.050,7.427 L68.250,7.427 L70.394,15.235 L72.698,7.427 L77.498,7.427 L72.858,21.827 L68.602,21.827 ZM59.994,35.107 C61.615,35.107 62.906,35.448 63.866,36.131 L63.866,40.355 C62.927,39.672 61.892,39.331 60.762,39.331 C59.802,39.331 59.007,39.619 58.378,40.195 C57.748,40.771 57.434,41.582 57.434,42.627 C57.434,43.672 57.748,44.483 58.378,45.059 C59.007,45.635 59.802,45.923 60.762,45.923 C61.892,45.923 62.927,45.582 63.866,44.899 L63.866,49.123 C62.906,49.806 61.615,50.147 59.994,50.147 C57.796,50.147 55.994,49.464 54.586,48.099 C53.178,46.734 52.474,44.910 52.474,42.627 C52.474,40.344 53.178,38.520 54.586,37.155 C55.994,35.790 57.796,35.107 59.994,35.107 ZM59.578,63.107 C61.775,63.107 63.551,63.806 64.906,65.203 C66.260,66.600 66.938,68.408 66.938,70.627 C66.938,72.846 66.260,74.654 64.906,76.051 C63.551,77.448 61.775,78.147 59.578,78.147 C57.402,78.147 55.631,77.448 54.266,76.051 C52.900,74.654 52.218,72.846 52.218,70.627 C52.218,68.408 52.900,66.600 54.266,65.203 C55.631,63.806 57.402,63.107 59.578,63.107 ZM57.818,73.059 C58.244,73.678 58.831,73.987 59.578,73.987 C60.346,73.987 60.943,73.683 61.370,73.075 C61.796,72.467 62.010,71.651 62.010,70.627 C62.010,69.603 61.796,68.782 61.370,68.163 C60.943,67.544 60.346,67.235 59.578,67.235 C58.831,67.235 58.244,67.544 57.818,68.163 C57.391,68.782 57.178,69.603 57.178,70.627 C57.178,71.630 57.391,72.440 57.818,73.059 ZM47.866,34.211 C47.077,34.211 46.405,33.960 45.850,33.459 C45.295,32.958 45.018,32.312 45.018,31.523 C45.018,30.712 45.295,30.056 45.850,29.555 C46.405,29.054 47.077,28.803 47.866,28.803 C48.655,28.803 49.327,29.054 49.882,29.555 C50.437,30.056 50.714,30.712 50.714,31.523 C50.714,32.312 50.437,32.958 49.882,33.459 C49.327,33.960 48.655,34.211 47.866,34.211 ZM42.299,20.675 C41.936,21.080 41.429,21.427 40.779,21.715 C40.128,22.003 39.451,22.147 38.747,22.147 C36.741,22.147 35.168,21.438 34.027,20.019 C32.885,18.600 32.315,16.803 32.315,14.627 C32.315,12.451 32.885,10.654 34.027,9.235 C35.168,7.816 36.741,7.107 38.747,7.107 C39.451,7.107 40.128,7.251 40.779,7.539 C41.429,7.827 41.936,8.174 42.299,8.579 L42.299,1.027 L47.323,1.027 L47.323,21.827 L42.299,21.827 L42.299,20.675 ZM42.299,12.707 C42.107,12.323 41.808,12.003 41.403,11.747 C40.997,11.491 40.560,11.363 40.091,11.363 C39.237,11.363 38.565,11.667 38.075,12.275 C37.584,12.883 37.339,13.667 37.339,14.627 C37.339,15.566 37.584,16.339 38.075,16.947 C38.565,17.555 39.237,17.859 40.091,17.859 C41.136,17.859 41.872,17.411 42.299,16.515 L42.299,12.707 ZM25.467,50.147 C24.763,50.147 24.085,50.003 23.435,49.715 C22.784,49.427 22.277,49.080 21.915,48.675 L21.915,54.915 L16.891,54.915 L16.891,35.427 L21.915,35.427 L21.915,36.579 C22.277,36.174 22.784,35.827 23.435,35.539 C24.085,35.251 24.763,35.107 25.467,35.107 C27.472,35.107 29.045,35.822 30.187,37.251 C31.328,38.680 31.899,40.472 31.899,42.627 C31.899,44.760 31.328,46.547 30.187,47.987 C29.045,49.427 27.472,50.147 25.467,50.147 ZM26.139,40.275 C25.648,39.667 24.976,39.363 24.123,39.363 C23.099,39.363 22.363,39.811 21.915,40.707 L21.915,44.515 C22.341,45.411 23.077,45.859 24.123,45.859 C24.976,45.859 25.648,45.555 26.139,44.947 C26.629,44.339 26.875,43.566 26.875,42.627 C26.875,41.667 26.629,40.883 26.139,40.275 ZM25.307,13.603 C25.307,12.984 25.147,12.488 24.827,12.115 C24.507,11.742 24.037,11.555 23.419,11.555 C22.907,11.555 22.464,11.694 22.091,11.971 C21.717,12.248 21.467,12.632 21.339,13.123 L21.339,21.827 L16.315,21.827 L16.315,7.427 L21.339,7.427 L21.339,8.675 C22.277,7.630 23.568,7.107 25.211,7.107 C26.789,7.107 28.032,7.582 28.939,8.531 C29.845,9.480 30.299,10.766 30.299,12.387 L30.299,21.827 L25.307,21.827 L25.307,13.603 ZM9.403,78.147 C8.699,78.147 8.022,78.003 7.371,77.715 C6.720,77.427 6.214,77.080 5.851,76.675 L5.851,82.915 L0.827,82.915 L0.827,63.427 L5.851,63.427 L5.851,64.579 C6.214,64.174 6.720,63.827 7.371,63.539 C8.022,63.251 8.699,63.107 9.403,63.107 C11.408,63.107 12.982,63.822 14.123,65.251 C15.264,66.680 15.835,68.472 15.835,70.627 C15.835,72.760 15.264,74.547 14.123,75.987 C12.982,77.427 11.408,78.147 9.403,78.147 ZM10.075,68.275 C9.584,67.667 8.912,67.363 8.059,67.363 C7.035,67.363 6.299,67.811 5.851,68.707 L5.851,72.515 C6.278,73.411 7.014,73.859 8.059,73.859 C8.912,73.859 9.584,73.555 10.075,72.947 C10.566,72.339 10.811,71.566 10.811,70.627 C10.811,69.667 10.566,68.883 10.075,68.275 ZM7.419,50.147 C5.243,50.147 3.472,49.448 2.107,48.051 C0.742,46.654 0.059,44.846 0.059,42.627 C0.059,40.408 0.742,38.600 2.107,37.203 C3.472,35.806 5.243,35.107 7.419,35.107 C9.616,35.107 11.392,35.806 12.747,37.203 C14.102,38.600 14.779,40.408 14.779,42.627 C14.779,44.846 14.102,46.654 12.747,48.051 C11.392,49.448 9.616,50.147 7.419,50.147 ZM9.211,40.163 C8.784,39.544 8.187,39.235 7.419,39.235 C6.672,39.235 6.086,39.544 5.659,40.163 C5.232,40.782 5.019,41.603 5.019,42.627 C5.019,43.630 5.232,44.440 5.659,45.059 C6.086,45.678 6.672,45.987 7.419,45.987 C8.187,45.987 8.784,45.683 9.211,45.075 C9.638,44.467 9.851,43.651 9.851,42.627 C9.851,41.603 9.638,40.782 9.211,40.163 ZM8.731,21.091 C8.475,21.347 8.027,21.576 7.387,21.779 C6.747,21.981 6.064,22.083 5.339,22.083 C3.846,22.083 2.592,21.672 1.579,20.851 C0.566,20.030 0.059,18.894 0.059,17.443 C0.059,16.078 0.587,14.974 1.643,14.131 C2.699,13.288 4.016,12.867 5.595,12.867 C6.939,12.867 7.984,13.134 8.731,13.667 L8.731,13.155 C8.731,12.579 8.470,12.115 7.947,11.763 C7.424,11.411 6.662,11.235 5.659,11.235 C4.208,11.235 2.896,11.576 1.723,12.259 L1.723,8.227 C3.110,7.480 4.827,7.107 6.875,7.107 C9.008,7.107 10.656,7.603 11.819,8.595 C12.982,9.587 13.563,11.032 13.563,12.931 L13.563,21.827 L8.731,21.827 L8.731,21.091 ZM8.731,16.963 C8.390,16.302 7.718,15.971 6.715,15.971 C6.160,15.971 5.691,16.088 5.307,16.323 C4.923,16.558 4.731,16.899 4.731,17.347 C4.731,17.816 4.923,18.168 5.307,18.403 C5.691,18.638 6.160,18.755 6.715,18.755 C7.696,18.755 8.368,18.435 8.731,17.795 L8.731,16.963 ZM24.315,63.107 C26.491,63.107 28.160,63.758 29.323,65.059 C30.485,66.360 31.067,68.110 31.067,70.307 L31.067,71.779 L22.203,71.779 C22.587,73.400 23.813,74.211 25.883,74.211 C27.376,74.211 28.763,73.827 30.043,73.059 L30.043,76.867 C28.891,77.720 27.237,78.147 25.083,78.147 C22.757,78.147 20.885,77.486 19.467,76.163 C18.048,74.840 17.339,73.027 17.339,70.723 C17.339,68.483 18.000,66.654 19.323,65.235 C20.645,63.816 22.309,63.107 24.315,63.107 ZM26.587,68.963 C26.523,68.344 26.309,67.848 25.947,67.475 C25.584,67.102 25.104,66.915 24.507,66.915 C23.376,66.915 22.629,67.598 22.267,68.963 L26.587,68.963 ZM35.515,31.459 L40.507,31.459 L40.507,35.427 L43.323,35.427 L43.323,39.331 L40.507,39.331 L40.507,49.827 L35.515,49.827 L35.515,39.331 L33.019,39.331 L33.019,35.427 L35.515,35.427 L35.515,31.459 ZM38.266,64.707 C39.055,63.640 40.143,63.107 41.530,63.107 C42.149,63.107 42.607,63.192 42.906,63.363 L42.906,68.195 C42.330,67.896 41.637,67.747 40.826,67.747 C39.397,67.747 38.543,68.291 38.266,69.379 L38.266,77.827 L33.242,77.827 L33.242,63.427 L38.266,63.427 L38.266,64.707 ZM45.338,35.427 L50.362,35.427 L50.362,49.827 L45.338,49.827 L45.338,35.427 ZM47.610,56.803 C48.399,56.803 49.071,57.054 49.626,57.555 C50.180,58.056 50.458,58.712 50.458,59.523 C50.458,60.312 50.180,60.958 49.626,61.459 C49.071,61.960 48.399,62.211 47.610,62.211 C46.820,62.211 46.148,61.960 45.594,61.459 C45.039,60.958 44.762,60.312 44.762,59.523 C44.762,58.712 45.039,58.056 45.594,57.555 C46.148,57.054 46.820,56.803 47.610,56.803 ZM50.106,77.827 L45.082,77.827 L45.082,63.427 L50.106,63.427 L50.106,77.827 ZM67.018,42.131 C68.074,41.288 69.391,40.867 70.970,40.867 C72.314,40.867 73.359,41.134 74.106,41.667 L74.106,41.155 C74.106,40.579 73.844,40.115 73.322,39.763 C72.799,39.411 72.036,39.235 71.034,39.235 C69.583,39.235 68.271,39.576 67.098,40.259 L67.098,36.227 C68.484,35.480 70.202,35.107 72.250,35.107 C74.383,35.107 76.031,35.603 77.194,36.595 C78.356,37.587 78.938,39.032 78.938,40.931 L78.938,49.827 L74.106,49.827 L74.106,49.091 C73.850,49.347 73.402,49.576 72.762,49.779 C72.122,49.981 71.439,50.083 70.714,50.083 C69.220,50.083 67.967,49.672 66.954,48.851 C65.940,48.030 65.434,46.894 65.434,45.443 C65.434,44.078 65.962,42.974 67.018,42.131 ZM70.682,46.403 C71.066,46.638 71.535,46.755 72.090,46.755 C73.071,46.755 73.743,46.435 74.106,45.795 L74.106,44.963 C73.764,44.302 73.092,43.971 72.090,43.971 C71.535,43.971 71.066,44.088 70.682,44.323 C70.298,44.558 70.106,44.899 70.106,45.347 C70.106,45.816 70.298,46.168 70.682,46.403 ZM74.905,63.107 C75.609,63.107 76.286,63.251 76.937,63.539 C77.588,63.827 78.094,64.174 78.457,64.579 L78.457,57.027 L83.481,57.027 L83.481,77.827 L78.457,77.827 L78.457,76.675 C78.094,77.080 77.588,77.427 76.937,77.715 C76.286,78.003 75.609,78.147 74.905,78.147 C72.900,78.147 71.326,77.438 70.185,76.019 C69.044,74.600 68.473,72.803 68.473,70.627 C68.473,68.451 69.044,66.654 70.185,65.235 C71.326,63.816 72.900,63.107 74.905,63.107 ZM74.233,72.947 C74.724,73.555 75.396,73.859 76.249,73.859 C77.294,73.859 78.030,73.411 78.457,72.515 L78.457,68.707 C78.265,68.323 77.966,68.003 77.561,67.747 C77.156,67.491 76.718,67.363 76.249,67.363 C75.396,67.363 74.724,67.667 74.233,68.275 C73.742,68.883 73.497,69.667 73.497,70.627 C73.497,71.566 73.742,72.339 74.233,72.947 ZM81.689,29.027 L86.713,29.027 L86.713,49.827 L81.689,49.827 L81.689,29.027 ZM91.225,72.515 L90.105,72.227 C87.204,71.608 85.753,70.136 85.753,67.811 C85.753,66.339 86.297,65.187 87.385,64.355 C88.473,63.523 89.892,63.107 91.641,63.107 C93.604,63.107 95.278,63.534 96.665,64.387 L96.665,68.515 C95.129,67.406 93.614,66.851 92.121,66.851 C91.161,66.851 90.681,67.139 90.681,67.715 C90.681,67.971 90.772,68.163 90.953,68.291 C91.134,68.419 91.417,68.536 91.801,68.643 L93.113,69.027 C94.692,69.454 95.817,70.014 96.489,70.707 C97.161,71.400 97.497,72.355 97.497,73.571 C97.497,75.064 96.926,76.200 95.785,76.979 C94.644,77.758 93.145,78.147 91.289,78.147 C89.006,78.147 87.182,77.688 85.817,76.771 L85.817,72.547 C86.478,73.080 87.300,73.518 88.281,73.859 C89.262,74.200 90.137,74.371 90.905,74.371 C91.993,74.371 92.537,74.083 92.537,73.507 C92.537,73.038 92.100,72.707 91.225,72.515 ZM112.793,63.107 C114.990,63.107 116.766,63.806 118.121,65.203 C119.475,66.600 120.153,68.408 120.153,70.627 C120.153,72.846 119.475,74.654 118.121,76.051 C116.766,77.448 114.990,78.147 112.793,78.147 C110.617,78.147 108.846,77.448 107.481,76.051 C106.115,74.654 105.433,72.846 105.433,70.627 C105.433,68.408 106.115,66.600 107.481,65.203 C108.846,63.806 110.617,63.107 112.793,63.107 ZM111.033,73.059 C111.459,73.678 112.046,73.987 112.793,73.987 C113.561,73.987 114.158,73.683 114.585,73.075 C115.011,72.467 115.225,71.651 115.225,70.627 C115.225,69.603 115.011,68.782 114.585,68.163 C114.158,67.544 113.561,67.235 112.793,67.235 C112.046,67.235 111.459,67.544 111.033,68.163 C110.606,68.782 110.393,69.603 110.393,70.627 C110.393,71.630 110.606,72.440 111.033,73.059 ZM127.289,64.675 C128.227,63.630 129.518,63.107 131.161,63.107 C132.739,63.107 133.982,63.582 134.889,64.531 C135.795,65.480 136.249,66.766 136.249,68.387 L136.249,77.827 L131.257,77.827 L131.257,69.603 C131.257,68.984 131.097,68.488 130.777,68.115 C130.457,67.742 129.987,67.555 129.369,67.555 C128.857,67.555 128.414,67.694 128.041,67.971 C127.667,68.248 127.417,68.632 127.289,69.123 L127.289,77.827 L122.265,77.827 L122.265,63.427 L127.289,63.427 L127.289,64.675 ZM133.561,35.427 L138.585,35.427 L138.585,49.827 L133.561,49.827 L133.561,35.427 ZM136.089,34.211 C135.299,34.211 134.627,33.960 134.073,33.459 C133.518,32.958 133.241,32.312 133.241,31.523 C133.241,30.712 133.518,30.056 134.073,29.555 C134.627,29.054 135.299,28.803 136.089,28.803 C136.878,28.803 137.550,29.054 138.105,29.555 C138.659,30.056 138.937,30.712 138.937,31.523 C138.937,32.312 138.659,32.958 138.105,33.459 C137.550,33.960 136.878,34.211 136.089,34.211 ZM143.129,31.459 L148.121,31.459 L148.121,35.427 L150.937,35.427 L150.937,39.331 L148.121,39.331 L148.121,49.827 L143.129,49.827 L143.129,39.331 L140.633,39.331 L140.633,35.427 L143.129,35.427 L143.129,31.459 ZM177.944,59.459 L182.936,59.459 L182.936,63.427 L185.752,63.427 L185.752,67.331 L182.936,67.331 L182.936,77.827 L177.944,77.827 L177.944,67.331 L175.448,67.331 L175.448,63.427 L177.944,63.427 L177.944,59.459 Z"/>
<path fill="url(#PSgrad_0)"
 d="M239.444,62.156 L238.100,59.824 L236.776,62.156 L234.257,62.156 L236.906,57.716 L239.294,57.716 L241.943,62.156 L239.444,62.156 ZM229.367,1.027 L234.391,1.027 L234.391,21.827 L229.367,21.827 L229.367,1.027 ZM232.439,72.915 C233.015,73.480 233.303,74.190 233.303,75.043 C233.303,75.896 233.015,76.611 232.439,77.187 C231.863,77.763 231.159,78.051 230.327,78.051 C229.516,78.051 228.823,77.763 228.247,77.187 C227.671,76.611 227.383,75.896 227.383,75.043 C227.383,74.211 227.665,73.507 228.231,72.931 C228.796,72.355 229.495,72.067 230.327,72.067 C231.159,72.067 231.863,72.350 232.439,72.915 ZM221.464,1.027 L226.488,1.027 L226.488,21.827 L221.464,21.827 L221.464,1.027 ZM224.951,64.387 L224.951,68.515 C223.415,67.406 221.900,66.851 220.407,66.851 C219.447,66.851 218.967,67.139 218.967,67.715 C218.967,67.971 219.058,68.163 219.239,68.291 C219.420,68.419 219.703,68.536 220.087,68.643 L221.399,69.027 C222.978,69.454 224.103,70.014 224.775,70.707 C225.447,71.400 225.783,72.355 225.783,73.571 C225.783,75.064 225.212,76.200 224.071,76.979 C222.930,77.758 221.431,78.147 219.575,78.147 C217.292,78.147 215.468,77.688 214.103,76.771 L214.103,72.547 C214.764,73.080 215.586,73.518 216.567,73.859 C217.548,74.200 218.423,74.371 219.191,74.371 C220.279,74.371 220.823,74.083 220.823,73.507 C220.823,73.038 220.386,72.707 219.511,72.515 L218.391,72.227 C215.490,71.608 214.039,70.136 214.039,67.811 C214.039,66.339 214.583,65.187 215.671,64.355 C216.759,63.523 218.178,63.107 219.927,63.107 C221.890,63.107 223.564,63.534 224.951,64.387 ZM213.880,21.091 C213.624,21.347 213.176,21.576 212.536,21.779 C211.896,21.981 211.213,22.083 210.488,22.083 C208.994,22.083 207.741,21.672 206.728,20.851 C205.714,20.030 205.208,18.894 205.208,17.443 C205.208,16.078 205.736,14.974 206.792,14.131 C207.848,13.288 209.165,12.867 210.744,12.867 C212.088,12.867 213.133,13.134 213.880,13.667 L213.880,13.155 C213.880,12.579 213.618,12.115 213.096,11.763 C212.573,11.411 211.810,11.235 210.808,11.235 C209.357,11.235 208.045,11.576 206.872,12.259 L206.872,8.227 C208.258,7.480 209.976,7.107 212.024,7.107 C214.157,7.107 215.805,7.603 216.968,8.595 C218.130,9.587 218.712,11.032 218.712,12.931 L218.712,21.827 L213.880,21.827 L213.880,21.091 ZM213.880,16.963 C213.538,16.302 212.866,15.971 211.864,15.971 C211.309,15.971 210.840,16.088 210.456,16.323 C210.072,16.558 209.880,16.899 209.880,17.347 C209.880,17.816 210.072,18.168 210.456,18.403 C210.840,18.638 211.309,18.755 211.864,18.755 C212.845,18.755 213.517,18.435 213.880,17.795 L213.880,16.963 ZM210.119,64.595 C211.282,65.587 211.863,67.032 211.863,68.931 L211.863,77.827 L207.031,77.827 L207.031,77.091 C206.775,77.347 206.327,77.576 205.687,77.779 C205.047,77.981 204.364,78.083 203.639,78.083 C202.146,78.083 200.892,77.672 199.879,76.851 C198.866,76.030 198.359,74.894 198.359,73.443 C198.359,72.078 198.887,70.974 199.943,70.131 C200.999,69.288 202.316,68.867 203.895,68.867 C205.239,68.867 206.284,69.134 207.031,69.667 L207.031,69.155 C207.031,68.579 206.770,68.115 206.247,67.763 C205.724,67.411 204.962,67.235 203.959,67.235 C202.508,67.235 201.196,67.576 200.023,68.259 L200.023,64.227 C201.410,63.480 203.127,63.107 205.175,63.107 C207.308,63.107 208.956,63.603 210.119,64.595 ZM207.031,72.963 C206.690,72.302 206.018,71.971 205.015,71.971 C204.460,71.971 203.991,72.088 203.607,72.323 C203.223,72.558 203.031,72.899 203.031,73.347 C203.031,73.816 203.223,74.168 203.607,74.403 C203.991,74.638 204.460,74.755 205.015,74.755 C205.996,74.755 206.668,74.435 207.031,73.795 L207.031,72.963 ZM195.352,67.747 C193.922,67.747 193.069,68.291 192.792,69.379 L192.792,77.827 L187.768,77.827 L187.768,63.427 L192.792,63.427 L192.792,64.707 C193.581,63.640 194.669,63.107 196.056,63.107 C196.674,63.107 197.133,63.192 197.432,63.363 L197.432,68.195 C196.856,67.896 196.162,67.747 195.352,67.747 ZM192.056,18.211 C193.549,18.211 194.936,17.827 196.216,17.059 L196.216,20.867 C195.064,21.720 193.411,22.147 191.256,22.147 C188.931,22.147 187.059,21.486 185.640,20.163 C184.221,18.840 183.512,17.027 183.512,14.723 C183.512,12.483 184.173,10.654 185.496,9.235 C186.819,7.816 188.483,7.107 190.488,7.107 C192.664,7.107 194.333,7.758 195.496,9.059 C196.659,10.360 197.240,12.110 197.240,14.307 L197.240,15.779 L188.376,15.779 C188.760,17.400 189.987,18.211 192.056,18.211 ZM192.760,12.963 C192.696,12.344 192.483,11.848 192.120,11.475 C191.757,11.102 191.277,10.915 190.680,10.915 C189.549,10.915 188.803,11.598 188.440,12.963 L192.760,12.963 ZM186.616,36.515 L186.616,35.427 L191.576,35.427 L191.576,47.747 C191.576,50.264 190.797,52.141 189.240,53.379 C187.682,54.616 185.666,55.235 183.192,55.235 C180.994,55.235 179.266,54.829 178.008,54.019 L178.008,49.411 C179.394,50.584 181.069,51.171 183.032,51.171 C184.077,51.171 184.936,50.941 185.608,50.483 C186.280,50.024 186.616,49.315 186.616,48.355 L186.616,47.875 C185.805,48.814 184.674,49.283 183.224,49.283 C181.240,49.283 179.682,48.611 178.552,47.267 C177.421,45.923 176.856,44.227 176.856,42.179 C176.856,40.131 177.421,38.440 178.552,37.107 C179.682,35.774 181.240,35.107 183.224,35.107 C184.696,35.107 185.826,35.576 186.616,36.515 ZM182.536,39.939 C182.056,40.515 181.816,41.262 181.816,42.179 C181.816,43.096 182.056,43.843 182.536,44.419 C183.016,44.995 183.661,45.283 184.472,45.283 C185.432,45.283 186.146,44.888 186.616,44.099 L186.616,40.291 C186.125,39.480 185.410,39.075 184.472,39.075 C183.661,39.075 183.016,39.363 182.536,39.939 ZM173.177,21.827 L167.705,7.427 L172.825,7.427 L175.577,15.683 L178.265,7.427 L183.193,7.427 L177.689,21.827 L173.177,21.827 ZM173.480,36.531 C174.386,37.480 174.840,38.766 174.840,40.387 L174.840,49.827 L169.848,49.827 L169.848,41.603 C169.848,40.984 169.688,40.488 169.368,40.115 C169.048,39.742 168.578,39.555 167.960,39.555 C167.448,39.555 167.005,39.694 166.632,39.971 C166.258,40.248 166.008,40.632 165.880,41.123 L165.880,49.827 L160.856,49.827 L160.856,35.427 L165.880,35.427 L165.880,36.675 C166.818,35.630 168.109,35.107 169.752,35.107 C171.330,35.107 172.573,35.582 173.480,36.531 ZM165.945,21.827 L160.921,21.827 L160.921,7.427 L165.945,7.427 L165.945,21.827 ZM163.449,6.211 C162.659,6.211 161.987,5.960 161.433,5.459 C160.878,4.958 160.601,4.312 160.601,3.523 C160.601,2.712 160.878,2.056 161.433,1.555 C161.987,1.054 162.659,0.803 163.449,0.803 C164.238,0.803 164.910,1.054 165.465,1.555 C166.019,2.056 166.297,2.712 166.297,3.523 C166.297,4.312 166.019,4.958 165.465,5.459 C164.910,5.960 164.238,6.211 163.449,6.211 ZM164.728,63.427 L166.969,66.883 L169.241,63.427 L174.424,63.427 L169.592,70.467 L174.648,77.827 L169.209,77.827 L166.745,74.083 L164.280,77.827 L159.097,77.827 L164.121,70.499 L159.321,63.427 L164.728,63.427 ZM153.368,74.211 C154.861,74.211 156.248,73.827 157.528,73.059 L157.528,76.867 C156.376,77.720 154.723,78.147 152.568,78.147 C150.243,78.147 148.371,77.486 146.952,76.163 C145.533,74.840 144.824,73.027 144.824,70.723 C144.824,68.483 145.485,66.654 146.808,65.235 C148.131,63.816 149.795,63.107 151.800,63.107 C153.976,63.107 155.645,63.758 156.808,65.059 C157.971,66.360 158.552,68.110 158.552,70.307 L158.552,71.779 L149.688,71.779 C150.072,73.400 151.299,74.211 153.368,74.211 ZM154.072,68.963 C154.008,68.344 153.795,67.848 153.432,67.475 C153.069,67.102 152.589,66.915 151.992,66.915 C150.861,66.915 150.115,67.598 149.752,68.963 L154.072,68.963 ZM157.976,49.827 L152.952,49.827 L152.952,35.427 L157.976,35.427 L157.976,49.827 ZM155.480,34.211 C154.691,34.211 154.019,33.960 153.464,33.459 C152.909,32.958 152.632,32.312 152.632,31.523 C152.632,30.712 152.909,30.056 153.464,29.555 C154.019,29.054 154.691,28.803 155.480,28.803 C156.269,28.803 156.941,29.054 157.496,29.555 C158.051,30.056 158.328,30.712 158.328,31.523 C158.328,32.312 158.051,32.958 157.496,33.459 C156.941,33.960 156.269,34.211 155.480,34.211 ZM153.337,21.091 C153.081,21.347 152.633,21.576 151.993,21.779 C151.353,21.981 150.670,22.083 149.945,22.083 C148.452,22.083 147.198,21.672 146.185,20.851 C145.172,20.030 144.665,18.894 144.665,17.443 C144.665,16.078 145.193,14.974 146.249,14.131 C147.305,13.288 148.622,12.867 150.201,12.867 C151.545,12.867 152.590,13.134 153.337,13.667 L153.337,13.155 C153.337,12.579 153.076,12.115 152.553,11.763 C152.030,11.411 151.268,11.235 150.265,11.235 C148.814,11.235 147.502,11.576 146.329,12.259 L146.329,8.227 C147.716,7.480 149.433,7.107 151.481,7.107 C153.614,7.107 155.262,7.603 156.425,8.595 C157.588,9.587 158.169,11.032 158.169,12.931 L158.169,21.827 L153.337,21.827 L153.337,21.091 ZM153.337,16.963 C152.996,16.302 152.324,15.971 151.321,15.971 C150.766,15.971 150.297,16.088 149.913,16.323 C149.529,16.558 149.337,16.899 149.337,17.347 C149.337,17.816 149.529,18.168 149.913,18.403 C150.297,18.638 150.766,18.755 151.321,18.755 C152.302,18.755 152.974,18.435 153.337,17.795 L153.337,16.963 ZM135.385,21.827 L133.337,14.531 L131.289,21.827 L127.033,21.827 L122.393,7.427 L127.385,7.427 L129.657,15.235 L131.833,7.427 L135.033,7.427 L137.177,15.235 L139.481,7.427 L144.281,7.427 L139.641,21.827 L135.385,21.827 ZM129.065,36.595 C130.228,37.587 130.809,39.032 130.809,40.931 L130.809,49.827 L125.977,49.827 L125.977,49.091 C125.721,49.347 125.273,49.576 124.633,49.779 C123.993,49.981 123.310,50.083 122.585,50.083 C121.092,50.083 119.838,49.672 118.825,48.851 C117.812,48.030 117.305,46.894 117.305,45.443 C117.305,44.078 117.833,42.974 118.889,42.131 C119.945,41.288 121.262,40.867 122.841,40.867 C124.185,40.867 125.230,41.134 125.977,41.667 L125.977,41.155 C125.977,40.579 125.716,40.115 125.193,39.763 C124.670,39.411 123.908,39.235 122.905,39.235 C121.454,39.235 120.142,39.576 118.969,40.259 L118.969,36.227 C120.356,35.480 122.073,35.107 124.121,35.107 C126.254,35.107 127.902,35.603 129.065,36.595 ZM123.961,43.971 C123.406,43.971 122.937,44.088 122.553,44.323 C122.169,44.558 121.977,44.899 121.977,45.347 C121.977,45.816 122.169,46.168 122.553,46.403 C122.937,46.638 123.406,46.755 123.961,46.755 C124.942,46.755 125.614,46.435 125.977,45.795 L125.977,44.963 C125.636,44.302 124.964,43.971 123.961,43.971 ZM108.025,49.827 L105.977,42.531 L103.929,49.827 L99.673,49.827 L95.033,35.427 L100.025,35.427 L102.297,43.235 L104.473,35.427 L107.673,35.427 L109.817,43.235 L112.121,35.427 L116.921,35.427 L112.281,49.827 L108.025,49.827 ZM109.049,1.027 L114.073,1.027 L114.073,21.827 L109.049,21.827 L109.049,1.027 ZM101.146,1.027 L106.170,1.027 L106.170,21.827 L101.146,21.827 L101.146,1.027 ZM96.186,10.915 L93.018,10.915 L95.354,7.267 C94.735,7.139 94.223,6.851 93.818,6.403 C93.413,5.955 93.210,5.379 93.210,4.675 C93.210,3.864 93.493,3.192 94.058,2.659 C94.623,2.126 95.322,1.859 96.154,1.859 C96.986,1.859 97.685,2.136 98.250,2.691 C98.815,3.246 99.098,4.014 99.098,4.995 C99.098,5.955 98.693,7.054 97.882,8.291 L96.186,10.915 ZM86.587,18.211 C88.080,18.211 89.467,17.827 90.747,17.059 L90.747,20.867 C89.595,21.720 87.941,22.147 85.787,22.147 C83.461,22.147 81.589,21.486 80.171,20.163 C78.752,18.840 78.043,17.027 78.043,14.723 C78.043,12.483 78.704,10.654 80.027,9.235 C81.349,7.816 83.013,7.107 85.019,7.107 C87.195,7.107 88.864,7.758 90.027,9.059 C91.189,10.360 91.771,12.110 91.771,14.307 L91.771,15.779 L82.907,15.779 C83.291,17.400 84.517,18.211 86.587,18.211 ZM87.291,12.963 C87.227,12.344 87.013,11.848 86.651,11.475 C86.288,11.102 85.808,10.915 85.211,10.915 C84.080,10.915 83.333,11.598 82.971,12.963 L87.291,12.963 ZM68.602,21.827 L66.554,14.531 L64.506,21.827 L60.250,21.827 L55.610,7.427 L60.602,7.427 L62.874,15.235 L65.050,7.427 L68.250,7.427 L70.394,15.235 L72.698,7.427 L77.498,7.427 L72.858,21.827 L68.602,21.827 ZM59.994,35.107 C61.615,35.107 62.906,35.448 63.866,36.131 L63.866,40.355 C62.927,39.672 61.892,39.331 60.762,39.331 C59.802,39.331 59.007,39.619 58.378,40.195 C57.748,40.771 57.434,41.582 57.434,42.627 C57.434,43.672 57.748,44.483 58.378,45.059 C59.007,45.635 59.802,45.923 60.762,45.923 C61.892,45.923 62.927,45.582 63.866,44.899 L63.866,49.123 C62.906,49.806 61.615,50.147 59.994,50.147 C57.796,50.147 55.994,49.464 54.586,48.099 C53.178,46.734 52.474,44.910 52.474,42.627 C52.474,40.344 53.178,38.520 54.586,37.155 C55.994,35.790 57.796,35.107 59.994,35.107 ZM59.578,63.107 C61.775,63.107 63.551,63.806 64.906,65.203 C66.260,66.600 66.938,68.408 66.938,70.627 C66.938,72.846 66.260,74.654 64.906,76.051 C63.551,77.448 61.775,78.147 59.578,78.147 C57.402,78.147 55.631,77.448 54.266,76.051 C52.900,74.654 52.218,72.846 52.218,70.627 C52.218,68.408 52.900,66.600 54.266,65.203 C55.631,63.806 57.402,63.107 59.578,63.107 ZM57.818,73.059 C58.244,73.678 58.831,73.987 59.578,73.987 C60.346,73.987 60.943,73.683 61.370,73.075 C61.796,72.467 62.010,71.651 62.010,70.627 C62.010,69.603 61.796,68.782 61.370,68.163 C60.943,67.544 60.346,67.235 59.578,67.235 C58.831,67.235 58.244,67.544 57.818,68.163 C57.391,68.782 57.178,69.603 57.178,70.627 C57.178,71.630 57.391,72.440 57.818,73.059 ZM47.866,34.211 C47.077,34.211 46.405,33.960 45.850,33.459 C45.295,32.958 45.018,32.312 45.018,31.523 C45.018,30.712 45.295,30.056 45.850,29.555 C46.405,29.054 47.077,28.803 47.866,28.803 C48.655,28.803 49.327,29.054 49.882,29.555 C50.437,30.056 50.714,30.712 50.714,31.523 C50.714,32.312 50.437,32.958 49.882,33.459 C49.327,33.960 48.655,34.211 47.866,34.211 ZM42.299,20.675 C41.936,21.080 41.429,21.427 40.779,21.715 C40.128,22.003 39.451,22.147 38.747,22.147 C36.741,22.147 35.168,21.438 34.027,20.019 C32.885,18.600 32.315,16.803 32.315,14.627 C32.315,12.451 32.885,10.654 34.027,9.235 C35.168,7.816 36.741,7.107 38.747,7.107 C39.451,7.107 40.128,7.251 40.779,7.539 C41.429,7.827 41.936,8.174 42.299,8.579 L42.299,1.027 L47.323,1.027 L47.323,21.827 L42.299,21.827 L42.299,20.675 ZM42.299,12.707 C42.107,12.323 41.808,12.003 41.403,11.747 C40.997,11.491 40.560,11.363 40.091,11.363 C39.237,11.363 38.565,11.667 38.075,12.275 C37.584,12.883 37.339,13.667 37.339,14.627 C37.339,15.566 37.584,16.339 38.075,16.947 C38.565,17.555 39.237,17.859 40.091,17.859 C41.136,17.859 41.872,17.411 42.299,16.515 L42.299,12.707 ZM25.467,50.147 C24.763,50.147 24.085,50.003 23.435,49.715 C22.784,49.427 22.277,49.080 21.915,48.675 L21.915,54.915 L16.891,54.915 L16.891,35.427 L21.915,35.427 L21.915,36.579 C22.277,36.174 22.784,35.827 23.435,35.539 C24.085,35.251 24.763,35.107 25.467,35.107 C27.472,35.107 29.045,35.822 30.187,37.251 C31.328,38.680 31.899,40.472 31.899,42.627 C31.899,44.760 31.328,46.547 30.187,47.987 C29.045,49.427 27.472,50.147 25.467,50.147 ZM26.139,40.275 C25.648,39.667 24.976,39.363 24.123,39.363 C23.099,39.363 22.363,39.811 21.915,40.707 L21.915,44.515 C22.341,45.411 23.077,45.859 24.123,45.859 C24.976,45.859 25.648,45.555 26.139,44.947 C26.629,44.339 26.875,43.566 26.875,42.627 C26.875,41.667 26.629,40.883 26.139,40.275 ZM25.307,13.603 C25.307,12.984 25.147,12.488 24.827,12.115 C24.507,11.742 24.037,11.555 23.419,11.555 C22.907,11.555 22.464,11.694 22.091,11.971 C21.717,12.248 21.467,12.632 21.339,13.123 L21.339,21.827 L16.315,21.827 L16.315,7.427 L21.339,7.427 L21.339,8.675 C22.277,7.630 23.568,7.107 25.211,7.107 C26.789,7.107 28.032,7.582 28.939,8.531 C29.845,9.480 30.299,10.766 30.299,12.387 L30.299,21.827 L25.307,21.827 L25.307,13.603 ZM9.403,78.147 C8.699,78.147 8.022,78.003 7.371,77.715 C6.720,77.427 6.214,77.080 5.851,76.675 L5.851,82.915 L0.827,82.915 L0.827,63.427 L5.851,63.427 L5.851,64.579 C6.214,64.174 6.720,63.827 7.371,63.539 C8.022,63.251 8.699,63.107 9.403,63.107 C11.408,63.107 12.982,63.822 14.123,65.251 C15.264,66.680 15.835,68.472 15.835,70.627 C15.835,72.760 15.264,74.547 14.123,75.987 C12.982,77.427 11.408,78.147 9.403,78.147 ZM10.075,68.275 C9.584,67.667 8.912,67.363 8.059,67.363 C7.035,67.363 6.299,67.811 5.851,68.707 L5.851,72.515 C6.278,73.411 7.014,73.859 8.059,73.859 C8.912,73.859 9.584,73.555 10.075,72.947 C10.566,72.339 10.811,71.566 10.811,70.627 C10.811,69.667 10.566,68.883 10.075,68.275 ZM7.419,50.147 C5.243,50.147 3.472,49.448 2.107,48.051 C0.742,46.654 0.059,44.846 0.059,42.627 C0.059,40.408 0.742,38.600 2.107,37.203 C3.472,35.806 5.243,35.107 7.419,35.107 C9.616,35.107 11.392,35.806 12.747,37.203 C14.102,38.600 14.779,40.408 14.779,42.627 C14.779,44.846 14.102,46.654 12.747,48.051 C11.392,49.448 9.616,50.147 7.419,50.147 ZM9.211,40.163 C8.784,39.544 8.187,39.235 7.419,39.235 C6.672,39.235 6.086,39.544 5.659,40.163 C5.232,40.782 5.019,41.603 5.019,42.627 C5.019,43.630 5.232,44.440 5.659,45.059 C6.086,45.678 6.672,45.987 7.419,45.987 C8.187,45.987 8.784,45.683 9.211,45.075 C9.638,44.467 9.851,43.651 9.851,42.627 C9.851,41.603 9.638,40.782 9.211,40.163 ZM8.731,21.091 C8.475,21.347 8.027,21.576 7.387,21.779 C6.747,21.981 6.064,22.083 5.339,22.083 C3.846,22.083 2.592,21.672 1.579,20.851 C0.566,20.030 0.059,18.894 0.059,17.443 C0.059,16.078 0.587,14.974 1.643,14.131 C2.699,13.288 4.016,12.867 5.595,12.867 C6.939,12.867 7.984,13.134 8.731,13.667 L8.731,13.155 C8.731,12.579 8.470,12.115 7.947,11.763 C7.424,11.411 6.662,11.235 5.659,11.235 C4.208,11.235 2.896,11.576 1.723,12.259 L1.723,8.227 C3.110,7.480 4.827,7.107 6.875,7.107 C9.008,7.107 10.656,7.603 11.819,8.595 C12.982,9.587 13.563,11.032 13.563,12.931 L13.563,21.827 L8.731,21.827 L8.731,21.091 ZM8.731,16.963 C8.390,16.302 7.718,15.971 6.715,15.971 C6.160,15.971 5.691,16.088 5.307,16.323 C4.923,16.558 4.731,16.899 4.731,17.347 C4.731,17.816 4.923,18.168 5.307,18.403 C5.691,18.638 6.160,18.755 6.715,18.755 C7.696,18.755 8.368,18.435 8.731,17.795 L8.731,16.963 ZM24.315,63.107 C26.491,63.107 28.160,63.758 29.323,65.059 C30.485,66.360 31.067,68.110 31.067,70.307 L31.067,71.779 L22.203,71.779 C22.587,73.400 23.813,74.211 25.883,74.211 C27.376,74.211 28.763,73.827 30.043,73.059 L30.043,76.867 C28.891,77.720 27.237,78.147 25.083,78.147 C22.757,78.147 20.885,77.486 19.467,76.163 C18.048,74.840 17.339,73.027 17.339,70.723 C17.339,68.483 18.000,66.654 19.323,65.235 C20.645,63.816 22.309,63.107 24.315,63.107 ZM26.587,68.963 C26.523,68.344 26.309,67.848 25.947,67.475 C25.584,67.102 25.104,66.915 24.507,66.915 C23.376,66.915 22.629,67.598 22.267,68.963 L26.587,68.963 ZM35.515,31.459 L40.507,31.459 L40.507,35.427 L43.323,35.427 L43.323,39.331 L40.507,39.331 L40.507,49.827 L35.515,49.827 L35.515,39.331 L33.019,39.331 L33.019,35.427 L35.515,35.427 L35.515,31.459 ZM38.266,64.707 C39.055,63.640 40.143,63.107 41.530,63.107 C42.149,63.107 42.607,63.192 42.906,63.363 L42.906,68.195 C42.330,67.896 41.637,67.747 40.826,67.747 C39.397,67.747 38.543,68.291 38.266,69.379 L38.266,77.827 L33.242,77.827 L33.242,63.427 L38.266,63.427 L38.266,64.707 ZM45.338,35.427 L50.362,35.427 L50.362,49.827 L45.338,49.827 L45.338,35.427 ZM47.610,56.803 C48.399,56.803 49.071,57.054 49.626,57.555 C50.180,58.056 50.458,58.712 50.458,59.523 C50.458,60.312 50.180,60.958 49.626,61.459 C49.071,61.960 48.399,62.211 47.610,62.211 C46.820,62.211 46.148,61.960 45.594,61.459 C45.039,60.958 44.762,60.312 44.762,59.523 C44.762,58.712 45.039,58.056 45.594,57.555 C46.148,57.054 46.820,56.803 47.610,56.803 ZM50.106,77.827 L45.082,77.827 L45.082,63.427 L50.106,63.427 L50.106,77.827 ZM67.018,42.131 C68.074,41.288 69.391,40.867 70.970,40.867 C72.314,40.867 73.359,41.134 74.106,41.667 L74.106,41.155 C74.106,40.579 73.844,40.115 73.322,39.763 C72.799,39.411 72.036,39.235 71.034,39.235 C69.583,39.235 68.271,39.576 67.098,40.259 L67.098,36.227 C68.484,35.480 70.202,35.107 72.250,35.107 C74.383,35.107 76.031,35.603 77.194,36.595 C78.356,37.587 78.938,39.032 78.938,40.931 L78.938,49.827 L74.106,49.827 L74.106,49.091 C73.850,49.347 73.402,49.576 72.762,49.779 C72.122,49.981 71.439,50.083 70.714,50.083 C69.220,50.083 67.967,49.672 66.954,48.851 C65.940,48.030 65.434,46.894 65.434,45.443 C65.434,44.078 65.962,42.974 67.018,42.131 ZM70.682,46.403 C71.066,46.638 71.535,46.755 72.090,46.755 C73.071,46.755 73.743,46.435 74.106,45.795 L74.106,44.963 C73.764,44.302 73.092,43.971 72.090,43.971 C71.535,43.971 71.066,44.088 70.682,44.323 C70.298,44.558 70.106,44.899 70.106,45.347 C70.106,45.816 70.298,46.168 70.682,46.403 ZM74.905,63.107 C75.609,63.107 76.286,63.251 76.937,63.539 C77.588,63.827 78.094,64.174 78.457,64.579 L78.457,57.027 L83.481,57.027 L83.481,77.827 L78.457,77.827 L78.457,76.675 C78.094,77.080 77.588,77.427 76.937,77.715 C76.286,78.003 75.609,78.147 74.905,78.147 C72.900,78.147 71.326,77.438 70.185,76.019 C69.044,74.600 68.473,72.803 68.473,70.627 C68.473,68.451 69.044,66.654 70.185,65.235 C71.326,63.816 72.900,63.107 74.905,63.107 ZM74.233,72.947 C74.724,73.555 75.396,73.859 76.249,73.859 C77.294,73.859 78.030,73.411 78.457,72.515 L78.457,68.707 C78.265,68.323 77.966,68.003 77.561,67.747 C77.156,67.491 76.718,67.363 76.249,67.363 C75.396,67.363 74.724,67.667 74.233,68.275 C73.742,68.883 73.497,69.667 73.497,70.627 C73.497,71.566 73.742,72.339 74.233,72.947 ZM81.689,29.027 L86.713,29.027 L86.713,49.827 L81.689,49.827 L81.689,29.027 ZM91.225,72.515 L90.105,72.227 C87.204,71.608 85.753,70.136 85.753,67.811 C85.753,66.339 86.297,65.187 87.385,64.355 C88.473,63.523 89.892,63.107 91.641,63.107 C93.604,63.107 95.278,63.534 96.665,64.387 L96.665,68.515 C95.129,67.406 93.614,66.851 92.121,66.851 C91.161,66.851 90.681,67.139 90.681,67.715 C90.681,67.971 90.772,68.163 90.953,68.291 C91.134,68.419 91.417,68.536 91.801,68.643 L93.113,69.027 C94.692,69.454 95.817,70.014 96.489,70.707 C97.161,71.400 97.497,72.355 97.497,73.571 C97.497,75.064 96.926,76.200 95.785,76.979 C94.644,77.758 93.145,78.147 91.289,78.147 C89.006,78.147 87.182,77.688 85.817,76.771 L85.817,72.547 C86.478,73.080 87.300,73.518 88.281,73.859 C89.262,74.200 90.137,74.371 90.905,74.371 C91.993,74.371 92.537,74.083 92.537,73.507 C92.537,73.038 92.100,72.707 91.225,72.515 ZM112.793,63.107 C114.990,63.107 116.766,63.806 118.121,65.203 C119.475,66.600 120.153,68.408 120.153,70.627 C120.153,72.846 119.475,74.654 118.121,76.051 C116.766,77.448 114.990,78.147 112.793,78.147 C110.617,78.147 108.846,77.448 107.481,76.051 C106.115,74.654 105.433,72.846 105.433,70.627 C105.433,68.408 106.115,66.600 107.481,65.203 C108.846,63.806 110.617,63.107 112.793,63.107 ZM111.033,73.059 C111.459,73.678 112.046,73.987 112.793,73.987 C113.561,73.987 114.158,73.683 114.585,73.075 C115.011,72.467 115.225,71.651 115.225,70.627 C115.225,69.603 115.011,68.782 114.585,68.163 C114.158,67.544 113.561,67.235 112.793,67.235 C112.046,67.235 111.459,67.544 111.033,68.163 C110.606,68.782 110.393,69.603 110.393,70.627 C110.393,71.630 110.606,72.440 111.033,73.059 ZM127.289,64.675 C128.227,63.630 129.518,63.107 131.161,63.107 C132.739,63.107 133.982,63.582 134.889,64.531 C135.795,65.480 136.249,66.766 136.249,68.387 L136.249,77.827 L131.257,77.827 L131.257,69.603 C131.257,68.984 131.097,68.488 130.777,68.115 C130.457,67.742 129.987,67.555 129.369,67.555 C128.857,67.555 128.414,67.694 128.041,67.971 C127.667,68.248 127.417,68.632 127.289,69.123 L127.289,77.827 L122.265,77.827 L122.265,63.427 L127.289,63.427 L127.289,64.675 ZM133.561,35.427 L138.585,35.427 L138.585,49.827 L133.561,49.827 L133.561,35.427 ZM136.089,34.211 C135.299,34.211 134.627,33.960 134.073,33.459 C133.518,32.958 133.241,32.312 133.241,31.523 C133.241,30.712 133.518,30.056 134.073,29.555 C134.627,29.054 135.299,28.803 136.089,28.803 C136.878,28.803 137.550,29.054 138.105,29.555 C138.659,30.056 138.937,30.712 138.937,31.523 C138.937,32.312 138.659,32.958 138.105,33.459 C137.550,33.960 136.878,34.211 136.089,34.211 ZM143.129,31.459 L148.121,31.459 L148.121,35.427 L150.937,35.427 L150.937,39.331 L148.121,39.331 L148.121,49.827 L143.129,49.827 L143.129,39.331 L140.633,39.331 L140.633,35.427 L143.129,35.427 L143.129,31.459 ZM177.944,59.459 L182.936,59.459 L182.936,63.427 L185.752,63.427 L185.752,67.331 L182.936,67.331 L182.936,77.827 L177.944,77.827 L177.944,67.331 L175.448,67.331 L175.448,63.427 L177.944,63.427 L177.944,59.459 Z"/>
</svg>