<svg 
 xmlns="http://www.w3.org/2000/svg"
 xmlns:xlink="http://www.w3.org/1999/xlink"
 width="114px" height="80px">
<defs>
<linearGradient id="PSgrad_0" x1="0%" x2="68.2%" y1="0%" y2="73.135%">
  <stop offset="0%" stop-color="rgb(238,117,24)" stop-opacity="0.95" />
  <stop offset="100%" stop-color="rgb(253,91,47)" stop-opacity="0.95" />
</linearGradient>

</defs>
<path fill-rule="evenodd"  fill="rgb(227, 114, 34)"
 d="M107.693,37.979 C107.693,38.203 107.773,38.371 107.931,38.483 C108.090,38.595 108.337,38.698 108.673,38.791 L109.821,39.127 C111.203,39.500 112.187,39.990 112.775,40.597 C113.363,41.204 113.657,42.039 113.657,43.103 C113.657,44.410 113.158,45.404 112.159,46.085 C111.161,46.766 109.849,47.107 108.225,47.107 C106.228,47.107 104.632,46.706 103.437,45.903 L103.437,42.207 C104.016,42.674 104.735,43.056 105.593,43.355 C106.452,43.654 107.217,43.803 107.889,43.803 C108.841,43.803 109.317,43.551 109.317,43.047 C109.317,42.636 108.935,42.347 108.169,42.179 L107.189,41.927 C104.651,41.386 103.381,40.098 103.381,38.063 C103.381,36.775 103.857,35.767 104.809,35.039 C105.761,34.311 107.003,33.947 108.533,33.947 C110.251,33.947 111.716,34.320 112.929,35.067 L112.929,38.679 C111.585,37.708 110.260,37.223 108.953,37.223 C108.113,37.223 107.693,37.475 107.693,37.979 ZM94.309,51.559 C92.387,51.559 90.875,51.204 89.773,50.495 L89.773,46.463 C90.987,47.489 92.452,48.003 94.169,48.003 C95.084,48.003 95.835,47.802 96.423,47.401 C97.011,46.999 97.305,46.379 97.305,45.539 L97.305,45.119 C96.596,45.940 95.607,46.351 94.337,46.351 C92.601,46.351 91.239,45.763 90.249,44.587 C89.260,43.411 88.765,41.927 88.765,40.135 C88.765,38.343 89.260,36.864 90.249,35.697 C91.239,34.530 92.601,33.947 94.337,33.947 C95.625,33.947 96.615,34.358 97.305,35.179 L97.305,34.227 L101.645,34.227 L101.645,45.007 C101.645,47.209 100.964,48.852 99.601,49.935 C98.239,51.017 96.475,51.559 94.309,51.559 ZM97.305,38.483 C96.876,37.774 96.251,37.419 95.429,37.419 C94.720,37.419 94.155,37.671 93.735,38.175 C93.315,38.679 93.105,39.332 93.105,40.135 C93.105,40.938 93.315,41.591 93.735,42.095 C94.155,42.599 94.720,42.851 95.429,42.851 C96.269,42.851 96.895,42.506 97.305,41.815 L97.305,38.483 ZM80.338,23.279 L82.186,18.519 L77.482,6.227 L82.046,6.227 L84.454,13.395 L86.806,6.227 L91.174,6.227 L84.678,23.279 L80.338,23.279 ZM71.854,17.735 C71.070,18.650 69.950,19.107 68.494,19.107 C67.113,19.107 66.030,18.692 65.246,17.861 C64.462,17.030 64.070,15.906 64.070,14.487 L64.070,6.227 L68.438,6.227 L68.438,13.451 C68.438,14.664 68.979,15.271 70.062,15.271 C70.473,15.271 70.846,15.145 71.182,14.893 C71.518,14.641 71.742,14.300 71.854,13.871 L71.854,6.227 L76.250,6.227 L76.250,18.827 L71.854,18.827 L71.854,17.735 ZM56.958,19.107 C56.342,19.107 55.750,18.981 55.180,18.729 C54.611,18.477 54.168,18.174 53.850,17.819 L53.850,18.827 L49.454,18.827 L49.454,0.627 L53.850,0.627 L53.850,7.235 C54.168,6.880 54.611,6.577 55.180,6.325 C55.750,6.073 56.342,5.947 56.958,5.947 C58.713,5.947 60.090,6.568 61.088,7.809 C62.087,9.050 62.586,10.623 62.586,12.527 C62.586,14.431 62.087,16.004 61.088,17.245 C60.090,18.486 58.713,19.107 56.958,19.107 ZM57.546,10.469 C57.117,9.937 56.529,9.671 55.782,9.671 C55.372,9.671 54.989,9.783 54.634,10.007 C54.280,10.231 54.018,10.511 53.850,10.847 L53.850,14.179 C54.224,14.963 54.868,15.355 55.782,15.355 C56.529,15.355 57.117,15.089 57.546,14.557 C57.976,14.025 58.190,13.348 58.190,12.527 C58.190,11.687 57.976,11.001 57.546,10.469 ZM50.070,30.755 L50.070,34.227 L52.534,34.227 L52.534,37.643 L50.070,37.643 L50.070,46.827 L45.702,46.827 L45.702,37.643 L43.518,37.643 L43.518,34.227 L45.702,34.227 L45.702,30.755 L50.070,30.755 ZM37.387,17.819 C37.069,18.174 36.626,18.477 36.057,18.729 C35.487,18.981 34.895,19.107 34.279,19.107 C32.524,19.107 31.147,18.486 30.149,17.245 C29.150,16.004 28.651,14.431 28.651,12.527 C28.651,10.623 29.150,9.050 30.149,7.809 C31.147,6.568 32.524,5.947 34.279,5.947 C34.895,5.947 35.487,6.073 36.057,6.325 C36.626,6.577 37.069,6.880 37.387,7.235 L37.387,0.627 L41.783,0.627 L41.783,18.827 L37.387,18.827 L37.387,17.819 ZM37.387,10.847 C37.219,10.511 36.957,10.231 36.603,10.007 C36.248,9.783 35.865,9.671 35.455,9.671 C34.708,9.671 34.120,9.937 33.691,10.469 C33.261,11.001 33.047,11.687 33.047,12.527 C33.047,13.348 33.261,14.025 33.691,14.557 C34.120,15.089 34.708,15.355 35.455,15.355 C36.369,15.355 37.013,14.963 37.387,14.179 L37.387,10.847 ZM35.637,35.655 C36.654,36.794 37.163,38.324 37.163,40.247 L37.163,41.535 L29.407,41.535 C29.743,42.954 30.816,43.663 32.627,43.663 C33.933,43.663 35.147,43.327 36.267,42.655 L36.267,45.987 C35.259,46.734 33.812,47.107 31.927,47.107 C29.892,47.107 28.254,46.528 27.013,45.371 C25.771,44.214 25.151,42.627 25.151,40.611 C25.151,38.651 25.729,37.050 26.887,35.809 C28.044,34.568 29.500,33.947 31.255,33.947 C33.159,33.947 34.619,34.516 35.637,35.655 ZM29.463,39.071 L33.243,39.071 C33.187,38.530 33.000,38.096 32.683,37.769 C32.365,37.442 31.945,37.279 31.423,37.279 C30.433,37.279 29.780,37.876 29.463,39.071 ZM22.799,11.631 C22.799,11.090 22.659,10.656 22.379,10.329 C22.099,10.002 21.688,9.839 21.147,9.839 C20.699,9.839 20.311,9.960 19.985,10.203 C19.658,10.446 19.439,10.782 19.327,11.211 L19.327,18.827 L14.931,18.827 L14.931,6.227 L19.327,6.227 L19.327,7.319 C20.148,6.404 21.277,5.947 22.715,5.947 C24.096,5.947 25.183,6.362 25.977,7.193 C26.770,8.024 27.167,9.148 27.167,10.567 L27.167,18.827 L22.799,18.827 L22.799,11.631 ZM8.575,18.183 C8.351,18.407 7.959,18.608 7.399,18.785 C6.839,18.962 6.241,19.051 5.607,19.051 C4.300,19.051 3.203,18.692 2.317,17.973 C1.430,17.254 0.987,16.260 0.987,14.991 C0.987,13.796 1.449,12.830 2.373,12.093 C3.297,11.356 4.449,10.987 5.831,10.987 C7.007,10.987 7.921,11.220 8.575,11.687 L8.575,11.239 C8.575,10.735 8.346,10.329 7.889,10.021 C7.431,9.713 6.764,9.559 5.887,9.559 C4.617,9.559 3.469,9.858 2.443,10.455 L2.443,6.927 C3.656,6.274 5.159,5.947 6.951,5.947 C8.817,5.947 10.259,6.381 11.277,7.249 C12.294,8.117 12.803,9.382 12.803,11.043 L12.803,18.827 L8.575,18.827 L8.575,18.183 ZM8.575,14.571 C8.276,13.992 7.688,13.703 6.811,13.703 C6.325,13.703 5.915,13.806 5.579,14.011 C5.243,14.216 5.075,14.515 5.075,14.907 C5.075,15.318 5.243,15.626 5.579,15.831 C5.915,16.036 6.325,16.139 6.811,16.139 C7.669,16.139 8.257,15.859 8.575,15.299 L8.575,14.571 ZM3.115,30.755 L7.483,30.755 L7.483,34.227 L9.947,34.227 L9.947,37.643 L7.483,37.643 L7.483,46.827 L3.115,46.827 L3.115,37.643 L0.931,37.643 L0.931,34.227 L3.115,34.227 L3.115,30.755 ZM5.243,62.227 L7.651,69.395 L10.003,62.227 L14.371,62.227 L7.875,79.279 L3.535,79.279 L5.383,74.519 L0.679,62.227 L5.243,62.227 ZM11.431,46.827 L11.431,28.627 L15.827,28.627 L15.827,35.319 C16.648,34.404 17.777,33.947 19.215,33.947 C20.596,33.947 21.683,34.362 22.477,35.193 C23.270,36.024 23.667,37.148 23.667,38.567 L23.667,46.827 L19.299,46.827 L19.299,39.631 C19.299,39.090 19.159,38.656 18.879,38.329 C18.599,38.002 18.188,37.839 17.647,37.839 C17.199,37.839 16.811,37.960 16.485,38.203 C16.158,38.446 15.939,38.782 15.827,39.211 L15.827,46.827 L11.431,46.827 ZM20.811,61.947 C22.733,61.947 24.287,62.558 25.473,63.781 C26.658,65.004 27.251,66.586 27.251,68.527 C27.251,70.468 26.658,72.050 25.473,73.273 C24.287,74.496 22.733,75.107 20.811,75.107 C18.907,75.107 17.357,74.496 16.163,73.273 C14.968,72.050 14.371,70.468 14.371,68.527 C14.371,66.586 14.968,65.004 16.163,63.781 C17.357,62.558 18.907,61.947 20.811,61.947 ZM19.271,70.655 C19.644,71.196 20.157,71.467 20.811,71.467 C21.483,71.467 22.005,71.201 22.379,70.669 C22.752,70.137 22.939,69.423 22.939,68.527 C22.939,67.631 22.752,66.912 22.379,66.371 C22.005,65.830 21.483,65.559 20.811,65.559 C20.157,65.559 19.644,65.830 19.271,66.371 C18.897,66.912 18.711,67.631 18.711,68.527 C18.711,69.404 18.897,70.114 19.271,70.655 ZM33.131,69.451 C33.131,70.664 33.672,71.271 34.755,71.271 C35.165,71.271 35.539,71.145 35.875,70.893 C36.211,70.641 36.435,70.300 36.547,69.871 L36.547,62.227 L40.943,62.227 L40.943,74.827 L36.547,74.827 L36.547,73.735 C35.763,74.650 34.643,75.107 33.187,75.107 C31.805,75.107 30.723,74.692 29.939,73.861 C29.155,73.030 28.763,71.906 28.763,70.487 L28.763,62.227 L33.131,62.227 L33.131,69.451 ZM54.018,46.827 L54.018,28.627 L58.414,28.627 L58.414,35.319 C59.235,34.404 60.364,33.947 61.802,33.947 C63.183,33.947 64.270,34.362 65.064,35.193 C65.857,36.024 66.254,37.148 66.254,38.567 L66.254,46.827 L61.886,46.827 L61.886,39.631 C61.886,39.090 61.746,38.656 61.466,38.329 C61.186,38.002 60.775,37.839 60.234,37.839 C59.786,37.839 59.398,37.960 59.072,38.203 C58.745,38.446 58.526,38.782 58.414,39.211 L58.414,46.827 L54.018,46.827 ZM53.991,69.059 L55.895,62.227 L58.695,62.227 L60.571,69.059 L62.587,62.227 L66.787,62.227 L62.727,74.827 L59.003,74.827 L57.211,68.443 L55.419,74.827 L51.695,74.827 L47.635,62.227 L52.003,62.227 L53.991,69.059 ZM72.806,46.827 L68.410,46.827 L68.410,34.227 L72.806,34.227 L72.806,46.827 ZM68.858,29.089 C69.343,28.650 69.931,28.431 70.622,28.431 C71.312,28.431 71.900,28.650 72.386,29.089 C72.871,29.528 73.114,30.102 73.114,30.811 C73.114,31.502 72.871,32.066 72.386,32.505 C71.900,32.944 71.312,33.163 70.622,33.163 C69.931,33.163 69.343,32.944 68.858,32.505 C68.372,32.066 68.130,31.502 68.130,30.811 C68.130,30.102 68.372,29.528 68.858,29.089 ZM71.687,66.987 C72.863,66.987 73.777,67.220 74.431,67.687 L74.431,67.239 C74.431,66.735 74.202,66.329 73.745,66.021 C73.287,65.713 72.620,65.559 71.743,65.559 C70.473,65.559 69.325,65.858 68.299,66.455 L68.299,62.927 C69.512,62.274 71.015,61.947 72.807,61.947 C74.673,61.947 76.115,62.381 77.133,63.249 C78.150,64.117 78.659,65.382 78.659,67.043 L78.659,74.827 L74.431,74.827 L74.431,74.183 C74.207,74.407 73.815,74.608 73.255,74.785 C72.695,74.962 72.097,75.051 71.463,75.051 C70.156,75.051 69.059,74.692 68.173,73.973 C67.286,73.254 66.843,72.260 66.843,70.991 C66.843,69.796 67.305,68.830 68.229,68.093 C69.153,67.356 70.305,66.987 71.687,66.987 ZM71.435,71.831 C71.771,72.036 72.181,72.139 72.667,72.139 C73.525,72.139 74.113,71.859 74.431,71.299 L74.431,70.571 C74.132,69.992 73.544,69.703 72.667,69.703 C72.181,69.703 71.771,69.806 71.435,70.011 C71.099,70.216 70.931,70.515 70.931,70.907 C70.931,71.318 71.099,71.626 71.435,71.831 ZM75.046,46.827 L75.046,34.227 L79.442,34.227 L79.442,35.319 C80.263,34.404 81.392,33.947 82.830,33.947 C84.211,33.947 85.298,34.362 86.092,35.193 C86.885,36.024 87.282,37.148 87.282,38.567 L87.282,46.827 L82.914,46.827 L82.914,39.631 C82.914,39.090 82.774,38.656 82.494,38.329 C82.214,38.002 81.803,37.839 81.262,37.839 C80.814,37.839 80.426,37.960 80.100,38.203 C79.773,38.446 79.554,38.782 79.442,39.211 L79.442,46.827 L75.046,46.827 ZM85.183,63.319 C86.004,62.404 87.133,61.947 88.571,61.947 C89.952,61.947 91.039,62.362 91.833,63.193 C92.626,64.024 93.023,65.148 93.023,66.567 L93.023,74.827 L88.655,74.827 L88.655,67.631 C88.655,67.090 88.515,66.656 88.235,66.329 C87.955,66.002 87.544,65.839 87.003,65.839 C86.555,65.839 86.167,65.960 85.841,66.203 C85.514,66.446 85.295,66.782 85.183,67.211 L85.183,74.827 L80.787,74.827 L80.787,62.227 L85.183,62.227 L85.183,63.319 ZM96.635,58.755 L101.003,58.755 L101.003,62.227 L103.467,62.227 L103.467,65.643 L101.003,65.643 L101.003,74.827 L96.635,74.827 L96.635,65.643 L94.451,65.643 L94.451,62.227 L96.635,62.227 L96.635,58.755 Z"/>
<path fill="url(#PSgrad_0)"
 d="M107.693,37.979 C107.693,38.203 107.773,38.371 107.931,38.483 C108.090,38.595 108.337,38.698 108.673,38.791 L109.821,39.127 C111.203,39.500 112.187,39.990 112.775,40.597 C113.363,41.204 113.657,42.039 113.657,43.103 C113.657,44.410 113.158,45.404 112.159,46.085 C111.161,46.766 109.849,47.107 108.225,47.107 C106.228,47.107 104.632,46.706 103.437,45.903 L103.437,42.207 C104.016,42.674 104.735,43.056 105.593,43.355 C106.452,43.654 107.217,43.803 107.889,43.803 C108.841,43.803 109.317,43.551 109.317,43.047 C109.317,42.636 108.935,42.347 108.169,42.179 L107.189,41.927 C104.651,41.386 103.381,40.098 103.381,38.063 C103.381,36.775 103.857,35.767 104.809,35.039 C105.761,34.311 107.003,33.947 108.533,33.947 C110.251,33.947 111.716,34.320 112.929,35.067 L112.929,38.679 C111.585,37.708 110.260,37.223 108.953,37.223 C108.113,37.223 107.693,37.475 107.693,37.979 ZM94.309,51.559 C92.387,51.559 90.875,51.204 89.773,50.495 L89.773,46.463 C90.987,47.489 92.452,48.003 94.169,48.003 C95.084,48.003 95.835,47.802 96.423,47.401 C97.011,46.999 97.305,46.379 97.305,45.539 L97.305,45.119 C96.596,45.940 95.607,46.351 94.337,46.351 C92.601,46.351 91.239,45.763 90.249,44.587 C89.260,43.411 88.765,41.927 88.765,40.135 C88.765,38.343 89.260,36.864 90.249,35.697 C91.239,34.530 92.601,33.947 94.337,33.947 C95.625,33.947 96.615,34.358 97.305,35.179 L97.305,34.227 L101.645,34.227 L101.645,45.007 C101.645,47.209 100.964,48.852 99.601,49.935 C98.239,51.017 96.475,51.559 94.309,51.559 ZM97.305,38.483 C96.876,37.774 96.251,37.419 95.429,37.419 C94.720,37.419 94.155,37.671 93.735,38.175 C93.315,38.679 93.105,39.332 93.105,40.135 C93.105,40.938 93.315,41.591 93.735,42.095 C94.155,42.599 94.720,42.851 95.429,42.851 C96.269,42.851 96.895,42.506 97.305,41.815 L97.305,38.483 ZM80.338,23.279 L82.186,18.519 L77.482,6.227 L82.046,6.227 L84.454,13.395 L86.806,6.227 L91.174,6.227 L84.678,23.279 L80.338,23.279 ZM71.854,17.735 C71.070,18.650 69.950,19.107 68.494,19.107 C67.113,19.107 66.030,18.692 65.246,17.861 C64.462,17.030 64.070,15.906 64.070,14.487 L64.070,6.227 L68.438,6.227 L68.438,13.451 C68.438,14.664 68.979,15.271 70.062,15.271 C70.473,15.271 70.846,15.145 71.182,14.893 C71.518,14.641 71.742,14.300 71.854,13.871 L71.854,6.227 L76.250,6.227 L76.250,18.827 L71.854,18.827 L71.854,17.735 ZM56.958,19.107 C56.342,19.107 55.750,18.981 55.180,18.729 C54.611,18.477 54.168,18.174 53.850,17.819 L53.850,18.827 L49.454,18.827 L49.454,0.627 L53.850,0.627 L53.850,7.235 C54.168,6.880 54.611,6.577 55.180,6.325 C55.750,6.073 56.342,5.947 56.958,5.947 C58.713,5.947 60.090,6.568 61.088,7.809 C62.087,9.050 62.586,10.623 62.586,12.527 C62.586,14.431 62.087,16.004 61.088,17.245 C60.090,18.486 58.713,19.107 56.958,19.107 ZM57.546,10.469 C57.117,9.937 56.529,9.671 55.782,9.671 C55.372,9.671 54.989,9.783 54.634,10.007 C54.280,10.231 54.018,10.511 53.850,10.847 L53.850,14.179 C54.224,14.963 54.868,15.355 55.782,15.355 C56.529,15.355 57.117,15.089 57.546,14.557 C57.976,14.025 58.190,13.348 58.190,12.527 C58.190,11.687 57.976,11.001 57.546,10.469 ZM50.070,30.755 L50.070,34.227 L52.534,34.227 L52.534,37.643 L50.070,37.643 L50.070,46.827 L45.702,46.827 L45.702,37.643 L43.518,37.643 L43.518,34.227 L45.702,34.227 L45.702,30.755 L50.070,30.755 ZM37.387,17.819 C37.069,18.174 36.626,18.477 36.057,18.729 C35.487,18.981 34.895,19.107 34.279,19.107 C32.524,19.107 31.147,18.486 30.149,17.245 C29.150,16.004 28.651,14.431 28.651,12.527 C28.651,10.623 29.150,9.050 30.149,7.809 C31.147,6.568 32.524,5.947 34.279,5.947 C34.895,5.947 35.487,6.073 36.057,6.325 C36.626,6.577 37.069,6.880 37.387,7.235 L37.387,0.627 L41.783,0.627 L41.783,18.827 L37.387,18.827 L37.387,17.819 ZM37.387,10.847 C37.219,10.511 36.957,10.231 36.603,10.007 C36.248,9.783 35.865,9.671 35.455,9.671 C34.708,9.671 34.120,9.937 33.691,10.469 C33.261,11.001 33.047,11.687 33.047,12.527 C33.047,13.348 33.261,14.025 33.691,14.557 C34.120,15.089 34.708,15.355 35.455,15.355 C36.369,15.355 37.013,14.963 37.387,14.179 L37.387,10.847 ZM35.637,35.655 C36.654,36.794 37.163,38.324 37.163,40.247 L37.163,41.535 L29.407,41.535 C29.743,42.954 30.816,43.663 32.627,43.663 C33.933,43.663 35.147,43.327 36.267,42.655 L36.267,45.987 C35.259,46.734 33.812,47.107 31.927,47.107 C29.892,47.107 28.254,46.528 27.013,45.371 C25.771,44.214 25.151,42.627 25.151,40.611 C25.151,38.651 25.729,37.050 26.887,35.809 C28.044,34.568 29.500,33.947 31.255,33.947 C33.159,33.947 34.619,34.516 35.637,35.655 ZM29.463,39.071 L33.243,39.071 C33.187,38.530 33.000,38.096 32.683,37.769 C32.365,37.442 31.945,37.279 31.423,37.279 C30.433,37.279 29.780,37.876 29.463,39.071 ZM22.799,11.631 C22.799,11.090 22.659,10.656 22.379,10.329 C22.099,10.002 21.688,9.839 21.147,9.839 C20.699,9.839 20.311,9.960 19.985,10.203 C19.658,10.446 19.439,10.782 19.327,11.211 L19.327,18.827 L14.931,18.827 L14.931,6.227 L19.327,6.227 L19.327,7.319 C20.148,6.404 21.277,5.947 22.715,5.947 C24.096,5.947 25.183,6.362 25.977,7.193 C26.770,8.024 27.167,9.148 27.167,10.567 L27.167,18.827 L22.799,18.827 L22.799,11.631 ZM8.575,18.183 C8.351,18.407 7.959,18.608 7.399,18.785 C6.839,18.962 6.241,19.051 5.607,19.051 C4.300,19.051 3.203,18.692 2.317,17.973 C1.430,17.254 0.987,16.260 0.987,14.991 C0.987,13.796 1.449,12.830 2.373,12.093 C3.297,11.356 4.449,10.987 5.831,10.987 C7.007,10.987 7.921,11.220 8.575,11.687 L8.575,11.239 C8.575,10.735 8.346,10.329 7.889,10.021 C7.431,9.713 6.764,9.559 5.887,9.559 C4.617,9.559 3.469,9.858 2.443,10.455 L2.443,6.927 C3.656,6.274 5.159,5.947 6.951,5.947 C8.817,5.947 10.259,6.381 11.277,7.249 C12.294,8.117 12.803,9.382 12.803,11.043 L12.803,18.827 L8.575,18.827 L8.575,18.183 ZM8.575,14.571 C8.276,13.992 7.688,13.703 6.811,13.703 C6.325,13.703 5.915,13.806 5.579,14.011 C5.243,14.216 5.075,14.515 5.075,14.907 C5.075,15.318 5.243,15.626 5.579,15.831 C5.915,16.036 6.325,16.139 6.811,16.139 C7.669,16.139 8.257,15.859 8.575,15.299 L8.575,14.571 ZM3.115,30.755 L7.483,30.755 L7.483,34.227 L9.947,34.227 L9.947,37.643 L7.483,37.643 L7.483,46.827 L3.115,46.827 L3.115,37.643 L0.931,37.643 L0.931,34.227 L3.115,34.227 L3.115,30.755 ZM5.243,62.227 L7.651,69.395 L10.003,62.227 L14.371,62.227 L7.875,79.279 L3.535,79.279 L5.383,74.519 L0.679,62.227 L5.243,62.227 ZM11.431,46.827 L11.431,28.627 L15.827,28.627 L15.827,35.319 C16.648,34.404 17.777,33.947 19.215,33.947 C20.596,33.947 21.683,34.362 22.477,35.193 C23.270,36.024 23.667,37.148 23.667,38.567 L23.667,46.827 L19.299,46.827 L19.299,39.631 C19.299,39.090 19.159,38.656 18.879,38.329 C18.599,38.002 18.188,37.839 17.647,37.839 C17.199,37.839 16.811,37.960 16.485,38.203 C16.158,38.446 15.939,38.782 15.827,39.211 L15.827,46.827 L11.431,46.827 ZM20.811,61.947 C22.733,61.947 24.287,62.558 25.473,63.781 C26.658,65.004 27.251,66.586 27.251,68.527 C27.251,70.468 26.658,72.050 25.473,73.273 C24.287,74.496 22.733,75.107 20.811,75.107 C18.907,75.107 17.357,74.496 16.163,73.273 C14.968,72.050 14.371,70.468 14.371,68.527 C14.371,66.586 14.968,65.004 16.163,63.781 C17.357,62.558 18.907,61.947 20.811,61.947 ZM19.271,70.655 C19.644,71.196 20.157,71.467 20.811,71.467 C21.483,71.467 22.005,71.201 22.379,70.669 C22.752,70.137 22.939,69.423 22.939,68.527 C22.939,67.631 22.752,66.912 22.379,66.371 C22.005,65.830 21.483,65.559 20.811,65.559 C20.157,65.559 19.644,65.830 19.271,66.371 C18.897,66.912 18.711,67.631 18.711,68.527 C18.711,69.404 18.897,70.114 19.271,70.655 ZM33.131,69.451 C33.131,70.664 33.672,71.271 34.755,71.271 C35.165,71.271 35.539,71.145 35.875,70.893 C36.211,70.641 36.435,70.300 36.547,69.871 L36.547,62.227 L40.943,62.227 L40.943,74.827 L36.547,74.827 L36.547,73.735 C35.763,74.650 34.643,75.107 33.187,75.107 C31.805,75.107 30.723,74.692 29.939,73.861 C29.155,73.030 28.763,71.906 28.763,70.487 L28.763,62.227 L33.131,62.227 L33.131,69.451 ZM54.018,46.827 L54.018,28.627 L58.414,28.627 L58.414,35.319 C59.235,34.404 60.364,33.947 61.802,33.947 C63.183,33.947 64.270,34.362 65.064,35.193 C65.857,36.024 66.254,37.148 66.254,38.567 L66.254,46.827 L61.886,46.827 L61.886,39.631 C61.886,39.090 61.746,38.656 61.466,38.329 C61.186,38.002 60.775,37.839 60.234,37.839 C59.786,37.839 59.398,37.960 59.072,38.203 C58.745,38.446 58.526,38.782 58.414,39.211 L58.414,46.827 L54.018,46.827 ZM53.991,69.059 L55.895,62.227 L58.695,62.227 L60.571,69.059 L62.587,62.227 L66.787,62.227 L62.727,74.827 L59.003,74.827 L57.211,68.443 L55.419,74.827 L51.695,74.827 L47.635,62.227 L52.003,62.227 L53.991,69.059 ZM72.806,46.827 L68.410,46.827 L68.410,34.227 L72.806,34.227 L72.806,46.827 ZM68.858,29.089 C69.343,28.650 69.931,28.431 70.622,28.431 C71.312,28.431 71.900,28.650 72.386,29.089 C72.871,29.528 73.114,30.102 73.114,30.811 C73.114,31.502 72.871,32.066 72.386,32.505 C71.900,32.944 71.312,33.163 70.622,33.163 C69.931,33.163 69.343,32.944 68.858,32.505 C68.372,32.066 68.130,31.502 68.130,30.811 C68.130,30.102 68.372,29.528 68.858,29.089 ZM71.687,66.987 C72.863,66.987 73.777,67.220 74.431,67.687 L74.431,67.239 C74.431,66.735 74.202,66.329 73.745,66.021 C73.287,65.713 72.620,65.559 71.743,65.559 C70.473,65.559 69.325,65.858 68.299,66.455 L68.299,62.927 C69.512,62.274 71.015,61.947 72.807,61.947 C74.673,61.947 76.115,62.381 77.133,63.249 C78.150,64.117 78.659,65.382 78.659,67.043 L78.659,74.827 L74.431,74.827 L74.431,74.183 C74.207,74.407 73.815,74.608 73.255,74.785 C72.695,74.962 72.097,75.051 71.463,75.051 C70.156,75.051 69.059,74.692 68.173,73.973 C67.286,73.254 66.843,72.260 66.843,70.991 C66.843,69.796 67.305,68.830 68.229,68.093 C69.153,67.356 70.305,66.987 71.687,66.987 ZM71.435,71.831 C71.771,72.036 72.181,72.139 72.667,72.139 C73.525,72.139 74.113,71.859 74.431,71.299 L74.431,70.571 C74.132,69.992 73.544,69.703 72.667,69.703 C72.181,69.703 71.771,69.806 71.435,70.011 C71.099,70.216 70.931,70.515 70.931,70.907 C70.931,71.318 71.099,71.626 71.435,71.831 ZM75.046,46.827 L75.046,34.227 L79.442,34.227 L79.442,35.319 C80.263,34.404 81.392,33.947 82.830,33.947 C84.211,33.947 85.298,34.362 86.092,35.193 C86.885,36.024 87.282,37.148 87.282,38.567 L87.282,46.827 L82.914,46.827 L82.914,39.631 C82.914,39.090 82.774,38.656 82.494,38.329 C82.214,38.002 81.803,37.839 81.262,37.839 C80.814,37.839 80.426,37.960 80.100,38.203 C79.773,38.446 79.554,38.782 79.442,39.211 L79.442,46.827 L75.046,46.827 ZM85.183,63.319 C86.004,62.404 87.133,61.947 88.571,61.947 C89.952,61.947 91.039,62.362 91.833,63.193 C92.626,64.024 93.023,65.148 93.023,66.567 L93.023,74.827 L88.655,74.827 L88.655,67.631 C88.655,67.090 88.515,66.656 88.235,66.329 C87.955,66.002 87.544,65.839 87.003,65.839 C86.555,65.839 86.167,65.960 85.841,66.203 C85.514,66.446 85.295,66.782 85.183,67.211 L85.183,74.827 L80.787,74.827 L80.787,62.227 L85.183,62.227 L85.183,63.319 ZM96.635,58.755 L101.003,58.755 L101.003,62.227 L103.467,62.227 L103.467,65.643 L101.003,65.643 L101.003,74.827 L96.635,74.827 L96.635,65.643 L94.451,65.643 L94.451,62.227 L96.635,62.227 L96.635,58.755 Z"/>
</svg>