<svg 
 xmlns="http://www.w3.org/2000/svg"
 xmlns:xlink="http://www.w3.org/1999/xlink"
 width="119px" height="132px">
<defs>
<linearGradient id="PSgrad_0" x1="0%" x2="68.2%" y1="0%" y2="73.135%">
  <stop offset="0%" stop-color="rgb(238,117,24)" stop-opacity="0.95" />
  <stop offset="100%" stop-color="rgb(253,91,47)" stop-opacity="0.95" />
</linearGradient>

</defs>
<path fill-rule="evenodd"  fill="rgb(227, 114, 34)"
 d="M113.049,65.979 C113.049,66.203 113.128,66.371 113.287,66.483 C113.445,66.595 113.693,66.698 114.029,66.791 L115.177,67.127 C116.558,67.500 117.543,67.990 118.131,68.597 C118.719,69.204 119.013,70.039 119.013,71.103 C119.013,72.410 118.513,73.404 117.515,74.085 C116.516,74.766 115.205,75.107 113.581,75.107 C111.583,75.107 109.987,74.706 108.793,73.903 L108.793,70.207 C109.371,70.674 110.090,71.056 110.949,71.355 C111.807,71.654 112.573,71.803 113.245,71.803 C114.197,71.803 114.673,71.551 114.673,71.047 C114.673,70.636 114.290,70.347 113.525,70.179 L112.545,69.927 C110.006,69.386 108.737,68.098 108.737,66.063 C108.737,64.775 109.213,63.767 110.165,63.039 C111.117,62.311 112.358,61.947 113.889,61.947 C115.606,61.947 117.071,62.320 118.285,63.067 L118.285,66.679 C116.941,65.708 115.615,65.223 114.309,65.223 C113.469,65.223 113.049,65.475 113.049,65.979 ZM102.885,74.183 C102.661,74.407 102.269,74.608 101.709,74.785 C101.149,74.962 100.552,75.051 99.917,75.051 C98.611,75.051 97.514,74.692 96.627,73.973 C95.741,73.254 95.297,72.260 95.297,70.991 C95.297,69.796 95.759,68.830 96.683,68.093 C97.607,67.356 98.760,66.987 100.141,66.987 C101.317,66.987 102.232,67.220 102.885,67.687 L102.885,67.239 C102.885,66.735 102.657,66.329 102.199,66.021 C101.742,65.713 101.075,65.559 100.197,65.559 C98.928,65.559 97.780,65.858 96.753,66.455 L96.753,62.927 C97.967,62.274 99.469,61.947 101.261,61.947 C103.128,61.947 104.570,62.381 105.587,63.249 C106.605,64.117 107.113,65.382 107.113,67.043 L107.113,74.827 L102.885,74.827 L102.885,74.183 ZM102.885,70.571 C102.587,69.992 101.999,69.703 101.121,69.703 C100.636,69.703 100.225,69.806 99.889,70.011 C99.553,70.216 99.385,70.515 99.385,70.907 C99.385,71.318 99.553,71.626 99.889,71.831 C100.225,72.036 100.636,72.139 101.121,72.139 C101.980,72.139 102.568,71.859 102.885,71.299 L102.885,70.571 ZM94.458,18.827 L90.090,18.827 L90.090,9.643 L87.906,9.643 L87.906,6.227 L90.090,6.227 L90.090,2.755 L94.458,2.755 L94.458,6.227 L96.922,6.227 L96.922,9.643 L94.458,9.643 L94.458,18.827 ZM82.026,17.735 C81.242,18.650 80.122,19.107 78.666,19.107 C77.284,19.107 76.202,18.692 75.418,17.861 C74.634,17.030 74.242,15.906 74.242,14.487 L74.242,6.227 L78.610,6.227 L78.610,13.451 C78.610,14.664 79.151,15.271 80.234,15.271 C80.644,15.271 81.018,15.145 81.354,14.893 C81.690,14.641 81.914,14.300 82.026,13.871 L82.026,6.227 L86.422,6.227 L86.422,18.827 L82.026,18.827 L82.026,17.735 ZM75.404,40.093 C76.328,39.356 77.480,38.987 78.862,38.987 C80.038,38.987 80.952,39.220 81.606,39.687 L81.606,39.239 C81.606,38.735 81.377,38.329 80.920,38.021 C80.462,37.713 79.795,37.559 78.918,37.559 C77.648,37.559 76.500,37.858 75.474,38.455 L75.474,34.927 C76.687,34.274 78.190,33.947 79.982,33.947 C81.848,33.947 83.290,34.381 84.308,35.249 C85.325,36.117 85.834,37.382 85.834,39.043 L85.834,46.827 L81.606,46.827 L81.606,46.183 C81.382,46.407 80.990,46.608 80.430,46.785 C79.870,46.962 79.272,47.051 78.638,47.051 C77.331,47.051 76.234,46.692 75.348,45.973 C74.461,45.254 74.018,44.260 74.018,42.991 C74.018,41.796 74.480,40.830 75.404,40.093 ZM78.610,43.831 C78.946,44.036 79.356,44.139 79.842,44.139 C80.700,44.139 81.288,43.859 81.606,43.299 L81.606,42.571 C81.307,41.992 80.719,41.703 79.842,41.703 C79.356,41.703 78.946,41.806 78.610,42.011 C78.274,42.216 78.106,42.515 78.106,42.907 C78.106,43.318 78.274,43.626 78.610,43.831 ZM71.078,46.827 L66.710,46.827 L66.710,37.643 L64.526,37.643 L64.526,34.227 L66.710,34.227 L66.710,30.755 L71.078,30.755 L71.078,34.227 L73.542,34.227 L73.542,37.643 L71.078,37.643 L71.078,46.827 ZM66.290,19.107 C64.386,19.107 62.836,18.496 61.642,17.273 C60.447,16.050 59.850,14.468 59.850,12.527 C59.850,10.586 60.447,9.004 61.642,7.781 C62.836,6.558 64.386,5.947 66.290,5.947 C68.212,5.947 69.766,6.558 70.952,7.781 C72.137,9.004 72.730,10.586 72.730,12.527 C72.730,14.468 72.137,16.050 70.952,17.273 C69.766,18.496 68.212,19.107 66.290,19.107 ZM67.858,10.371 C67.484,9.830 66.962,9.559 66.290,9.559 C65.636,9.559 65.123,9.830 64.750,10.371 C64.376,10.912 64.190,11.631 64.190,12.527 C64.190,13.404 64.376,14.114 64.750,14.655 C65.123,15.196 65.636,15.467 66.290,15.467 C66.962,15.467 67.484,15.201 67.858,14.669 C68.231,14.137 68.418,13.423 68.418,12.527 C68.418,11.631 68.231,10.912 67.858,10.371 ZM62.594,29.089 C63.079,29.528 63.322,30.102 63.322,30.811 C63.322,31.502 63.079,32.066 62.594,32.505 C62.108,32.944 61.520,33.163 60.830,33.163 C60.139,33.163 59.551,32.944 59.066,32.505 C58.580,32.066 58.338,31.502 58.338,30.811 C58.338,30.102 58.580,29.528 59.066,29.089 C59.551,28.650 60.139,28.431 60.830,28.431 C61.520,28.431 62.108,28.650 62.594,29.089 ZM51.450,47.107 C50.834,47.107 50.242,46.981 49.672,46.729 C49.103,46.477 48.660,46.174 48.342,45.819 L48.342,51.279 L43.946,51.279 L43.946,34.227 L48.342,34.227 L48.342,35.235 C48.660,34.880 49.103,34.577 49.672,34.325 C50.242,34.073 50.834,33.947 51.450,33.947 C53.205,33.947 54.582,34.572 55.580,35.823 C56.579,37.074 57.078,38.642 57.078,40.527 C57.078,42.394 56.579,43.957 55.580,45.217 C54.582,46.477 53.205,47.107 51.450,47.107 ZM52.038,38.469 C51.609,37.937 51.021,37.671 50.274,37.671 C49.378,37.671 48.734,38.063 48.342,38.847 L48.342,42.179 C48.716,42.963 49.360,43.355 50.274,43.355 C51.021,43.355 51.609,43.089 52.038,42.557 C52.468,42.025 52.682,41.348 52.682,40.527 C52.682,39.687 52.468,39.001 52.038,38.469 ZM48.903,15.663 C50.209,15.663 51.423,15.327 52.543,14.655 L52.543,17.987 C51.535,18.734 50.088,19.107 48.203,19.107 C46.168,19.107 44.530,18.528 43.289,17.371 C42.047,16.214 41.427,14.627 41.427,12.611 C41.427,10.651 42.005,9.050 43.163,7.809 C44.320,6.568 45.776,5.947 47.531,5.947 C49.435,5.947 50.895,6.516 51.913,7.655 C52.930,8.794 53.439,10.324 53.439,12.247 L53.439,13.535 L45.683,13.535 C46.019,14.954 47.092,15.663 48.903,15.663 ZM49.519,11.071 C49.463,10.530 49.276,10.096 48.959,9.769 C48.641,9.442 48.221,9.279 47.699,9.279 C46.709,9.279 46.056,9.876 45.739,11.071 L49.519,11.071 ZM41.567,18.827 L36.639,18.827 L32.831,13.311 L32.831,18.827 L28.435,18.827 L28.435,0.627 L32.831,0.627 L32.831,10.987 L36.415,6.227 L41.455,6.227 L36.779,12.051 L41.567,18.827 ZM22.079,18.183 C21.855,18.407 21.463,18.608 20.903,18.785 C20.343,18.962 19.745,19.051 19.111,19.051 C17.804,19.051 16.707,18.692 15.821,17.973 C14.934,17.254 14.491,16.260 14.491,14.991 C14.491,13.796 14.953,12.830 15.877,12.093 C16.801,11.356 17.953,10.987 19.335,10.987 C20.511,10.987 21.425,11.220 22.079,11.687 L22.079,11.239 C22.079,10.735 21.850,10.329 21.393,10.021 C20.935,9.713 20.268,9.559 19.391,9.559 C18.121,9.559 16.973,9.858 15.947,10.455 L15.947,6.927 C17.160,6.274 18.663,5.947 20.455,5.947 C22.321,5.947 23.763,6.381 24.781,7.249 C25.798,8.117 26.307,9.382 26.307,11.043 L26.307,18.827 L22.079,18.827 L22.079,18.183 ZM22.079,14.571 C21.780,13.992 21.192,13.703 20.315,13.703 C19.829,13.703 19.419,13.806 19.083,14.011 C18.747,14.216 18.579,14.515 18.579,14.907 C18.579,15.318 18.747,15.626 19.083,15.831 C19.419,16.036 19.829,16.139 20.315,16.139 C21.173,16.139 21.761,15.859 22.079,15.299 L22.079,14.571 ZM9.843,18.827 L5.335,18.827 L5.335,5.499 L0.043,5.499 L0.043,1.635 L15.163,1.635 L15.163,5.499 L9.843,5.499 L9.843,18.827 ZM1.373,68.093 C2.297,67.356 3.449,66.987 4.831,66.987 C6.007,66.987 6.921,67.220 7.575,67.687 L7.575,67.239 C7.575,66.735 7.346,66.329 6.889,66.021 C6.431,65.713 5.764,65.559 4.887,65.559 C3.617,65.559 2.469,65.858 1.443,66.455 L1.443,62.927 C2.656,62.274 4.159,61.947 5.951,61.947 C7.817,61.947 9.259,62.381 10.277,63.249 C11.294,64.117 11.803,65.382 11.803,67.043 L11.803,74.827 L7.575,74.827 L7.575,74.183 C7.351,74.407 6.959,74.608 6.399,74.785 C5.839,74.962 5.241,75.051 4.607,75.051 C3.300,75.051 2.203,74.692 1.317,73.973 C0.430,73.254 -0.013,72.260 -0.013,70.991 C-0.013,69.796 0.449,68.830 1.373,68.093 ZM4.579,71.831 C4.915,72.036 5.325,72.139 5.811,72.139 C6.669,72.139 7.257,71.859 7.575,71.299 L7.575,70.571 C7.276,69.992 6.688,69.703 5.811,69.703 C5.325,69.703 4.915,69.806 4.579,70.011 C4.243,70.216 4.075,70.515 4.075,70.907 C4.075,71.318 4.243,71.626 4.579,71.831 ZM6.567,89.947 C7.985,89.947 9.115,90.246 9.955,90.843 L9.955,94.539 C9.133,93.942 8.228,93.643 7.239,93.643 C6.399,93.643 5.703,93.895 5.153,94.399 C4.602,94.903 4.327,95.612 4.327,96.527 C4.327,97.442 4.602,98.151 5.153,98.655 C5.703,99.159 6.399,99.411 7.239,99.411 C8.228,99.411 9.133,99.112 9.955,98.515 L9.955,102.211 C9.115,102.808 7.985,103.107 6.567,103.107 C4.644,103.107 3.067,102.510 1.835,101.315 C0.603,100.120 -0.013,98.524 -0.013,96.527 C-0.013,94.530 0.603,92.934 1.835,91.739 C3.067,90.544 4.644,89.947 6.567,89.947 ZM7.435,125.283 C7.435,124.406 7.029,123.762 6.217,123.351 C5.405,122.940 4.383,122.772 3.151,122.847 L3.151,122.763 L5.811,117.499 L0.211,117.499 L0.211,113.635 L11.635,113.635 L11.635,113.719 L8.275,120.411 C10.496,121.363 11.607,122.978 11.607,125.255 C11.607,127.047 11.000,128.470 9.787,129.525 C8.573,130.580 7.061,131.107 5.251,131.107 C3.235,131.107 1.527,130.622 0.127,129.651 L0.127,125.535 C1.545,126.804 3.095,127.439 4.775,127.439 C6.548,127.439 7.435,126.720 7.435,125.283 ZM20.763,113.635 L20.763,130.827 L16.395,130.827 L16.395,118.507 L12.391,120.439 L12.391,116.183 L17.739,113.635 L20.763,113.635 ZM12.839,101.273 C11.644,100.050 11.047,98.468 11.047,96.527 C11.047,94.586 11.644,93.004 12.839,91.781 C14.033,90.558 15.583,89.947 17.487,89.947 C19.409,89.947 20.963,90.558 22.149,91.781 C23.334,93.004 23.927,94.586 23.927,96.527 C23.927,98.468 23.334,100.050 22.149,101.273 C20.963,102.496 19.409,103.107 17.487,103.107 C15.583,103.107 14.033,102.496 12.839,101.273 ZM19.055,98.669 C19.428,98.137 19.615,97.423 19.615,96.527 C19.615,95.631 19.428,94.912 19.055,94.371 C18.681,93.830 18.159,93.559 17.487,93.559 C16.833,93.559 16.320,93.830 15.947,94.371 C15.573,94.912 15.387,95.631 15.387,96.527 C15.387,97.404 15.573,98.114 15.947,98.655 C16.320,99.196 16.833,99.467 17.487,99.467 C18.159,99.467 18.681,99.201 19.055,98.669 ZM30.871,97.451 L33.223,90.227 L37.535,90.227 L32.719,102.827 L28.771,102.827 L23.983,90.227 L28.463,90.227 L30.871,97.451 ZM37.787,120.635 L42.519,113.635 L46.663,113.635 L46.663,130.827 L42.239,130.827 L42.239,120.971 L37.843,127.131 L37.731,127.131 L33.307,120.971 L33.307,130.827 L28.911,130.827 L28.911,113.635 L33.083,113.635 L37.787,120.635 ZM49.701,124.093 C50.625,123.356 51.777,122.987 53.159,122.987 C54.335,122.987 55.249,123.220 55.903,123.687 L55.903,123.239 C55.903,122.735 55.674,122.329 55.217,122.021 C54.759,121.713 54.092,121.559 53.215,121.559 C51.945,121.559 50.797,121.858 49.771,122.455 L49.771,118.927 C50.984,118.274 52.487,117.947 54.279,117.947 C56.145,117.947 57.587,118.381 58.605,119.249 C59.622,120.117 60.131,121.382 60.131,123.043 L60.131,130.827 L55.903,130.827 L55.903,130.183 C55.679,130.407 55.287,130.608 54.727,130.785 C54.167,130.962 53.569,131.051 52.935,131.051 C51.628,131.051 50.531,130.692 49.645,129.973 C48.758,129.254 48.315,128.260 48.315,126.991 C48.315,125.796 48.777,124.830 49.701,124.093 ZM52.907,127.831 C53.243,128.036 53.653,128.139 54.139,128.139 C54.997,128.139 55.585,127.859 55.903,127.299 L55.903,126.571 C55.604,125.992 55.016,125.703 54.139,125.703 C53.653,125.703 53.243,125.806 52.907,126.011 C52.571,126.216 52.403,126.515 52.403,126.907 C52.403,127.318 52.571,127.626 52.907,127.831 ZM51.170,102.827 L51.170,90.227 L55.566,90.227 L55.566,91.347 C56.257,90.414 57.209,89.947 58.422,89.947 C58.964,89.947 59.365,90.022 59.626,90.171 L59.626,94.399 C59.122,94.138 58.516,94.007 57.806,94.007 C56.556,94.007 55.809,94.483 55.566,95.435 L55.566,102.827 L51.170,102.827 ZM48.021,91.655 C49.038,92.794 49.547,94.324 49.547,96.247 L49.547,97.535 L41.791,97.535 C42.127,98.954 43.200,99.663 45.011,99.663 C46.317,99.663 47.531,99.327 48.651,98.655 L48.651,101.987 C47.643,102.734 46.196,103.107 44.311,103.107 C42.276,103.107 40.638,102.528 39.397,101.371 C38.155,100.214 37.535,98.627 37.535,96.611 C37.535,94.651 38.113,93.050 39.271,91.809 C40.428,90.568 41.884,89.947 43.639,89.947 C45.543,89.947 47.003,90.516 48.021,91.655 ZM41.847,95.071 L45.627,95.071 C45.571,94.530 45.384,94.096 45.067,93.769 C44.749,93.442 44.329,93.279 43.807,93.279 C42.817,93.279 42.164,93.876 41.847,95.071 ZM35.057,62.325 C35.626,62.577 36.069,62.880 36.387,63.235 L36.387,56.627 L40.783,56.627 L40.783,74.827 L36.387,74.827 L36.387,73.819 C36.069,74.174 35.626,74.477 35.057,74.729 C34.487,74.981 33.895,75.107 33.279,75.107 C31.524,75.107 30.147,74.486 29.149,73.245 C28.150,72.004 27.651,70.431 27.651,68.527 C27.651,66.623 28.150,65.050 29.149,63.809 C30.147,62.568 31.524,61.947 33.279,61.947 C33.895,61.947 34.487,62.073 35.057,62.325 ZM32.047,68.527 C32.047,69.348 32.261,70.025 32.691,70.557 C33.120,71.089 33.708,71.355 34.455,71.355 C35.369,71.355 36.013,70.963 36.387,70.179 L36.387,66.847 C36.219,66.511 35.957,66.231 35.603,66.007 C35.248,65.783 34.865,65.671 34.455,65.671 C33.708,65.671 33.120,65.937 32.691,66.469 C32.261,67.001 32.047,67.687 32.047,68.527 ZM24.487,33.947 C26.409,33.947 27.963,34.558 29.149,35.781 C30.334,37.004 30.927,38.586 30.927,40.527 C30.927,42.468 30.334,44.050 29.149,45.273 C27.963,46.496 26.409,47.107 24.487,47.107 C22.583,47.107 21.033,46.496 19.839,45.273 C18.644,44.050 18.047,42.468 18.047,40.527 C18.047,38.586 18.644,37.004 19.839,35.781 C21.033,34.558 22.583,33.947 24.487,33.947 ZM22.947,42.655 C23.320,43.196 23.833,43.467 24.487,43.467 C25.159,43.467 25.681,43.201 26.055,42.669 C26.428,42.137 26.615,41.423 26.615,40.527 C26.615,39.631 26.428,38.912 26.055,38.371 C25.681,37.830 25.159,37.559 24.487,37.559 C23.833,37.559 23.320,37.830 22.947,38.371 C22.573,38.912 22.387,39.631 22.387,40.527 C22.387,41.404 22.573,42.114 22.947,42.655 ZM18.327,63.319 C19.148,62.404 20.277,61.947 21.715,61.947 C23.096,61.947 24.183,62.362 24.977,63.193 C25.770,64.024 26.167,65.148 26.167,66.567 L26.167,74.827 L21.799,74.827 L21.799,67.631 C21.799,67.090 21.659,66.656 21.379,66.329 C21.099,66.002 20.688,65.839 20.147,65.839 C19.699,65.839 19.311,65.960 18.985,66.203 C18.658,66.446 18.439,66.782 18.327,67.211 L18.327,74.827 L13.931,74.827 L13.931,62.227 L18.327,62.227 L18.327,63.319 ZM16.423,29.635 L16.423,46.827 L11.915,46.827 L11.915,40.023 L5.279,40.023 L5.279,46.827 L0.771,46.827 L0.771,29.635 L5.279,29.635 L5.279,36.159 L11.915,36.159 L11.915,29.635 L16.423,29.635 ZM37.366,38.791 L38.514,39.127 C39.896,39.500 40.880,39.990 41.468,40.597 C42.056,41.204 42.350,42.039 42.350,43.103 C42.350,44.410 41.851,45.404 40.852,46.085 C39.854,46.766 38.542,47.107 36.918,47.107 C34.921,47.107 33.325,46.706 32.130,45.903 L32.130,42.207 C32.709,42.674 33.428,43.056 34.286,43.355 C35.145,43.654 35.910,43.803 36.582,43.803 C37.534,43.803 38.010,43.551 38.010,43.047 C38.010,42.636 37.628,42.347 36.862,42.179 L35.882,41.927 C33.344,41.386 32.074,40.098 32.074,38.063 C32.074,36.775 32.550,35.767 33.502,35.039 C34.454,34.311 35.696,33.947 37.226,33.947 C38.944,33.947 40.409,34.320 41.622,35.067 L41.622,38.679 C40.278,37.708 38.953,37.223 37.646,37.223 C36.806,37.223 36.386,37.475 36.386,37.979 C36.386,38.203 36.466,38.371 36.624,38.483 C36.783,38.595 37.030,38.698 37.366,38.791 ZM48.566,57.635 L60.858,57.635 L60.858,61.499 L52.990,61.499 L52.990,64.187 L60.186,64.187 L60.186,67.967 L52.990,67.967 L52.990,70.935 L60.858,70.935 L60.858,74.827 L48.566,74.827 L48.566,57.635 ZM58.618,34.227 L63.014,34.227 L63.014,46.827 L58.618,46.827 L58.618,34.227 ZM61.978,62.227 L66.710,62.227 L68.670,65.251 L70.658,62.227 L75.194,62.227 L70.966,68.387 L75.390,74.827 L70.630,74.827 L68.474,71.551 L66.318,74.827 L61.782,74.827 L66.178,68.415 L61.978,62.227 ZM66.654,119.347 C67.345,118.414 68.297,117.947 69.510,117.947 C70.052,117.947 70.453,118.022 70.714,118.171 L70.714,122.399 C70.210,122.138 69.604,122.007 68.894,122.007 C67.644,122.007 66.897,122.483 66.654,123.435 L66.654,130.827 L62.258,130.827 L62.258,118.227 L66.654,118.227 L66.654,119.347 ZM66.710,102.827 L66.710,84.627 L71.106,84.627 L71.106,91.235 C71.423,90.880 71.866,90.577 72.436,90.325 C73.005,90.073 73.598,89.947 74.214,89.947 C75.968,89.947 77.345,90.568 78.344,91.809 C79.342,93.050 79.842,94.623 79.842,96.527 C79.842,98.431 79.342,100.004 78.344,101.245 C77.345,102.486 75.968,103.107 74.214,103.107 C73.598,103.107 73.005,102.981 72.436,102.729 C71.866,102.477 71.423,102.174 71.106,101.819 L71.106,102.827 L66.710,102.827 ZM73.038,99.355 C73.784,99.355 74.372,99.089 74.802,98.557 C75.231,98.025 75.446,97.348 75.446,96.527 C75.446,95.687 75.231,95.001 74.802,94.469 C74.372,93.937 73.784,93.671 73.038,93.671 C72.627,93.671 72.244,93.783 71.890,94.007 C71.535,94.231 71.274,94.511 71.106,94.847 L71.106,98.179 C71.479,98.963 72.123,99.355 73.038,99.355 ZM78.078,117.947 C79.497,117.947 80.626,118.246 81.466,118.843 L81.466,122.539 C80.645,121.942 79.739,121.643 78.750,121.643 C77.910,121.643 77.215,121.895 76.664,122.399 C76.113,122.903 75.838,123.612 75.838,124.527 C75.838,125.442 76.113,126.151 76.664,126.655 C77.215,127.159 77.910,127.411 78.750,127.411 C79.739,127.411 80.645,127.112 81.466,126.515 L81.466,130.211 C80.626,130.808 79.497,131.107 78.078,131.107 C76.155,131.107 74.578,130.510 73.346,129.315 C72.114,128.120 71.498,126.524 71.498,124.527 C71.498,122.530 72.114,120.934 73.346,119.739 C74.578,118.544 76.155,117.947 78.078,117.947 ZM82.362,58.755 L82.362,62.227 L84.826,62.227 L84.826,65.643 L82.362,65.643 L82.362,74.827 L77.994,74.827 L77.994,65.643 L75.810,65.643 L75.810,62.227 L77.994,62.227 L77.994,58.755 L82.362,58.755 ZM79.870,90.227 L84.434,90.227 L86.842,97.395 L89.194,90.227 L93.562,90.227 L87.066,107.279 L82.726,107.279 L84.574,102.519 L79.870,90.227 ZM87.961,28.627 L92.357,28.627 L92.357,46.827 L87.961,46.827 L87.961,28.627 ZM94.766,62.171 L94.766,66.399 C94.262,66.138 93.655,66.007 92.946,66.007 C91.695,66.007 90.948,66.483 90.706,67.435 L90.706,74.827 L86.310,74.827 L86.310,62.227 L90.706,62.227 L90.706,63.347 C91.396,62.414 92.348,61.947 93.562,61.947 C94.103,61.947 94.504,62.022 94.766,62.171 ZM87.626,119.319 C88.447,118.404 89.576,117.947 91.014,117.947 C92.395,117.947 93.482,118.362 94.276,119.193 C95.069,120.024 95.466,121.148 95.466,122.567 L95.466,130.827 L91.098,130.827 L91.098,123.631 C91.098,123.090 90.958,122.656 90.678,122.329 C90.398,122.002 89.987,121.839 89.446,121.839 C88.998,121.839 88.610,121.960 88.284,122.203 C87.957,122.446 87.738,122.782 87.626,123.211 L87.626,130.827 L83.230,130.827 L83.230,112.627 L87.626,112.627 L87.626,119.319 ZM97.442,113.594 L98.650,114.296 L98.650,112.892 L99.874,112.892 L99.874,114.296 L101.066,113.594 L101.686,114.639 L100.462,115.341 L101.686,116.043 L101.066,117.088 L99.874,116.386 L99.874,117.789 L98.650,117.789 L98.650,116.386 L97.442,117.088 L96.838,116.043 L98.046,115.341 L96.838,114.639 L97.442,113.594 Z"/>
<path fill="url(#PSgrad_0)"
 d="M113.049,65.979 C113.049,66.203 113.128,66.371 113.287,66.483 C113.445,66.595 113.693,66.698 114.029,66.791 L115.177,67.127 C116.558,67.500 117.543,67.990 118.131,68.597 C118.719,69.204 119.013,70.039 119.013,71.103 C119.013,72.410 118.513,73.404 117.515,74.085 C116.516,74.766 115.205,75.107 113.581,75.107 C111.583,75.107 109.987,74.706 108.793,73.903 L108.793,70.207 C109.371,70.674 110.090,71.056 110.949,71.355 C111.807,71.654 112.573,71.803 113.245,71.803 C114.197,71.803 114.673,71.551 114.673,71.047 C114.673,70.636 114.290,70.347 113.525,70.179 L112.545,69.927 C110.006,69.386 108.737,68.098 108.737,66.063 C108.737,64.775 109.213,63.767 110.165,63.039 C111.117,62.311 112.358,61.947 113.889,61.947 C115.606,61.947 117.071,62.320 118.285,63.067 L118.285,66.679 C116.941,65.708 115.615,65.223 114.309,65.223 C113.469,65.223 113.049,65.475 113.049,65.979 ZM102.885,74.183 C102.661,74.407 102.269,74.608 101.709,74.785 C101.149,74.962 100.552,75.051 99.917,75.051 C98.611,75.051 97.514,74.692 96.627,73.973 C95.741,73.254 95.297,72.260 95.297,70.991 C95.297,69.796 95.759,68.830 96.683,68.093 C97.607,67.356 98.760,66.987 100.141,66.987 C101.317,66.987 102.232,67.220 102.885,67.687 L102.885,67.239 C102.885,66.735 102.657,66.329 102.199,66.021 C101.742,65.713 101.075,65.559 100.197,65.559 C98.928,65.559 97.780,65.858 96.753,66.455 L96.753,62.927 C97.967,62.274 99.469,61.947 101.261,61.947 C103.128,61.947 104.570,62.381 105.587,63.249 C106.605,64.117 107.113,65.382 107.113,67.043 L107.113,74.827 L102.885,74.827 L102.885,74.183 ZM102.885,70.571 C102.587,69.992 101.999,69.703 101.121,69.703 C100.636,69.703 100.225,69.806 99.889,70.011 C99.553,70.216 99.385,70.515 99.385,70.907 C99.385,71.318 99.553,71.626 99.889,71.831 C100.225,72.036 100.636,72.139 101.121,72.139 C101.980,72.139 102.568,71.859 102.885,71.299 L102.885,70.571 ZM94.458,18.827 L90.090,18.827 L90.090,9.643 L87.906,9.643 L87.906,6.227 L90.090,6.227 L90.090,2.755 L94.458,2.755 L94.458,6.227 L96.922,6.227 L96.922,9.643 L94.458,9.643 L94.458,18.827 ZM82.026,17.735 C81.242,18.650 80.122,19.107 78.666,19.107 C77.284,19.107 76.202,18.692 75.418,17.861 C74.634,17.030 74.242,15.906 74.242,14.487 L74.242,6.227 L78.610,6.227 L78.610,13.451 C78.610,14.664 79.151,15.271 80.234,15.271 C80.644,15.271 81.018,15.145 81.354,14.893 C81.690,14.641 81.914,14.300 82.026,13.871 L82.026,6.227 L86.422,6.227 L86.422,18.827 L82.026,18.827 L82.026,17.735 ZM75.404,40.093 C76.328,39.356 77.480,38.987 78.862,38.987 C80.038,38.987 80.952,39.220 81.606,39.687 L81.606,39.239 C81.606,38.735 81.377,38.329 80.920,38.021 C80.462,37.713 79.795,37.559 78.918,37.559 C77.648,37.559 76.500,37.858 75.474,38.455 L75.474,34.927 C76.687,34.274 78.190,33.947 79.982,33.947 C81.848,33.947 83.290,34.381 84.308,35.249 C85.325,36.117 85.834,37.382 85.834,39.043 L85.834,46.827 L81.606,46.827 L81.606,46.183 C81.382,46.407 80.990,46.608 80.430,46.785 C79.870,46.962 79.272,47.051 78.638,47.051 C77.331,47.051 76.234,46.692 75.348,45.973 C74.461,45.254 74.018,44.260 74.018,42.991 C74.018,41.796 74.480,40.830 75.404,40.093 ZM78.610,43.831 C78.946,44.036 79.356,44.139 79.842,44.139 C80.700,44.139 81.288,43.859 81.606,43.299 L81.606,42.571 C81.307,41.992 80.719,41.703 79.842,41.703 C79.356,41.703 78.946,41.806 78.610,42.011 C78.274,42.216 78.106,42.515 78.106,42.907 C78.106,43.318 78.274,43.626 78.610,43.831 ZM71.078,46.827 L66.710,46.827 L66.710,37.643 L64.526,37.643 L64.526,34.227 L66.710,34.227 L66.710,30.755 L71.078,30.755 L71.078,34.227 L73.542,34.227 L73.542,37.643 L71.078,37.643 L71.078,46.827 ZM66.290,19.107 C64.386,19.107 62.836,18.496 61.642,17.273 C60.447,16.050 59.850,14.468 59.850,12.527 C59.850,10.586 60.447,9.004 61.642,7.781 C62.836,6.558 64.386,5.947 66.290,5.947 C68.212,5.947 69.766,6.558 70.952,7.781 C72.137,9.004 72.730,10.586 72.730,12.527 C72.730,14.468 72.137,16.050 70.952,17.273 C69.766,18.496 68.212,19.107 66.290,19.107 ZM67.858,10.371 C67.484,9.830 66.962,9.559 66.290,9.559 C65.636,9.559 65.123,9.830 64.750,10.371 C64.376,10.912 64.190,11.631 64.190,12.527 C64.190,13.404 64.376,14.114 64.750,14.655 C65.123,15.196 65.636,15.467 66.290,15.467 C66.962,15.467 67.484,15.201 67.858,14.669 C68.231,14.137 68.418,13.423 68.418,12.527 C68.418,11.631 68.231,10.912 67.858,10.371 ZM62.594,29.089 C63.079,29.528 63.322,30.102 63.322,30.811 C63.322,31.502 63.079,32.066 62.594,32.505 C62.108,32.944 61.520,33.163 60.830,33.163 C60.139,33.163 59.551,32.944 59.066,32.505 C58.580,32.066 58.338,31.502 58.338,30.811 C58.338,30.102 58.580,29.528 59.066,29.089 C59.551,28.650 60.139,28.431 60.830,28.431 C61.520,28.431 62.108,28.650 62.594,29.089 ZM51.450,47.107 C50.834,47.107 50.242,46.981 49.672,46.729 C49.103,46.477 48.660,46.174 48.342,45.819 L48.342,51.279 L43.946,51.279 L43.946,34.227 L48.342,34.227 L48.342,35.235 C48.660,34.880 49.103,34.577 49.672,34.325 C50.242,34.073 50.834,33.947 51.450,33.947 C53.205,33.947 54.582,34.572 55.580,35.823 C56.579,37.074 57.078,38.642 57.078,40.527 C57.078,42.394 56.579,43.957 55.580,45.217 C54.582,46.477 53.205,47.107 51.450,47.107 ZM52.038,38.469 C51.609,37.937 51.021,37.671 50.274,37.671 C49.378,37.671 48.734,38.063 48.342,38.847 L48.342,42.179 C48.716,42.963 49.360,43.355 50.274,43.355 C51.021,43.355 51.609,43.089 52.038,42.557 C52.468,42.025 52.682,41.348 52.682,40.527 C52.682,39.687 52.468,39.001 52.038,38.469 ZM48.903,15.663 C50.209,15.663 51.423,15.327 52.543,14.655 L52.543,17.987 C51.535,18.734 50.088,19.107 48.203,19.107 C46.168,19.107 44.530,18.528 43.289,17.371 C42.047,16.214 41.427,14.627 41.427,12.611 C41.427,10.651 42.005,9.050 43.163,7.809 C44.320,6.568 45.776,5.947 47.531,5.947 C49.435,5.947 50.895,6.516 51.913,7.655 C52.930,8.794 53.439,10.324 53.439,12.247 L53.439,13.535 L45.683,13.535 C46.019,14.954 47.092,15.663 48.903,15.663 ZM49.519,11.071 C49.463,10.530 49.276,10.096 48.959,9.769 C48.641,9.442 48.221,9.279 47.699,9.279 C46.709,9.279 46.056,9.876 45.739,11.071 L49.519,11.071 ZM41.567,18.827 L36.639,18.827 L32.831,13.311 L32.831,18.827 L28.435,18.827 L28.435,0.627 L32.831,0.627 L32.831,10.987 L36.415,6.227 L41.455,6.227 L36.779,12.051 L41.567,18.827 ZM22.079,18.183 C21.855,18.407 21.463,18.608 20.903,18.785 C20.343,18.962 19.745,19.051 19.111,19.051 C17.804,19.051 16.707,18.692 15.821,17.973 C14.934,17.254 14.491,16.260 14.491,14.991 C14.491,13.796 14.953,12.830 15.877,12.093 C16.801,11.356 17.953,10.987 19.335,10.987 C20.511,10.987 21.425,11.220 22.079,11.687 L22.079,11.239 C22.079,10.735 21.850,10.329 21.393,10.021 C20.935,9.713 20.268,9.559 19.391,9.559 C18.121,9.559 16.973,9.858 15.947,10.455 L15.947,6.927 C17.160,6.274 18.663,5.947 20.455,5.947 C22.321,5.947 23.763,6.381 24.781,7.249 C25.798,8.117 26.307,9.382 26.307,11.043 L26.307,18.827 L22.079,18.827 L22.079,18.183 ZM22.079,14.571 C21.780,13.992 21.192,13.703 20.315,13.703 C19.829,13.703 19.419,13.806 19.083,14.011 C18.747,14.216 18.579,14.515 18.579,14.907 C18.579,15.318 18.747,15.626 19.083,15.831 C19.419,16.036 19.829,16.139 20.315,16.139 C21.173,16.139 21.761,15.859 22.079,15.299 L22.079,14.571 ZM9.843,18.827 L5.335,18.827 L5.335,5.499 L0.043,5.499 L0.043,1.635 L15.163,1.635 L15.163,5.499 L9.843,5.499 L9.843,18.827 ZM1.373,68.093 C2.297,67.356 3.449,66.987 4.831,66.987 C6.007,66.987 6.921,67.220 7.575,67.687 L7.575,67.239 C7.575,66.735 7.346,66.329 6.889,66.021 C6.431,65.713 5.764,65.559 4.887,65.559 C3.617,65.559 2.469,65.858 1.443,66.455 L1.443,62.927 C2.656,62.274 4.159,61.947 5.951,61.947 C7.817,61.947 9.259,62.381 10.277,63.249 C11.294,64.117 11.803,65.382 11.803,67.043 L11.803,74.827 L7.575,74.827 L7.575,74.183 C7.351,74.407 6.959,74.608 6.399,74.785 C5.839,74.962 5.241,75.051 4.607,75.051 C3.300,75.051 2.203,74.692 1.317,73.973 C0.430,73.254 -0.013,72.260 -0.013,70.991 C-0.013,69.796 0.449,68.830 1.373,68.093 ZM4.579,71.831 C4.915,72.036 5.325,72.139 5.811,72.139 C6.669,72.139 7.257,71.859 7.575,71.299 L7.575,70.571 C7.276,69.992 6.688,69.703 5.811,69.703 C5.325,69.703 4.915,69.806 4.579,70.011 C4.243,70.216 4.075,70.515 4.075,70.907 C4.075,71.318 4.243,71.626 4.579,71.831 ZM6.567,89.947 C7.985,89.947 9.115,90.246 9.955,90.843 L9.955,94.539 C9.133,93.942 8.228,93.643 7.239,93.643 C6.399,93.643 5.703,93.895 5.153,94.399 C4.602,94.903 4.327,95.612 4.327,96.527 C4.327,97.442 4.602,98.151 5.153,98.655 C5.703,99.159 6.399,99.411 7.239,99.411 C8.228,99.411 9.133,99.112 9.955,98.515 L9.955,102.211 C9.115,102.808 7.985,103.107 6.567,103.107 C4.644,103.107 3.067,102.510 1.835,101.315 C0.603,100.120 -0.013,98.524 -0.013,96.527 C-0.013,94.530 0.603,92.934 1.835,91.739 C3.067,90.544 4.644,89.947 6.567,89.947 ZM7.435,125.283 C7.435,124.406 7.029,123.762 6.217,123.351 C5.405,122.940 4.383,122.772 3.151,122.847 L3.151,122.763 L5.811,117.499 L0.211,117.499 L0.211,113.635 L11.635,113.635 L11.635,113.719 L8.275,120.411 C10.496,121.363 11.607,122.978 11.607,125.255 C11.607,127.047 11.000,128.470 9.787,129.525 C8.573,130.580 7.061,131.107 5.251,131.107 C3.235,131.107 1.527,130.622 0.127,129.651 L0.127,125.535 C1.545,126.804 3.095,127.439 4.775,127.439 C6.548,127.439 7.435,126.720 7.435,125.283 ZM20.763,113.635 L20.763,130.827 L16.395,130.827 L16.395,118.507 L12.391,120.439 L12.391,116.183 L17.739,113.635 L20.763,113.635 ZM12.839,101.273 C11.644,100.050 11.047,98.468 11.047,96.527 C11.047,94.586 11.644,93.004 12.839,91.781 C14.033,90.558 15.583,89.947 17.487,89.947 C19.409,89.947 20.963,90.558 22.149,91.781 C23.334,93.004 23.927,94.586 23.927,96.527 C23.927,98.468 23.334,100.050 22.149,101.273 C20.963,102.496 19.409,103.107 17.487,103.107 C15.583,103.107 14.033,102.496 12.839,101.273 ZM19.055,98.669 C19.428,98.137 19.615,97.423 19.615,96.527 C19.615,95.631 19.428,94.912 19.055,94.371 C18.681,93.830 18.159,93.559 17.487,93.559 C16.833,93.559 16.320,93.830 15.947,94.371 C15.573,94.912 15.387,95.631 15.387,96.527 C15.387,97.404 15.573,98.114 15.947,98.655 C16.320,99.196 16.833,99.467 17.487,99.467 C18.159,99.467 18.681,99.201 19.055,98.669 ZM30.871,97.451 L33.223,90.227 L37.535,90.227 L32.719,102.827 L28.771,102.827 L23.983,90.227 L28.463,90.227 L30.871,97.451 ZM37.787,120.635 L42.519,113.635 L46.663,113.635 L46.663,130.827 L42.239,130.827 L42.239,120.971 L37.843,127.131 L37.731,127.131 L33.307,120.971 L33.307,130.827 L28.911,130.827 L28.911,113.635 L33.083,113.635 L37.787,120.635 ZM49.701,124.093 C50.625,123.356 51.777,122.987 53.159,122.987 C54.335,122.987 55.249,123.220 55.903,123.687 L55.903,123.239 C55.903,122.735 55.674,122.329 55.217,122.021 C54.759,121.713 54.092,121.559 53.215,121.559 C51.945,121.559 50.797,121.858 49.771,122.455 L49.771,118.927 C50.984,118.274 52.487,117.947 54.279,117.947 C56.145,117.947 57.587,118.381 58.605,119.249 C59.622,120.117 60.131,121.382 60.131,123.043 L60.131,130.827 L55.903,130.827 L55.903,130.183 C55.679,130.407 55.287,130.608 54.727,130.785 C54.167,130.962 53.569,131.051 52.935,131.051 C51.628,131.051 50.531,130.692 49.645,129.973 C48.758,129.254 48.315,128.260 48.315,126.991 C48.315,125.796 48.777,124.830 49.701,124.093 ZM52.907,127.831 C53.243,128.036 53.653,128.139 54.139,128.139 C54.997,128.139 55.585,127.859 55.903,127.299 L55.903,126.571 C55.604,125.992 55.016,125.703 54.139,125.703 C53.653,125.703 53.243,125.806 52.907,126.011 C52.571,126.216 52.403,126.515 52.403,126.907 C52.403,127.318 52.571,127.626 52.907,127.831 ZM51.170,102.827 L51.170,90.227 L55.566,90.227 L55.566,91.347 C56.257,90.414 57.209,89.947 58.422,89.947 C58.964,89.947 59.365,90.022 59.626,90.171 L59.626,94.399 C59.122,94.138 58.516,94.007 57.806,94.007 C56.556,94.007 55.809,94.483 55.566,95.435 L55.566,102.827 L51.170,102.827 ZM48.021,91.655 C49.038,92.794 49.547,94.324 49.547,96.247 L49.547,97.535 L41.791,97.535 C42.127,98.954 43.200,99.663 45.011,99.663 C46.317,99.663 47.531,99.327 48.651,98.655 L48.651,101.987 C47.643,102.734 46.196,103.107 44.311,103.107 C42.276,103.107 40.638,102.528 39.397,101.371 C38.155,100.214 37.535,98.627 37.535,96.611 C37.535,94.651 38.113,93.050 39.271,91.809 C40.428,90.568 41.884,89.947 43.639,89.947 C45.543,89.947 47.003,90.516 48.021,91.655 ZM41.847,95.071 L45.627,95.071 C45.571,94.530 45.384,94.096 45.067,93.769 C44.749,93.442 44.329,93.279 43.807,93.279 C42.817,93.279 42.164,93.876 41.847,95.071 ZM35.057,62.325 C35.626,62.577 36.069,62.880 36.387,63.235 L36.387,56.627 L40.783,56.627 L40.783,74.827 L36.387,74.827 L36.387,73.819 C36.069,74.174 35.626,74.477 35.057,74.729 C34.487,74.981 33.895,75.107 33.279,75.107 C31.524,75.107 30.147,74.486 29.149,73.245 C28.150,72.004 27.651,70.431 27.651,68.527 C27.651,66.623 28.150,65.050 29.149,63.809 C30.147,62.568 31.524,61.947 33.279,61.947 C33.895,61.947 34.487,62.073 35.057,62.325 ZM32.047,68.527 C32.047,69.348 32.261,70.025 32.691,70.557 C33.120,71.089 33.708,71.355 34.455,71.355 C35.369,71.355 36.013,70.963 36.387,70.179 L36.387,66.847 C36.219,66.511 35.957,66.231 35.603,66.007 C35.248,65.783 34.865,65.671 34.455,65.671 C33.708,65.671 33.120,65.937 32.691,66.469 C32.261,67.001 32.047,67.687 32.047,68.527 ZM24.487,33.947 C26.409,33.947 27.963,34.558 29.149,35.781 C30.334,37.004 30.927,38.586 30.927,40.527 C30.927,42.468 30.334,44.050 29.149,45.273 C27.963,46.496 26.409,47.107 24.487,47.107 C22.583,47.107 21.033,46.496 19.839,45.273 C18.644,44.050 18.047,42.468 18.047,40.527 C18.047,38.586 18.644,37.004 19.839,35.781 C21.033,34.558 22.583,33.947 24.487,33.947 ZM22.947,42.655 C23.320,43.196 23.833,43.467 24.487,43.467 C25.159,43.467 25.681,43.201 26.055,42.669 C26.428,42.137 26.615,41.423 26.615,40.527 C26.615,39.631 26.428,38.912 26.055,38.371 C25.681,37.830 25.159,37.559 24.487,37.559 C23.833,37.559 23.320,37.830 22.947,38.371 C22.573,38.912 22.387,39.631 22.387,40.527 C22.387,41.404 22.573,42.114 22.947,42.655 ZM18.327,63.319 C19.148,62.404 20.277,61.947 21.715,61.947 C23.096,61.947 24.183,62.362 24.977,63.193 C25.770,64.024 26.167,65.148 26.167,66.567 L26.167,74.827 L21.799,74.827 L21.799,67.631 C21.799,67.090 21.659,66.656 21.379,66.329 C21.099,66.002 20.688,65.839 20.147,65.839 C19.699,65.839 19.311,65.960 18.985,66.203 C18.658,66.446 18.439,66.782 18.327,67.211 L18.327,74.827 L13.931,74.827 L13.931,62.227 L18.327,62.227 L18.327,63.319 ZM16.423,29.635 L16.423,46.827 L11.915,46.827 L11.915,40.023 L5.279,40.023 L5.279,46.827 L0.771,46.827 L0.771,29.635 L5.279,29.635 L5.279,36.159 L11.915,36.159 L11.915,29.635 L16.423,29.635 ZM37.366,38.791 L38.514,39.127 C39.896,39.500 40.880,39.990 41.468,40.597 C42.056,41.204 42.350,42.039 42.350,43.103 C42.350,44.410 41.851,45.404 40.852,46.085 C39.854,46.766 38.542,47.107 36.918,47.107 C34.921,47.107 33.325,46.706 32.130,45.903 L32.130,42.207 C32.709,42.674 33.428,43.056 34.286,43.355 C35.145,43.654 35.910,43.803 36.582,43.803 C37.534,43.803 38.010,43.551 38.010,43.047 C38.010,42.636 37.628,42.347 36.862,42.179 L35.882,41.927 C33.344,41.386 32.074,40.098 32.074,38.063 C32.074,36.775 32.550,35.767 33.502,35.039 C34.454,34.311 35.696,33.947 37.226,33.947 C38.944,33.947 40.409,34.320 41.622,35.067 L41.622,38.679 C40.278,37.708 38.953,37.223 37.646,37.223 C36.806,37.223 36.386,37.475 36.386,37.979 C36.386,38.203 36.466,38.371 36.624,38.483 C36.783,38.595 37.030,38.698 37.366,38.791 ZM48.566,57.635 L60.858,57.635 L60.858,61.499 L52.990,61.499 L52.990,64.187 L60.186,64.187 L60.186,67.967 L52.990,67.967 L52.990,70.935 L60.858,70.935 L60.858,74.827 L48.566,74.827 L48.566,57.635 ZM58.618,34.227 L63.014,34.227 L63.014,46.827 L58.618,46.827 L58.618,34.227 ZM61.978,62.227 L66.710,62.227 L68.670,65.251 L70.658,62.227 L75.194,62.227 L70.966,68.387 L75.390,74.827 L70.630,74.827 L68.474,71.551 L66.318,74.827 L61.782,74.827 L66.178,68.415 L61.978,62.227 ZM66.654,119.347 C67.345,118.414 68.297,117.947 69.510,117.947 C70.052,117.947 70.453,118.022 70.714,118.171 L70.714,122.399 C70.210,122.138 69.604,122.007 68.894,122.007 C67.644,122.007 66.897,122.483 66.654,123.435 L66.654,130.827 L62.258,130.827 L62.258,118.227 L66.654,118.227 L66.654,119.347 ZM66.710,102.827 L66.710,84.627 L71.106,84.627 L71.106,91.235 C71.423,90.880 71.866,90.577 72.436,90.325 C73.005,90.073 73.598,89.947 74.214,89.947 C75.968,89.947 77.345,90.568 78.344,91.809 C79.342,93.050 79.842,94.623 79.842,96.527 C79.842,98.431 79.342,100.004 78.344,101.245 C77.345,102.486 75.968,103.107 74.214,103.107 C73.598,103.107 73.005,102.981 72.436,102.729 C71.866,102.477 71.423,102.174 71.106,101.819 L71.106,102.827 L66.710,102.827 ZM73.038,99.355 C73.784,99.355 74.372,99.089 74.802,98.557 C75.231,98.025 75.446,97.348 75.446,96.527 C75.446,95.687 75.231,95.001 74.802,94.469 C74.372,93.937 73.784,93.671 73.038,93.671 C72.627,93.671 72.244,93.783 71.890,94.007 C71.535,94.231 71.274,94.511 71.106,94.847 L71.106,98.179 C71.479,98.963 72.123,99.355 73.038,99.355 ZM78.078,117.947 C79.497,117.947 80.626,118.246 81.466,118.843 L81.466,122.539 C80.645,121.942 79.739,121.643 78.750,121.643 C77.910,121.643 77.215,121.895 76.664,122.399 C76.113,122.903 75.838,123.612 75.838,124.527 C75.838,125.442 76.113,126.151 76.664,126.655 C77.215,127.159 77.910,127.411 78.750,127.411 C79.739,127.411 80.645,127.112 81.466,126.515 L81.466,130.211 C80.626,130.808 79.497,131.107 78.078,131.107 C76.155,131.107 74.578,130.510 73.346,129.315 C72.114,128.120 71.498,126.524 71.498,124.527 C71.498,122.530 72.114,120.934 73.346,119.739 C74.578,118.544 76.155,117.947 78.078,117.947 ZM82.362,58.755 L82.362,62.227 L84.826,62.227 L84.826,65.643 L82.362,65.643 L82.362,74.827 L77.994,74.827 L77.994,65.643 L75.810,65.643 L75.810,62.227 L77.994,62.227 L77.994,58.755 L82.362,58.755 ZM79.870,90.227 L84.434,90.227 L86.842,97.395 L89.194,90.227 L93.562,90.227 L87.066,107.279 L82.726,107.279 L84.574,102.519 L79.870,90.227 ZM87.961,28.627 L92.357,28.627 L92.357,46.827 L87.961,46.827 L87.961,28.627 ZM94.766,62.171 L94.766,66.399 C94.262,66.138 93.655,66.007 92.946,66.007 C91.695,66.007 90.948,66.483 90.706,67.435 L90.706,74.827 L86.310,74.827 L86.310,62.227 L90.706,62.227 L90.706,63.347 C91.396,62.414 92.348,61.947 93.562,61.947 C94.103,61.947 94.504,62.022 94.766,62.171 ZM87.626,119.319 C88.447,118.404 89.576,117.947 91.014,117.947 C92.395,117.947 93.482,118.362 94.276,119.193 C95.069,120.024 95.466,121.148 95.466,122.567 L95.466,130.827 L91.098,130.827 L91.098,123.631 C91.098,123.090 90.958,122.656 90.678,122.329 C90.398,122.002 89.987,121.839 89.446,121.839 C88.998,121.839 88.610,121.960 88.284,122.203 C87.957,122.446 87.738,122.782 87.626,123.211 L87.626,130.827 L83.230,130.827 L83.230,112.627 L87.626,112.627 L87.626,119.319 ZM97.442,113.594 L98.650,114.296 L98.650,112.892 L99.874,112.892 L99.874,114.296 L101.066,113.594 L101.686,114.639 L100.462,115.341 L101.686,116.043 L101.066,117.088 L99.874,116.386 L99.874,117.789 L98.650,117.789 L98.650,116.386 L97.442,117.088 L96.838,116.043 L98.046,115.341 L96.838,114.639 L97.442,113.594 Z"/>
</svg>