<svg 
 xmlns="http://www.w3.org/2000/svg"
 xmlns:xlink="http://www.w3.org/1999/xlink"
 width="448px" height="23px">
<defs>
<linearGradient id="PSgrad_0" x1="0%" x2="100%" y1="0%" y2="0%">
  <stop offset="0%" stop-color="rgb(238,117,24)" stop-opacity="0.95" />
  <stop offset="100%" stop-color="rgb(253,91,47)" stop-opacity="0.95" />
</linearGradient>

</defs>
<path fill-rule="evenodd"  fill="rgb(227, 114, 34)"
 d="M447.156,17.307 C446.688,17.775 446.116,18.009 445.440,18.009 C444.781,18.009 444.218,17.775 443.750,17.307 C443.282,16.839 443.048,16.258 443.048,15.565 C443.048,14.889 443.278,14.317 443.737,13.849 C444.196,13.381 444.764,13.147 445.440,13.147 C446.116,13.147 446.688,13.377 447.156,13.836 C447.624,14.295 447.858,14.872 447.858,15.565 C447.858,16.258 447.624,16.839 447.156,17.307 ZM437.250,16.891 C436.956,17.220 436.544,17.502 436.016,17.736 C435.487,17.970 434.937,18.087 434.365,18.087 C432.735,18.087 431.457,17.511 430.530,16.358 C429.602,15.205 429.138,13.745 429.138,11.977 C429.138,10.209 429.602,8.749 430.530,7.596 C431.457,6.443 432.735,5.867 434.365,5.867 C434.937,5.867 435.487,5.984 436.016,6.218 C436.544,6.452 436.956,6.734 437.250,7.063 L437.250,0.927 L441.332,0.927 L441.332,17.827 L437.250,17.827 L437.250,16.891 ZM437.250,10.417 C437.095,10.105 436.852,9.845 436.523,9.637 C436.193,9.429 435.838,9.325 435.457,9.325 C434.763,9.325 434.217,9.572 433.819,10.066 C433.420,10.560 433.220,11.197 433.220,11.977 C433.220,12.740 433.420,13.368 433.819,13.862 C434.217,14.356 434.763,14.603 435.457,14.603 C436.306,14.603 436.904,14.239 437.250,13.511 L437.250,10.417 ZM421.911,18.087 C420.143,18.087 418.704,17.519 417.595,16.384 C416.485,15.249 415.931,13.780 415.931,11.977 C415.931,10.174 416.485,8.705 417.595,7.570 C418.704,6.435 420.143,5.867 421.911,5.867 C423.696,5.867 425.139,6.435 426.240,7.570 C427.340,8.705 427.891,10.174 427.891,11.977 C427.891,13.780 427.340,15.249 426.240,16.384 C425.139,17.519 423.696,18.087 421.911,18.087 ZM423.367,9.975 C423.020,9.472 422.535,9.221 421.911,9.221 C421.304,9.221 420.827,9.472 420.481,9.975 C420.134,10.478 419.961,11.145 419.961,11.977 C419.961,12.792 420.134,13.450 420.481,13.953 C420.827,14.456 421.304,14.707 421.911,14.707 C422.535,14.707 423.020,14.460 423.367,13.966 C423.713,13.472 423.887,12.809 423.887,11.977 C423.887,11.145 423.713,10.478 423.367,9.975 ZM412.187,5.139 C411.546,5.139 411.000,4.935 410.549,4.528 C410.098,4.121 409.873,3.596 409.873,2.955 C409.873,2.296 410.098,1.763 410.549,1.356 C411.000,0.949 411.546,0.745 412.187,0.745 C412.828,0.745 413.374,0.949 413.825,1.356 C414.276,1.763 414.501,2.296 414.501,2.955 C414.501,3.596 414.276,4.121 413.825,4.528 C413.374,4.935 412.828,5.139 412.187,5.139 ZM406.675,9.637 C405.514,9.637 404.820,10.079 404.595,10.963 L404.595,17.827 L400.513,17.827 L400.513,6.127 L404.595,6.127 L404.595,7.167 C405.236,6.300 406.120,5.867 407.247,5.867 C407.750,5.867 408.122,5.936 408.365,6.075 L408.365,10.001 C407.897,9.758 407.334,9.637 406.675,9.637 ZM394.534,14.889 C395.747,14.889 396.874,14.577 397.914,13.953 L397.914,17.047 C396.978,17.740 395.634,18.087 393.884,18.087 C391.994,18.087 390.473,17.550 389.321,16.475 C388.168,15.400 387.592,13.927 387.592,12.055 C387.592,10.235 388.129,8.749 389.204,7.596 C390.278,6.443 391.630,5.867 393.260,5.867 C395.028,5.867 396.384,6.396 397.329,7.453 C398.273,8.510 398.746,9.932 398.746,11.717 L398.746,12.913 L391.544,12.913 C391.856,14.230 392.852,14.889 394.534,14.889 ZM395.106,10.625 C395.054,10.122 394.880,9.719 394.586,9.416 C394.291,9.113 393.901,8.961 393.416,8.961 C392.497,8.961 391.890,9.516 391.596,10.625 L395.106,10.625 ZM381.144,18.087 C380.572,18.087 380.021,17.970 379.493,17.736 C378.964,17.502 378.552,17.220 378.258,16.891 L378.258,21.961 L374.176,21.961 L374.176,6.127 L378.258,6.127 L378.258,7.063 C378.552,6.734 378.964,6.452 379.493,6.218 C380.021,5.984 380.572,5.867 381.144,5.867 C382.773,5.867 384.051,6.448 384.979,7.609 C385.906,8.770 386.370,10.226 386.370,11.977 C386.370,13.710 385.906,15.162 384.979,16.332 C384.051,17.502 382.773,18.087 381.144,18.087 ZM381.690,10.066 C381.291,9.572 380.745,9.325 380.052,9.325 C379.220,9.325 378.622,9.689 378.258,10.417 L378.258,13.511 C378.604,14.239 379.202,14.603 380.052,14.603 C380.745,14.603 381.291,14.356 381.690,13.862 C382.088,13.368 382.288,12.740 382.288,11.977 C382.288,11.197 382.088,10.560 381.690,10.066 ZM359.694,22.221 C357.909,22.221 356.505,21.891 355.482,21.233 L355.482,17.489 C356.609,18.442 357.969,18.919 359.564,18.919 C360.413,18.919 361.111,18.732 361.657,18.360 C362.203,17.987 362.476,17.411 362.476,16.631 L362.476,16.241 C361.817,17.004 360.899,17.385 359.720,17.385 C358.108,17.385 356.843,16.839 355.924,15.747 C355.005,14.655 354.546,13.277 354.546,11.613 C354.546,9.949 355.005,8.575 355.924,7.492 C356.843,6.409 358.108,5.867 359.720,5.867 C360.916,5.867 361.835,6.248 362.476,7.011 L362.476,6.127 L366.506,6.127 L366.506,16.137 C366.506,18.182 365.873,19.707 364.608,20.713 C363.343,21.718 361.705,22.221 359.694,22.221 ZM362.476,10.079 C362.077,9.420 361.497,9.091 360.734,9.091 C360.075,9.091 359.551,9.325 359.161,9.793 C358.771,10.261 358.576,10.868 358.576,11.613 C358.576,12.358 358.771,12.965 359.161,13.433 C359.551,13.901 360.075,14.135 360.734,14.135 C361.514,14.135 362.095,13.814 362.476,13.173 L362.476,10.079 ZM348.852,11.145 C348.852,10.642 348.722,10.239 348.462,9.936 C348.202,9.633 347.821,9.481 347.318,9.481 C346.902,9.481 346.542,9.594 346.239,9.819 C345.936,10.044 345.732,10.356 345.628,10.755 L345.628,17.827 L341.546,17.827 L341.546,6.127 L345.628,6.127 L345.628,7.141 C346.391,6.292 347.439,5.867 348.774,5.867 C350.057,5.867 351.066,6.253 351.803,7.024 C352.540,7.795 352.908,8.840 352.908,10.157 L352.908,17.827 L348.852,17.827 L348.852,11.145 ZM337.178,5.139 C336.537,5.139 335.991,4.935 335.540,4.528 C335.090,4.121 334.864,3.596 334.864,2.955 C334.864,2.296 335.090,1.763 335.540,1.356 C335.991,0.949 336.537,0.745 337.178,0.745 C337.819,0.745 338.366,0.949 338.816,1.356 C339.267,1.763 339.492,2.296 339.492,2.955 C339.492,3.596 339.267,4.121 338.816,4.528 C338.366,4.935 337.819,5.139 337.178,5.139 ZM331.199,17.827 L327.143,17.827 L327.143,9.299 L325.115,9.299 L325.115,6.127 L327.143,6.127 L327.143,2.903 L331.199,2.903 L331.199,6.127 L333.487,6.127 L333.487,9.299 L331.199,9.299 L331.199,17.827 ZM321.423,5.139 C320.782,5.139 320.236,4.935 319.785,4.528 C319.334,4.121 319.109,3.596 319.109,2.955 C319.109,2.296 319.334,1.763 319.785,1.356 C320.236,0.949 320.782,0.745 321.423,0.745 C322.064,0.745 322.610,0.949 323.061,1.356 C323.512,1.763 323.737,2.296 323.737,2.955 C323.737,3.596 323.512,4.121 323.061,4.528 C322.610,4.935 322.064,5.139 321.423,5.139 ZM313.207,17.229 C312.999,17.437 312.635,17.623 312.115,17.788 C311.595,17.952 311.040,18.035 310.451,18.035 C309.238,18.035 308.219,17.701 307.396,17.034 C306.573,16.367 306.161,15.444 306.161,14.265 C306.161,13.156 306.590,12.259 307.448,11.574 C308.306,10.889 309.376,10.547 310.659,10.547 C311.751,10.547 312.600,10.764 313.207,11.197 L313.207,10.781 C313.207,10.313 312.995,9.936 312.570,9.650 C312.145,9.364 311.526,9.221 310.711,9.221 C309.532,9.221 308.466,9.498 307.513,10.053 L307.513,6.777 C308.640,6.170 310.035,5.867 311.699,5.867 C313.432,5.867 314.771,6.270 315.716,7.076 C316.661,7.882 317.133,9.056 317.133,10.599 L317.133,17.827 L313.207,17.827 L313.207,17.229 ZM313.207,13.875 C312.930,13.338 312.384,13.069 311.569,13.069 C311.118,13.069 310.737,13.164 310.425,13.355 C310.113,13.546 309.957,13.823 309.957,14.187 C309.957,14.568 310.113,14.854 310.425,15.045 C310.737,15.236 311.118,15.331 311.569,15.331 C312.366,15.331 312.912,15.071 313.207,14.551 L313.207,13.875 ZM298.621,17.827 L296.957,11.899 L295.293,17.827 L291.835,17.827 L288.065,6.127 L292.121,6.127 L293.967,12.471 L295.735,6.127 L298.335,6.127 L300.077,12.471 L301.949,6.127 L305.849,6.127 L302.079,17.827 L298.621,17.827 ZM277.327,11.145 C277.327,10.642 277.197,10.239 276.937,9.936 C276.677,9.633 276.296,9.481 275.793,9.481 C275.377,9.481 275.017,9.594 274.714,9.819 C274.411,10.044 274.207,10.356 274.103,10.755 L274.103,17.827 L270.021,17.827 L270.021,0.927 L274.103,0.927 L274.103,7.141 C274.866,6.292 275.914,5.867 277.249,5.867 C278.532,5.867 279.541,6.253 280.278,7.024 C281.015,7.795 281.383,8.840 281.383,10.157 L281.383,17.827 L277.327,17.827 L277.327,11.145 ZM266.096,17.827 L262.040,17.827 L262.040,9.299 L260.012,9.299 L260.012,6.127 L262.040,6.127 L262.040,2.903 L266.096,2.903 L266.096,6.127 L268.384,6.127 L268.384,9.299 L266.096,9.299 L266.096,17.827 ZM254.370,11.145 C254.370,10.642 254.240,10.239 253.980,9.936 C253.720,9.633 253.338,9.481 252.836,9.481 C252.420,9.481 252.060,9.594 251.757,9.819 C251.453,10.044 251.250,10.356 251.146,10.755 L251.146,17.827 L247.064,17.827 L247.064,6.127 L251.146,6.127 L251.146,7.141 C251.908,6.292 252.957,5.867 254.292,5.867 C255.574,5.867 256.584,6.253 257.321,7.024 C258.057,7.795 258.426,8.840 258.426,10.157 L258.426,17.827 L254.370,17.827 L254.370,11.145 ZM239.368,18.087 C237.600,18.087 236.161,17.519 235.052,16.384 C233.942,15.249 233.388,13.780 233.388,11.977 C233.388,10.174 233.942,8.705 235.052,7.570 C236.161,6.435 237.600,5.867 239.368,5.867 C241.153,5.867 242.596,6.435 243.697,7.570 C244.797,8.705 245.348,10.174 245.348,11.977 C245.348,13.780 244.797,15.249 243.697,16.384 C242.596,17.519 241.153,18.087 239.368,18.087 ZM240.824,9.975 C240.477,9.472 239.992,9.221 239.368,9.221 C238.761,9.221 238.284,9.472 237.938,9.975 C237.591,10.478 237.418,11.145 237.418,11.977 C237.418,12.792 237.591,13.450 237.938,13.953 C238.284,14.456 238.761,14.707 239.368,14.707 C239.992,14.707 240.477,14.460 240.824,13.966 C241.170,13.472 241.344,12.809 241.344,11.977 C241.344,11.145 241.170,10.478 240.824,9.975 ZM227.694,11.145 C227.694,10.018 227.252,9.455 226.368,9.455 C226.004,9.455 225.687,9.563 225.419,9.780 C225.150,9.997 224.964,10.304 224.860,10.703 L224.860,17.827 L220.804,17.827 L220.804,11.145 C220.804,10.018 220.362,9.455 219.478,9.455 C219.114,9.455 218.793,9.563 218.516,9.780 C218.238,9.997 218.056,10.304 217.970,10.703 L217.970,17.827 L213.888,17.827 L213.888,6.127 L217.970,6.127 L217.970,7.089 C218.646,6.274 219.651,5.867 220.986,5.867 C222.338,5.867 223.412,6.335 224.210,7.271 C225.111,6.335 226.316,5.867 227.824,5.867 C229.037,5.867 229.999,6.253 230.710,7.024 C231.420,7.795 231.776,8.840 231.776,10.157 L231.776,17.827 L227.694,17.827 L227.694,11.145 ZM205.490,9.299 L211.756,9.299 L211.756,12.731 L205.490,12.731 L205.490,9.299 ZM197.508,18.087 C195.757,18.087 194.306,17.524 193.153,16.397 C192.000,15.270 191.424,13.858 191.424,12.159 C191.424,10.894 191.935,9.394 192.958,7.661 L196.312,1.863 L200.758,1.863 L198.028,6.673 C198.167,6.638 198.297,6.621 198.418,6.621 C199.961,6.742 201.209,7.323 202.162,8.363 C203.115,9.403 203.592,10.668 203.592,12.159 C203.592,13.858 203.016,15.270 201.863,16.397 C200.710,17.524 199.259,18.087 197.508,18.087 ZM199.172,10.495 C198.739,10.044 198.184,9.819 197.508,9.819 C196.867,9.819 196.325,10.044 195.883,10.495 C195.441,10.946 195.220,11.500 195.220,12.159 C195.220,12.818 195.437,13.368 195.870,13.810 C196.303,14.252 196.849,14.473 197.508,14.473 C198.184,14.473 198.739,14.252 199.172,13.810 C199.605,13.368 199.822,12.818 199.822,12.159 C199.822,11.500 199.605,10.946 199.172,10.495 ZM180.635,14.889 C181.848,14.889 182.975,14.577 184.015,13.953 L184.015,17.047 C183.079,17.740 181.735,18.087 179.985,18.087 C178.095,18.087 176.574,17.550 175.422,16.475 C174.269,15.400 173.693,13.927 173.693,12.055 C173.693,10.235 174.230,8.749 175.305,7.596 C176.379,6.443 177.731,5.867 179.361,5.867 C181.129,5.867 182.485,6.396 183.430,7.453 C184.374,8.510 184.847,9.932 184.847,11.717 L184.847,12.913 L177.645,12.913 C177.957,14.230 178.953,14.889 180.635,14.889 ZM181.207,10.625 C181.155,10.122 180.981,9.719 180.687,9.416 C180.392,9.113 180.002,8.961 179.517,8.961 C178.598,8.961 177.991,9.516 177.697,10.625 L181.207,10.625 ZM167.999,11.145 C167.999,10.642 167.869,10.239 167.609,9.936 C167.349,9.633 166.967,9.481 166.465,9.481 C166.049,9.481 165.689,9.594 165.386,9.819 C165.082,10.044 164.879,10.356 164.775,10.755 L164.775,17.827 L160.693,17.827 L160.693,0.927 L164.775,0.927 L164.775,7.141 C165.537,6.292 166.586,5.867 167.921,5.867 C169.203,5.867 170.213,6.253 170.950,7.024 C171.686,7.795 172.055,8.840 172.055,10.157 L172.055,17.827 L167.999,17.827 L167.999,11.145 ZM156.767,17.827 L152.711,17.827 L152.711,9.299 L150.683,9.299 L150.683,6.127 L152.711,6.127 L152.711,2.903 L156.767,2.903 L156.767,6.127 L159.055,6.127 L159.055,9.299 L156.767,9.299 L156.767,17.827 ZM139.633,16.891 C139.338,17.220 138.927,17.502 138.398,17.736 C137.869,17.970 137.319,18.087 136.747,18.087 C135.118,18.087 133.839,17.511 132.912,16.358 C131.985,15.205 131.521,13.745 131.521,11.977 C131.521,10.209 131.985,8.749 132.912,7.596 C133.839,6.443 135.118,5.867 136.747,5.867 C137.319,5.867 137.869,5.984 138.398,6.218 C138.927,6.452 139.338,6.734 139.633,7.063 L139.633,0.927 L143.715,0.927 L143.715,17.827 L139.633,17.827 L139.633,16.891 ZM139.633,10.417 C139.477,10.105 139.234,9.845 138.905,9.637 C138.576,9.429 138.220,9.325 137.839,9.325 C137.146,9.325 136.600,9.572 136.201,10.066 C135.802,10.560 135.603,11.197 135.603,11.977 C135.603,12.740 135.802,13.368 136.201,13.862 C136.600,14.356 137.146,14.603 137.839,14.603 C138.688,14.603 139.286,14.239 139.633,13.511 L139.633,10.417 ZM126.062,14.889 C127.275,14.889 128.402,14.577 129.442,13.953 L129.442,17.047 C128.506,17.740 127.162,18.087 125.412,18.087 C123.522,18.087 122.001,17.550 120.849,16.475 C119.696,15.400 119.120,13.927 119.120,12.055 C119.120,10.235 119.657,8.749 120.732,7.596 C121.806,6.443 123.158,5.867 124.788,5.867 C126.556,5.867 127.912,6.396 128.857,7.453 C129.801,8.510 130.274,9.932 130.274,11.717 L130.274,12.913 L123.072,12.913 C123.384,14.230 124.380,14.889 126.062,14.889 ZM126.634,10.625 C126.582,10.122 126.408,9.719 126.114,9.416 C125.819,9.113 125.429,8.961 124.944,8.961 C124.025,8.961 123.418,9.516 123.124,10.625 L126.634,10.625 ZM110.722,17.827 L106.276,6.127 L110.436,6.127 L112.672,12.835 L114.856,6.127 L118.860,6.127 L114.388,17.827 L110.722,17.827 ZM102.818,5.139 C102.177,5.139 101.631,4.935 101.180,4.528 C100.729,4.121 100.504,3.596 100.504,2.955 C100.504,2.296 100.729,1.763 101.180,1.356 C101.631,0.949 102.177,0.745 102.818,0.745 C103.459,0.745 104.005,0.949 104.456,1.356 C104.907,1.763 105.132,2.296 105.132,2.955 C105.132,3.596 104.907,4.121 104.456,4.528 C104.005,4.935 103.459,5.139 102.818,5.139 ZM94.602,17.229 C94.394,17.437 94.030,17.623 93.510,17.788 C92.990,17.952 92.435,18.035 91.846,18.035 C90.633,18.035 89.614,17.701 88.791,17.034 C87.968,16.367 87.556,15.444 87.556,14.265 C87.556,13.156 87.985,12.259 88.843,11.574 C89.701,10.889 90.771,10.547 92.054,10.547 C93.146,10.547 93.995,10.764 94.602,11.197 L94.602,10.781 C94.602,10.313 94.390,9.936 93.965,9.650 C93.540,9.364 92.921,9.221 92.106,9.221 C90.927,9.221 89.861,9.498 88.908,10.053 L88.908,6.777 C90.035,6.170 91.430,5.867 93.094,5.867 C94.827,5.867 96.166,6.270 97.111,7.076 C98.056,7.882 98.528,9.056 98.528,10.599 L98.528,17.827 L94.602,17.827 L94.602,17.229 ZM94.602,13.875 C94.325,13.338 93.779,13.069 92.964,13.069 C92.513,13.069 92.132,13.164 91.820,13.355 C91.508,13.546 91.352,13.823 91.352,14.187 C91.352,14.568 91.508,14.854 91.820,15.045 C92.132,15.236 92.513,15.331 92.964,15.331 C93.761,15.331 94.307,15.071 94.602,14.551 L94.602,13.875 ZM80.016,17.827 L78.352,11.899 L76.688,17.827 L73.230,17.827 L69.460,6.127 L73.516,6.127 L75.362,12.471 L77.130,6.127 L79.730,6.127 L81.472,12.471 L83.344,6.127 L87.244,6.127 L83.474,17.827 L80.016,17.827 ZM59.061,14.889 C60.274,14.889 61.401,14.577 62.441,13.953 L62.441,17.047 C61.505,17.740 60.161,18.087 58.411,18.087 C56.521,18.087 55.000,17.550 53.848,16.475 C52.695,15.400 52.119,13.927 52.119,12.055 C52.119,10.235 52.656,8.749 53.731,7.596 C54.805,6.443 56.157,5.867 57.787,5.867 C59.555,5.867 60.911,6.396 61.856,7.453 C62.800,8.510 63.273,9.932 63.273,11.717 L63.273,12.913 L56.071,12.913 C56.383,14.230 57.379,14.889 59.061,14.889 ZM59.633,10.625 C59.581,10.122 59.407,9.719 59.113,9.416 C58.818,9.113 58.428,8.961 57.943,8.961 C57.024,8.961 56.417,9.516 56.123,10.625 L59.633,10.625 ZM43.721,17.827 L39.275,6.127 L43.435,6.127 L45.671,12.835 L47.855,6.127 L51.859,6.127 L47.387,17.827 L43.721,17.827 ZM36.337,8.961 L33.763,8.961 L35.661,5.997 C35.158,5.893 34.742,5.659 34.413,5.295 C34.083,4.931 33.919,4.463 33.919,3.891 C33.919,3.232 34.148,2.686 34.608,2.253 C35.067,1.820 35.635,1.603 36.311,1.603 C36.987,1.603 37.554,1.828 38.014,2.279 C38.473,2.730 38.703,3.354 38.703,4.151 C38.703,4.931 38.373,5.824 37.715,6.829 L36.337,8.961 ZM28.537,14.889 C29.750,14.889 30.877,14.577 31.917,13.953 L31.917,17.047 C30.981,17.740 29.638,18.087 27.887,18.087 C25.998,18.087 24.477,17.550 23.324,16.475 C22.171,15.400 21.595,13.927 21.595,12.055 C21.595,10.235 22.132,8.749 23.207,7.596 C24.282,6.443 25.634,5.867 27.263,5.867 C29.031,5.867 30.387,6.396 31.332,7.453 C32.277,8.510 32.749,9.932 32.749,11.717 L32.749,12.913 L25.547,12.913 C25.859,14.230 26.856,14.889 28.537,14.889 ZM29.109,10.625 C29.057,10.122 28.884,9.719 28.589,9.416 C28.294,9.113 27.904,8.961 27.419,8.961 C26.500,8.961 25.894,9.516 25.599,10.625 L29.109,10.625 ZM13.613,17.827 L11.143,8.467 L8.647,17.827 L4.825,17.827 L0.639,1.863 L4.903,1.863 L7.139,11.249 L9.609,1.863 L12.781,1.863 L15.225,11.249 L17.435,1.863 L21.647,1.863 L17.435,17.827 L13.613,17.827 ZM104.846,17.827 L100.764,17.827 L100.764,6.127 L104.846,6.127 L104.846,17.827 ZM323.451,17.827 L319.369,17.827 L319.369,6.127 L323.451,6.127 L323.451,17.827 ZM339.206,17.827 L335.124,17.827 L335.124,6.127 L339.206,6.127 L339.206,17.827 ZM414.215,17.827 L410.133,17.827 L410.133,6.127 L414.215,6.127 L414.215,17.827 Z"/>
<path fill="url(#PSgrad_0)"
 d="M447.156,17.307 C446.688,17.775 446.116,18.009 445.440,18.009 C444.781,18.009 444.218,17.775 443.750,17.307 C443.282,16.839 443.048,16.258 443.048,15.565 C443.048,14.889 443.278,14.317 443.737,13.849 C444.196,13.381 444.764,13.147 445.440,13.147 C446.116,13.147 446.688,13.377 447.156,13.836 C447.624,14.295 447.858,14.872 447.858,15.565 C447.858,16.258 447.624,16.839 447.156,17.307 ZM437.250,16.891 C436.956,17.220 436.544,17.502 436.016,17.736 C435.487,17.970 434.937,18.087 434.365,18.087 C432.735,18.087 431.457,17.511 430.530,16.358 C429.602,15.205 429.138,13.745 429.138,11.977 C429.138,10.209 429.602,8.749 430.530,7.596 C431.457,6.443 432.735,5.867 434.365,5.867 C434.937,5.867 435.487,5.984 436.016,6.218 C436.544,6.452 436.956,6.734 437.250,7.063 L437.250,0.927 L441.332,0.927 L441.332,17.827 L437.250,17.827 L437.250,16.891 ZM437.250,10.417 C437.095,10.105 436.852,9.845 436.523,9.637 C436.193,9.429 435.838,9.325 435.457,9.325 C434.763,9.325 434.217,9.572 433.819,10.066 C433.420,10.560 433.220,11.197 433.220,11.977 C433.220,12.740 433.420,13.368 433.819,13.862 C434.217,14.356 434.763,14.603 435.457,14.603 C436.306,14.603 436.904,14.239 437.250,13.511 L437.250,10.417 ZM421.911,18.087 C420.143,18.087 418.704,17.519 417.595,16.384 C416.485,15.249 415.931,13.780 415.931,11.977 C415.931,10.174 416.485,8.705 417.595,7.570 C418.704,6.435 420.143,5.867 421.911,5.867 C423.696,5.867 425.139,6.435 426.240,7.570 C427.340,8.705 427.891,10.174 427.891,11.977 C427.891,13.780 427.340,15.249 426.240,16.384 C425.139,17.519 423.696,18.087 421.911,18.087 ZM423.367,9.975 C423.020,9.472 422.535,9.221 421.911,9.221 C421.304,9.221 420.827,9.472 420.481,9.975 C420.134,10.478 419.961,11.145 419.961,11.977 C419.961,12.792 420.134,13.450 420.481,13.953 C420.827,14.456 421.304,14.707 421.911,14.707 C422.535,14.707 423.020,14.460 423.367,13.966 C423.713,13.472 423.887,12.809 423.887,11.977 C423.887,11.145 423.713,10.478 423.367,9.975 ZM412.187,5.139 C411.546,5.139 411.000,4.935 410.549,4.528 C410.098,4.121 409.873,3.596 409.873,2.955 C409.873,2.296 410.098,1.763 410.549,1.356 C411.000,0.949 411.546,0.745 412.187,0.745 C412.828,0.745 413.374,0.949 413.825,1.356 C414.276,1.763 414.501,2.296 414.501,2.955 C414.501,3.596 414.276,4.121 413.825,4.528 C413.374,4.935 412.828,5.139 412.187,5.139 ZM406.675,9.637 C405.514,9.637 404.820,10.079 404.595,10.963 L404.595,17.827 L400.513,17.827 L400.513,6.127 L404.595,6.127 L404.595,7.167 C405.236,6.300 406.120,5.867 407.247,5.867 C407.750,5.867 408.122,5.936 408.365,6.075 L408.365,10.001 C407.897,9.758 407.334,9.637 406.675,9.637 ZM394.534,14.889 C395.747,14.889 396.874,14.577 397.914,13.953 L397.914,17.047 C396.978,17.740 395.634,18.087 393.884,18.087 C391.994,18.087 390.473,17.550 389.321,16.475 C388.168,15.400 387.592,13.927 387.592,12.055 C387.592,10.235 388.129,8.749 389.204,7.596 C390.278,6.443 391.630,5.867 393.260,5.867 C395.028,5.867 396.384,6.396 397.329,7.453 C398.273,8.510 398.746,9.932 398.746,11.717 L398.746,12.913 L391.544,12.913 C391.856,14.230 392.852,14.889 394.534,14.889 ZM395.106,10.625 C395.054,10.122 394.880,9.719 394.586,9.416 C394.291,9.113 393.901,8.961 393.416,8.961 C392.497,8.961 391.890,9.516 391.596,10.625 L395.106,10.625 ZM381.144,18.087 C380.572,18.087 380.021,17.970 379.493,17.736 C378.964,17.502 378.552,17.220 378.258,16.891 L378.258,21.961 L374.176,21.961 L374.176,6.127 L378.258,6.127 L378.258,7.063 C378.552,6.734 378.964,6.452 379.493,6.218 C380.021,5.984 380.572,5.867 381.144,5.867 C382.773,5.867 384.051,6.448 384.979,7.609 C385.906,8.770 386.370,10.226 386.370,11.977 C386.370,13.710 385.906,15.162 384.979,16.332 C384.051,17.502 382.773,18.087 381.144,18.087 ZM381.690,10.066 C381.291,9.572 380.745,9.325 380.052,9.325 C379.220,9.325 378.622,9.689 378.258,10.417 L378.258,13.511 C378.604,14.239 379.202,14.603 380.052,14.603 C380.745,14.603 381.291,14.356 381.690,13.862 C382.088,13.368 382.288,12.740 382.288,11.977 C382.288,11.197 382.088,10.560 381.690,10.066 ZM359.694,22.221 C357.909,22.221 356.505,21.891 355.482,21.233 L355.482,17.489 C356.609,18.442 357.969,18.919 359.564,18.919 C360.413,18.919 361.111,18.732 361.657,18.360 C362.203,17.987 362.476,17.411 362.476,16.631 L362.476,16.241 C361.817,17.004 360.899,17.385 359.720,17.385 C358.108,17.385 356.843,16.839 355.924,15.747 C355.005,14.655 354.546,13.277 354.546,11.613 C354.546,9.949 355.005,8.575 355.924,7.492 C356.843,6.409 358.108,5.867 359.720,5.867 C360.916,5.867 361.835,6.248 362.476,7.011 L362.476,6.127 L366.506,6.127 L366.506,16.137 C366.506,18.182 365.873,19.707 364.608,20.713 C363.343,21.718 361.705,22.221 359.694,22.221 ZM362.476,10.079 C362.077,9.420 361.497,9.091 360.734,9.091 C360.075,9.091 359.551,9.325 359.161,9.793 C358.771,10.261 358.576,10.868 358.576,11.613 C358.576,12.358 358.771,12.965 359.161,13.433 C359.551,13.901 360.075,14.135 360.734,14.135 C361.514,14.135 362.095,13.814 362.476,13.173 L362.476,10.079 ZM348.852,11.145 C348.852,10.642 348.722,10.239 348.462,9.936 C348.202,9.633 347.821,9.481 347.318,9.481 C346.902,9.481 346.542,9.594 346.239,9.819 C345.936,10.044 345.732,10.356 345.628,10.755 L345.628,17.827 L341.546,17.827 L341.546,6.127 L345.628,6.127 L345.628,7.141 C346.391,6.292 347.439,5.867 348.774,5.867 C350.057,5.867 351.066,6.253 351.803,7.024 C352.540,7.795 352.908,8.840 352.908,10.157 L352.908,17.827 L348.852,17.827 L348.852,11.145 ZM337.178,5.139 C336.537,5.139 335.991,4.935 335.540,4.528 C335.090,4.121 334.864,3.596 334.864,2.955 C334.864,2.296 335.090,1.763 335.540,1.356 C335.991,0.949 336.537,0.745 337.178,0.745 C337.819,0.745 338.366,0.949 338.816,1.356 C339.267,1.763 339.492,2.296 339.492,2.955 C339.492,3.596 339.267,4.121 338.816,4.528 C338.366,4.935 337.819,5.139 337.178,5.139 ZM331.199,17.827 L327.143,17.827 L327.143,9.299 L325.115,9.299 L325.115,6.127 L327.143,6.127 L327.143,2.903 L331.199,2.903 L331.199,6.127 L333.487,6.127 L333.487,9.299 L331.199,9.299 L331.199,17.827 ZM321.423,5.139 C320.782,5.139 320.236,4.935 319.785,4.528 C319.334,4.121 319.109,3.596 319.109,2.955 C319.109,2.296 319.334,1.763 319.785,1.356 C320.236,0.949 320.782,0.745 321.423,0.745 C322.064,0.745 322.610,0.949 323.061,1.356 C323.512,1.763 323.737,2.296 323.737,2.955 C323.737,3.596 323.512,4.121 323.061,4.528 C322.610,4.935 322.064,5.139 321.423,5.139 ZM313.207,17.229 C312.999,17.437 312.635,17.623 312.115,17.788 C311.595,17.952 311.040,18.035 310.451,18.035 C309.238,18.035 308.219,17.701 307.396,17.034 C306.573,16.367 306.161,15.444 306.161,14.265 C306.161,13.156 306.590,12.259 307.448,11.574 C308.306,10.889 309.376,10.547 310.659,10.547 C311.751,10.547 312.600,10.764 313.207,11.197 L313.207,10.781 C313.207,10.313 312.995,9.936 312.570,9.650 C312.145,9.364 311.526,9.221 310.711,9.221 C309.532,9.221 308.466,9.498 307.513,10.053 L307.513,6.777 C308.640,6.170 310.035,5.867 311.699,5.867 C313.432,5.867 314.771,6.270 315.716,7.076 C316.661,7.882 317.133,9.056 317.133,10.599 L317.133,17.827 L313.207,17.827 L313.207,17.229 ZM313.207,13.875 C312.930,13.338 312.384,13.069 311.569,13.069 C311.118,13.069 310.737,13.164 310.425,13.355 C310.113,13.546 309.957,13.823 309.957,14.187 C309.957,14.568 310.113,14.854 310.425,15.045 C310.737,15.236 311.118,15.331 311.569,15.331 C312.366,15.331 312.912,15.071 313.207,14.551 L313.207,13.875 ZM298.621,17.827 L296.957,11.899 L295.293,17.827 L291.835,17.827 L288.065,6.127 L292.121,6.127 L293.967,12.471 L295.735,6.127 L298.335,6.127 L300.077,12.471 L301.949,6.127 L305.849,6.127 L302.079,17.827 L298.621,17.827 ZM277.327,11.145 C277.327,10.642 277.197,10.239 276.937,9.936 C276.677,9.633 276.296,9.481 275.793,9.481 C275.377,9.481 275.017,9.594 274.714,9.819 C274.411,10.044 274.207,10.356 274.103,10.755 L274.103,17.827 L270.021,17.827 L270.021,0.927 L274.103,0.927 L274.103,7.141 C274.866,6.292 275.914,5.867 277.249,5.867 C278.532,5.867 279.541,6.253 280.278,7.024 C281.015,7.795 281.383,8.840 281.383,10.157 L281.383,17.827 L277.327,17.827 L277.327,11.145 ZM266.096,17.827 L262.040,17.827 L262.040,9.299 L260.012,9.299 L260.012,6.127 L262.040,6.127 L262.040,2.903 L266.096,2.903 L266.096,6.127 L268.384,6.127 L268.384,9.299 L266.096,9.299 L266.096,17.827 ZM254.370,11.145 C254.370,10.642 254.240,10.239 253.980,9.936 C253.720,9.633 253.338,9.481 252.836,9.481 C252.420,9.481 252.060,9.594 251.757,9.819 C251.453,10.044 251.250,10.356 251.146,10.755 L251.146,17.827 L247.064,17.827 L247.064,6.127 L251.146,6.127 L251.146,7.141 C251.908,6.292 252.957,5.867 254.292,5.867 C255.574,5.867 256.584,6.253 257.321,7.024 C258.057,7.795 258.426,8.840 258.426,10.157 L258.426,17.827 L254.370,17.827 L254.370,11.145 ZM239.368,18.087 C237.600,18.087 236.161,17.519 235.052,16.384 C233.942,15.249 233.388,13.780 233.388,11.977 C233.388,10.174 233.942,8.705 235.052,7.570 C236.161,6.435 237.600,5.867 239.368,5.867 C241.153,5.867 242.596,6.435 243.697,7.570 C244.797,8.705 245.348,10.174 245.348,11.977 C245.348,13.780 244.797,15.249 243.697,16.384 C242.596,17.519 241.153,18.087 239.368,18.087 ZM240.824,9.975 C240.477,9.472 239.992,9.221 239.368,9.221 C238.761,9.221 238.284,9.472 237.938,9.975 C237.591,10.478 237.418,11.145 237.418,11.977 C237.418,12.792 237.591,13.450 237.938,13.953 C238.284,14.456 238.761,14.707 239.368,14.707 C239.992,14.707 240.477,14.460 240.824,13.966 C241.170,13.472 241.344,12.809 241.344,11.977 C241.344,11.145 241.170,10.478 240.824,9.975 ZM227.694,11.145 C227.694,10.018 227.252,9.455 226.368,9.455 C226.004,9.455 225.687,9.563 225.419,9.780 C225.150,9.997 224.964,10.304 224.860,10.703 L224.860,17.827 L220.804,17.827 L220.804,11.145 C220.804,10.018 220.362,9.455 219.478,9.455 C219.114,9.455 218.793,9.563 218.516,9.780 C218.238,9.997 218.056,10.304 217.970,10.703 L217.970,17.827 L213.888,17.827 L213.888,6.127 L217.970,6.127 L217.970,7.089 C218.646,6.274 219.651,5.867 220.986,5.867 C222.338,5.867 223.412,6.335 224.210,7.271 C225.111,6.335 226.316,5.867 227.824,5.867 C229.037,5.867 229.999,6.253 230.710,7.024 C231.420,7.795 231.776,8.840 231.776,10.157 L231.776,17.827 L227.694,17.827 L227.694,11.145 ZM205.490,9.299 L211.756,9.299 L211.756,12.731 L205.490,12.731 L205.490,9.299 ZM197.508,18.087 C195.757,18.087 194.306,17.524 193.153,16.397 C192.000,15.270 191.424,13.858 191.424,12.159 C191.424,10.894 191.935,9.394 192.958,7.661 L196.312,1.863 L200.758,1.863 L198.028,6.673 C198.167,6.638 198.297,6.621 198.418,6.621 C199.961,6.742 201.209,7.323 202.162,8.363 C203.115,9.403 203.592,10.668 203.592,12.159 C203.592,13.858 203.016,15.270 201.863,16.397 C200.710,17.524 199.259,18.087 197.508,18.087 ZM199.172,10.495 C198.739,10.044 198.184,9.819 197.508,9.819 C196.867,9.819 196.325,10.044 195.883,10.495 C195.441,10.946 195.220,11.500 195.220,12.159 C195.220,12.818 195.437,13.368 195.870,13.810 C196.303,14.252 196.849,14.473 197.508,14.473 C198.184,14.473 198.739,14.252 199.172,13.810 C199.605,13.368 199.822,12.818 199.822,12.159 C199.822,11.500 199.605,10.946 199.172,10.495 ZM180.635,14.889 C181.848,14.889 182.975,14.577 184.015,13.953 L184.015,17.047 C183.079,17.740 181.735,18.087 179.985,18.087 C178.095,18.087 176.574,17.550 175.422,16.475 C174.269,15.400 173.693,13.927 173.693,12.055 C173.693,10.235 174.230,8.749 175.305,7.596 C176.379,6.443 177.731,5.867 179.361,5.867 C181.129,5.867 182.485,6.396 183.430,7.453 C184.374,8.510 184.847,9.932 184.847,11.717 L184.847,12.913 L177.645,12.913 C177.957,14.230 178.953,14.889 180.635,14.889 ZM181.207,10.625 C181.155,10.122 180.981,9.719 180.687,9.416 C180.392,9.113 180.002,8.961 179.517,8.961 C178.598,8.961 177.991,9.516 177.697,10.625 L181.207,10.625 ZM167.999,11.145 C167.999,10.642 167.869,10.239 167.609,9.936 C167.349,9.633 166.967,9.481 166.465,9.481 C166.049,9.481 165.689,9.594 165.386,9.819 C165.082,10.044 164.879,10.356 164.775,10.755 L164.775,17.827 L160.693,17.827 L160.693,0.927 L164.775,0.927 L164.775,7.141 C165.537,6.292 166.586,5.867 167.921,5.867 C169.203,5.867 170.213,6.253 170.950,7.024 C171.686,7.795 172.055,8.840 172.055,10.157 L172.055,17.827 L167.999,17.827 L167.999,11.145 ZM156.767,17.827 L152.711,17.827 L152.711,9.299 L150.683,9.299 L150.683,6.127 L152.711,6.127 L152.711,2.903 L156.767,2.903 L156.767,6.127 L159.055,6.127 L159.055,9.299 L156.767,9.299 L156.767,17.827 ZM139.633,16.891 C139.338,17.220 138.927,17.502 138.398,17.736 C137.869,17.970 137.319,18.087 136.747,18.087 C135.118,18.087 133.839,17.511 132.912,16.358 C131.985,15.205 131.521,13.745 131.521,11.977 C131.521,10.209 131.985,8.749 132.912,7.596 C133.839,6.443 135.118,5.867 136.747,5.867 C137.319,5.867 137.869,5.984 138.398,6.218 C138.927,6.452 139.338,6.734 139.633,7.063 L139.633,0.927 L143.715,0.927 L143.715,17.827 L139.633,17.827 L139.633,16.891 ZM139.633,10.417 C139.477,10.105 139.234,9.845 138.905,9.637 C138.576,9.429 138.220,9.325 137.839,9.325 C137.146,9.325 136.600,9.572 136.201,10.066 C135.802,10.560 135.603,11.197 135.603,11.977 C135.603,12.740 135.802,13.368 136.201,13.862 C136.600,14.356 137.146,14.603 137.839,14.603 C138.688,14.603 139.286,14.239 139.633,13.511 L139.633,10.417 ZM126.062,14.889 C127.275,14.889 128.402,14.577 129.442,13.953 L129.442,17.047 C128.506,17.740 127.162,18.087 125.412,18.087 C123.522,18.087 122.001,17.550 120.849,16.475 C119.696,15.400 119.120,13.927 119.120,12.055 C119.120,10.235 119.657,8.749 120.732,7.596 C121.806,6.443 123.158,5.867 124.788,5.867 C126.556,5.867 127.912,6.396 128.857,7.453 C129.801,8.510 130.274,9.932 130.274,11.717 L130.274,12.913 L123.072,12.913 C123.384,14.230 124.380,14.889 126.062,14.889 ZM126.634,10.625 C126.582,10.122 126.408,9.719 126.114,9.416 C125.819,9.113 125.429,8.961 124.944,8.961 C124.025,8.961 123.418,9.516 123.124,10.625 L126.634,10.625 ZM110.722,17.827 L106.276,6.127 L110.436,6.127 L112.672,12.835 L114.856,6.127 L118.860,6.127 L114.388,17.827 L110.722,17.827 ZM102.818,5.139 C102.177,5.139 101.631,4.935 101.180,4.528 C100.729,4.121 100.504,3.596 100.504,2.955 C100.504,2.296 100.729,1.763 101.180,1.356 C101.631,0.949 102.177,0.745 102.818,0.745 C103.459,0.745 104.005,0.949 104.456,1.356 C104.907,1.763 105.132,2.296 105.132,2.955 C105.132,3.596 104.907,4.121 104.456,4.528 C104.005,4.935 103.459,5.139 102.818,5.139 ZM94.602,17.229 C94.394,17.437 94.030,17.623 93.510,17.788 C92.990,17.952 92.435,18.035 91.846,18.035 C90.633,18.035 89.614,17.701 88.791,17.034 C87.968,16.367 87.556,15.444 87.556,14.265 C87.556,13.156 87.985,12.259 88.843,11.574 C89.701,10.889 90.771,10.547 92.054,10.547 C93.146,10.547 93.995,10.764 94.602,11.197 L94.602,10.781 C94.602,10.313 94.390,9.936 93.965,9.650 C93.540,9.364 92.921,9.221 92.106,9.221 C90.927,9.221 89.861,9.498 88.908,10.053 L88.908,6.777 C90.035,6.170 91.430,5.867 93.094,5.867 C94.827,5.867 96.166,6.270 97.111,7.076 C98.056,7.882 98.528,9.056 98.528,10.599 L98.528,17.827 L94.602,17.827 L94.602,17.229 ZM94.602,13.875 C94.325,13.338 93.779,13.069 92.964,13.069 C92.513,13.069 92.132,13.164 91.820,13.355 C91.508,13.546 91.352,13.823 91.352,14.187 C91.352,14.568 91.508,14.854 91.820,15.045 C92.132,15.236 92.513,15.331 92.964,15.331 C93.761,15.331 94.307,15.071 94.602,14.551 L94.602,13.875 ZM80.016,17.827 L78.352,11.899 L76.688,17.827 L73.230,17.827 L69.460,6.127 L73.516,6.127 L75.362,12.471 L77.130,6.127 L79.730,6.127 L81.472,12.471 L83.344,6.127 L87.244,6.127 L83.474,17.827 L80.016,17.827 ZM59.061,14.889 C60.274,14.889 61.401,14.577 62.441,13.953 L62.441,17.047 C61.505,17.740 60.161,18.087 58.411,18.087 C56.521,18.087 55.000,17.550 53.848,16.475 C52.695,15.400 52.119,13.927 52.119,12.055 C52.119,10.235 52.656,8.749 53.731,7.596 C54.805,6.443 56.157,5.867 57.787,5.867 C59.555,5.867 60.911,6.396 61.856,7.453 C62.800,8.510 63.273,9.932 63.273,11.717 L63.273,12.913 L56.071,12.913 C56.383,14.230 57.379,14.889 59.061,14.889 ZM59.633,10.625 C59.581,10.122 59.407,9.719 59.113,9.416 C58.818,9.113 58.428,8.961 57.943,8.961 C57.024,8.961 56.417,9.516 56.123,10.625 L59.633,10.625 ZM43.721,17.827 L39.275,6.127 L43.435,6.127 L45.671,12.835 L47.855,6.127 L51.859,6.127 L47.387,17.827 L43.721,17.827 ZM36.337,8.961 L33.763,8.961 L35.661,5.997 C35.158,5.893 34.742,5.659 34.413,5.295 C34.083,4.931 33.919,4.463 33.919,3.891 C33.919,3.232 34.148,2.686 34.608,2.253 C35.067,1.820 35.635,1.603 36.311,1.603 C36.987,1.603 37.554,1.828 38.014,2.279 C38.473,2.730 38.703,3.354 38.703,4.151 C38.703,4.931 38.373,5.824 37.715,6.829 L36.337,8.961 ZM28.537,14.889 C29.750,14.889 30.877,14.577 31.917,13.953 L31.917,17.047 C30.981,17.740 29.638,18.087 27.887,18.087 C25.998,18.087 24.477,17.550 23.324,16.475 C22.171,15.400 21.595,13.927 21.595,12.055 C21.595,10.235 22.132,8.749 23.207,7.596 C24.282,6.443 25.634,5.867 27.263,5.867 C29.031,5.867 30.387,6.396 31.332,7.453 C32.277,8.510 32.749,9.932 32.749,11.717 L32.749,12.913 L25.547,12.913 C25.859,14.230 26.856,14.889 28.537,14.889 ZM29.109,10.625 C29.057,10.122 28.884,9.719 28.589,9.416 C28.294,9.113 27.904,8.961 27.419,8.961 C26.500,8.961 25.894,9.516 25.599,10.625 L29.109,10.625 ZM13.613,17.827 L11.143,8.467 L8.647,17.827 L4.825,17.827 L0.639,1.863 L4.903,1.863 L7.139,11.249 L9.609,1.863 L12.781,1.863 L15.225,11.249 L17.435,1.863 L21.647,1.863 L17.435,17.827 L13.613,17.827 ZM104.846,17.827 L100.764,17.827 L100.764,6.127 L104.846,6.127 L104.846,17.827 ZM323.451,17.827 L319.369,17.827 L319.369,6.127 L323.451,6.127 L323.451,17.827 ZM339.206,17.827 L335.124,17.827 L335.124,6.127 L339.206,6.127 L339.206,17.827 ZM414.215,17.827 L410.133,17.827 L410.133,6.127 L414.215,6.127 L414.215,17.827 Z"/>
</svg>