<svg 
 xmlns="http://www.w3.org/2000/svg"
 xmlns:xlink="http://www.w3.org/1999/xlink"
 width="313px" height="48px">
<defs>
<linearGradient id="PSgrad_0" x1="0%" x2="64.279%" y1="0%" y2="76.604%">
  <stop offset="0%" stop-color="rgb(238,117,24)" stop-opacity="0.95" />
  <stop offset="100%" stop-color="rgb(253,91,47)" stop-opacity="0.95" />
</linearGradient>

</defs>
<path fill-rule="evenodd"  fill="rgb(227, 114, 34)"
 d="M306.148,47.961 L302.118,47.961 L303.834,43.541 L299.466,32.127 L303.704,32.127 L305.940,38.783 L308.124,32.127 L312.180,32.127 L306.148,47.961 ZM293.955,26.927 L298.037,26.927 L298.037,43.827 L293.955,43.827 L293.955,26.927 ZM287.559,42.813 C286.831,43.662 285.791,44.087 284.439,44.087 C283.156,44.087 282.151,43.701 281.423,42.930 C280.695,42.159 280.331,41.114 280.331,39.797 L280.331,32.127 L284.387,32.127 L284.387,38.835 C284.387,39.962 284.889,40.525 285.895,40.525 C286.276,40.525 286.623,40.408 286.935,40.174 C287.247,39.940 287.455,39.624 287.559,39.225 L287.559,32.127 L291.641,32.127 L291.641,43.827 L287.559,43.827 L287.559,42.813 ZM272.505,44.087 C271.066,44.087 269.853,43.775 268.865,43.151 L268.865,39.225 C269.957,39.953 270.979,40.317 271.933,40.317 C272.713,40.317 273.250,40.096 273.545,39.654 C273.839,39.212 273.987,38.480 273.987,37.457 L273.987,27.863 L278.173,27.863 L278.173,38.211 C278.173,40.204 277.679,41.682 276.691,42.644 C275.703,43.606 274.307,44.087 272.505,44.087 ZM257.347,32.387 L253.629,34.181 L253.629,30.229 L258.595,27.863 L261.403,27.863 L261.403,43.827 L257.347,43.827 L257.347,32.387 ZM252.641,38.653 C252.641,40.317 252.078,41.639 250.951,42.618 C249.824,43.597 248.420,44.087 246.739,44.087 C244.867,44.087 243.281,43.636 241.981,42.735 L241.981,38.913 C243.298,40.092 244.737,40.681 246.297,40.681 C247.944,40.681 248.767,40.014 248.767,38.679 C248.767,37.864 248.390,37.266 247.636,36.885 C246.882,36.504 245.933,36.348 244.789,36.417 L244.789,36.339 L247.259,31.451 L242.059,31.451 L242.059,27.863 L252.667,27.863 L252.667,27.941 L249.547,34.155 C251.610,35.039 252.641,36.538 252.641,38.653 ZM225.705,47.961 L227.421,43.541 L223.053,32.127 L227.291,32.127 L229.527,38.783 L231.711,32.127 L235.767,32.127 L229.735,47.961 L225.705,47.961 ZM227.083,16.891 C226.788,17.220 226.377,17.502 225.848,17.736 C225.319,17.970 224.769,18.087 224.197,18.087 C222.568,18.087 221.289,17.511 220.362,16.358 C219.435,15.205 218.971,13.745 218.971,11.977 C218.971,10.209 219.435,8.749 220.362,7.596 C221.289,6.443 222.568,5.867 224.197,5.867 C224.769,5.867 225.319,5.984 225.848,6.218 C226.377,6.452 226.788,6.734 227.083,7.063 L227.083,0.927 L231.165,0.927 L231.165,17.827 L227.083,17.827 L227.083,16.891 ZM227.083,10.417 C226.927,10.105 226.684,9.845 226.355,9.637 C226.026,9.429 225.670,9.325 225.289,9.325 C224.596,9.325 224.050,9.572 223.651,10.066 C223.252,10.560 223.053,11.197 223.053,11.977 C223.053,12.740 223.252,13.368 223.651,13.862 C224.050,14.356 224.596,14.603 225.289,14.603 C226.138,14.603 226.736,14.239 227.083,13.511 L227.083,10.417 ZM222.767,37.977 C222.767,39.745 222.303,41.205 221.376,42.358 C220.449,43.511 219.170,44.087 217.541,44.087 C216.969,44.087 216.419,43.970 215.890,43.736 C215.361,43.502 214.950,43.220 214.655,42.891 L214.655,43.827 L210.573,43.827 L210.573,26.927 L214.655,26.927 L214.655,33.063 C214.950,32.734 215.361,32.452 215.890,32.218 C216.419,31.984 216.969,31.867 217.541,31.867 C219.170,31.867 220.449,32.443 221.376,33.596 C222.303,34.749 222.767,36.209 222.767,37.977 ZM218.087,36.066 C217.688,35.572 217.142,35.325 216.449,35.325 C216.068,35.325 215.712,35.429 215.383,35.637 C215.054,35.845 214.811,36.105 214.655,36.417 L214.655,39.511 C215.002,40.239 215.600,40.603 216.449,40.603 C217.142,40.603 217.688,40.356 218.087,39.862 C218.486,39.368 218.685,38.740 218.685,37.977 C218.685,37.197 218.486,36.560 218.087,36.066 ZM213.277,11.145 C213.277,10.642 213.147,10.239 212.887,9.936 C212.627,9.633 212.246,9.481 211.743,9.481 C211.327,9.481 210.967,9.594 210.664,9.819 C210.361,10.044 210.157,10.356 210.053,10.755 L210.053,17.827 L205.971,17.827 L205.971,6.127 L210.053,6.127 L210.053,7.141 C210.816,6.292 211.864,5.867 213.199,5.867 C214.482,5.867 215.491,6.253 216.228,7.024 C216.965,7.795 217.333,8.840 217.333,10.157 L217.333,17.827 L213.277,17.827 L213.277,11.145 ZM199.810,17.229 C199.602,17.437 199.238,17.623 198.718,17.788 C198.198,17.952 197.643,18.035 197.054,18.035 C195.840,18.035 194.822,17.701 193.999,17.034 C193.175,16.367 192.764,15.444 192.764,14.265 C192.764,13.156 193.193,12.259 194.051,11.574 C194.909,10.889 195.979,10.547 197.262,10.547 C198.354,10.547 199.203,10.764 199.810,11.197 L199.810,10.781 C199.810,10.313 199.597,9.936 199.173,9.650 C198.748,9.364 198.128,9.221 197.314,9.221 C196.135,9.221 195.069,9.498 194.116,10.053 L194.116,6.777 C195.242,6.170 196.638,5.867 198.302,5.867 C200.035,5.867 201.374,6.270 202.319,7.076 C203.263,7.882 203.736,9.056 203.736,10.599 L203.736,17.827 L199.810,17.827 L199.810,17.229 ZM199.810,13.875 C199.532,13.338 198.986,13.069 198.172,13.069 C197.721,13.069 197.340,13.164 197.028,13.355 C196.716,13.546 196.560,13.823 196.560,14.187 C196.560,14.568 196.716,14.854 197.028,15.045 C197.340,15.236 197.721,15.331 198.172,15.331 C198.969,15.331 199.515,15.071 199.810,14.551 L199.810,13.875 ZM193.856,38.913 L186.654,38.913 C186.966,40.230 187.962,40.889 189.644,40.889 C190.857,40.889 191.984,40.577 193.024,39.953 L193.024,43.047 C192.088,43.740 190.744,44.087 188.994,44.087 C187.104,44.087 185.583,43.550 184.431,42.475 C183.278,41.400 182.702,39.927 182.702,38.055 C182.702,36.235 183.239,34.749 184.314,33.596 C185.388,32.443 186.740,31.867 188.370,31.867 C190.138,31.867 191.494,32.396 192.439,33.453 C193.383,34.510 193.856,35.932 193.856,37.717 L193.856,38.913 ZM189.696,35.416 C189.401,35.113 189.011,34.961 188.526,34.961 C187.607,34.961 187.000,35.516 186.706,36.625 L190.216,36.625 C190.164,36.122 189.990,35.719 189.696,35.416 ZM181.636,0.927 L185.718,0.927 L185.718,17.827 L181.636,17.827 L181.636,0.927 ZM175.474,17.229 C175.266,17.437 174.902,17.623 174.382,17.788 C173.862,17.952 173.307,18.035 172.718,18.035 C171.505,18.035 170.486,17.701 169.663,17.034 C168.840,16.367 168.428,15.444 168.428,14.265 C168.428,13.156 168.857,12.259 169.715,11.574 C170.573,10.889 171.643,10.547 172.926,10.547 C174.018,10.547 174.867,10.764 175.474,11.197 L175.474,10.781 C175.474,10.313 175.262,9.936 174.837,9.650 C174.412,9.364 173.793,9.221 172.978,9.221 C171.799,9.221 170.733,9.498 169.780,10.053 L169.780,6.777 C170.907,6.170 172.302,5.867 173.966,5.867 C175.699,5.867 177.038,6.270 177.983,7.076 C178.928,7.882 179.400,9.056 179.400,10.599 L179.400,17.827 L175.474,17.827 L175.474,17.229 ZM175.474,13.875 C175.197,13.338 174.651,13.069 173.836,13.069 C173.385,13.069 173.004,13.164 172.692,13.355 C172.380,13.546 172.224,13.823 172.224,14.187 C172.224,14.568 172.380,14.854 172.692,15.045 C173.004,15.236 173.385,15.331 173.836,15.331 C174.633,15.331 175.179,15.071 175.474,14.551 L175.474,13.875 ZM167.895,42.384 C166.794,43.519 165.351,44.087 163.566,44.087 C161.798,44.087 160.359,43.519 159.250,42.384 C158.141,41.249 157.586,39.780 157.586,37.977 C157.586,36.174 158.141,34.705 159.250,33.570 C160.359,32.435 161.798,31.867 163.566,31.867 C165.351,31.867 166.794,32.435 167.895,33.570 C168.996,34.705 169.546,36.174 169.546,37.977 C169.546,39.780 168.996,41.249 167.895,42.384 ZM165.022,35.975 C164.675,35.472 164.190,35.221 163.566,35.221 C162.959,35.221 162.483,35.472 162.136,35.975 C161.789,36.478 161.616,37.145 161.616,37.977 C161.616,38.792 161.789,39.450 162.136,39.953 C162.483,40.456 162.959,40.707 163.566,40.707 C164.190,40.707 164.675,40.460 165.022,39.966 C165.369,39.472 165.542,38.809 165.542,37.977 C165.542,37.145 165.369,36.478 165.022,35.975 ZM165.438,17.827 L161.382,17.827 L161.382,9.299 L159.354,9.299 L159.354,6.127 L161.382,6.127 L161.382,2.903 L165.438,2.903 L165.438,6.127 L167.726,6.127 L167.726,9.299 L165.438,9.299 L165.438,17.827 ZM155.663,5.139 C155.021,5.139 154.475,4.935 154.025,4.528 C153.574,4.121 153.349,3.596 153.349,2.955 C153.349,2.296 153.574,1.763 154.025,1.356 C154.475,0.949 155.021,0.745 155.663,0.745 C156.304,0.745 156.850,0.949 157.301,1.356 C157.751,1.763 157.977,2.296 157.977,2.955 C157.977,3.596 157.751,4.121 157.301,4.528 C156.850,4.935 156.304,5.139 155.663,5.139 ZM153.609,6.127 L157.691,6.127 L157.691,17.827 L153.609,17.827 L153.609,6.127 ZM156.312,32.699 L156.312,36.131 C155.549,35.576 154.709,35.299 153.790,35.299 C153.010,35.299 152.364,35.533 151.853,36.001 C151.342,36.469 151.086,37.128 151.086,37.977 C151.086,38.826 151.342,39.485 151.853,39.953 C152.364,40.421 153.010,40.655 153.790,40.655 C154.709,40.655 155.549,40.378 156.312,39.823 L156.312,43.255 C155.532,43.810 154.483,44.087 153.166,44.087 C151.381,44.087 149.916,43.532 148.772,42.423 C147.628,41.314 147.056,39.832 147.056,37.977 C147.056,36.122 147.628,34.640 148.772,33.531 C149.916,32.422 151.381,31.867 153.166,31.867 C154.483,31.867 155.532,32.144 156.312,32.699 ZM146.693,18.087 C146.121,18.087 145.570,17.970 145.042,17.736 C144.513,17.502 144.101,17.220 143.807,16.891 L143.807,21.961 L139.725,21.961 L139.725,6.127 L143.807,6.127 L143.807,7.063 C144.101,6.734 144.513,6.452 145.042,6.218 C145.570,5.984 146.121,5.867 146.693,5.867 C148.322,5.867 149.600,6.448 150.528,7.609 C151.455,8.770 151.919,10.226 151.919,11.977 C151.919,13.710 151.455,15.162 150.528,16.332 C149.600,17.502 148.322,18.087 146.693,18.087 ZM147.239,10.066 C146.840,9.572 146.294,9.325 145.601,9.325 C144.769,9.325 144.171,9.689 143.807,10.417 L143.807,13.511 C144.153,14.239 144.751,14.603 145.601,14.603 C146.294,14.603 146.840,14.356 147.239,13.862 C147.637,13.368 147.837,12.740 147.837,11.977 C147.837,11.197 147.637,10.560 147.239,10.066 ZM140.088,43.827 L136.032,43.827 L136.032,37.145 C136.032,36.642 135.902,36.239 135.642,35.936 C135.382,35.633 135.001,35.481 134.498,35.481 C134.082,35.481 133.722,35.594 133.419,35.819 C133.116,36.044 132.912,36.356 132.808,36.755 L132.808,43.827 L128.726,43.827 L128.726,26.927 L132.808,26.927 L132.808,33.141 C133.571,32.292 134.619,31.867 135.954,31.867 C137.237,31.867 138.246,32.253 138.983,33.024 C139.720,33.795 140.088,34.840 140.088,36.157 L140.088,43.827 ZM133.355,10.365 L134.421,10.677 C135.704,11.024 136.618,11.479 137.164,12.042 C137.710,12.605 137.983,13.381 137.983,14.369 C137.983,15.582 137.519,16.505 136.592,17.138 C135.665,17.771 134.447,18.087 132.939,18.087 C131.084,18.087 129.602,17.714 128.493,16.969 L128.493,13.537 C129.030,13.970 129.698,14.326 130.495,14.603 C131.292,14.880 132.003,15.019 132.627,15.019 C133.511,15.019 133.953,14.785 133.953,14.317 C133.953,13.936 133.598,13.667 132.887,13.511 L131.977,13.277 C129.620,12.774 128.441,11.578 128.441,9.689 C128.441,8.493 128.883,7.557 129.767,6.881 C130.651,6.205 131.804,5.867 133.225,5.867 C134.820,5.867 136.180,6.214 137.307,6.907 L137.307,10.261 C136.059,9.360 134.828,8.909 133.615,8.909 C132.835,8.909 132.445,9.143 132.445,9.611 C132.445,9.819 132.519,9.975 132.666,10.079 C132.813,10.183 133.043,10.278 133.355,10.365 ZM121.135,18.087 C119.367,18.087 117.928,17.519 116.819,16.384 C115.710,15.249 115.155,13.780 115.155,11.977 C115.155,10.174 115.710,8.705 116.819,7.570 C117.928,6.435 119.367,5.867 121.135,5.867 C122.920,5.867 124.363,6.435 125.464,7.570 C126.565,8.705 127.115,10.174 127.115,11.977 C127.115,13.780 126.565,15.249 125.464,16.384 C124.363,17.519 122.920,18.087 121.135,18.087 ZM122.591,9.975 C122.244,9.472 121.759,9.221 121.135,9.221 C120.528,9.221 120.052,9.472 119.705,9.975 C119.358,10.478 119.185,11.145 119.185,11.977 C119.185,12.792 119.358,13.450 119.705,13.953 C120.052,14.456 120.528,14.707 121.135,14.707 C121.759,14.707 122.244,14.460 122.591,13.966 C122.938,13.472 123.111,12.809 123.111,11.977 C123.111,11.145 122.938,10.478 122.591,9.975 ZM109.202,11.509 L103.040,11.509 L103.040,17.827 L98.854,17.827 L98.854,1.863 L103.040,1.863 L103.040,7.921 L109.202,7.921 L109.202,1.863 L113.388,1.863 L113.388,17.827 L109.202,17.827 L109.202,11.509 ZM94.408,40.889 C95.621,40.889 96.748,40.577 97.788,39.953 L97.788,43.047 C96.852,43.740 95.508,44.087 93.758,44.087 C91.868,44.087 90.347,43.550 89.195,42.475 C88.042,41.400 87.466,39.927 87.466,38.055 C87.466,36.235 88.003,34.749 89.078,33.596 C90.152,32.443 91.504,31.867 93.134,31.867 C94.902,31.867 96.258,32.396 97.203,33.453 C98.147,34.510 98.620,35.932 98.620,37.717 L98.620,38.913 L91.418,38.913 C91.730,40.230 92.726,40.889 94.408,40.889 ZM94.980,36.625 C94.928,36.122 94.754,35.719 94.460,35.416 C94.165,35.113 93.775,34.961 93.290,34.961 C92.371,34.961 91.764,35.516 91.470,36.625 L94.980,36.625 ZM89.494,17.827 L85.438,17.827 L85.438,9.299 L83.410,9.299 L83.410,6.127 L85.438,6.127 L85.438,2.903 L89.494,2.903 L89.494,6.127 L91.782,6.127 L91.782,9.299 L89.494,9.299 L89.494,17.827 ZM85.828,36.157 L85.828,43.827 L81.772,43.827 L81.772,37.145 C81.772,36.642 81.642,36.239 81.382,35.936 C81.122,35.633 80.740,35.481 80.238,35.481 C79.822,35.481 79.462,35.594 79.159,35.819 C78.855,36.044 78.652,36.356 78.548,36.755 L78.548,43.827 L74.466,43.827 L74.466,26.927 L78.548,26.927 L78.548,33.141 C79.310,32.292 80.359,31.867 81.694,31.867 C82.976,31.867 83.986,32.253 84.723,33.024 C85.459,33.795 85.828,34.840 85.828,36.157 ZM77.690,16.813 C76.962,17.662 75.922,18.087 74.570,18.087 C73.287,18.087 72.282,17.701 71.554,16.930 C70.826,16.159 70.462,15.114 70.462,13.797 L70.462,6.127 L74.518,6.127 L74.518,12.835 C74.518,13.962 75.021,14.525 76.026,14.525 C76.407,14.525 76.754,14.408 77.066,14.174 C77.378,13.940 77.586,13.624 77.690,13.225 L77.690,6.127 L81.772,6.127 L81.772,17.827 L77.690,17.827 L77.690,16.813 ZM62.818,18.087 C61.050,18.087 59.611,17.519 58.502,16.384 C57.393,15.249 56.838,13.780 56.838,11.977 C56.838,10.174 57.393,8.705 58.502,7.570 C59.611,6.435 61.050,5.867 62.818,5.867 C64.603,5.867 66.046,6.435 67.147,7.570 C68.248,8.705 68.798,10.174 68.798,11.977 C68.798,13.780 68.248,15.249 67.147,16.384 C66.046,17.519 64.603,18.087 62.818,18.087 ZM64.274,9.975 C63.927,9.472 63.442,9.221 62.818,9.221 C62.211,9.221 61.735,9.472 61.388,9.975 C61.041,10.478 60.868,11.145 60.868,11.977 C60.868,12.792 61.041,13.450 61.388,13.953 C61.735,14.456 62.211,14.707 62.818,14.707 C63.442,14.707 63.927,14.460 64.274,13.966 C64.621,13.472 64.794,12.809 64.794,11.977 C64.794,11.145 64.621,10.478 64.274,9.975 ZM52.158,43.229 C51.950,43.437 51.586,43.623 51.066,43.788 C50.546,43.952 49.991,44.035 49.402,44.035 C48.189,44.035 47.170,43.701 46.347,43.034 C45.524,42.367 45.112,41.444 45.112,40.265 C45.112,39.156 45.541,38.259 46.399,37.574 C47.257,36.889 48.327,36.547 49.610,36.547 C50.702,36.547 51.551,36.764 52.158,37.197 L52.158,36.781 C52.158,36.313 51.946,35.936 51.521,35.650 C51.096,35.364 50.477,35.221 49.662,35.221 C48.483,35.221 47.417,35.498 46.464,36.053 L46.464,32.777 C47.591,32.170 48.986,31.867 50.650,31.867 C52.383,31.867 53.722,32.270 54.667,33.076 C55.612,33.882 56.084,35.056 56.084,36.599 L56.084,43.827 L52.158,43.827 L52.158,43.229 ZM52.158,39.875 C51.881,39.338 51.335,39.069 50.520,39.069 C50.069,39.069 49.688,39.164 49.376,39.355 C49.064,39.546 48.908,39.823 48.908,40.187 C48.908,40.568 49.064,40.854 49.376,41.045 C49.688,41.236 50.069,41.331 50.520,41.331 C51.317,41.331 51.863,41.071 52.158,40.551 L52.158,39.875 ZM46.153,14.889 C47.366,14.889 48.493,14.577 49.533,13.953 L49.533,17.047 C48.597,17.740 47.253,18.087 45.503,18.087 C43.613,18.087 42.092,17.550 40.940,16.475 C39.787,15.400 39.211,13.927 39.211,12.055 C39.211,10.235 39.748,8.749 40.823,7.596 C41.897,6.443 43.249,5.867 44.879,5.867 C46.647,5.867 48.003,6.396 48.948,7.453 C49.892,8.510 50.365,9.932 50.365,11.717 L50.365,12.913 L43.163,12.913 C43.475,14.230 44.471,14.889 46.153,14.889 ZM46.725,10.625 C46.673,10.122 46.499,9.719 46.205,9.416 C45.910,9.113 45.520,8.961 45.035,8.961 C44.116,8.961 43.509,9.516 43.215,10.625 L46.725,10.625 ZM34.505,17.827 L30.969,12.705 L30.969,17.827 L26.887,17.827 L26.887,0.927 L30.969,0.927 L30.969,10.547 L34.297,6.127 L38.977,6.127 L34.635,11.535 L39.081,17.827 L34.505,17.827 ZM28.525,28.903 L32.581,28.903 L32.581,32.127 L34.869,32.127 L34.869,35.299 L32.581,35.299 L32.581,43.827 L28.525,43.827 L28.525,35.299 L26.497,35.299 L26.497,32.127 L28.525,32.127 L28.525,28.903 ZM21.427,43.827 L19.425,40.785 L17.423,43.827 L13.211,43.827 L17.293,37.873 L13.393,32.127 L17.787,32.127 L19.607,34.935 L21.453,32.127 L25.665,32.127 L21.739,37.847 L25.847,43.827 L21.427,43.827 ZM20.725,17.229 C20.517,17.437 20.153,17.623 19.633,17.788 C19.113,17.952 18.558,18.035 17.969,18.035 C16.755,18.035 15.737,17.701 14.914,17.034 C14.090,16.367 13.679,15.444 13.679,14.265 C13.679,13.156 14.108,12.259 14.966,11.574 C15.824,10.889 16.894,10.547 18.177,10.547 C19.269,10.547 20.118,10.764 20.725,11.197 L20.725,10.781 C20.725,10.313 20.512,9.936 20.088,9.650 C19.663,9.364 19.043,9.221 18.229,9.221 C17.050,9.221 15.984,9.498 15.031,10.053 L15.031,6.777 C16.157,6.170 17.553,5.867 19.217,5.867 C20.950,5.867 22.289,6.270 23.234,7.076 C24.178,7.882 24.651,9.056 24.651,10.599 L24.651,17.827 L20.725,17.827 L20.725,17.229 ZM20.725,13.875 C20.447,13.338 19.901,13.069 19.087,13.069 C18.636,13.069 18.255,13.164 17.943,13.355 C17.631,13.546 17.475,13.823 17.475,14.187 C17.475,14.568 17.631,14.854 17.943,15.045 C18.255,15.236 18.636,15.331 19.087,15.331 C19.884,15.331 20.430,15.071 20.725,14.551 L20.725,13.875 ZM9.103,17.827 L4.917,17.827 L4.917,5.451 L0.003,5.451 L0.003,1.863 L14.043,1.863 L14.043,5.451 L9.103,5.451 L9.103,17.827 ZM12.093,31.451 L4.787,31.451 L4.787,33.947 L11.469,33.947 L11.469,37.457 L4.787,37.457 L4.787,40.213 L12.093,40.213 L12.093,43.827 L0.679,43.827 L0.679,27.863 L12.093,27.863 L12.093,31.451 ZM40.588,33.167 C41.229,32.300 42.113,31.867 43.240,31.867 C43.743,31.867 44.115,31.936 44.358,32.075 L44.358,36.001 C43.890,35.758 43.327,35.637 42.668,35.637 C41.507,35.637 40.813,36.079 40.588,36.963 L40.588,43.827 L36.506,43.827 L36.506,32.127 L40.588,32.127 L40.588,33.167 ZM61.388,39.277 C59.030,38.774 57.852,37.578 57.852,35.689 C57.852,34.493 58.294,33.557 59.178,32.881 C60.062,32.205 61.214,31.867 62.636,31.867 C64.230,31.867 65.591,32.214 66.718,32.907 L66.718,36.261 C65.470,35.360 64.239,34.909 63.026,34.909 C62.246,34.909 61.856,35.143 61.856,35.611 C61.856,35.819 61.929,35.975 62.077,36.079 C62.224,36.183 62.454,36.278 62.766,36.365 L63.832,36.677 C65.114,37.024 66.029,37.479 66.575,38.042 C67.121,38.605 67.394,39.381 67.394,40.369 C67.394,41.582 66.930,42.505 66.003,43.138 C65.075,43.771 63.858,44.087 62.350,44.087 C60.495,44.087 59.013,43.714 57.904,42.969 L57.904,39.537 C58.441,39.970 59.108,40.326 59.906,40.603 C60.703,40.880 61.414,41.019 62.038,41.019 C62.922,41.019 63.364,40.785 63.364,40.317 C63.364,39.936 63.008,39.667 62.298,39.511 L61.388,39.277 ZM104.261,36.547 C105.353,36.547 106.202,36.764 106.809,37.197 L106.809,36.781 C106.809,36.313 106.597,35.936 106.172,35.650 C105.747,35.364 105.128,35.221 104.313,35.221 C103.134,35.221 102.068,35.498 101.115,36.053 L101.115,32.777 C102.242,32.170 103.637,31.867 105.301,31.867 C107.034,31.867 108.373,32.270 109.318,33.076 C110.263,33.882 110.735,35.056 110.735,36.599 L110.735,43.827 L106.809,43.827 L106.809,43.229 C106.601,43.437 106.237,43.623 105.717,43.788 C105.197,43.952 104.642,44.035 104.053,44.035 C102.840,44.035 101.821,43.701 100.998,43.034 C100.175,42.367 99.763,41.444 99.763,40.265 C99.763,39.156 100.192,38.259 101.050,37.574 C101.908,36.889 102.978,36.547 104.261,36.547 ZM104.027,41.045 C104.339,41.236 104.720,41.331 105.171,41.331 C105.968,41.331 106.514,41.071 106.809,40.551 L106.809,39.875 C106.532,39.338 105.986,39.069 105.171,39.069 C104.720,39.069 104.339,39.164 104.027,39.355 C103.715,39.546 103.559,39.823 103.559,40.187 C103.559,40.568 103.715,40.854 104.027,41.045 ZM117.053,43.827 L112.971,43.827 L112.971,26.927 L117.053,26.927 L117.053,43.827 ZM120.745,28.903 L124.801,28.903 L124.801,32.127 L127.089,32.127 L127.089,35.299 L124.801,35.299 L124.801,43.827 L120.745,43.827 L120.745,35.299 L118.717,35.299 L118.717,32.127 L120.745,32.127 L120.745,28.903 ZM176.254,38.835 L178.438,32.127 L182.442,32.127 L177.970,43.827 L174.304,43.827 L169.858,32.127 L174.018,32.127 L176.254,38.835 ZM199.706,33.167 C200.347,32.300 201.231,31.867 202.358,31.867 C202.860,31.867 203.233,31.936 203.476,32.075 L203.476,36.001 C203.008,35.758 202.444,35.637 201.786,35.637 C200.624,35.637 199.931,36.079 199.706,36.963 L199.706,43.827 L195.624,43.827 L195.624,32.127 L199.706,32.127 L199.706,33.167 Z"/>
<path fill="url(#PSgrad_0)"
 d="M306.148,47.961 L302.118,47.961 L303.834,43.541 L299.466,32.127 L303.704,32.127 L305.940,38.783 L308.124,32.127 L312.180,32.127 L306.148,47.961 ZM293.955,26.927 L298.037,26.927 L298.037,43.827 L293.955,43.827 L293.955,26.927 ZM287.559,42.813 C286.831,43.662 285.791,44.087 284.439,44.087 C283.156,44.087 282.151,43.701 281.423,42.930 C280.695,42.159 280.331,41.114 280.331,39.797 L280.331,32.127 L284.387,32.127 L284.387,38.835 C284.387,39.962 284.889,40.525 285.895,40.525 C286.276,40.525 286.623,40.408 286.935,40.174 C287.247,39.940 287.455,39.624 287.559,39.225 L287.559,32.127 L291.641,32.127 L291.641,43.827 L287.559,43.827 L287.559,42.813 ZM272.505,44.087 C271.066,44.087 269.853,43.775 268.865,43.151 L268.865,39.225 C269.957,39.953 270.979,40.317 271.933,40.317 C272.713,40.317 273.250,40.096 273.545,39.654 C273.839,39.212 273.987,38.480 273.987,37.457 L273.987,27.863 L278.173,27.863 L278.173,38.211 C278.173,40.204 277.679,41.682 276.691,42.644 C275.703,43.606 274.307,44.087 272.505,44.087 ZM257.347,32.387 L253.629,34.181 L253.629,30.229 L258.595,27.863 L261.403,27.863 L261.403,43.827 L257.347,43.827 L257.347,32.387 ZM252.641,38.653 C252.641,40.317 252.078,41.639 250.951,42.618 C249.824,43.597 248.420,44.087 246.739,44.087 C244.867,44.087 243.281,43.636 241.981,42.735 L241.981,38.913 C243.298,40.092 244.737,40.681 246.297,40.681 C247.944,40.681 248.767,40.014 248.767,38.679 C248.767,37.864 248.390,37.266 247.636,36.885 C246.882,36.504 245.933,36.348 244.789,36.417 L244.789,36.339 L247.259,31.451 L242.059,31.451 L242.059,27.863 L252.667,27.863 L252.667,27.941 L249.547,34.155 C251.610,35.039 252.641,36.538 252.641,38.653 ZM225.705,47.961 L227.421,43.541 L223.053,32.127 L227.291,32.127 L229.527,38.783 L231.711,32.127 L235.767,32.127 L229.735,47.961 L225.705,47.961 ZM227.083,16.891 C226.788,17.220 226.377,17.502 225.848,17.736 C225.319,17.970 224.769,18.087 224.197,18.087 C222.568,18.087 221.289,17.511 220.362,16.358 C219.435,15.205 218.971,13.745 218.971,11.977 C218.971,10.209 219.435,8.749 220.362,7.596 C221.289,6.443 222.568,5.867 224.197,5.867 C224.769,5.867 225.319,5.984 225.848,6.218 C226.377,6.452 226.788,6.734 227.083,7.063 L227.083,0.927 L231.165,0.927 L231.165,17.827 L227.083,17.827 L227.083,16.891 ZM227.083,10.417 C226.927,10.105 226.684,9.845 226.355,9.637 C226.026,9.429 225.670,9.325 225.289,9.325 C224.596,9.325 224.050,9.572 223.651,10.066 C223.252,10.560 223.053,11.197 223.053,11.977 C223.053,12.740 223.252,13.368 223.651,13.862 C224.050,14.356 224.596,14.603 225.289,14.603 C226.138,14.603 226.736,14.239 227.083,13.511 L227.083,10.417 ZM222.767,37.977 C222.767,39.745 222.303,41.205 221.376,42.358 C220.449,43.511 219.170,44.087 217.541,44.087 C216.969,44.087 216.419,43.970 215.890,43.736 C215.361,43.502 214.950,43.220 214.655,42.891 L214.655,43.827 L210.573,43.827 L210.573,26.927 L214.655,26.927 L214.655,33.063 C214.950,32.734 215.361,32.452 215.890,32.218 C216.419,31.984 216.969,31.867 217.541,31.867 C219.170,31.867 220.449,32.443 221.376,33.596 C222.303,34.749 222.767,36.209 222.767,37.977 ZM218.087,36.066 C217.688,35.572 217.142,35.325 216.449,35.325 C216.068,35.325 215.712,35.429 215.383,35.637 C215.054,35.845 214.811,36.105 214.655,36.417 L214.655,39.511 C215.002,40.239 215.600,40.603 216.449,40.603 C217.142,40.603 217.688,40.356 218.087,39.862 C218.486,39.368 218.685,38.740 218.685,37.977 C218.685,37.197 218.486,36.560 218.087,36.066 ZM213.277,11.145 C213.277,10.642 213.147,10.239 212.887,9.936 C212.627,9.633 212.246,9.481 211.743,9.481 C211.327,9.481 210.967,9.594 210.664,9.819 C210.361,10.044 210.157,10.356 210.053,10.755 L210.053,17.827 L205.971,17.827 L205.971,6.127 L210.053,6.127 L210.053,7.141 C210.816,6.292 211.864,5.867 213.199,5.867 C214.482,5.867 215.491,6.253 216.228,7.024 C216.965,7.795 217.333,8.840 217.333,10.157 L217.333,17.827 L213.277,17.827 L213.277,11.145 ZM199.810,17.229 C199.602,17.437 199.238,17.623 198.718,17.788 C198.198,17.952 197.643,18.035 197.054,18.035 C195.840,18.035 194.822,17.701 193.999,17.034 C193.175,16.367 192.764,15.444 192.764,14.265 C192.764,13.156 193.193,12.259 194.051,11.574 C194.909,10.889 195.979,10.547 197.262,10.547 C198.354,10.547 199.203,10.764 199.810,11.197 L199.810,10.781 C199.810,10.313 199.597,9.936 199.173,9.650 C198.748,9.364 198.128,9.221 197.314,9.221 C196.135,9.221 195.069,9.498 194.116,10.053 L194.116,6.777 C195.242,6.170 196.638,5.867 198.302,5.867 C200.035,5.867 201.374,6.270 202.319,7.076 C203.263,7.882 203.736,9.056 203.736,10.599 L203.736,17.827 L199.810,17.827 L199.810,17.229 ZM199.810,13.875 C199.532,13.338 198.986,13.069 198.172,13.069 C197.721,13.069 197.340,13.164 197.028,13.355 C196.716,13.546 196.560,13.823 196.560,14.187 C196.560,14.568 196.716,14.854 197.028,15.045 C197.340,15.236 197.721,15.331 198.172,15.331 C198.969,15.331 199.515,15.071 199.810,14.551 L199.810,13.875 ZM193.856,38.913 L186.654,38.913 C186.966,40.230 187.962,40.889 189.644,40.889 C190.857,40.889 191.984,40.577 193.024,39.953 L193.024,43.047 C192.088,43.740 190.744,44.087 188.994,44.087 C187.104,44.087 185.583,43.550 184.431,42.475 C183.278,41.400 182.702,39.927 182.702,38.055 C182.702,36.235 183.239,34.749 184.314,33.596 C185.388,32.443 186.740,31.867 188.370,31.867 C190.138,31.867 191.494,32.396 192.439,33.453 C193.383,34.510 193.856,35.932 193.856,37.717 L193.856,38.913 ZM189.696,35.416 C189.401,35.113 189.011,34.961 188.526,34.961 C187.607,34.961 187.000,35.516 186.706,36.625 L190.216,36.625 C190.164,36.122 189.990,35.719 189.696,35.416 ZM181.636,0.927 L185.718,0.927 L185.718,17.827 L181.636,17.827 L181.636,0.927 ZM175.474,17.229 C175.266,17.437 174.902,17.623 174.382,17.788 C173.862,17.952 173.307,18.035 172.718,18.035 C171.505,18.035 170.486,17.701 169.663,17.034 C168.840,16.367 168.428,15.444 168.428,14.265 C168.428,13.156 168.857,12.259 169.715,11.574 C170.573,10.889 171.643,10.547 172.926,10.547 C174.018,10.547 174.867,10.764 175.474,11.197 L175.474,10.781 C175.474,10.313 175.262,9.936 174.837,9.650 C174.412,9.364 173.793,9.221 172.978,9.221 C171.799,9.221 170.733,9.498 169.780,10.053 L169.780,6.777 C170.907,6.170 172.302,5.867 173.966,5.867 C175.699,5.867 177.038,6.270 177.983,7.076 C178.928,7.882 179.400,9.056 179.400,10.599 L179.400,17.827 L175.474,17.827 L175.474,17.229 ZM175.474,13.875 C175.197,13.338 174.651,13.069 173.836,13.069 C173.385,13.069 173.004,13.164 172.692,13.355 C172.380,13.546 172.224,13.823 172.224,14.187 C172.224,14.568 172.380,14.854 172.692,15.045 C173.004,15.236 173.385,15.331 173.836,15.331 C174.633,15.331 175.179,15.071 175.474,14.551 L175.474,13.875 ZM167.895,42.384 C166.794,43.519 165.351,44.087 163.566,44.087 C161.798,44.087 160.359,43.519 159.250,42.384 C158.141,41.249 157.586,39.780 157.586,37.977 C157.586,36.174 158.141,34.705 159.250,33.570 C160.359,32.435 161.798,31.867 163.566,31.867 C165.351,31.867 166.794,32.435 167.895,33.570 C168.996,34.705 169.546,36.174 169.546,37.977 C169.546,39.780 168.996,41.249 167.895,42.384 ZM165.022,35.975 C164.675,35.472 164.190,35.221 163.566,35.221 C162.959,35.221 162.483,35.472 162.136,35.975 C161.789,36.478 161.616,37.145 161.616,37.977 C161.616,38.792 161.789,39.450 162.136,39.953 C162.483,40.456 162.959,40.707 163.566,40.707 C164.190,40.707 164.675,40.460 165.022,39.966 C165.369,39.472 165.542,38.809 165.542,37.977 C165.542,37.145 165.369,36.478 165.022,35.975 ZM165.438,17.827 L161.382,17.827 L161.382,9.299 L159.354,9.299 L159.354,6.127 L161.382,6.127 L161.382,2.903 L165.438,2.903 L165.438,6.127 L167.726,6.127 L167.726,9.299 L165.438,9.299 L165.438,17.827 ZM155.663,5.139 C155.021,5.139 154.475,4.935 154.025,4.528 C153.574,4.121 153.349,3.596 153.349,2.955 C153.349,2.296 153.574,1.763 154.025,1.356 C154.475,0.949 155.021,0.745 155.663,0.745 C156.304,0.745 156.850,0.949 157.301,1.356 C157.751,1.763 157.977,2.296 157.977,2.955 C157.977,3.596 157.751,4.121 157.301,4.528 C156.850,4.935 156.304,5.139 155.663,5.139 ZM153.609,6.127 L157.691,6.127 L157.691,17.827 L153.609,17.827 L153.609,6.127 ZM156.312,32.699 L156.312,36.131 C155.549,35.576 154.709,35.299 153.790,35.299 C153.010,35.299 152.364,35.533 151.853,36.001 C151.342,36.469 151.086,37.128 151.086,37.977 C151.086,38.826 151.342,39.485 151.853,39.953 C152.364,40.421 153.010,40.655 153.790,40.655 C154.709,40.655 155.549,40.378 156.312,39.823 L156.312,43.255 C155.532,43.810 154.483,44.087 153.166,44.087 C151.381,44.087 149.916,43.532 148.772,42.423 C147.628,41.314 147.056,39.832 147.056,37.977 C147.056,36.122 147.628,34.640 148.772,33.531 C149.916,32.422 151.381,31.867 153.166,31.867 C154.483,31.867 155.532,32.144 156.312,32.699 ZM146.693,18.087 C146.121,18.087 145.570,17.970 145.042,17.736 C144.513,17.502 144.101,17.220 143.807,16.891 L143.807,21.961 L139.725,21.961 L139.725,6.127 L143.807,6.127 L143.807,7.063 C144.101,6.734 144.513,6.452 145.042,6.218 C145.570,5.984 146.121,5.867 146.693,5.867 C148.322,5.867 149.600,6.448 150.528,7.609 C151.455,8.770 151.919,10.226 151.919,11.977 C151.919,13.710 151.455,15.162 150.528,16.332 C149.600,17.502 148.322,18.087 146.693,18.087 ZM147.239,10.066 C146.840,9.572 146.294,9.325 145.601,9.325 C144.769,9.325 144.171,9.689 143.807,10.417 L143.807,13.511 C144.153,14.239 144.751,14.603 145.601,14.603 C146.294,14.603 146.840,14.356 147.239,13.862 C147.637,13.368 147.837,12.740 147.837,11.977 C147.837,11.197 147.637,10.560 147.239,10.066 ZM140.088,43.827 L136.032,43.827 L136.032,37.145 C136.032,36.642 135.902,36.239 135.642,35.936 C135.382,35.633 135.001,35.481 134.498,35.481 C134.082,35.481 133.722,35.594 133.419,35.819 C133.116,36.044 132.912,36.356 132.808,36.755 L132.808,43.827 L128.726,43.827 L128.726,26.927 L132.808,26.927 L132.808,33.141 C133.571,32.292 134.619,31.867 135.954,31.867 C137.237,31.867 138.246,32.253 138.983,33.024 C139.720,33.795 140.088,34.840 140.088,36.157 L140.088,43.827 ZM133.355,10.365 L134.421,10.677 C135.704,11.024 136.618,11.479 137.164,12.042 C137.710,12.605 137.983,13.381 137.983,14.369 C137.983,15.582 137.519,16.505 136.592,17.138 C135.665,17.771 134.447,18.087 132.939,18.087 C131.084,18.087 129.602,17.714 128.493,16.969 L128.493,13.537 C129.030,13.970 129.698,14.326 130.495,14.603 C131.292,14.880 132.003,15.019 132.627,15.019 C133.511,15.019 133.953,14.785 133.953,14.317 C133.953,13.936 133.598,13.667 132.887,13.511 L131.977,13.277 C129.620,12.774 128.441,11.578 128.441,9.689 C128.441,8.493 128.883,7.557 129.767,6.881 C130.651,6.205 131.804,5.867 133.225,5.867 C134.820,5.867 136.180,6.214 137.307,6.907 L137.307,10.261 C136.059,9.360 134.828,8.909 133.615,8.909 C132.835,8.909 132.445,9.143 132.445,9.611 C132.445,9.819 132.519,9.975 132.666,10.079 C132.813,10.183 133.043,10.278 133.355,10.365 ZM121.135,18.087 C119.367,18.087 117.928,17.519 116.819,16.384 C115.710,15.249 115.155,13.780 115.155,11.977 C115.155,10.174 115.710,8.705 116.819,7.570 C117.928,6.435 119.367,5.867 121.135,5.867 C122.920,5.867 124.363,6.435 125.464,7.570 C126.565,8.705 127.115,10.174 127.115,11.977 C127.115,13.780 126.565,15.249 125.464,16.384 C124.363,17.519 122.920,18.087 121.135,18.087 ZM122.591,9.975 C122.244,9.472 121.759,9.221 121.135,9.221 C120.528,9.221 120.052,9.472 119.705,9.975 C119.358,10.478 119.185,11.145 119.185,11.977 C119.185,12.792 119.358,13.450 119.705,13.953 C120.052,14.456 120.528,14.707 121.135,14.707 C121.759,14.707 122.244,14.460 122.591,13.966 C122.938,13.472 123.111,12.809 123.111,11.977 C123.111,11.145 122.938,10.478 122.591,9.975 ZM109.202,11.509 L103.040,11.509 L103.040,17.827 L98.854,17.827 L98.854,1.863 L103.040,1.863 L103.040,7.921 L109.202,7.921 L109.202,1.863 L113.388,1.863 L113.388,17.827 L109.202,17.827 L109.202,11.509 ZM94.408,40.889 C95.621,40.889 96.748,40.577 97.788,39.953 L97.788,43.047 C96.852,43.740 95.508,44.087 93.758,44.087 C91.868,44.087 90.347,43.550 89.195,42.475 C88.042,41.400 87.466,39.927 87.466,38.055 C87.466,36.235 88.003,34.749 89.078,33.596 C90.152,32.443 91.504,31.867 93.134,31.867 C94.902,31.867 96.258,32.396 97.203,33.453 C98.147,34.510 98.620,35.932 98.620,37.717 L98.620,38.913 L91.418,38.913 C91.730,40.230 92.726,40.889 94.408,40.889 ZM94.980,36.625 C94.928,36.122 94.754,35.719 94.460,35.416 C94.165,35.113 93.775,34.961 93.290,34.961 C92.371,34.961 91.764,35.516 91.470,36.625 L94.980,36.625 ZM89.494,17.827 L85.438,17.827 L85.438,9.299 L83.410,9.299 L83.410,6.127 L85.438,6.127 L85.438,2.903 L89.494,2.903 L89.494,6.127 L91.782,6.127 L91.782,9.299 L89.494,9.299 L89.494,17.827 ZM85.828,36.157 L85.828,43.827 L81.772,43.827 L81.772,37.145 C81.772,36.642 81.642,36.239 81.382,35.936 C81.122,35.633 80.740,35.481 80.238,35.481 C79.822,35.481 79.462,35.594 79.159,35.819 C78.855,36.044 78.652,36.356 78.548,36.755 L78.548,43.827 L74.466,43.827 L74.466,26.927 L78.548,26.927 L78.548,33.141 C79.310,32.292 80.359,31.867 81.694,31.867 C82.976,31.867 83.986,32.253 84.723,33.024 C85.459,33.795 85.828,34.840 85.828,36.157 ZM77.690,16.813 C76.962,17.662 75.922,18.087 74.570,18.087 C73.287,18.087 72.282,17.701 71.554,16.930 C70.826,16.159 70.462,15.114 70.462,13.797 L70.462,6.127 L74.518,6.127 L74.518,12.835 C74.518,13.962 75.021,14.525 76.026,14.525 C76.407,14.525 76.754,14.408 77.066,14.174 C77.378,13.940 77.586,13.624 77.690,13.225 L77.690,6.127 L81.772,6.127 L81.772,17.827 L77.690,17.827 L77.690,16.813 ZM62.818,18.087 C61.050,18.087 59.611,17.519 58.502,16.384 C57.393,15.249 56.838,13.780 56.838,11.977 C56.838,10.174 57.393,8.705 58.502,7.570 C59.611,6.435 61.050,5.867 62.818,5.867 C64.603,5.867 66.046,6.435 67.147,7.570 C68.248,8.705 68.798,10.174 68.798,11.977 C68.798,13.780 68.248,15.249 67.147,16.384 C66.046,17.519 64.603,18.087 62.818,18.087 ZM64.274,9.975 C63.927,9.472 63.442,9.221 62.818,9.221 C62.211,9.221 61.735,9.472 61.388,9.975 C61.041,10.478 60.868,11.145 60.868,11.977 C60.868,12.792 61.041,13.450 61.388,13.953 C61.735,14.456 62.211,14.707 62.818,14.707 C63.442,14.707 63.927,14.460 64.274,13.966 C64.621,13.472 64.794,12.809 64.794,11.977 C64.794,11.145 64.621,10.478 64.274,9.975 ZM52.158,43.229 C51.950,43.437 51.586,43.623 51.066,43.788 C50.546,43.952 49.991,44.035 49.402,44.035 C48.189,44.035 47.170,43.701 46.347,43.034 C45.524,42.367 45.112,41.444 45.112,40.265 C45.112,39.156 45.541,38.259 46.399,37.574 C47.257,36.889 48.327,36.547 49.610,36.547 C50.702,36.547 51.551,36.764 52.158,37.197 L52.158,36.781 C52.158,36.313 51.946,35.936 51.521,35.650 C51.096,35.364 50.477,35.221 49.662,35.221 C48.483,35.221 47.417,35.498 46.464,36.053 L46.464,32.777 C47.591,32.170 48.986,31.867 50.650,31.867 C52.383,31.867 53.722,32.270 54.667,33.076 C55.612,33.882 56.084,35.056 56.084,36.599 L56.084,43.827 L52.158,43.827 L52.158,43.229 ZM52.158,39.875 C51.881,39.338 51.335,39.069 50.520,39.069 C50.069,39.069 49.688,39.164 49.376,39.355 C49.064,39.546 48.908,39.823 48.908,40.187 C48.908,40.568 49.064,40.854 49.376,41.045 C49.688,41.236 50.069,41.331 50.520,41.331 C51.317,41.331 51.863,41.071 52.158,40.551 L52.158,39.875 ZM46.153,14.889 C47.366,14.889 48.493,14.577 49.533,13.953 L49.533,17.047 C48.597,17.740 47.253,18.087 45.503,18.087 C43.613,18.087 42.092,17.550 40.940,16.475 C39.787,15.400 39.211,13.927 39.211,12.055 C39.211,10.235 39.748,8.749 40.823,7.596 C41.897,6.443 43.249,5.867 44.879,5.867 C46.647,5.867 48.003,6.396 48.948,7.453 C49.892,8.510 50.365,9.932 50.365,11.717 L50.365,12.913 L43.163,12.913 C43.475,14.230 44.471,14.889 46.153,14.889 ZM46.725,10.625 C46.673,10.122 46.499,9.719 46.205,9.416 C45.910,9.113 45.520,8.961 45.035,8.961 C44.116,8.961 43.509,9.516 43.215,10.625 L46.725,10.625 ZM34.505,17.827 L30.969,12.705 L30.969,17.827 L26.887,17.827 L26.887,0.927 L30.969,0.927 L30.969,10.547 L34.297,6.127 L38.977,6.127 L34.635,11.535 L39.081,17.827 L34.505,17.827 ZM28.525,28.903 L32.581,28.903 L32.581,32.127 L34.869,32.127 L34.869,35.299 L32.581,35.299 L32.581,43.827 L28.525,43.827 L28.525,35.299 L26.497,35.299 L26.497,32.127 L28.525,32.127 L28.525,28.903 ZM21.427,43.827 L19.425,40.785 L17.423,43.827 L13.211,43.827 L17.293,37.873 L13.393,32.127 L17.787,32.127 L19.607,34.935 L21.453,32.127 L25.665,32.127 L21.739,37.847 L25.847,43.827 L21.427,43.827 ZM20.725,17.229 C20.517,17.437 20.153,17.623 19.633,17.788 C19.113,17.952 18.558,18.035 17.969,18.035 C16.755,18.035 15.737,17.701 14.914,17.034 C14.090,16.367 13.679,15.444 13.679,14.265 C13.679,13.156 14.108,12.259 14.966,11.574 C15.824,10.889 16.894,10.547 18.177,10.547 C19.269,10.547 20.118,10.764 20.725,11.197 L20.725,10.781 C20.725,10.313 20.512,9.936 20.088,9.650 C19.663,9.364 19.043,9.221 18.229,9.221 C17.050,9.221 15.984,9.498 15.031,10.053 L15.031,6.777 C16.157,6.170 17.553,5.867 19.217,5.867 C20.950,5.867 22.289,6.270 23.234,7.076 C24.178,7.882 24.651,9.056 24.651,10.599 L24.651,17.827 L20.725,17.827 L20.725,17.229 ZM20.725,13.875 C20.447,13.338 19.901,13.069 19.087,13.069 C18.636,13.069 18.255,13.164 17.943,13.355 C17.631,13.546 17.475,13.823 17.475,14.187 C17.475,14.568 17.631,14.854 17.943,15.045 C18.255,15.236 18.636,15.331 19.087,15.331 C19.884,15.331 20.430,15.071 20.725,14.551 L20.725,13.875 ZM9.103,17.827 L4.917,17.827 L4.917,5.451 L0.003,5.451 L0.003,1.863 L14.043,1.863 L14.043,5.451 L9.103,5.451 L9.103,17.827 ZM12.093,31.451 L4.787,31.451 L4.787,33.947 L11.469,33.947 L11.469,37.457 L4.787,37.457 L4.787,40.213 L12.093,40.213 L12.093,43.827 L0.679,43.827 L0.679,27.863 L12.093,27.863 L12.093,31.451 ZM40.588,33.167 C41.229,32.300 42.113,31.867 43.240,31.867 C43.743,31.867 44.115,31.936 44.358,32.075 L44.358,36.001 C43.890,35.758 43.327,35.637 42.668,35.637 C41.507,35.637 40.813,36.079 40.588,36.963 L40.588,43.827 L36.506,43.827 L36.506,32.127 L40.588,32.127 L40.588,33.167 ZM61.388,39.277 C59.030,38.774 57.852,37.578 57.852,35.689 C57.852,34.493 58.294,33.557 59.178,32.881 C60.062,32.205 61.214,31.867 62.636,31.867 C64.230,31.867 65.591,32.214 66.718,32.907 L66.718,36.261 C65.470,35.360 64.239,34.909 63.026,34.909 C62.246,34.909 61.856,35.143 61.856,35.611 C61.856,35.819 61.929,35.975 62.077,36.079 C62.224,36.183 62.454,36.278 62.766,36.365 L63.832,36.677 C65.114,37.024 66.029,37.479 66.575,38.042 C67.121,38.605 67.394,39.381 67.394,40.369 C67.394,41.582 66.930,42.505 66.003,43.138 C65.075,43.771 63.858,44.087 62.350,44.087 C60.495,44.087 59.013,43.714 57.904,42.969 L57.904,39.537 C58.441,39.970 59.108,40.326 59.906,40.603 C60.703,40.880 61.414,41.019 62.038,41.019 C62.922,41.019 63.364,40.785 63.364,40.317 C63.364,39.936 63.008,39.667 62.298,39.511 L61.388,39.277 ZM104.261,36.547 C105.353,36.547 106.202,36.764 106.809,37.197 L106.809,36.781 C106.809,36.313 106.597,35.936 106.172,35.650 C105.747,35.364 105.128,35.221 104.313,35.221 C103.134,35.221 102.068,35.498 101.115,36.053 L101.115,32.777 C102.242,32.170 103.637,31.867 105.301,31.867 C107.034,31.867 108.373,32.270 109.318,33.076 C110.263,33.882 110.735,35.056 110.735,36.599 L110.735,43.827 L106.809,43.827 L106.809,43.229 C106.601,43.437 106.237,43.623 105.717,43.788 C105.197,43.952 104.642,44.035 104.053,44.035 C102.840,44.035 101.821,43.701 100.998,43.034 C100.175,42.367 99.763,41.444 99.763,40.265 C99.763,39.156 100.192,38.259 101.050,37.574 C101.908,36.889 102.978,36.547 104.261,36.547 ZM104.027,41.045 C104.339,41.236 104.720,41.331 105.171,41.331 C105.968,41.331 106.514,41.071 106.809,40.551 L106.809,39.875 C106.532,39.338 105.986,39.069 105.171,39.069 C104.720,39.069 104.339,39.164 104.027,39.355 C103.715,39.546 103.559,39.823 103.559,40.187 C103.559,40.568 103.715,40.854 104.027,41.045 ZM117.053,43.827 L112.971,43.827 L112.971,26.927 L117.053,26.927 L117.053,43.827 ZM120.745,28.903 L124.801,28.903 L124.801,32.127 L127.089,32.127 L127.089,35.299 L124.801,35.299 L124.801,43.827 L120.745,43.827 L120.745,35.299 L118.717,35.299 L118.717,32.127 L120.745,32.127 L120.745,28.903 ZM176.254,38.835 L178.438,32.127 L182.442,32.127 L177.970,43.827 L174.304,43.827 L169.858,32.127 L174.018,32.127 L176.254,38.835 ZM199.706,33.167 C200.347,32.300 201.231,31.867 202.358,31.867 C202.860,31.867 203.233,31.936 203.476,32.075 L203.476,36.001 C203.008,35.758 202.444,35.637 201.786,35.637 C200.624,35.637 199.931,36.079 199.706,36.963 L199.706,43.827 L195.624,43.827 L195.624,32.127 L199.706,32.127 L199.706,33.167 Z"/>
</svg>