<svg 
 xmlns="http://www.w3.org/2000/svg"
 xmlns:xlink="http://www.w3.org/1999/xlink"
 width="196px" height="30px">
<defs>
<linearGradient id="PSgrad_0" x1="0%" x2="64.279%" y1="0%" y2="76.604%">
  <stop offset="0%" stop-color="rgb(238,117,24)" stop-opacity="0.95" />
  <stop offset="100%" stop-color="rgb(253,91,47)" stop-opacity="0.95" />
</linearGradient>

</defs>
<path fill-rule="evenodd"  fill="rgb(227, 114, 34)"
 d="M195.137,26.374 C194.849,26.662 194.497,26.806 194.081,26.806 C193.675,26.806 193.329,26.662 193.041,26.374 C192.753,26.086 192.609,25.729 192.609,25.302 C192.609,24.886 192.750,24.534 193.033,24.246 C193.315,23.958 193.665,23.814 194.081,23.814 C194.497,23.814 194.849,23.956 195.137,24.238 C195.425,24.521 195.569,24.876 195.569,25.302 C195.569,25.729 195.425,26.086 195.137,26.374 ZM186.865,29.238 L187.921,26.518 L185.233,19.494 L187.841,19.494 L189.217,23.590 L190.561,19.494 L193.057,19.494 L189.345,29.238 L186.865,29.238 ZM181.841,16.294 L184.353,16.294 L184.353,26.694 L181.841,26.694 L181.841,16.294 ZM177.905,26.070 C177.457,26.593 176.817,26.854 175.985,26.854 C175.195,26.854 174.577,26.617 174.129,26.142 C173.681,25.668 173.457,25.025 173.457,24.214 L173.457,19.494 L175.953,19.494 L175.953,23.622 C175.953,24.316 176.262,24.662 176.881,24.662 C177.115,24.662 177.329,24.590 177.521,24.446 C177.713,24.302 177.841,24.108 177.905,23.862 L177.905,19.494 L180.417,19.494 L180.417,26.694 L177.905,26.694 L177.905,26.070 ZM168.641,26.854 C167.755,26.854 167.009,26.662 166.401,26.278 L166.401,23.862 C167.073,24.310 167.702,24.534 168.289,24.534 C168.769,24.534 169.099,24.398 169.281,24.126 C169.462,23.854 169.553,23.404 169.553,22.774 L169.553,16.870 L172.129,16.870 L172.129,23.238 C172.129,24.465 171.825,25.374 171.217,25.966 C170.609,26.558 169.750,26.854 168.641,26.854 ZM159.313,19.654 L157.025,20.758 L157.025,18.326 L160.081,16.870 L161.809,16.870 L161.809,26.694 L159.313,26.694 L159.313,19.654 ZM156.417,23.510 C156.417,24.534 156.070,25.348 155.377,25.950 C154.684,26.553 153.820,26.854 152.785,26.854 C151.633,26.854 150.657,26.577 149.857,26.022 L149.857,23.670 C150.668,24.396 151.553,24.758 152.513,24.758 C153.526,24.758 154.033,24.348 154.033,23.526 C154.033,23.025 153.801,22.657 153.337,22.422 C152.873,22.188 152.289,22.092 151.585,22.134 L151.585,22.086 L153.105,19.078 L149.905,19.078 L149.905,16.870 L156.433,16.870 L156.433,16.918 L154.513,20.742 C155.782,21.286 156.417,22.209 156.417,23.510 ZM139.841,29.238 L140.897,26.518 L138.209,19.494 L140.817,19.494 L142.193,23.590 L143.537,19.494 L146.033,19.494 L142.321,29.238 L139.841,29.238 ZM140.689,10.273 C140.508,10.476 140.254,10.649 139.929,10.793 C139.604,10.937 139.265,11.009 138.913,11.009 C137.910,11.009 137.124,10.655 136.553,9.945 C135.982,9.236 135.697,8.337 135.697,7.249 C135.697,6.161 135.982,5.263 136.553,4.553 C137.124,3.844 137.910,3.489 138.913,3.489 C139.265,3.489 139.604,3.561 139.929,3.705 C140.254,3.849 140.508,4.023 140.689,4.225 L140.689,0.449 L143.201,0.449 L143.201,10.849 L140.689,10.849 L140.689,10.273 ZM140.689,6.289 C140.593,6.097 140.444,5.937 140.241,5.809 C140.038,5.681 139.820,5.617 139.585,5.617 C139.158,5.617 138.822,5.769 138.577,6.073 C138.332,6.377 138.209,6.769 138.209,7.249 C138.209,7.719 138.332,8.105 138.577,8.409 C138.822,8.713 139.158,8.865 139.585,8.865 C140.108,8.865 140.476,8.641 140.689,8.193 L140.689,6.289 ZM138.033,23.094 C138.033,24.182 137.748,25.081 137.177,25.790 C136.606,26.500 135.820,26.854 134.817,26.854 C134.465,26.854 134.127,26.782 133.801,26.638 C133.476,26.494 133.223,26.321 133.041,26.118 L133.041,26.694 L130.529,26.694 L130.529,16.294 L133.041,16.294 L133.041,20.070 C133.223,19.868 133.476,19.694 133.801,19.550 C134.127,19.406 134.465,19.334 134.817,19.334 C135.820,19.334 136.606,19.689 137.177,20.398 C137.748,21.108 138.033,22.006 138.033,23.094 ZM135.153,21.918 C134.908,21.614 134.572,21.462 134.145,21.462 C133.911,21.462 133.692,21.526 133.489,21.654 C133.287,21.782 133.137,21.942 133.041,22.134 L133.041,24.038 C133.254,24.486 133.623,24.710 134.145,24.710 C134.572,24.710 134.908,24.558 135.153,24.254 C135.399,23.950 135.521,23.564 135.521,23.094 C135.521,22.614 135.399,22.222 135.153,21.918 ZM132.193,6.737 C132.193,6.428 132.113,6.180 131.953,5.993 C131.793,5.807 131.559,5.713 131.249,5.713 C130.993,5.713 130.772,5.783 130.585,5.921 C130.399,6.060 130.273,6.252 130.209,6.497 L130.209,10.849 L127.697,10.849 L127.697,3.649 L130.209,3.649 L130.209,4.273 C130.679,3.751 131.324,3.489 132.145,3.489 C132.935,3.489 133.556,3.727 134.009,4.201 C134.463,4.676 134.689,5.319 134.689,6.129 L134.689,10.849 L132.193,10.849 L132.193,6.737 ZM123.905,10.481 C123.777,10.609 123.553,10.724 123.233,10.825 C122.913,10.927 122.572,10.977 122.209,10.977 C121.463,10.977 120.836,10.772 120.329,10.361 C119.823,9.951 119.569,9.383 119.569,8.657 C119.569,7.975 119.833,7.423 120.361,7.001 C120.889,6.580 121.548,6.369 122.337,6.369 C123.009,6.369 123.532,6.503 123.905,6.769 L123.905,6.513 C123.905,6.225 123.775,5.993 123.513,5.817 C123.252,5.641 122.871,5.553 122.369,5.553 C121.644,5.553 120.988,5.724 120.401,6.065 L120.401,4.049 C121.095,3.676 121.953,3.489 122.977,3.489 C124.044,3.489 124.868,3.737 125.449,4.233 C126.031,4.729 126.321,5.452 126.321,6.401 L126.321,10.849 L123.905,10.849 L123.905,10.481 ZM123.905,8.417 C123.735,8.087 123.399,7.921 122.897,7.921 C122.620,7.921 122.385,7.980 122.193,8.097 C122.001,8.215 121.905,8.385 121.905,8.609 C121.905,8.844 122.001,9.020 122.193,9.137 C122.385,9.255 122.620,9.313 122.897,9.313 C123.388,9.313 123.724,9.153 123.905,8.833 L123.905,8.417 ZM120.242,23.670 L115.810,23.670 C116.002,24.481 116.615,24.886 117.650,24.886 C118.396,24.886 119.090,24.694 119.730,24.310 L119.730,26.214 C119.154,26.641 118.327,26.854 117.250,26.854 C116.087,26.854 115.151,26.524 114.442,25.862 C113.732,25.201 113.378,24.294 113.378,23.142 C113.378,22.022 113.708,21.108 114.370,20.398 C115.031,19.689 115.863,19.334 116.866,19.334 C117.954,19.334 118.788,19.660 119.370,20.310 C119.951,20.961 120.242,21.836 120.242,22.934 L120.242,23.670 ZM117.682,21.518 C117.500,21.332 117.260,21.238 116.962,21.238 C116.396,21.238 116.023,21.580 115.842,22.262 L118.002,22.262 C117.970,21.953 117.863,21.705 117.682,21.518 ZM112.722,0.449 L115.234,0.449 L115.234,10.849 L112.722,10.849 L112.722,0.449 ZM108.930,10.481 C108.802,10.609 108.578,10.724 108.258,10.825 C107.938,10.927 107.596,10.977 107.234,10.977 C106.487,10.977 105.860,10.772 105.354,10.361 C104.847,9.951 104.594,9.383 104.594,8.657 C104.594,7.975 104.858,7.423 105.386,7.001 C105.914,6.580 106.572,6.369 107.362,6.369 C108.034,6.369 108.556,6.503 108.930,6.769 L108.930,6.513 C108.930,6.225 108.799,5.993 108.538,5.817 C108.276,5.641 107.895,5.553 107.394,5.553 C106.668,5.553 106.012,5.724 105.426,6.065 L105.426,4.049 C106.119,3.676 106.978,3.489 108.002,3.489 C109.068,3.489 109.892,3.737 110.474,4.233 C111.055,4.729 111.346,5.452 111.346,6.401 L111.346,10.849 L108.930,10.849 L108.930,10.481 ZM108.930,8.417 C108.759,8.087 108.423,7.921 107.922,7.921 C107.644,7.921 107.410,7.980 107.218,8.097 C107.026,8.215 106.930,8.385 106.930,8.609 C106.930,8.844 107.026,9.020 107.218,9.137 C107.410,9.255 107.644,9.313 107.922,9.313 C108.412,9.313 108.748,9.153 108.930,8.833 L108.930,8.417 ZM104.266,25.806 C103.588,26.505 102.700,26.854 101.602,26.854 C100.514,26.854 99.628,26.505 98.946,25.806 C98.263,25.108 97.922,24.204 97.922,23.094 C97.922,21.985 98.263,21.081 98.946,20.382 C99.628,19.684 100.514,19.334 101.602,19.334 C102.700,19.334 103.588,19.684 104.266,20.382 C104.943,21.081 105.282,21.985 105.282,23.094 C105.282,24.204 104.943,25.108 104.266,25.806 ZM102.498,21.862 C102.284,21.553 101.986,21.398 101.602,21.398 C101.228,21.398 100.935,21.553 100.722,21.862 C100.508,22.172 100.402,22.582 100.402,23.094 C100.402,23.596 100.508,24.001 100.722,24.310 C100.935,24.620 101.228,24.774 101.602,24.774 C101.986,24.774 102.284,24.622 102.498,24.318 C102.711,24.014 102.818,23.606 102.818,23.094 C102.818,22.582 102.711,22.172 102.498,21.862 ZM102.754,10.849 L100.258,10.849 L100.258,5.601 L99.010,5.601 L99.010,3.649 L100.258,3.649 L100.258,1.665 L102.754,1.665 L102.754,3.649 L104.162,3.649 L104.162,5.601 L102.754,5.601 L102.754,10.849 ZM96.738,3.041 C96.343,3.041 96.007,2.916 95.730,2.665 C95.453,2.415 95.314,2.092 95.314,1.697 C95.314,1.292 95.453,0.964 95.730,0.713 C96.007,0.463 96.343,0.337 96.738,0.337 C97.133,0.337 97.469,0.463 97.746,0.713 C98.023,0.964 98.162,1.292 98.162,1.697 C98.162,2.092 98.023,2.415 97.746,2.665 C97.469,2.916 97.133,3.041 96.738,3.041 ZM95.474,3.649 L97.986,3.649 L97.986,10.849 L95.474,10.849 L95.474,3.649 ZM97.138,19.846 L97.138,21.958 C96.668,21.617 96.151,21.446 95.586,21.446 C95.106,21.446 94.708,21.590 94.394,21.878 C94.079,22.166 93.922,22.572 93.922,23.094 C93.922,23.617 94.079,24.022 94.394,24.310 C94.708,24.598 95.106,24.742 95.586,24.742 C96.151,24.742 96.668,24.572 97.138,24.230 L97.138,26.342 C96.658,26.684 96.012,26.854 95.202,26.854 C94.103,26.854 93.202,26.513 92.498,25.830 C91.794,25.148 91.442,24.236 91.442,23.094 C91.442,21.953 91.794,21.041 92.498,20.358 C93.202,19.676 94.103,19.334 95.202,19.334 C96.012,19.334 96.658,19.505 97.138,19.846 ZM91.218,11.009 C90.866,11.009 90.527,10.937 90.202,10.793 C89.877,10.649 89.623,10.476 89.442,10.273 L89.442,13.393 L86.930,13.393 L86.930,3.649 L89.442,3.649 L89.442,4.225 C89.623,4.023 89.877,3.849 90.202,3.705 C90.527,3.561 90.866,3.489 91.218,3.489 C92.221,3.489 93.007,3.847 93.578,4.561 C94.149,5.276 94.434,6.172 94.434,7.249 C94.434,8.316 94.149,9.209 93.578,9.929 C93.007,10.649 92.221,11.009 91.218,11.009 ZM91.554,6.073 C91.309,5.769 90.973,5.617 90.546,5.617 C90.034,5.617 89.666,5.841 89.442,6.289 L89.442,8.193 C89.655,8.641 90.024,8.865 90.546,8.865 C90.973,8.865 91.309,8.713 91.554,8.409 C91.800,8.105 91.922,7.719 91.922,7.249 C91.922,6.769 91.800,6.377 91.554,6.073 ZM87.154,26.694 L84.658,26.694 L84.658,22.582 C84.658,22.273 84.578,22.025 84.418,21.838 C84.258,21.652 84.023,21.558 83.714,21.558 C83.458,21.558 83.236,21.628 83.050,21.766 C82.863,21.905 82.738,22.097 82.674,22.342 L82.674,26.694 L80.162,26.694 L80.162,16.294 L82.674,16.294 L82.674,20.118 C83.143,19.596 83.788,19.334 84.610,19.334 C85.399,19.334 86.020,19.572 86.474,20.046 C86.927,20.521 87.154,21.164 87.154,21.974 L87.154,26.694 ZM83.010,6.257 L83.666,6.449 C84.456,6.663 85.018,6.943 85.354,7.289 C85.690,7.636 85.858,8.113 85.858,8.721 C85.858,9.468 85.573,10.036 85.002,10.425 C84.432,10.815 83.682,11.009 82.754,11.009 C81.613,11.009 80.701,10.780 80.018,10.321 L80.018,8.209 C80.349,8.476 80.760,8.695 81.250,8.865 C81.741,9.036 82.178,9.121 82.562,9.121 C83.106,9.121 83.378,8.977 83.378,8.689 C83.378,8.455 83.160,8.289 82.722,8.193 L82.162,8.049 C80.712,7.740 79.986,7.004 79.986,5.841 C79.986,5.105 80.258,4.529 80.802,4.113 C81.346,3.697 82.056,3.489 82.930,3.489 C83.912,3.489 84.749,3.703 85.442,4.129 L85.442,6.193 C84.674,5.639 83.917,5.361 83.170,5.361 C82.690,5.361 82.450,5.505 82.450,5.793 C82.450,5.921 82.496,6.017 82.586,6.081 C82.677,6.145 82.818,6.204 83.010,6.257 ZM75.491,11.009 C74.403,11.009 73.517,10.660 72.835,9.961 C72.152,9.263 71.811,8.359 71.811,7.249 C71.811,6.140 72.152,5.236 72.835,4.537 C73.517,3.839 74.403,3.489 75.491,3.489 C76.589,3.489 77.477,3.839 78.155,4.537 C78.832,5.236 79.171,6.140 79.171,7.249 C79.171,8.359 78.832,9.263 78.155,9.961 C77.477,10.660 76.589,11.009 75.491,11.009 ZM76.387,6.017 C76.173,5.708 75.875,5.553 75.491,5.553 C75.117,5.553 74.824,5.708 74.611,6.017 C74.397,6.327 74.291,6.737 74.291,7.249 C74.291,7.751 74.397,8.156 74.611,8.465 C74.824,8.775 75.117,8.929 75.491,8.929 C75.875,8.929 76.173,8.777 76.387,8.473 C76.600,8.169 76.707,7.761 76.707,7.249 C76.707,6.737 76.600,6.327 76.387,6.017 ZM68.147,6.961 L64.355,6.961 L64.355,10.849 L61.779,10.849 L61.779,1.025 L64.355,1.025 L64.355,4.753 L68.147,4.753 L68.147,1.025 L70.723,1.025 L70.723,10.849 L68.147,10.849 L68.147,6.961 ZM59.043,24.886 C59.789,24.886 60.483,24.694 61.123,24.310 L61.123,26.214 C60.547,26.641 59.720,26.854 58.643,26.854 C57.480,26.854 56.544,26.524 55.835,25.862 C55.125,25.201 54.771,24.294 54.771,23.142 C54.771,22.022 55.101,21.108 55.763,20.398 C56.424,19.689 57.256,19.334 58.259,19.334 C59.347,19.334 60.181,19.660 60.763,20.310 C61.344,20.961 61.635,21.836 61.635,22.934 L61.635,23.670 L57.203,23.670 C57.395,24.481 58.008,24.886 59.043,24.886 ZM59.395,22.262 C59.363,21.953 59.256,21.705 59.075,21.518 C58.893,21.332 58.653,21.238 58.355,21.238 C57.789,21.238 57.416,21.580 57.235,22.262 L59.395,22.262 ZM56.019,10.849 L53.523,10.849 L53.523,5.601 L52.275,5.601 L52.275,3.649 L53.523,3.649 L53.523,1.665 L56.019,1.665 L56.019,3.649 L57.427,3.649 L57.427,5.601 L56.019,5.601 L56.019,10.849 ZM53.763,21.974 L53.763,26.694 L51.267,26.694 L51.267,22.582 C51.267,22.273 51.187,22.025 51.027,21.838 C50.867,21.652 50.632,21.558 50.323,21.558 C50.067,21.558 49.845,21.628 49.659,21.766 C49.472,21.905 49.347,22.097 49.283,22.342 L49.283,26.694 L46.771,26.694 L46.771,16.294 L49.283,16.294 L49.283,20.118 C49.752,19.596 50.397,19.334 51.219,19.334 C52.008,19.334 52.629,19.572 53.083,20.046 C53.536,20.521 53.763,21.164 53.763,21.974 ZM48.755,10.225 C48.307,10.748 47.667,11.009 46.835,11.009 C46.045,11.009 45.427,10.772 44.979,10.297 C44.531,9.823 44.307,9.180 44.307,8.369 L44.307,3.649 L46.803,3.649 L46.803,7.777 C46.803,8.471 47.112,8.817 47.731,8.817 C47.965,8.817 48.179,8.745 48.371,8.601 C48.563,8.457 48.691,8.263 48.755,8.017 L48.755,3.649 L51.267,3.649 L51.267,10.849 L48.755,10.849 L48.755,10.225 ZM39.603,11.009 C38.515,11.009 37.630,10.660 36.947,9.961 C36.264,9.263 35.923,8.359 35.923,7.249 C35.923,6.140 36.264,5.236 36.947,4.537 C37.630,3.839 38.515,3.489 39.603,3.489 C40.702,3.489 41.590,3.839 42.267,4.537 C42.944,5.236 43.283,6.140 43.283,7.249 C43.283,8.359 42.944,9.263 42.267,9.961 C41.590,10.660 40.702,11.009 39.603,11.009 ZM40.499,6.017 C40.286,5.708 39.987,5.553 39.603,5.553 C39.230,5.553 38.936,5.708 38.723,6.017 C38.510,6.327 38.403,6.737 38.403,7.249 C38.403,7.751 38.510,8.156 38.723,8.465 C38.936,8.775 39.230,8.929 39.603,8.929 C39.987,8.929 40.286,8.777 40.499,8.473 C40.712,8.169 40.819,7.761 40.819,7.249 C40.819,6.737 40.712,6.327 40.499,6.017 ZM33.043,26.326 C32.915,26.454 32.691,26.569 32.371,26.670 C32.051,26.772 31.710,26.822 31.347,26.822 C30.600,26.822 29.974,26.617 29.467,26.206 C28.960,25.796 28.707,25.228 28.707,24.502 C28.707,23.820 28.971,23.268 29.499,22.846 C30.027,22.425 30.686,22.214 31.475,22.214 C32.147,22.214 32.670,22.348 33.043,22.614 L33.043,22.358 C33.043,22.070 32.912,21.838 32.651,21.662 C32.390,21.486 32.008,21.398 31.507,21.398 C30.782,21.398 30.126,21.569 29.539,21.910 L29.539,19.894 C30.232,19.521 31.091,19.334 32.115,19.334 C33.182,19.334 34.006,19.582 34.587,20.078 C35.168,20.574 35.459,21.297 35.459,22.246 L35.459,26.694 L33.043,26.694 L33.043,26.326 ZM33.043,24.262 C32.872,23.932 32.536,23.766 32.035,23.766 C31.758,23.766 31.523,23.825 31.331,23.942 C31.139,24.060 31.043,24.230 31.043,24.454 C31.043,24.689 31.139,24.865 31.331,24.982 C31.523,25.100 31.758,25.158 32.035,25.158 C32.526,25.158 32.862,24.998 33.043,24.678 L33.043,24.262 ZM29.347,9.041 C30.094,9.041 30.787,8.849 31.427,8.465 L31.427,10.369 C30.851,10.796 30.025,11.009 28.947,11.009 C27.785,11.009 26.849,10.679 26.139,10.017 C25.430,9.356 25.075,8.449 25.075,7.297 C25.075,6.177 25.406,5.263 26.067,4.553 C26.729,3.844 27.561,3.489 28.563,3.489 C29.651,3.489 30.486,3.815 31.067,4.465 C31.649,5.116 31.939,5.991 31.939,7.089 L31.939,7.825 L27.507,7.825 C27.699,8.636 28.313,9.041 29.347,9.041 ZM29.699,6.417 C29.667,6.108 29.561,5.860 29.379,5.673 C29.198,5.487 28.958,5.393 28.659,5.393 C28.094,5.393 27.721,5.735 27.539,6.417 L29.699,6.417 ZM22.179,10.849 L20.003,7.697 L20.003,10.849 L17.491,10.849 L17.491,0.449 L20.003,0.449 L20.003,6.369 L22.051,3.649 L24.931,3.649 L22.259,6.977 L24.995,10.849 L22.179,10.849 ZM18.499,17.510 L20.995,17.510 L20.995,19.494 L22.403,19.494 L22.403,21.446 L20.995,21.446 L20.995,26.694 L18.499,26.694 L18.499,21.446 L17.251,21.446 L17.251,19.494 L18.499,19.494 L18.499,17.510 ZM14.132,26.694 L12.900,24.822 L11.668,26.694 L9.076,26.694 L11.588,23.030 L9.188,19.494 L11.892,19.494 L13.012,21.222 L14.148,19.494 L16.740,19.494 L14.324,23.014 L16.852,26.694 L14.132,26.694 ZM13.700,10.481 C13.572,10.609 13.348,10.724 13.028,10.825 C12.708,10.927 12.366,10.977 12.004,10.977 C11.257,10.977 10.630,10.772 10.124,10.361 C9.617,9.951 9.364,9.383 9.364,8.657 C9.364,7.975 9.628,7.423 10.156,7.001 C10.684,6.580 11.342,6.369 12.132,6.369 C12.804,6.369 13.326,6.503 13.700,6.769 L13.700,6.513 C13.700,6.225 13.569,5.993 13.308,5.817 C13.046,5.641 12.665,5.553 12.164,5.553 C11.438,5.553 10.782,5.724 10.196,6.065 L10.196,4.049 C10.889,3.676 11.748,3.489 12.772,3.489 C13.838,3.489 14.662,3.737 15.244,4.233 C15.825,4.729 16.116,5.452 16.116,6.401 L16.116,10.849 L13.700,10.849 L13.700,10.481 ZM13.700,8.417 C13.529,8.087 13.193,7.921 12.692,7.921 C12.414,7.921 12.180,7.980 11.988,8.097 C11.796,8.215 11.700,8.385 11.700,8.609 C11.700,8.844 11.796,9.020 11.988,9.137 C12.180,9.255 12.414,9.313 12.692,9.313 C13.182,9.313 13.518,9.153 13.700,8.833 L13.700,8.417 ZM6.548,10.849 L3.972,10.849 L3.972,3.233 L0.948,3.233 L0.948,1.025 L9.588,1.025 L9.588,3.233 L6.548,3.233 L6.548,10.849 ZM8.388,19.078 L3.892,19.078 L3.892,20.614 L8.004,20.614 L8.004,22.774 L3.892,22.774 L3.892,24.470 L8.388,24.470 L8.388,26.694 L1.364,26.694 L1.364,16.870 L8.388,16.870 L8.388,19.078 ZM25.923,20.134 C26.318,19.601 26.862,19.334 27.555,19.334 C27.864,19.334 28.094,19.377 28.243,19.462 L28.243,21.878 C27.955,21.729 27.608,21.654 27.203,21.654 C26.488,21.654 26.062,21.926 25.923,22.470 L25.923,26.694 L23.411,26.694 L23.411,19.494 L25.923,19.494 L25.923,20.134 ZM38.723,23.894 C37.272,23.585 36.547,22.849 36.547,21.686 C36.547,20.950 36.819,20.374 37.363,19.958 C37.907,19.542 38.616,19.334 39.491,19.334 C40.472,19.334 41.309,19.548 42.003,19.974 L42.003,22.038 C41.235,21.484 40.477,21.206 39.731,21.206 C39.251,21.206 39.011,21.350 39.011,21.638 C39.011,21.766 39.056,21.862 39.147,21.926 C39.237,21.990 39.379,22.049 39.571,22.102 L40.227,22.294 C41.016,22.508 41.579,22.788 41.915,23.134 C42.251,23.481 42.419,23.958 42.419,24.566 C42.419,25.313 42.133,25.881 41.563,26.270 C40.992,26.660 40.243,26.854 39.315,26.854 C38.173,26.854 37.261,26.625 36.579,26.166 L36.579,24.054 C36.909,24.321 37.320,24.540 37.811,24.710 C38.301,24.881 38.739,24.966 39.123,24.966 C39.667,24.966 39.939,24.822 39.939,24.534 C39.939,24.300 39.720,24.134 39.283,24.038 L38.723,23.894 ZM65.107,22.214 C65.779,22.214 66.301,22.348 66.675,22.614 L66.675,22.358 C66.675,22.070 66.544,21.838 66.283,21.662 C66.021,21.486 65.640,21.398 65.139,21.398 C64.413,21.398 63.757,21.569 63.171,21.910 L63.171,19.894 C63.864,19.521 64.723,19.334 65.747,19.334 C66.813,19.334 67.637,19.582 68.219,20.078 C68.800,20.574 69.091,21.297 69.091,22.246 L69.091,26.694 L66.675,26.694 L66.675,26.326 C66.547,26.454 66.323,26.569 66.003,26.670 C65.683,26.772 65.341,26.822 64.979,26.822 C64.232,26.822 63.605,26.617 63.099,26.206 C62.592,25.796 62.339,25.228 62.339,24.502 C62.339,23.820 62.603,23.268 63.131,22.846 C63.659,22.425 64.317,22.214 65.107,22.214 ZM64.963,24.982 C65.155,25.100 65.389,25.158 65.667,25.158 C66.157,25.158 66.493,24.998 66.675,24.678 L66.675,24.262 C66.504,23.932 66.168,23.766 65.667,23.766 C65.389,23.766 65.155,23.825 64.963,23.942 C64.771,24.060 64.675,24.230 64.675,24.454 C64.675,24.689 64.771,24.865 64.963,24.982 ZM72.978,26.694 L70.466,26.694 L70.466,16.294 L72.978,16.294 L72.978,26.694 ZM75.250,17.510 L77.746,17.510 L77.746,19.494 L79.154,19.494 L79.154,21.446 L77.746,21.446 L77.746,26.694 L75.250,26.694 L75.250,21.446 L74.002,21.446 L74.002,19.494 L75.250,19.494 L75.250,17.510 ZM109.410,23.622 L110.754,19.494 L113.218,19.494 L110.466,26.694 L108.210,26.694 L105.474,19.494 L108.034,19.494 L109.410,23.622 ZM123.841,20.134 C124.236,19.601 124.780,19.334 125.473,19.334 C125.783,19.334 126.012,19.377 126.161,19.462 L126.161,21.878 C125.873,21.729 125.527,21.654 125.121,21.654 C124.407,21.654 123.980,21.926 123.841,22.470 L123.841,26.694 L121.329,26.694 L121.329,19.494 L123.841,19.494 L123.841,20.134 Z"/>
<path fill="url(#PSgrad_0)"
 d="M195.137,26.374 C194.849,26.662 194.497,26.806 194.081,26.806 C193.675,26.806 193.329,26.662 193.041,26.374 C192.753,26.086 192.609,25.729 192.609,25.302 C192.609,24.886 192.750,24.534 193.033,24.246 C193.315,23.958 193.665,23.814 194.081,23.814 C194.497,23.814 194.849,23.956 195.137,24.238 C195.425,24.521 195.569,24.876 195.569,25.302 C195.569,25.729 195.425,26.086 195.137,26.374 ZM186.865,29.238 L187.921,26.518 L185.233,19.494 L187.841,19.494 L189.217,23.590 L190.561,19.494 L193.057,19.494 L189.345,29.238 L186.865,29.238 ZM181.841,16.294 L184.353,16.294 L184.353,26.694 L181.841,26.694 L181.841,16.294 ZM177.905,26.070 C177.457,26.593 176.817,26.854 175.985,26.854 C175.195,26.854 174.577,26.617 174.129,26.142 C173.681,25.668 173.457,25.025 173.457,24.214 L173.457,19.494 L175.953,19.494 L175.953,23.622 C175.953,24.316 176.262,24.662 176.881,24.662 C177.115,24.662 177.329,24.590 177.521,24.446 C177.713,24.302 177.841,24.108 177.905,23.862 L177.905,19.494 L180.417,19.494 L180.417,26.694 L177.905,26.694 L177.905,26.070 ZM168.641,26.854 C167.755,26.854 167.009,26.662 166.401,26.278 L166.401,23.862 C167.073,24.310 167.702,24.534 168.289,24.534 C168.769,24.534 169.099,24.398 169.281,24.126 C169.462,23.854 169.553,23.404 169.553,22.774 L169.553,16.870 L172.129,16.870 L172.129,23.238 C172.129,24.465 171.825,25.374 171.217,25.966 C170.609,26.558 169.750,26.854 168.641,26.854 ZM159.313,19.654 L157.025,20.758 L157.025,18.326 L160.081,16.870 L161.809,16.870 L161.809,26.694 L159.313,26.694 L159.313,19.654 ZM156.417,23.510 C156.417,24.534 156.070,25.348 155.377,25.950 C154.684,26.553 153.820,26.854 152.785,26.854 C151.633,26.854 150.657,26.577 149.857,26.022 L149.857,23.670 C150.668,24.396 151.553,24.758 152.513,24.758 C153.526,24.758 154.033,24.348 154.033,23.526 C154.033,23.025 153.801,22.657 153.337,22.422 C152.873,22.188 152.289,22.092 151.585,22.134 L151.585,22.086 L153.105,19.078 L149.905,19.078 L149.905,16.870 L156.433,16.870 L156.433,16.918 L154.513,20.742 C155.782,21.286 156.417,22.209 156.417,23.510 ZM139.841,29.238 L140.897,26.518 L138.209,19.494 L140.817,19.494 L142.193,23.590 L143.537,19.494 L146.033,19.494 L142.321,29.238 L139.841,29.238 ZM140.689,10.273 C140.508,10.476 140.254,10.649 139.929,10.793 C139.604,10.937 139.265,11.009 138.913,11.009 C137.910,11.009 137.124,10.655 136.553,9.945 C135.982,9.236 135.697,8.337 135.697,7.249 C135.697,6.161 135.982,5.263 136.553,4.553 C137.124,3.844 137.910,3.489 138.913,3.489 C139.265,3.489 139.604,3.561 139.929,3.705 C140.254,3.849 140.508,4.023 140.689,4.225 L140.689,0.449 L143.201,0.449 L143.201,10.849 L140.689,10.849 L140.689,10.273 ZM140.689,6.289 C140.593,6.097 140.444,5.937 140.241,5.809 C140.038,5.681 139.820,5.617 139.585,5.617 C139.158,5.617 138.822,5.769 138.577,6.073 C138.332,6.377 138.209,6.769 138.209,7.249 C138.209,7.719 138.332,8.105 138.577,8.409 C138.822,8.713 139.158,8.865 139.585,8.865 C140.108,8.865 140.476,8.641 140.689,8.193 L140.689,6.289 ZM138.033,23.094 C138.033,24.182 137.748,25.081 137.177,25.790 C136.606,26.500 135.820,26.854 134.817,26.854 C134.465,26.854 134.127,26.782 133.801,26.638 C133.476,26.494 133.223,26.321 133.041,26.118 L133.041,26.694 L130.529,26.694 L130.529,16.294 L133.041,16.294 L133.041,20.070 C133.223,19.868 133.476,19.694 133.801,19.550 C134.127,19.406 134.465,19.334 134.817,19.334 C135.820,19.334 136.606,19.689 137.177,20.398 C137.748,21.108 138.033,22.006 138.033,23.094 ZM135.153,21.918 C134.908,21.614 134.572,21.462 134.145,21.462 C133.911,21.462 133.692,21.526 133.489,21.654 C133.287,21.782 133.137,21.942 133.041,22.134 L133.041,24.038 C133.254,24.486 133.623,24.710 134.145,24.710 C134.572,24.710 134.908,24.558 135.153,24.254 C135.399,23.950 135.521,23.564 135.521,23.094 C135.521,22.614 135.399,22.222 135.153,21.918 ZM132.193,6.737 C132.193,6.428 132.113,6.180 131.953,5.993 C131.793,5.807 131.559,5.713 131.249,5.713 C130.993,5.713 130.772,5.783 130.585,5.921 C130.399,6.060 130.273,6.252 130.209,6.497 L130.209,10.849 L127.697,10.849 L127.697,3.649 L130.209,3.649 L130.209,4.273 C130.679,3.751 131.324,3.489 132.145,3.489 C132.935,3.489 133.556,3.727 134.009,4.201 C134.463,4.676 134.689,5.319 134.689,6.129 L134.689,10.849 L132.193,10.849 L132.193,6.737 ZM123.905,10.481 C123.777,10.609 123.553,10.724 123.233,10.825 C122.913,10.927 122.572,10.977 122.209,10.977 C121.463,10.977 120.836,10.772 120.329,10.361 C119.823,9.951 119.569,9.383 119.569,8.657 C119.569,7.975 119.833,7.423 120.361,7.001 C120.889,6.580 121.548,6.369 122.337,6.369 C123.009,6.369 123.532,6.503 123.905,6.769 L123.905,6.513 C123.905,6.225 123.775,5.993 123.513,5.817 C123.252,5.641 122.871,5.553 122.369,5.553 C121.644,5.553 120.988,5.724 120.401,6.065 L120.401,4.049 C121.095,3.676 121.953,3.489 122.977,3.489 C124.044,3.489 124.868,3.737 125.449,4.233 C126.031,4.729 126.321,5.452 126.321,6.401 L126.321,10.849 L123.905,10.849 L123.905,10.481 ZM123.905,8.417 C123.735,8.087 123.399,7.921 122.897,7.921 C122.620,7.921 122.385,7.980 122.193,8.097 C122.001,8.215 121.905,8.385 121.905,8.609 C121.905,8.844 122.001,9.020 122.193,9.137 C122.385,9.255 122.620,9.313 122.897,9.313 C123.388,9.313 123.724,9.153 123.905,8.833 L123.905,8.417 ZM120.242,23.670 L115.810,23.670 C116.002,24.481 116.615,24.886 117.650,24.886 C118.396,24.886 119.090,24.694 119.730,24.310 L119.730,26.214 C119.154,26.641 118.327,26.854 117.250,26.854 C116.087,26.854 115.151,26.524 114.442,25.862 C113.732,25.201 113.378,24.294 113.378,23.142 C113.378,22.022 113.708,21.108 114.370,20.398 C115.031,19.689 115.863,19.334 116.866,19.334 C117.954,19.334 118.788,19.660 119.370,20.310 C119.951,20.961 120.242,21.836 120.242,22.934 L120.242,23.670 ZM117.682,21.518 C117.500,21.332 117.260,21.238 116.962,21.238 C116.396,21.238 116.023,21.580 115.842,22.262 L118.002,22.262 C117.970,21.953 117.863,21.705 117.682,21.518 ZM112.722,0.449 L115.234,0.449 L115.234,10.849 L112.722,10.849 L112.722,0.449 ZM108.930,10.481 C108.802,10.609 108.578,10.724 108.258,10.825 C107.938,10.927 107.596,10.977 107.234,10.977 C106.487,10.977 105.860,10.772 105.354,10.361 C104.847,9.951 104.594,9.383 104.594,8.657 C104.594,7.975 104.858,7.423 105.386,7.001 C105.914,6.580 106.572,6.369 107.362,6.369 C108.034,6.369 108.556,6.503 108.930,6.769 L108.930,6.513 C108.930,6.225 108.799,5.993 108.538,5.817 C108.276,5.641 107.895,5.553 107.394,5.553 C106.668,5.553 106.012,5.724 105.426,6.065 L105.426,4.049 C106.119,3.676 106.978,3.489 108.002,3.489 C109.068,3.489 109.892,3.737 110.474,4.233 C111.055,4.729 111.346,5.452 111.346,6.401 L111.346,10.849 L108.930,10.849 L108.930,10.481 ZM108.930,8.417 C108.759,8.087 108.423,7.921 107.922,7.921 C107.644,7.921 107.410,7.980 107.218,8.097 C107.026,8.215 106.930,8.385 106.930,8.609 C106.930,8.844 107.026,9.020 107.218,9.137 C107.410,9.255 107.644,9.313 107.922,9.313 C108.412,9.313 108.748,9.153 108.930,8.833 L108.930,8.417 ZM104.266,25.806 C103.588,26.505 102.700,26.854 101.602,26.854 C100.514,26.854 99.628,26.505 98.946,25.806 C98.263,25.108 97.922,24.204 97.922,23.094 C97.922,21.985 98.263,21.081 98.946,20.382 C99.628,19.684 100.514,19.334 101.602,19.334 C102.700,19.334 103.588,19.684 104.266,20.382 C104.943,21.081 105.282,21.985 105.282,23.094 C105.282,24.204 104.943,25.108 104.266,25.806 ZM102.498,21.862 C102.284,21.553 101.986,21.398 101.602,21.398 C101.228,21.398 100.935,21.553 100.722,21.862 C100.508,22.172 100.402,22.582 100.402,23.094 C100.402,23.596 100.508,24.001 100.722,24.310 C100.935,24.620 101.228,24.774 101.602,24.774 C101.986,24.774 102.284,24.622 102.498,24.318 C102.711,24.014 102.818,23.606 102.818,23.094 C102.818,22.582 102.711,22.172 102.498,21.862 ZM102.754,10.849 L100.258,10.849 L100.258,5.601 L99.010,5.601 L99.010,3.649 L100.258,3.649 L100.258,1.665 L102.754,1.665 L102.754,3.649 L104.162,3.649 L104.162,5.601 L102.754,5.601 L102.754,10.849 ZM96.738,3.041 C96.343,3.041 96.007,2.916 95.730,2.665 C95.453,2.415 95.314,2.092 95.314,1.697 C95.314,1.292 95.453,0.964 95.730,0.713 C96.007,0.463 96.343,0.337 96.738,0.337 C97.133,0.337 97.469,0.463 97.746,0.713 C98.023,0.964 98.162,1.292 98.162,1.697 C98.162,2.092 98.023,2.415 97.746,2.665 C97.469,2.916 97.133,3.041 96.738,3.041 ZM95.474,3.649 L97.986,3.649 L97.986,10.849 L95.474,10.849 L95.474,3.649 ZM97.138,19.846 L97.138,21.958 C96.668,21.617 96.151,21.446 95.586,21.446 C95.106,21.446 94.708,21.590 94.394,21.878 C94.079,22.166 93.922,22.572 93.922,23.094 C93.922,23.617 94.079,24.022 94.394,24.310 C94.708,24.598 95.106,24.742 95.586,24.742 C96.151,24.742 96.668,24.572 97.138,24.230 L97.138,26.342 C96.658,26.684 96.012,26.854 95.202,26.854 C94.103,26.854 93.202,26.513 92.498,25.830 C91.794,25.148 91.442,24.236 91.442,23.094 C91.442,21.953 91.794,21.041 92.498,20.358 C93.202,19.676 94.103,19.334 95.202,19.334 C96.012,19.334 96.658,19.505 97.138,19.846 ZM91.218,11.009 C90.866,11.009 90.527,10.937 90.202,10.793 C89.877,10.649 89.623,10.476 89.442,10.273 L89.442,13.393 L86.930,13.393 L86.930,3.649 L89.442,3.649 L89.442,4.225 C89.623,4.023 89.877,3.849 90.202,3.705 C90.527,3.561 90.866,3.489 91.218,3.489 C92.221,3.489 93.007,3.847 93.578,4.561 C94.149,5.276 94.434,6.172 94.434,7.249 C94.434,8.316 94.149,9.209 93.578,9.929 C93.007,10.649 92.221,11.009 91.218,11.009 ZM91.554,6.073 C91.309,5.769 90.973,5.617 90.546,5.617 C90.034,5.617 89.666,5.841 89.442,6.289 L89.442,8.193 C89.655,8.641 90.024,8.865 90.546,8.865 C90.973,8.865 91.309,8.713 91.554,8.409 C91.800,8.105 91.922,7.719 91.922,7.249 C91.922,6.769 91.800,6.377 91.554,6.073 ZM87.154,26.694 L84.658,26.694 L84.658,22.582 C84.658,22.273 84.578,22.025 84.418,21.838 C84.258,21.652 84.023,21.558 83.714,21.558 C83.458,21.558 83.236,21.628 83.050,21.766 C82.863,21.905 82.738,22.097 82.674,22.342 L82.674,26.694 L80.162,26.694 L80.162,16.294 L82.674,16.294 L82.674,20.118 C83.143,19.596 83.788,19.334 84.610,19.334 C85.399,19.334 86.020,19.572 86.474,20.046 C86.927,20.521 87.154,21.164 87.154,21.974 L87.154,26.694 ZM83.010,6.257 L83.666,6.449 C84.456,6.663 85.018,6.943 85.354,7.289 C85.690,7.636 85.858,8.113 85.858,8.721 C85.858,9.468 85.573,10.036 85.002,10.425 C84.432,10.815 83.682,11.009 82.754,11.009 C81.613,11.009 80.701,10.780 80.018,10.321 L80.018,8.209 C80.349,8.476 80.760,8.695 81.250,8.865 C81.741,9.036 82.178,9.121 82.562,9.121 C83.106,9.121 83.378,8.977 83.378,8.689 C83.378,8.455 83.160,8.289 82.722,8.193 L82.162,8.049 C80.712,7.740 79.986,7.004 79.986,5.841 C79.986,5.105 80.258,4.529 80.802,4.113 C81.346,3.697 82.056,3.489 82.930,3.489 C83.912,3.489 84.749,3.703 85.442,4.129 L85.442,6.193 C84.674,5.639 83.917,5.361 83.170,5.361 C82.690,5.361 82.450,5.505 82.450,5.793 C82.450,5.921 82.496,6.017 82.586,6.081 C82.677,6.145 82.818,6.204 83.010,6.257 ZM75.491,11.009 C74.403,11.009 73.517,10.660 72.835,9.961 C72.152,9.263 71.811,8.359 71.811,7.249 C71.811,6.140 72.152,5.236 72.835,4.537 C73.517,3.839 74.403,3.489 75.491,3.489 C76.589,3.489 77.477,3.839 78.155,4.537 C78.832,5.236 79.171,6.140 79.171,7.249 C79.171,8.359 78.832,9.263 78.155,9.961 C77.477,10.660 76.589,11.009 75.491,11.009 ZM76.387,6.017 C76.173,5.708 75.875,5.553 75.491,5.553 C75.117,5.553 74.824,5.708 74.611,6.017 C74.397,6.327 74.291,6.737 74.291,7.249 C74.291,7.751 74.397,8.156 74.611,8.465 C74.824,8.775 75.117,8.929 75.491,8.929 C75.875,8.929 76.173,8.777 76.387,8.473 C76.600,8.169 76.707,7.761 76.707,7.249 C76.707,6.737 76.600,6.327 76.387,6.017 ZM68.147,6.961 L64.355,6.961 L64.355,10.849 L61.779,10.849 L61.779,1.025 L64.355,1.025 L64.355,4.753 L68.147,4.753 L68.147,1.025 L70.723,1.025 L70.723,10.849 L68.147,10.849 L68.147,6.961 ZM59.043,24.886 C59.789,24.886 60.483,24.694 61.123,24.310 L61.123,26.214 C60.547,26.641 59.720,26.854 58.643,26.854 C57.480,26.854 56.544,26.524 55.835,25.862 C55.125,25.201 54.771,24.294 54.771,23.142 C54.771,22.022 55.101,21.108 55.763,20.398 C56.424,19.689 57.256,19.334 58.259,19.334 C59.347,19.334 60.181,19.660 60.763,20.310 C61.344,20.961 61.635,21.836 61.635,22.934 L61.635,23.670 L57.203,23.670 C57.395,24.481 58.008,24.886 59.043,24.886 ZM59.395,22.262 C59.363,21.953 59.256,21.705 59.075,21.518 C58.893,21.332 58.653,21.238 58.355,21.238 C57.789,21.238 57.416,21.580 57.235,22.262 L59.395,22.262 ZM56.019,10.849 L53.523,10.849 L53.523,5.601 L52.275,5.601 L52.275,3.649 L53.523,3.649 L53.523,1.665 L56.019,1.665 L56.019,3.649 L57.427,3.649 L57.427,5.601 L56.019,5.601 L56.019,10.849 ZM53.763,21.974 L53.763,26.694 L51.267,26.694 L51.267,22.582 C51.267,22.273 51.187,22.025 51.027,21.838 C50.867,21.652 50.632,21.558 50.323,21.558 C50.067,21.558 49.845,21.628 49.659,21.766 C49.472,21.905 49.347,22.097 49.283,22.342 L49.283,26.694 L46.771,26.694 L46.771,16.294 L49.283,16.294 L49.283,20.118 C49.752,19.596 50.397,19.334 51.219,19.334 C52.008,19.334 52.629,19.572 53.083,20.046 C53.536,20.521 53.763,21.164 53.763,21.974 ZM48.755,10.225 C48.307,10.748 47.667,11.009 46.835,11.009 C46.045,11.009 45.427,10.772 44.979,10.297 C44.531,9.823 44.307,9.180 44.307,8.369 L44.307,3.649 L46.803,3.649 L46.803,7.777 C46.803,8.471 47.112,8.817 47.731,8.817 C47.965,8.817 48.179,8.745 48.371,8.601 C48.563,8.457 48.691,8.263 48.755,8.017 L48.755,3.649 L51.267,3.649 L51.267,10.849 L48.755,10.849 L48.755,10.225 ZM39.603,11.009 C38.515,11.009 37.630,10.660 36.947,9.961 C36.264,9.263 35.923,8.359 35.923,7.249 C35.923,6.140 36.264,5.236 36.947,4.537 C37.630,3.839 38.515,3.489 39.603,3.489 C40.702,3.489 41.590,3.839 42.267,4.537 C42.944,5.236 43.283,6.140 43.283,7.249 C43.283,8.359 42.944,9.263 42.267,9.961 C41.590,10.660 40.702,11.009 39.603,11.009 ZM40.499,6.017 C40.286,5.708 39.987,5.553 39.603,5.553 C39.230,5.553 38.936,5.708 38.723,6.017 C38.510,6.327 38.403,6.737 38.403,7.249 C38.403,7.751 38.510,8.156 38.723,8.465 C38.936,8.775 39.230,8.929 39.603,8.929 C39.987,8.929 40.286,8.777 40.499,8.473 C40.712,8.169 40.819,7.761 40.819,7.249 C40.819,6.737 40.712,6.327 40.499,6.017 ZM33.043,26.326 C32.915,26.454 32.691,26.569 32.371,26.670 C32.051,26.772 31.710,26.822 31.347,26.822 C30.600,26.822 29.974,26.617 29.467,26.206 C28.960,25.796 28.707,25.228 28.707,24.502 C28.707,23.820 28.971,23.268 29.499,22.846 C30.027,22.425 30.686,22.214 31.475,22.214 C32.147,22.214 32.670,22.348 33.043,22.614 L33.043,22.358 C33.043,22.070 32.912,21.838 32.651,21.662 C32.390,21.486 32.008,21.398 31.507,21.398 C30.782,21.398 30.126,21.569 29.539,21.910 L29.539,19.894 C30.232,19.521 31.091,19.334 32.115,19.334 C33.182,19.334 34.006,19.582 34.587,20.078 C35.168,20.574 35.459,21.297 35.459,22.246 L35.459,26.694 L33.043,26.694 L33.043,26.326 ZM33.043,24.262 C32.872,23.932 32.536,23.766 32.035,23.766 C31.758,23.766 31.523,23.825 31.331,23.942 C31.139,24.060 31.043,24.230 31.043,24.454 C31.043,24.689 31.139,24.865 31.331,24.982 C31.523,25.100 31.758,25.158 32.035,25.158 C32.526,25.158 32.862,24.998 33.043,24.678 L33.043,24.262 ZM29.347,9.041 C30.094,9.041 30.787,8.849 31.427,8.465 L31.427,10.369 C30.851,10.796 30.025,11.009 28.947,11.009 C27.785,11.009 26.849,10.679 26.139,10.017 C25.430,9.356 25.075,8.449 25.075,7.297 C25.075,6.177 25.406,5.263 26.067,4.553 C26.729,3.844 27.561,3.489 28.563,3.489 C29.651,3.489 30.486,3.815 31.067,4.465 C31.649,5.116 31.939,5.991 31.939,7.089 L31.939,7.825 L27.507,7.825 C27.699,8.636 28.313,9.041 29.347,9.041 ZM29.699,6.417 C29.667,6.108 29.561,5.860 29.379,5.673 C29.198,5.487 28.958,5.393 28.659,5.393 C28.094,5.393 27.721,5.735 27.539,6.417 L29.699,6.417 ZM22.179,10.849 L20.003,7.697 L20.003,10.849 L17.491,10.849 L17.491,0.449 L20.003,0.449 L20.003,6.369 L22.051,3.649 L24.931,3.649 L22.259,6.977 L24.995,10.849 L22.179,10.849 ZM18.499,17.510 L20.995,17.510 L20.995,19.494 L22.403,19.494 L22.403,21.446 L20.995,21.446 L20.995,26.694 L18.499,26.694 L18.499,21.446 L17.251,21.446 L17.251,19.494 L18.499,19.494 L18.499,17.510 ZM14.132,26.694 L12.900,24.822 L11.668,26.694 L9.076,26.694 L11.588,23.030 L9.188,19.494 L11.892,19.494 L13.012,21.222 L14.148,19.494 L16.740,19.494 L14.324,23.014 L16.852,26.694 L14.132,26.694 ZM13.700,10.481 C13.572,10.609 13.348,10.724 13.028,10.825 C12.708,10.927 12.366,10.977 12.004,10.977 C11.257,10.977 10.630,10.772 10.124,10.361 C9.617,9.951 9.364,9.383 9.364,8.657 C9.364,7.975 9.628,7.423 10.156,7.001 C10.684,6.580 11.342,6.369 12.132,6.369 C12.804,6.369 13.326,6.503 13.700,6.769 L13.700,6.513 C13.700,6.225 13.569,5.993 13.308,5.817 C13.046,5.641 12.665,5.553 12.164,5.553 C11.438,5.553 10.782,5.724 10.196,6.065 L10.196,4.049 C10.889,3.676 11.748,3.489 12.772,3.489 C13.838,3.489 14.662,3.737 15.244,4.233 C15.825,4.729 16.116,5.452 16.116,6.401 L16.116,10.849 L13.700,10.849 L13.700,10.481 ZM13.700,8.417 C13.529,8.087 13.193,7.921 12.692,7.921 C12.414,7.921 12.180,7.980 11.988,8.097 C11.796,8.215 11.700,8.385 11.700,8.609 C11.700,8.844 11.796,9.020 11.988,9.137 C12.180,9.255 12.414,9.313 12.692,9.313 C13.182,9.313 13.518,9.153 13.700,8.833 L13.700,8.417 ZM6.548,10.849 L3.972,10.849 L3.972,3.233 L0.948,3.233 L0.948,1.025 L9.588,1.025 L9.588,3.233 L6.548,3.233 L6.548,10.849 ZM8.388,19.078 L3.892,19.078 L3.892,20.614 L8.004,20.614 L8.004,22.774 L3.892,22.774 L3.892,24.470 L8.388,24.470 L8.388,26.694 L1.364,26.694 L1.364,16.870 L8.388,16.870 L8.388,19.078 ZM25.923,20.134 C26.318,19.601 26.862,19.334 27.555,19.334 C27.864,19.334 28.094,19.377 28.243,19.462 L28.243,21.878 C27.955,21.729 27.608,21.654 27.203,21.654 C26.488,21.654 26.062,21.926 25.923,22.470 L25.923,26.694 L23.411,26.694 L23.411,19.494 L25.923,19.494 L25.923,20.134 ZM38.723,23.894 C37.272,23.585 36.547,22.849 36.547,21.686 C36.547,20.950 36.819,20.374 37.363,19.958 C37.907,19.542 38.616,19.334 39.491,19.334 C40.472,19.334 41.309,19.548 42.003,19.974 L42.003,22.038 C41.235,21.484 40.477,21.206 39.731,21.206 C39.251,21.206 39.011,21.350 39.011,21.638 C39.011,21.766 39.056,21.862 39.147,21.926 C39.237,21.990 39.379,22.049 39.571,22.102 L40.227,22.294 C41.016,22.508 41.579,22.788 41.915,23.134 C42.251,23.481 42.419,23.958 42.419,24.566 C42.419,25.313 42.133,25.881 41.563,26.270 C40.992,26.660 40.243,26.854 39.315,26.854 C38.173,26.854 37.261,26.625 36.579,26.166 L36.579,24.054 C36.909,24.321 37.320,24.540 37.811,24.710 C38.301,24.881 38.739,24.966 39.123,24.966 C39.667,24.966 39.939,24.822 39.939,24.534 C39.939,24.300 39.720,24.134 39.283,24.038 L38.723,23.894 ZM65.107,22.214 C65.779,22.214 66.301,22.348 66.675,22.614 L66.675,22.358 C66.675,22.070 66.544,21.838 66.283,21.662 C66.021,21.486 65.640,21.398 65.139,21.398 C64.413,21.398 63.757,21.569 63.171,21.910 L63.171,19.894 C63.864,19.521 64.723,19.334 65.747,19.334 C66.813,19.334 67.637,19.582 68.219,20.078 C68.800,20.574 69.091,21.297 69.091,22.246 L69.091,26.694 L66.675,26.694 L66.675,26.326 C66.547,26.454 66.323,26.569 66.003,26.670 C65.683,26.772 65.341,26.822 64.979,26.822 C64.232,26.822 63.605,26.617 63.099,26.206 C62.592,25.796 62.339,25.228 62.339,24.502 C62.339,23.820 62.603,23.268 63.131,22.846 C63.659,22.425 64.317,22.214 65.107,22.214 ZM64.963,24.982 C65.155,25.100 65.389,25.158 65.667,25.158 C66.157,25.158 66.493,24.998 66.675,24.678 L66.675,24.262 C66.504,23.932 66.168,23.766 65.667,23.766 C65.389,23.766 65.155,23.825 64.963,23.942 C64.771,24.060 64.675,24.230 64.675,24.454 C64.675,24.689 64.771,24.865 64.963,24.982 ZM72.978,26.694 L70.466,26.694 L70.466,16.294 L72.978,16.294 L72.978,26.694 ZM75.250,17.510 L77.746,17.510 L77.746,19.494 L79.154,19.494 L79.154,21.446 L77.746,21.446 L77.746,26.694 L75.250,26.694 L75.250,21.446 L74.002,21.446 L74.002,19.494 L75.250,19.494 L75.250,17.510 ZM109.410,23.622 L110.754,19.494 L113.218,19.494 L110.466,26.694 L108.210,26.694 L105.474,19.494 L108.034,19.494 L109.410,23.622 ZM123.841,20.134 C124.236,19.601 124.780,19.334 125.473,19.334 C125.783,19.334 126.012,19.377 126.161,19.462 L126.161,21.878 C125.873,21.729 125.527,21.654 125.121,21.654 C124.407,21.654 123.980,21.926 123.841,22.470 L123.841,26.694 L121.329,26.694 L121.329,19.494 L123.841,19.494 L123.841,20.134 Z"/>
</svg>