<svg 
 xmlns="http://www.w3.org/2000/svg"
 xmlns:xlink="http://www.w3.org/1999/xlink"
 width="73px" height="30px">
<defs>
<linearGradient id="PSgrad_0" x1="0%" x2="64.279%" y1="0%" y2="76.604%">
  <stop offset="0%" stop-color="rgb(238,117,24)" stop-opacity="0.95" />
  <stop offset="100%" stop-color="rgb(253,91,47)" stop-opacity="0.95" />
</linearGradient>

</defs>
<path fill-rule="evenodd"  fill="rgb(227, 114, 34)"
 d="M69.682,10.849 L69.682,10.481 C69.554,10.609 69.330,10.724 69.010,10.825 C68.690,10.927 68.349,10.977 67.986,10.977 C67.240,10.977 66.613,10.772 66.106,10.361 C65.600,9.951 65.346,9.383 65.346,8.657 C65.346,7.975 65.610,7.423 66.138,7.001 C66.666,6.580 67.325,6.369 68.114,6.369 C68.786,6.369 69.309,6.503 69.682,6.769 L69.682,6.513 C69.682,6.225 69.552,5.993 69.290,5.817 C69.029,5.641 68.648,5.553 68.146,5.553 C67.421,5.553 66.765,5.724 66.178,6.065 L66.178,4.049 C66.872,3.676 67.730,3.489 68.754,3.489 C69.821,3.489 70.645,3.737 71.226,4.233 C71.808,4.729 72.098,5.452 72.098,6.401 L72.098,10.849 L69.682,10.849 ZM69.682,8.417 C69.512,8.087 69.176,7.921 68.674,7.921 C68.397,7.921 68.162,7.980 67.970,8.097 C67.778,8.215 67.682,8.385 67.682,8.609 C67.682,8.844 67.778,9.020 67.970,9.137 C68.162,9.255 68.397,9.313 68.674,9.313 C69.165,9.313 69.501,9.153 69.682,8.833 L69.682,8.417 ZM61.763,6.257 L62.419,6.449 C63.208,6.663 63.771,6.943 64.107,7.289 C64.443,7.636 64.611,8.113 64.611,8.721 C64.611,9.468 64.325,10.036 63.755,10.425 C63.184,10.815 62.435,11.009 61.507,11.009 C60.365,11.009 59.453,10.780 58.771,10.321 L58.771,8.209 C59.101,8.476 59.512,8.695 60.003,8.865 C60.493,9.036 60.931,9.121 61.315,9.121 C61.859,9.121 62.131,8.977 62.131,8.689 C62.131,8.455 61.912,8.289 61.475,8.193 L60.915,8.049 C59.464,7.740 58.739,7.004 58.739,5.841 C58.739,5.105 59.011,4.529 59.555,4.113 C60.099,3.697 60.808,3.489 61.683,3.489 C62.664,3.489 63.501,3.703 64.195,4.129 L64.195,6.193 C63.427,5.639 62.669,5.361 61.923,5.361 C61.443,5.361 61.203,5.505 61.203,5.793 C61.203,5.921 61.248,6.017 61.339,6.081 C61.429,6.145 61.571,6.204 61.763,6.257 ZM59.347,25.302 C59.347,25.729 59.203,26.086 58.915,26.374 C58.627,26.662 58.275,26.806 57.859,26.806 C57.453,26.806 57.107,26.662 56.819,26.374 C56.531,26.086 56.387,25.729 56.387,25.302 C56.387,24.886 56.528,24.534 56.811,24.246 C57.093,23.958 57.443,23.814 57.859,23.814 C58.275,23.814 58.627,23.956 58.915,24.238 C59.203,24.521 59.347,24.876 59.347,25.302 ZM56.339,3.041 C55.944,3.041 55.608,2.916 55.331,2.665 C55.053,2.415 54.915,2.092 54.915,1.697 C54.915,1.292 55.053,0.964 55.331,0.713 C55.608,0.463 55.944,0.337 56.339,0.337 C56.733,0.337 57.069,0.463 57.347,0.713 C57.624,0.964 57.763,1.292 57.763,1.697 C57.763,2.092 57.624,2.415 57.347,2.665 C57.069,2.916 56.733,3.041 56.339,3.041 ZM48.035,10.849 L44.371,1.025 L47.123,1.025 L49.347,7.377 L51.571,1.025 L54.211,1.025 L50.547,10.849 L48.035,10.849 ZM44.899,20.134 C45.293,19.601 45.837,19.334 46.531,19.334 C46.840,19.334 47.069,19.377 47.219,19.462 L47.219,21.878 C46.931,21.729 46.584,21.654 46.179,21.654 C45.464,21.654 45.037,21.926 44.899,22.470 L44.899,26.694 L42.387,26.694 L42.387,19.494 L44.899,19.494 L44.899,20.134 ZM38.595,26.326 C38.467,26.454 38.243,26.569 37.923,26.670 C37.603,26.772 37.262,26.822 36.899,26.822 C36.152,26.822 35.526,26.617 35.019,26.206 C34.512,25.796 34.259,25.228 34.259,24.502 C34.259,23.820 34.523,23.268 35.051,22.846 C35.579,22.425 36.238,22.214 37.027,22.214 C37.699,22.214 38.222,22.348 38.595,22.614 L38.595,22.358 C38.595,22.070 38.464,21.838 38.203,21.662 C37.942,21.486 37.560,21.398 37.059,21.398 C36.334,21.398 35.678,21.569 35.091,21.910 L35.091,19.894 C35.784,19.521 36.643,19.334 37.667,19.334 C38.734,19.334 39.558,19.582 40.139,20.078 C40.720,20.574 41.011,21.297 41.011,22.246 L41.011,26.694 L38.595,26.694 L38.595,26.326 ZM38.595,24.262 C38.424,23.932 38.088,23.766 37.587,23.766 C37.310,23.766 37.075,23.825 36.883,23.942 C36.691,24.060 36.595,24.230 36.595,24.454 C36.595,24.689 36.691,24.865 36.883,24.982 C37.075,25.100 37.310,25.158 37.587,25.158 C38.078,25.158 38.414,24.998 38.595,24.678 L38.595,24.262 ZM37.859,10.481 C37.731,10.609 37.507,10.724 37.187,10.825 C36.867,10.927 36.526,10.977 36.163,10.977 C35.416,10.977 34.790,10.772 34.283,10.361 C33.776,9.951 33.523,9.383 33.523,8.657 C33.523,7.975 33.787,7.423 34.315,7.001 C34.843,6.580 35.502,6.369 36.291,6.369 C36.963,6.369 37.486,6.503 37.859,6.769 L37.859,6.513 C37.859,6.225 37.728,5.993 37.467,5.817 C37.206,5.641 36.824,5.553 36.323,5.553 C35.598,5.553 34.942,5.724 34.355,6.065 L34.355,4.049 C35.048,3.676 35.907,3.489 36.931,3.489 C37.998,3.489 38.822,3.737 39.403,4.233 C39.984,4.729 40.275,5.452 40.275,6.401 L40.275,10.849 L37.859,10.849 L37.859,10.481 ZM37.859,8.417 C37.688,8.087 37.352,7.921 36.851,7.921 C36.574,7.921 36.339,7.980 36.147,8.097 C35.955,8.215 35.859,8.385 35.859,8.609 C35.859,8.844 35.955,9.020 36.147,9.137 C36.339,9.255 36.574,9.313 36.851,9.313 C37.342,9.313 37.678,9.153 37.859,8.833 L37.859,8.417 ZM31.539,26.854 C30.441,26.854 29.539,26.513 28.835,25.830 C28.131,25.148 27.779,24.236 27.779,23.094 C27.779,21.953 28.131,21.041 28.835,20.358 C29.539,19.676 30.441,19.334 31.539,19.334 C32.350,19.334 32.995,19.505 33.475,19.846 L33.475,21.958 C33.006,21.617 32.489,21.446 31.923,21.446 C31.443,21.446 31.046,21.590 30.731,21.878 C30.416,22.166 30.259,22.572 30.259,23.094 C30.259,23.617 30.416,24.022 30.731,24.310 C31.046,24.598 31.443,24.742 31.923,24.742 C32.489,24.742 33.006,24.572 33.475,24.230 L33.475,26.342 C32.995,26.684 32.350,26.854 31.539,26.854 ZM26.739,6.737 C26.739,6.428 26.659,6.180 26.499,5.993 C26.339,5.807 26.104,5.713 25.795,5.713 C25.539,5.713 25.318,5.783 25.131,5.921 C24.944,6.060 24.819,6.252 24.755,6.497 L24.755,10.849 L22.243,10.849 L22.243,0.449 L24.755,0.449 L24.755,4.273 C25.224,3.751 25.870,3.489 26.691,3.489 C27.480,3.489 28.102,3.727 28.555,4.201 C29.008,4.676 29.235,5.319 29.235,6.129 L29.235,10.849 L26.739,10.849 L26.739,6.737 ZM19.827,10.849 L17.331,10.849 L17.331,5.601 L16.083,5.601 L16.083,3.649 L17.331,3.649 L17.331,1.665 L19.827,1.665 L19.827,3.649 L21.235,3.649 L21.235,5.601 L19.827,5.601 L19.827,10.849 ZM18.243,16.342 L18.243,18.390 C18.073,18.294 17.875,18.246 17.651,18.246 C17.054,18.246 16.755,18.534 16.755,19.110 L16.755,19.494 L18.147,19.494 L18.147,21.446 L16.755,21.446 L16.755,26.694 L14.275,26.694 L14.275,21.446 L13.203,21.446 L13.203,19.494 L14.275,19.494 L14.275,18.966 C14.275,18.102 14.523,17.417 15.019,16.910 C15.515,16.404 16.201,16.150 17.075,16.150 C17.502,16.150 17.891,16.214 18.243,16.342 ZM13.812,3.041 C13.417,3.041 13.081,2.916 12.804,2.665 C12.526,2.415 12.388,2.092 12.388,1.697 C12.388,1.292 12.526,0.964 12.804,0.713 C13.081,0.463 13.417,0.337 13.812,0.337 C14.206,0.337 14.542,0.463 14.820,0.713 C15.097,0.964 15.236,1.292 15.236,1.697 C15.236,2.092 15.097,2.415 14.820,2.665 C14.542,2.916 14.206,3.041 13.812,3.041 ZM11.988,18.510 C11.710,18.761 11.374,18.886 10.980,18.886 C10.585,18.886 10.249,18.761 9.972,18.510 C9.694,18.260 9.556,17.937 9.556,17.542 C9.556,17.137 9.694,16.809 9.972,16.558 C10.249,16.308 10.585,16.182 10.980,16.182 C11.374,16.182 11.710,16.308 11.988,16.558 C12.265,16.809 12.404,17.137 12.404,17.542 C12.404,17.937 12.265,18.260 11.988,18.510 ZM7.236,10.849 L6.212,7.201 L5.188,10.849 L3.060,10.849 L0.740,3.649 L3.236,3.649 L4.372,7.553 L5.460,3.649 L7.060,3.649 L8.132,7.553 L9.284,3.649 L11.684,3.649 L9.364,10.849 L7.236,10.849 ZM4.100,26.422 C3.108,26.422 2.329,26.086 1.764,25.414 C1.198,24.742 0.916,23.894 0.916,22.870 C0.916,21.846 1.198,21.001 1.764,20.334 C2.329,19.668 3.108,19.334 4.100,19.334 C4.836,19.334 5.401,19.569 5.796,20.038 L5.796,19.494 L8.276,19.494 L8.276,25.654 C8.276,26.913 7.886,27.852 7.108,28.470 C6.329,29.089 5.321,29.398 4.084,29.398 C2.985,29.398 2.121,29.196 1.492,28.790 L1.492,26.486 C2.185,27.073 3.022,27.366 4.004,27.366 C4.526,27.366 4.956,27.252 5.292,27.022 C5.628,26.793 5.796,26.438 5.796,25.958 L5.796,25.718 C5.390,26.188 4.825,26.422 4.100,26.422 ZM5.796,21.926 C5.550,21.521 5.193,21.318 4.724,21.318 C4.318,21.318 3.996,21.462 3.756,21.750 C3.516,22.038 3.396,22.412 3.396,22.870 C3.396,23.329 3.516,23.702 3.756,23.990 C3.996,24.278 4.318,24.422 4.724,24.422 C5.204,24.422 5.561,24.225 5.796,23.830 L5.796,21.926 ZM12.228,26.694 L9.716,26.694 L9.716,19.494 L12.228,19.494 L12.228,26.694 ZM15.060,10.849 L12.548,10.849 L12.548,3.649 L15.060,3.649 L15.060,10.849 ZM19.971,17.510 L22.467,17.510 L22.467,19.494 L23.875,19.494 L23.875,21.446 L22.467,21.446 L22.467,26.694 L19.971,26.694 L19.971,21.446 L18.723,21.446 L18.723,19.494 L19.971,19.494 L19.971,17.510 ZM55.075,3.649 L57.587,3.649 L57.587,10.849 L55.075,10.849 L55.075,3.649 ZM51.043,19.334 C51.395,19.334 51.733,19.406 52.059,19.550 C52.384,19.694 52.637,19.868 52.819,20.070 L52.819,16.294 L55.331,16.294 L55.331,26.694 L52.819,26.694 L52.819,26.118 C52.637,26.321 52.384,26.494 52.059,26.638 C51.733,26.782 51.395,26.854 51.043,26.854 C50.040,26.854 49.253,26.500 48.683,25.790 C48.112,25.081 47.827,24.182 47.827,23.094 C47.827,22.006 48.112,21.108 48.683,20.398 C49.253,19.689 50.040,19.334 51.043,19.334 ZM50.707,24.254 C50.952,24.558 51.288,24.710 51.715,24.710 C52.237,24.710 52.605,24.486 52.819,24.038 L52.819,22.134 C52.723,21.942 52.573,21.782 52.371,21.654 C52.168,21.526 51.949,21.462 51.715,21.462 C51.288,21.462 50.952,21.614 50.707,21.918 C50.461,22.222 50.339,22.614 50.339,23.094 C50.339,23.564 50.461,23.950 50.707,24.254 ZM60.300,16.923 L60.990,17.324 L60.990,16.522 L61.689,16.522 L61.689,17.324 L62.370,16.923 L62.725,17.520 L62.025,17.921 L62.725,18.322 L62.370,18.919 L61.689,18.518 L61.689,19.320 L60.990,19.320 L60.990,18.518 L60.300,18.919 L59.954,18.322 L60.645,17.921 L59.954,17.520 L60.300,16.923 Z"/>
<path fill="url(#PSgrad_0)"
 d="M69.682,10.849 L69.682,10.481 C69.554,10.609 69.330,10.724 69.010,10.825 C68.690,10.927 68.349,10.977 67.986,10.977 C67.240,10.977 66.613,10.772 66.106,10.361 C65.600,9.951 65.346,9.383 65.346,8.657 C65.346,7.975 65.610,7.423 66.138,7.001 C66.666,6.580 67.325,6.369 68.114,6.369 C68.786,6.369 69.309,6.503 69.682,6.769 L69.682,6.513 C69.682,6.225 69.552,5.993 69.290,5.817 C69.029,5.641 68.648,5.553 68.146,5.553 C67.421,5.553 66.765,5.724 66.178,6.065 L66.178,4.049 C66.872,3.676 67.730,3.489 68.754,3.489 C69.821,3.489 70.645,3.737 71.226,4.233 C71.808,4.729 72.098,5.452 72.098,6.401 L72.098,10.849 L69.682,10.849 ZM69.682,8.417 C69.512,8.087 69.176,7.921 68.674,7.921 C68.397,7.921 68.162,7.980 67.970,8.097 C67.778,8.215 67.682,8.385 67.682,8.609 C67.682,8.844 67.778,9.020 67.970,9.137 C68.162,9.255 68.397,9.313 68.674,9.313 C69.165,9.313 69.501,9.153 69.682,8.833 L69.682,8.417 ZM61.763,6.257 L62.419,6.449 C63.208,6.663 63.771,6.943 64.107,7.289 C64.443,7.636 64.611,8.113 64.611,8.721 C64.611,9.468 64.325,10.036 63.755,10.425 C63.184,10.815 62.435,11.009 61.507,11.009 C60.365,11.009 59.453,10.780 58.771,10.321 L58.771,8.209 C59.101,8.476 59.512,8.695 60.003,8.865 C60.493,9.036 60.931,9.121 61.315,9.121 C61.859,9.121 62.131,8.977 62.131,8.689 C62.131,8.455 61.912,8.289 61.475,8.193 L60.915,8.049 C59.464,7.740 58.739,7.004 58.739,5.841 C58.739,5.105 59.011,4.529 59.555,4.113 C60.099,3.697 60.808,3.489 61.683,3.489 C62.664,3.489 63.501,3.703 64.195,4.129 L64.195,6.193 C63.427,5.639 62.669,5.361 61.923,5.361 C61.443,5.361 61.203,5.505 61.203,5.793 C61.203,5.921 61.248,6.017 61.339,6.081 C61.429,6.145 61.571,6.204 61.763,6.257 ZM59.347,25.302 C59.347,25.729 59.203,26.086 58.915,26.374 C58.627,26.662 58.275,26.806 57.859,26.806 C57.453,26.806 57.107,26.662 56.819,26.374 C56.531,26.086 56.387,25.729 56.387,25.302 C56.387,24.886 56.528,24.534 56.811,24.246 C57.093,23.958 57.443,23.814 57.859,23.814 C58.275,23.814 58.627,23.956 58.915,24.238 C59.203,24.521 59.347,24.876 59.347,25.302 ZM56.339,3.041 C55.944,3.041 55.608,2.916 55.331,2.665 C55.053,2.415 54.915,2.092 54.915,1.697 C54.915,1.292 55.053,0.964 55.331,0.713 C55.608,0.463 55.944,0.337 56.339,0.337 C56.733,0.337 57.069,0.463 57.347,0.713 C57.624,0.964 57.763,1.292 57.763,1.697 C57.763,2.092 57.624,2.415 57.347,2.665 C57.069,2.916 56.733,3.041 56.339,3.041 ZM48.035,10.849 L44.371,1.025 L47.123,1.025 L49.347,7.377 L51.571,1.025 L54.211,1.025 L50.547,10.849 L48.035,10.849 ZM44.899,20.134 C45.293,19.601 45.837,19.334 46.531,19.334 C46.840,19.334 47.069,19.377 47.219,19.462 L47.219,21.878 C46.931,21.729 46.584,21.654 46.179,21.654 C45.464,21.654 45.037,21.926 44.899,22.470 L44.899,26.694 L42.387,26.694 L42.387,19.494 L44.899,19.494 L44.899,20.134 ZM38.595,26.326 C38.467,26.454 38.243,26.569 37.923,26.670 C37.603,26.772 37.262,26.822 36.899,26.822 C36.152,26.822 35.526,26.617 35.019,26.206 C34.512,25.796 34.259,25.228 34.259,24.502 C34.259,23.820 34.523,23.268 35.051,22.846 C35.579,22.425 36.238,22.214 37.027,22.214 C37.699,22.214 38.222,22.348 38.595,22.614 L38.595,22.358 C38.595,22.070 38.464,21.838 38.203,21.662 C37.942,21.486 37.560,21.398 37.059,21.398 C36.334,21.398 35.678,21.569 35.091,21.910 L35.091,19.894 C35.784,19.521 36.643,19.334 37.667,19.334 C38.734,19.334 39.558,19.582 40.139,20.078 C40.720,20.574 41.011,21.297 41.011,22.246 L41.011,26.694 L38.595,26.694 L38.595,26.326 ZM38.595,24.262 C38.424,23.932 38.088,23.766 37.587,23.766 C37.310,23.766 37.075,23.825 36.883,23.942 C36.691,24.060 36.595,24.230 36.595,24.454 C36.595,24.689 36.691,24.865 36.883,24.982 C37.075,25.100 37.310,25.158 37.587,25.158 C38.078,25.158 38.414,24.998 38.595,24.678 L38.595,24.262 ZM37.859,10.481 C37.731,10.609 37.507,10.724 37.187,10.825 C36.867,10.927 36.526,10.977 36.163,10.977 C35.416,10.977 34.790,10.772 34.283,10.361 C33.776,9.951 33.523,9.383 33.523,8.657 C33.523,7.975 33.787,7.423 34.315,7.001 C34.843,6.580 35.502,6.369 36.291,6.369 C36.963,6.369 37.486,6.503 37.859,6.769 L37.859,6.513 C37.859,6.225 37.728,5.993 37.467,5.817 C37.206,5.641 36.824,5.553 36.323,5.553 C35.598,5.553 34.942,5.724 34.355,6.065 L34.355,4.049 C35.048,3.676 35.907,3.489 36.931,3.489 C37.998,3.489 38.822,3.737 39.403,4.233 C39.984,4.729 40.275,5.452 40.275,6.401 L40.275,10.849 L37.859,10.849 L37.859,10.481 ZM37.859,8.417 C37.688,8.087 37.352,7.921 36.851,7.921 C36.574,7.921 36.339,7.980 36.147,8.097 C35.955,8.215 35.859,8.385 35.859,8.609 C35.859,8.844 35.955,9.020 36.147,9.137 C36.339,9.255 36.574,9.313 36.851,9.313 C37.342,9.313 37.678,9.153 37.859,8.833 L37.859,8.417 ZM31.539,26.854 C30.441,26.854 29.539,26.513 28.835,25.830 C28.131,25.148 27.779,24.236 27.779,23.094 C27.779,21.953 28.131,21.041 28.835,20.358 C29.539,19.676 30.441,19.334 31.539,19.334 C32.350,19.334 32.995,19.505 33.475,19.846 L33.475,21.958 C33.006,21.617 32.489,21.446 31.923,21.446 C31.443,21.446 31.046,21.590 30.731,21.878 C30.416,22.166 30.259,22.572 30.259,23.094 C30.259,23.617 30.416,24.022 30.731,24.310 C31.046,24.598 31.443,24.742 31.923,24.742 C32.489,24.742 33.006,24.572 33.475,24.230 L33.475,26.342 C32.995,26.684 32.350,26.854 31.539,26.854 ZM26.739,6.737 C26.739,6.428 26.659,6.180 26.499,5.993 C26.339,5.807 26.104,5.713 25.795,5.713 C25.539,5.713 25.318,5.783 25.131,5.921 C24.944,6.060 24.819,6.252 24.755,6.497 L24.755,10.849 L22.243,10.849 L22.243,0.449 L24.755,0.449 L24.755,4.273 C25.224,3.751 25.870,3.489 26.691,3.489 C27.480,3.489 28.102,3.727 28.555,4.201 C29.008,4.676 29.235,5.319 29.235,6.129 L29.235,10.849 L26.739,10.849 L26.739,6.737 ZM19.827,10.849 L17.331,10.849 L17.331,5.601 L16.083,5.601 L16.083,3.649 L17.331,3.649 L17.331,1.665 L19.827,1.665 L19.827,3.649 L21.235,3.649 L21.235,5.601 L19.827,5.601 L19.827,10.849 ZM18.243,16.342 L18.243,18.390 C18.073,18.294 17.875,18.246 17.651,18.246 C17.054,18.246 16.755,18.534 16.755,19.110 L16.755,19.494 L18.147,19.494 L18.147,21.446 L16.755,21.446 L16.755,26.694 L14.275,26.694 L14.275,21.446 L13.203,21.446 L13.203,19.494 L14.275,19.494 L14.275,18.966 C14.275,18.102 14.523,17.417 15.019,16.910 C15.515,16.404 16.201,16.150 17.075,16.150 C17.502,16.150 17.891,16.214 18.243,16.342 ZM13.812,3.041 C13.417,3.041 13.081,2.916 12.804,2.665 C12.526,2.415 12.388,2.092 12.388,1.697 C12.388,1.292 12.526,0.964 12.804,0.713 C13.081,0.463 13.417,0.337 13.812,0.337 C14.206,0.337 14.542,0.463 14.820,0.713 C15.097,0.964 15.236,1.292 15.236,1.697 C15.236,2.092 15.097,2.415 14.820,2.665 C14.542,2.916 14.206,3.041 13.812,3.041 ZM11.988,18.510 C11.710,18.761 11.374,18.886 10.980,18.886 C10.585,18.886 10.249,18.761 9.972,18.510 C9.694,18.260 9.556,17.937 9.556,17.542 C9.556,17.137 9.694,16.809 9.972,16.558 C10.249,16.308 10.585,16.182 10.980,16.182 C11.374,16.182 11.710,16.308 11.988,16.558 C12.265,16.809 12.404,17.137 12.404,17.542 C12.404,17.937 12.265,18.260 11.988,18.510 ZM7.236,10.849 L6.212,7.201 L5.188,10.849 L3.060,10.849 L0.740,3.649 L3.236,3.649 L4.372,7.553 L5.460,3.649 L7.060,3.649 L8.132,7.553 L9.284,3.649 L11.684,3.649 L9.364,10.849 L7.236,10.849 ZM4.100,26.422 C3.108,26.422 2.329,26.086 1.764,25.414 C1.198,24.742 0.916,23.894 0.916,22.870 C0.916,21.846 1.198,21.001 1.764,20.334 C2.329,19.668 3.108,19.334 4.100,19.334 C4.836,19.334 5.401,19.569 5.796,20.038 L5.796,19.494 L8.276,19.494 L8.276,25.654 C8.276,26.913 7.886,27.852 7.108,28.470 C6.329,29.089 5.321,29.398 4.084,29.398 C2.985,29.398 2.121,29.196 1.492,28.790 L1.492,26.486 C2.185,27.073 3.022,27.366 4.004,27.366 C4.526,27.366 4.956,27.252 5.292,27.022 C5.628,26.793 5.796,26.438 5.796,25.958 L5.796,25.718 C5.390,26.188 4.825,26.422 4.100,26.422 ZM5.796,21.926 C5.550,21.521 5.193,21.318 4.724,21.318 C4.318,21.318 3.996,21.462 3.756,21.750 C3.516,22.038 3.396,22.412 3.396,22.870 C3.396,23.329 3.516,23.702 3.756,23.990 C3.996,24.278 4.318,24.422 4.724,24.422 C5.204,24.422 5.561,24.225 5.796,23.830 L5.796,21.926 ZM12.228,26.694 L9.716,26.694 L9.716,19.494 L12.228,19.494 L12.228,26.694 ZM15.060,10.849 L12.548,10.849 L12.548,3.649 L15.060,3.649 L15.060,10.849 ZM19.971,17.510 L22.467,17.510 L22.467,19.494 L23.875,19.494 L23.875,21.446 L22.467,21.446 L22.467,26.694 L19.971,26.694 L19.971,21.446 L18.723,21.446 L18.723,19.494 L19.971,19.494 L19.971,17.510 ZM55.075,3.649 L57.587,3.649 L57.587,10.849 L55.075,10.849 L55.075,3.649 ZM51.043,19.334 C51.395,19.334 51.733,19.406 52.059,19.550 C52.384,19.694 52.637,19.868 52.819,20.070 L52.819,16.294 L55.331,16.294 L55.331,26.694 L52.819,26.694 L52.819,26.118 C52.637,26.321 52.384,26.494 52.059,26.638 C51.733,26.782 51.395,26.854 51.043,26.854 C50.040,26.854 49.253,26.500 48.683,25.790 C48.112,25.081 47.827,24.182 47.827,23.094 C47.827,22.006 48.112,21.108 48.683,20.398 C49.253,19.689 50.040,19.334 51.043,19.334 ZM50.707,24.254 C50.952,24.558 51.288,24.710 51.715,24.710 C52.237,24.710 52.605,24.486 52.819,24.038 L52.819,22.134 C52.723,21.942 52.573,21.782 52.371,21.654 C52.168,21.526 51.949,21.462 51.715,21.462 C51.288,21.462 50.952,21.614 50.707,21.918 C50.461,22.222 50.339,22.614 50.339,23.094 C50.339,23.564 50.461,23.950 50.707,24.254 ZM60.300,16.923 L60.990,17.324 L60.990,16.522 L61.689,16.522 L61.689,17.324 L62.370,16.923 L62.725,17.520 L62.025,17.921 L62.725,18.322 L62.370,18.919 L61.689,18.518 L61.689,19.320 L60.990,19.320 L60.990,18.518 L60.300,18.919 L59.954,18.322 L60.645,17.921 L59.954,17.520 L60.300,16.923 Z"/>
</svg>