<svg 
 xmlns="http://www.w3.org/2000/svg"
 xmlns:xlink="http://www.w3.org/1999/xlink"
 width="123px" height="135px">
<defs>
<linearGradient id="PSgrad_0" x1="0%" x2="68.2%" y1="0%" y2="73.135%">
  <stop offset="0%" stop-color="rgb(238,117,24)" stop-opacity="0.95" />
  <stop offset="100%" stop-color="rgb(253,91,47)" stop-opacity="0.95" />
</linearGradient>

</defs>
<path fill-rule="evenodd"  fill="rgb(227, 114, 34)"
 d="M114.665,40.535 C115.001,41.954 116.075,42.663 117.885,42.663 C119.192,42.663 120.405,42.327 121.525,41.655 L121.525,44.987 C120.517,45.734 119.071,46.107 117.185,46.107 C115.151,46.107 113.513,45.528 112.271,44.371 C111.030,43.214 110.409,41.627 110.409,39.611 C110.409,37.651 110.988,36.050 112.145,34.809 C113.303,33.568 114.759,32.947 116.513,32.947 C118.417,32.947 119.878,33.516 120.895,34.655 C121.913,35.794 122.421,37.324 122.421,39.247 L122.421,40.535 L114.665,40.535 ZM117.941,36.769 C117.624,36.442 117.204,36.279 116.681,36.279 C115.692,36.279 115.039,36.876 114.721,38.071 L118.501,38.071 C118.445,37.530 118.259,37.096 117.941,36.769 ZM104.558,38.631 C104.558,38.090 104.418,37.656 104.138,37.329 C103.858,37.002 103.447,36.839 102.906,36.839 C102.458,36.839 102.070,36.960 101.744,37.203 C101.417,37.446 101.198,37.782 101.086,38.211 L101.086,45.827 L96.690,45.827 L96.690,27.627 L101.086,27.627 L101.086,34.319 C101.907,33.404 103.036,32.947 104.474,32.947 C105.855,32.947 106.942,33.362 107.736,34.193 C108.529,35.024 108.926,36.148 108.926,37.567 L108.926,45.827 L104.558,45.827 L104.558,38.631 ZM91.930,66.631 C91.930,66.090 91.790,65.656 91.510,65.329 C91.230,65.002 90.819,64.839 90.278,64.839 C89.830,64.839 89.442,64.960 89.116,65.203 C88.789,65.446 88.570,65.782 88.458,66.211 L88.458,73.827 L84.062,73.827 L84.062,55.627 L88.458,55.627 L88.458,62.319 C89.279,61.404 90.408,60.947 91.846,60.947 C93.227,60.947 94.314,61.362 95.108,62.193 C95.901,63.024 96.298,64.148 96.298,65.567 L96.298,73.827 L91.930,73.827 L91.930,66.631 ZM92.742,45.827 L88.374,45.827 L88.374,36.643 L86.190,36.643 L86.190,33.227 L88.374,33.227 L88.374,29.755 L92.742,29.755 L92.742,33.227 L95.206,33.227 L95.206,36.643 L92.742,36.643 L92.742,45.827 ZM81.430,104.935 C80.067,106.017 78.303,106.559 76.138,106.559 C74.215,106.559 72.703,106.204 71.602,105.495 L71.602,101.463 C72.815,102.489 74.280,103.003 75.998,103.003 C76.912,103.003 77.664,102.802 78.252,102.401 C78.840,101.999 79.134,101.379 79.134,100.539 L79.134,100.119 C78.424,100.940 77.435,101.351 76.166,101.351 C74.430,101.351 73.067,100.763 72.078,99.587 C71.088,98.411 70.594,96.927 70.594,95.135 C70.594,93.343 71.088,91.864 72.078,90.697 C73.067,89.530 74.430,88.947 76.166,88.947 C77.454,88.947 78.443,89.358 79.134,90.179 L79.134,89.227 L83.474,89.227 L83.474,100.007 C83.474,102.209 82.792,103.852 81.430,104.935 ZM79.134,93.483 C78.704,92.774 78.079,92.419 77.258,92.419 C76.548,92.419 75.984,92.671 75.564,93.175 C75.144,93.679 74.934,94.332 74.934,95.135 C74.934,95.938 75.144,96.591 75.564,97.095 C75.984,97.599 76.548,97.851 77.258,97.851 C78.098,97.851 78.723,97.506 79.134,96.815 L79.134,93.483 ZM80.114,73.827 L75.746,73.827 L75.746,64.643 L73.562,64.643 L73.562,61.227 L75.746,61.227 L75.746,57.755 L80.114,57.755 L80.114,61.227 L82.578,61.227 L82.578,64.643 L80.114,64.643 L80.114,73.827 ZM74.850,44.819 C74.533,45.174 74.089,45.477 73.520,45.729 C72.951,45.981 72.358,46.107 71.742,46.107 C69.987,46.107 68.611,45.486 67.612,44.245 C66.613,43.004 66.114,41.431 66.114,39.527 C66.114,37.623 66.613,36.050 67.612,34.809 C68.611,33.568 69.987,32.947 71.742,32.947 C72.358,32.947 72.951,33.073 73.520,33.325 C74.089,33.577 74.533,33.880 74.850,34.235 L74.850,27.627 L79.246,27.627 L79.246,45.827 L74.850,45.827 L74.850,44.819 ZM74.850,37.847 C74.682,37.511 74.421,37.231 74.066,37.007 C73.711,36.783 73.329,36.671 72.918,36.671 C72.171,36.671 71.583,36.937 71.154,37.469 C70.725,38.001 70.510,38.687 70.510,39.527 C70.510,40.348 70.725,41.025 71.154,41.557 C71.583,42.089 72.171,42.355 72.918,42.355 C73.833,42.355 74.477,41.963 74.850,41.179 L74.850,37.847 ZM62.447,14.663 C63.753,14.663 64.967,14.327 66.087,13.655 L66.087,16.987 C65.079,17.734 63.632,18.107 61.747,18.107 C59.712,18.107 58.074,17.528 56.833,16.371 C55.591,15.214 54.971,13.627 54.971,11.611 C54.971,9.651 55.549,8.050 56.707,6.809 C57.864,5.568 59.320,4.947 61.075,4.947 C62.979,4.947 64.439,5.516 65.457,6.655 C66.474,7.794 66.983,9.324 66.983,11.247 L66.983,12.535 L59.227,12.535 C59.563,13.954 60.636,14.663 62.447,14.663 ZM63.063,10.071 C63.007,9.530 62.820,9.096 62.503,8.769 C62.185,8.442 61.765,8.279 61.243,8.279 C60.253,8.279 59.600,8.876 59.283,10.071 L63.063,10.071 ZM46.207,17.827 L41.419,5.227 L45.899,5.227 L48.307,12.451 L50.659,5.227 L54.971,5.227 L50.155,17.827 L46.207,17.827 ZM38.535,8.279 L35.763,8.279 L37.807,5.087 C37.265,4.975 36.817,4.723 36.463,4.331 C36.108,3.939 35.931,3.435 35.931,2.819 C35.931,2.110 36.178,1.522 36.673,1.055 C37.167,0.588 37.779,0.355 38.507,0.355 C39.235,0.355 39.846,0.598 40.341,1.083 C40.835,1.568 41.083,2.240 41.083,3.099 C41.083,3.939 40.728,4.900 40.019,5.983 L38.535,8.279 ZM30.415,14.663 C31.721,14.663 32.935,14.327 34.055,13.655 L34.055,16.987 C33.047,17.734 31.600,18.107 29.715,18.107 C27.680,18.107 26.042,17.528 24.801,16.371 C23.559,15.214 22.939,13.627 22.939,11.611 C22.939,9.651 23.517,8.050 24.675,6.809 C25.832,5.568 27.288,4.947 29.043,4.947 C30.947,4.947 32.407,5.516 33.425,6.655 C34.442,7.794 34.951,9.324 34.951,11.247 L34.951,12.535 L27.195,12.535 C27.531,13.954 28.604,14.663 30.415,14.663 ZM31.031,10.071 C30.975,9.530 30.788,9.096 30.471,8.769 C30.153,8.442 29.733,8.279 29.211,8.279 C28.221,8.279 27.568,8.876 27.251,10.071 L31.031,10.071 ZM14.623,17.827 L11.963,7.747 L9.275,17.827 L5.159,17.827 L0.651,0.635 L5.243,0.635 L7.651,10.743 L10.311,0.635 L13.727,0.635 L16.359,10.743 L18.739,0.635 L23.275,0.635 L18.739,17.827 L14.623,17.827 ZM7.035,40.059 L8.939,33.227 L11.739,33.227 L13.615,40.059 L15.631,33.227 L19.831,33.227 L15.771,45.827 L12.047,45.827 L10.255,39.443 L8.463,45.827 L4.739,45.827 L0.679,33.227 L5.047,33.227 L7.035,40.059 ZM12.663,63.635 C13.689,64.755 14.203,66.118 14.203,67.723 C14.203,69.552 13.582,71.074 12.341,72.287 C11.099,73.500 9.536,74.107 7.651,74.107 C5.765,74.107 4.202,73.500 2.961,72.287 C1.719,71.074 1.099,69.552 1.099,67.723 C1.099,66.360 1.649,64.746 2.751,62.879 L6.363,56.635 L11.151,56.635 L8.211,61.815 C8.360,61.778 8.500,61.759 8.631,61.759 C10.292,61.890 11.636,62.515 12.663,63.635 ZM7.651,65.203 C6.960,65.203 6.377,65.446 5.901,65.931 C5.425,66.416 5.187,67.014 5.187,67.723 C5.187,68.432 5.420,69.025 5.887,69.501 C6.353,69.977 6.941,70.215 7.651,70.215 C8.379,70.215 8.976,69.977 9.443,69.501 C9.909,69.025 10.143,68.432 10.143,67.723 C10.143,67.014 9.909,66.416 9.443,65.931 C8.976,65.446 8.379,65.203 7.651,65.203 ZM7.035,96.059 L8.939,89.227 L11.739,89.227 L13.615,96.059 L15.631,89.227 L19.831,89.227 L15.771,101.827 L12.047,101.827 L10.255,95.443 L8.463,101.827 L4.739,101.827 L0.679,89.227 L5.047,89.227 L7.035,96.059 ZM6.055,118.235 C6.372,117.880 6.815,117.577 7.385,117.325 C7.954,117.073 8.547,116.947 9.163,116.947 C10.917,116.947 12.294,117.572 13.293,118.823 C14.291,120.074 14.791,121.642 14.791,123.527 C14.791,125.394 14.291,126.957 13.293,128.217 C12.294,129.477 10.917,130.107 9.163,130.107 C8.547,130.107 7.954,129.981 7.385,129.729 C6.815,129.477 6.372,129.174 6.055,128.819 L6.055,134.279 L1.659,134.279 L1.659,117.227 L6.055,117.227 L6.055,118.235 ZM6.055,125.179 C6.428,125.963 7.072,126.355 7.987,126.355 C8.733,126.355 9.321,126.089 9.751,125.557 C10.180,125.025 10.395,124.348 10.395,123.527 C10.395,122.687 10.180,122.001 9.751,121.469 C9.321,120.937 8.733,120.671 7.987,120.671 C7.091,120.671 6.447,121.063 6.055,121.847 L6.055,125.179 ZM21.931,116.947 C23.835,116.947 25.295,117.516 26.313,118.655 C27.330,119.794 27.839,121.324 27.839,123.247 L27.839,124.535 L20.083,124.535 C20.419,125.954 21.492,126.663 23.303,126.663 C24.609,126.663 25.823,126.327 26.943,125.655 L26.943,128.987 C25.935,129.734 24.488,130.107 22.603,130.107 C20.568,130.107 18.930,129.528 17.689,128.371 C16.447,127.214 15.827,125.627 15.827,123.611 C15.827,121.651 16.405,120.050 17.563,118.809 C18.720,117.568 20.176,116.947 21.931,116.947 ZM23.919,122.071 C23.863,121.530 23.676,121.096 23.359,120.769 C23.041,120.442 22.621,120.279 22.099,120.279 C21.109,120.279 20.456,120.876 20.139,122.071 L23.919,122.071 ZM33.858,118.347 C34.549,117.414 35.501,116.947 36.714,116.947 C37.256,116.947 37.657,117.022 37.918,117.171 L37.918,121.399 C37.414,121.138 36.808,121.007 36.098,121.007 C34.848,121.007 34.101,121.483 33.858,122.435 L33.858,129.827 L29.462,129.827 L29.462,117.227 L33.858,117.227 L33.858,118.347 ZM33.831,89.227 L38.227,89.227 L38.227,101.827 L33.831,101.827 L33.831,89.227 ZM36.043,88.163 C35.352,88.163 34.764,87.944 34.279,87.505 C33.793,87.066 33.551,86.502 33.551,85.811 C33.551,85.102 33.793,84.528 34.279,84.089 C34.764,83.650 35.352,83.431 36.043,83.431 C36.733,83.431 37.321,83.650 37.807,84.089 C38.292,84.528 38.535,85.102 38.535,85.811 C38.535,86.502 38.292,87.066 37.807,87.505 C37.321,87.944 36.733,88.163 36.043,88.163 ZM15.967,64.643 L22.715,64.643 L22.715,68.339 L15.967,68.339 L15.967,64.643 ZM26.789,93.021 C26.332,92.713 25.664,92.559 24.787,92.559 C23.518,92.559 22.370,92.858 21.343,93.455 L21.343,89.927 C22.556,89.274 24.059,88.947 25.851,88.947 C27.718,88.947 29.160,89.381 30.177,90.249 C31.194,91.117 31.703,92.382 31.703,94.043 L31.703,101.827 L27.475,101.827 L27.475,101.183 C27.251,101.407 26.859,101.608 26.299,101.785 C25.739,101.962 25.142,102.051 24.507,102.051 C23.200,102.051 22.104,101.692 21.217,100.973 C20.330,100.254 19.887,99.260 19.887,97.991 C19.887,96.796 20.349,95.830 21.273,95.093 C22.197,94.356 23.350,93.987 24.731,93.987 C25.907,93.987 26.822,94.220 27.475,94.687 L27.475,94.239 C27.475,93.735 27.246,93.329 26.789,93.021 ZM25.711,96.703 C25.226,96.703 24.815,96.806 24.479,97.011 C24.143,97.216 23.975,97.515 23.975,97.907 C23.975,98.318 24.143,98.626 24.479,98.831 C24.815,99.036 25.226,99.139 25.711,99.139 C26.570,99.139 27.158,98.859 27.475,98.299 L27.475,97.571 C27.176,96.992 26.588,96.703 25.711,96.703 ZM26.789,37.021 C26.332,36.713 25.664,36.559 24.787,36.559 C23.518,36.559 22.370,36.858 21.343,37.455 L21.343,33.927 C22.556,33.274 24.059,32.947 25.851,32.947 C27.718,32.947 29.160,33.381 30.177,34.249 C31.194,35.117 31.703,36.382 31.703,38.043 L31.703,45.827 L27.475,45.827 L27.475,45.183 C27.251,45.407 26.859,45.608 26.299,45.785 C25.739,45.962 25.142,46.051 24.507,46.051 C23.200,46.051 22.104,45.692 21.217,44.973 C20.330,44.254 19.887,43.260 19.887,41.991 C19.887,40.796 20.349,39.830 21.273,39.093 C22.197,38.356 23.350,37.987 24.731,37.987 C25.907,37.987 26.822,38.220 27.475,38.687 L27.475,38.239 C27.475,37.735 27.246,37.329 26.789,37.021 ZM25.711,40.703 C25.226,40.703 24.815,40.806 24.479,41.011 C24.143,41.216 23.975,41.515 23.975,41.907 C23.975,42.318 24.143,42.626 24.479,42.831 C24.815,43.036 25.226,43.139 25.711,43.139 C26.570,43.139 27.158,42.859 27.475,42.299 L27.475,41.571 C27.176,40.992 26.588,40.703 25.711,40.703 ZM38.227,45.827 L33.831,45.827 L33.831,33.227 L38.227,33.227 L38.227,45.827 ZM34.279,28.089 C34.764,27.650 35.352,27.431 36.043,27.431 C36.733,27.431 37.321,27.650 37.807,28.089 C38.292,28.528 38.535,29.102 38.535,29.811 C38.535,30.502 38.292,31.066 37.807,31.505 C37.321,31.944 36.733,32.163 36.043,32.163 C35.352,32.163 34.764,31.944 34.279,31.505 C33.793,31.066 33.551,30.502 33.551,29.811 C33.551,29.102 33.793,28.528 34.279,28.089 ZM37.149,65.161 C36.859,65.394 36.659,65.726 36.547,66.155 L36.547,73.827 L32.179,73.827 L32.179,66.631 C32.179,65.418 31.703,64.811 30.751,64.811 C30.359,64.811 30.013,64.928 29.715,65.161 C29.416,65.394 29.220,65.726 29.127,66.155 L29.127,73.827 L24.731,73.827 L24.731,61.227 L29.127,61.227 L29.127,62.263 C29.855,61.386 30.937,60.947 32.375,60.947 C33.831,60.947 34.988,61.451 35.847,62.459 C36.817,61.451 38.115,60.947 39.739,60.947 C41.045,60.947 42.081,61.362 42.847,62.193 C43.612,63.024 43.995,64.148 43.995,65.567 L43.995,73.827 L39.599,73.827 L39.599,66.631 C39.599,65.418 39.123,64.811 38.171,64.811 C37.779,64.811 37.438,64.928 37.149,65.161 ZM41.754,111.431 C42.444,111.431 43.032,111.650 43.518,112.089 C44.003,112.528 44.246,113.102 44.246,113.811 C44.246,114.502 44.003,115.066 43.518,115.505 C43.032,115.944 42.444,116.163 41.754,116.163 C41.063,116.163 40.475,115.944 39.990,115.505 C39.504,115.066 39.262,114.502 39.262,113.811 C39.262,113.102 39.504,112.528 39.990,112.089 C40.475,111.650 41.063,111.431 41.754,111.431 ZM43.938,129.827 L39.542,129.827 L39.542,117.227 L43.938,117.227 L43.938,129.827 ZM51.946,116.947 C53.868,116.947 55.422,117.558 56.608,118.781 C57.793,120.004 58.386,121.586 58.386,123.527 C58.386,125.468 57.793,127.050 56.608,128.273 C55.422,129.496 53.868,130.107 51.946,130.107 C50.042,130.107 48.492,129.496 47.298,128.273 C46.103,127.050 45.506,125.468 45.506,123.527 C45.506,121.586 46.103,120.004 47.298,118.781 C48.492,117.558 50.042,116.947 51.946,116.947 ZM50.406,125.655 C50.779,126.196 51.292,126.467 51.946,126.467 C52.618,126.467 53.140,126.201 53.514,125.669 C53.887,125.137 54.074,124.423 54.074,123.527 C54.074,122.631 53.887,121.912 53.514,121.371 C53.140,120.830 52.618,120.559 51.946,120.559 C51.292,120.559 50.779,120.830 50.406,121.371 C50.032,121.912 49.846,122.631 49.846,123.527 C49.846,124.404 50.032,125.114 50.406,125.655 ZM64.742,94.631 C64.742,94.090 64.602,93.656 64.322,93.329 C64.042,93.002 63.631,92.839 63.090,92.839 C62.642,92.839 62.254,92.960 61.928,93.203 C61.601,93.446 61.382,93.782 61.270,94.211 L61.270,101.827 L56.874,101.827 L56.874,89.227 L61.270,89.227 L61.270,90.319 C62.091,89.404 63.220,88.947 64.658,88.947 C66.039,88.947 67.126,89.362 67.920,90.193 C68.713,91.024 69.110,92.148 69.110,93.567 L69.110,101.827 L64.742,101.827 L64.742,94.631 ZM70.944,62.193 C71.738,63.024 72.134,64.148 72.134,65.567 L72.134,73.827 L67.766,73.827 L67.766,66.631 C67.766,66.090 67.626,65.656 67.346,65.329 C67.066,65.002 66.656,64.839 66.114,64.839 C65.666,64.839 65.279,64.960 64.952,65.203 C64.626,65.446 64.406,65.782 64.294,66.211 L64.294,73.827 L59.898,73.827 L59.898,61.227 L64.294,61.227 L64.294,62.319 C65.116,61.404 66.245,60.947 67.682,60.947 C69.064,60.947 70.151,61.362 70.944,62.193 ZM59.143,32.947 C61.047,32.947 62.507,33.516 63.525,34.655 C64.542,35.794 65.051,37.324 65.051,39.247 L65.051,40.535 L57.295,40.535 C57.631,41.954 58.704,42.663 60.515,42.663 C61.821,42.663 63.035,42.327 64.155,41.655 L64.155,44.987 C63.147,45.734 61.700,46.107 59.815,46.107 C57.780,46.107 56.142,45.528 54.901,44.371 C53.659,43.214 53.039,41.627 53.039,39.611 C53.039,37.651 53.617,36.050 54.775,34.809 C55.932,33.568 57.388,32.947 59.143,32.947 ZM61.131,38.071 C61.075,37.530 60.888,37.096 60.571,36.769 C60.253,36.442 59.833,36.279 59.311,36.279 C58.321,36.279 57.668,36.876 57.351,38.071 L61.131,38.071 ZM43.967,33.227 L46.375,40.451 L48.727,33.227 L53.039,33.227 L48.223,45.827 L44.275,45.827 L39.487,33.227 L43.967,33.227 ZM45.451,67.527 C45.451,65.586 46.048,64.004 47.243,62.781 C48.437,61.558 49.987,60.947 51.891,60.947 C53.813,60.947 55.367,61.558 56.553,62.781 C57.738,64.004 58.331,65.586 58.331,67.527 C58.331,69.468 57.738,71.050 56.553,72.273 C55.367,73.496 53.813,74.107 51.891,74.107 C49.987,74.107 48.437,73.496 47.243,72.273 C46.048,71.050 45.451,69.468 45.451,67.527 ZM50.351,69.655 C50.724,70.196 51.237,70.467 51.891,70.467 C52.563,70.467 53.085,70.201 53.459,69.669 C53.832,69.137 54.019,68.423 54.019,67.527 C54.019,66.631 53.832,65.912 53.459,65.371 C53.085,64.830 52.563,64.559 51.891,64.559 C51.237,64.559 50.724,64.830 50.351,65.371 C49.977,65.912 49.791,66.631 49.791,67.527 C49.791,68.404 49.977,69.114 50.351,69.655 ZM54.634,101.827 L50.238,101.827 L50.238,89.227 L54.634,89.227 L54.634,101.827 ZM50.686,84.089 C51.172,83.650 51.760,83.431 52.450,83.431 C53.141,83.431 53.729,83.650 54.214,84.089 C54.700,84.528 54.942,85.102 54.942,85.811 C54.942,86.502 54.700,87.066 54.214,87.505 C53.729,87.944 53.141,88.163 52.450,88.163 C51.760,88.163 51.172,87.944 50.686,87.505 C50.201,87.066 49.958,86.502 49.958,85.811 C49.958,85.102 50.201,84.528 50.686,84.089 ZM46.291,85.755 L46.291,89.227 L48.755,89.227 L48.755,92.643 L46.291,92.643 L46.291,101.827 L41.923,101.827 L41.923,92.643 L39.739,92.643 L39.739,89.227 L41.923,89.227 L41.923,85.755 L46.291,85.755 ZM65.078,116.947 C65.694,116.947 66.286,117.073 66.856,117.325 C67.425,117.577 67.868,117.880 68.186,118.235 L68.186,111.627 L72.582,111.627 L72.582,129.827 L68.186,129.827 L68.186,128.819 C67.868,129.174 67.425,129.477 66.856,129.729 C66.286,129.981 65.694,130.107 65.078,130.107 C63.323,130.107 61.946,129.486 60.948,128.245 C59.949,127.004 59.450,125.431 59.450,123.527 C59.450,121.623 59.949,120.050 60.948,118.809 C61.946,117.568 63.323,116.947 65.078,116.947 ZM64.490,125.557 C64.919,126.089 65.507,126.355 66.254,126.355 C67.168,126.355 67.812,125.963 68.186,125.179 L68.186,121.847 C68.018,121.511 67.756,121.231 67.402,121.007 C67.047,120.783 66.664,120.671 66.254,120.671 C65.507,120.671 64.919,120.937 64.490,121.469 C64.060,122.001 63.846,122.687 63.846,123.527 C63.846,124.348 64.060,125.025 64.490,125.557 Z"/>
<path fill="url(#PSgrad_0)"
 d="M114.665,40.535 C115.001,41.954 116.075,42.663 117.885,42.663 C119.192,42.663 120.405,42.327 121.525,41.655 L121.525,44.987 C120.517,45.734 119.071,46.107 117.185,46.107 C115.151,46.107 113.513,45.528 112.271,44.371 C111.030,43.214 110.409,41.627 110.409,39.611 C110.409,37.651 110.988,36.050 112.145,34.809 C113.303,33.568 114.759,32.947 116.513,32.947 C118.417,32.947 119.878,33.516 120.895,34.655 C121.913,35.794 122.421,37.324 122.421,39.247 L122.421,40.535 L114.665,40.535 ZM117.941,36.769 C117.624,36.442 117.204,36.279 116.681,36.279 C115.692,36.279 115.039,36.876 114.721,38.071 L118.501,38.071 C118.445,37.530 118.259,37.096 117.941,36.769 ZM104.558,38.631 C104.558,38.090 104.418,37.656 104.138,37.329 C103.858,37.002 103.447,36.839 102.906,36.839 C102.458,36.839 102.070,36.960 101.744,37.203 C101.417,37.446 101.198,37.782 101.086,38.211 L101.086,45.827 L96.690,45.827 L96.690,27.627 L101.086,27.627 L101.086,34.319 C101.907,33.404 103.036,32.947 104.474,32.947 C105.855,32.947 106.942,33.362 107.736,34.193 C108.529,35.024 108.926,36.148 108.926,37.567 L108.926,45.827 L104.558,45.827 L104.558,38.631 ZM91.930,66.631 C91.930,66.090 91.790,65.656 91.510,65.329 C91.230,65.002 90.819,64.839 90.278,64.839 C89.830,64.839 89.442,64.960 89.116,65.203 C88.789,65.446 88.570,65.782 88.458,66.211 L88.458,73.827 L84.062,73.827 L84.062,55.627 L88.458,55.627 L88.458,62.319 C89.279,61.404 90.408,60.947 91.846,60.947 C93.227,60.947 94.314,61.362 95.108,62.193 C95.901,63.024 96.298,64.148 96.298,65.567 L96.298,73.827 L91.930,73.827 L91.930,66.631 ZM92.742,45.827 L88.374,45.827 L88.374,36.643 L86.190,36.643 L86.190,33.227 L88.374,33.227 L88.374,29.755 L92.742,29.755 L92.742,33.227 L95.206,33.227 L95.206,36.643 L92.742,36.643 L92.742,45.827 ZM81.430,104.935 C80.067,106.017 78.303,106.559 76.138,106.559 C74.215,106.559 72.703,106.204 71.602,105.495 L71.602,101.463 C72.815,102.489 74.280,103.003 75.998,103.003 C76.912,103.003 77.664,102.802 78.252,102.401 C78.840,101.999 79.134,101.379 79.134,100.539 L79.134,100.119 C78.424,100.940 77.435,101.351 76.166,101.351 C74.430,101.351 73.067,100.763 72.078,99.587 C71.088,98.411 70.594,96.927 70.594,95.135 C70.594,93.343 71.088,91.864 72.078,90.697 C73.067,89.530 74.430,88.947 76.166,88.947 C77.454,88.947 78.443,89.358 79.134,90.179 L79.134,89.227 L83.474,89.227 L83.474,100.007 C83.474,102.209 82.792,103.852 81.430,104.935 ZM79.134,93.483 C78.704,92.774 78.079,92.419 77.258,92.419 C76.548,92.419 75.984,92.671 75.564,93.175 C75.144,93.679 74.934,94.332 74.934,95.135 C74.934,95.938 75.144,96.591 75.564,97.095 C75.984,97.599 76.548,97.851 77.258,97.851 C78.098,97.851 78.723,97.506 79.134,96.815 L79.134,93.483 ZM80.114,73.827 L75.746,73.827 L75.746,64.643 L73.562,64.643 L73.562,61.227 L75.746,61.227 L75.746,57.755 L80.114,57.755 L80.114,61.227 L82.578,61.227 L82.578,64.643 L80.114,64.643 L80.114,73.827 ZM74.850,44.819 C74.533,45.174 74.089,45.477 73.520,45.729 C72.951,45.981 72.358,46.107 71.742,46.107 C69.987,46.107 68.611,45.486 67.612,44.245 C66.613,43.004 66.114,41.431 66.114,39.527 C66.114,37.623 66.613,36.050 67.612,34.809 C68.611,33.568 69.987,32.947 71.742,32.947 C72.358,32.947 72.951,33.073 73.520,33.325 C74.089,33.577 74.533,33.880 74.850,34.235 L74.850,27.627 L79.246,27.627 L79.246,45.827 L74.850,45.827 L74.850,44.819 ZM74.850,37.847 C74.682,37.511 74.421,37.231 74.066,37.007 C73.711,36.783 73.329,36.671 72.918,36.671 C72.171,36.671 71.583,36.937 71.154,37.469 C70.725,38.001 70.510,38.687 70.510,39.527 C70.510,40.348 70.725,41.025 71.154,41.557 C71.583,42.089 72.171,42.355 72.918,42.355 C73.833,42.355 74.477,41.963 74.850,41.179 L74.850,37.847 ZM62.447,14.663 C63.753,14.663 64.967,14.327 66.087,13.655 L66.087,16.987 C65.079,17.734 63.632,18.107 61.747,18.107 C59.712,18.107 58.074,17.528 56.833,16.371 C55.591,15.214 54.971,13.627 54.971,11.611 C54.971,9.651 55.549,8.050 56.707,6.809 C57.864,5.568 59.320,4.947 61.075,4.947 C62.979,4.947 64.439,5.516 65.457,6.655 C66.474,7.794 66.983,9.324 66.983,11.247 L66.983,12.535 L59.227,12.535 C59.563,13.954 60.636,14.663 62.447,14.663 ZM63.063,10.071 C63.007,9.530 62.820,9.096 62.503,8.769 C62.185,8.442 61.765,8.279 61.243,8.279 C60.253,8.279 59.600,8.876 59.283,10.071 L63.063,10.071 ZM46.207,17.827 L41.419,5.227 L45.899,5.227 L48.307,12.451 L50.659,5.227 L54.971,5.227 L50.155,17.827 L46.207,17.827 ZM38.535,8.279 L35.763,8.279 L37.807,5.087 C37.265,4.975 36.817,4.723 36.463,4.331 C36.108,3.939 35.931,3.435 35.931,2.819 C35.931,2.110 36.178,1.522 36.673,1.055 C37.167,0.588 37.779,0.355 38.507,0.355 C39.235,0.355 39.846,0.598 40.341,1.083 C40.835,1.568 41.083,2.240 41.083,3.099 C41.083,3.939 40.728,4.900 40.019,5.983 L38.535,8.279 ZM30.415,14.663 C31.721,14.663 32.935,14.327 34.055,13.655 L34.055,16.987 C33.047,17.734 31.600,18.107 29.715,18.107 C27.680,18.107 26.042,17.528 24.801,16.371 C23.559,15.214 22.939,13.627 22.939,11.611 C22.939,9.651 23.517,8.050 24.675,6.809 C25.832,5.568 27.288,4.947 29.043,4.947 C30.947,4.947 32.407,5.516 33.425,6.655 C34.442,7.794 34.951,9.324 34.951,11.247 L34.951,12.535 L27.195,12.535 C27.531,13.954 28.604,14.663 30.415,14.663 ZM31.031,10.071 C30.975,9.530 30.788,9.096 30.471,8.769 C30.153,8.442 29.733,8.279 29.211,8.279 C28.221,8.279 27.568,8.876 27.251,10.071 L31.031,10.071 ZM14.623,17.827 L11.963,7.747 L9.275,17.827 L5.159,17.827 L0.651,0.635 L5.243,0.635 L7.651,10.743 L10.311,0.635 L13.727,0.635 L16.359,10.743 L18.739,0.635 L23.275,0.635 L18.739,17.827 L14.623,17.827 ZM7.035,40.059 L8.939,33.227 L11.739,33.227 L13.615,40.059 L15.631,33.227 L19.831,33.227 L15.771,45.827 L12.047,45.827 L10.255,39.443 L8.463,45.827 L4.739,45.827 L0.679,33.227 L5.047,33.227 L7.035,40.059 ZM12.663,63.635 C13.689,64.755 14.203,66.118 14.203,67.723 C14.203,69.552 13.582,71.074 12.341,72.287 C11.099,73.500 9.536,74.107 7.651,74.107 C5.765,74.107 4.202,73.500 2.961,72.287 C1.719,71.074 1.099,69.552 1.099,67.723 C1.099,66.360 1.649,64.746 2.751,62.879 L6.363,56.635 L11.151,56.635 L8.211,61.815 C8.360,61.778 8.500,61.759 8.631,61.759 C10.292,61.890 11.636,62.515 12.663,63.635 ZM7.651,65.203 C6.960,65.203 6.377,65.446 5.901,65.931 C5.425,66.416 5.187,67.014 5.187,67.723 C5.187,68.432 5.420,69.025 5.887,69.501 C6.353,69.977 6.941,70.215 7.651,70.215 C8.379,70.215 8.976,69.977 9.443,69.501 C9.909,69.025 10.143,68.432 10.143,67.723 C10.143,67.014 9.909,66.416 9.443,65.931 C8.976,65.446 8.379,65.203 7.651,65.203 ZM7.035,96.059 L8.939,89.227 L11.739,89.227 L13.615,96.059 L15.631,89.227 L19.831,89.227 L15.771,101.827 L12.047,101.827 L10.255,95.443 L8.463,101.827 L4.739,101.827 L0.679,89.227 L5.047,89.227 L7.035,96.059 ZM6.055,118.235 C6.372,117.880 6.815,117.577 7.385,117.325 C7.954,117.073 8.547,116.947 9.163,116.947 C10.917,116.947 12.294,117.572 13.293,118.823 C14.291,120.074 14.791,121.642 14.791,123.527 C14.791,125.394 14.291,126.957 13.293,128.217 C12.294,129.477 10.917,130.107 9.163,130.107 C8.547,130.107 7.954,129.981 7.385,129.729 C6.815,129.477 6.372,129.174 6.055,128.819 L6.055,134.279 L1.659,134.279 L1.659,117.227 L6.055,117.227 L6.055,118.235 ZM6.055,125.179 C6.428,125.963 7.072,126.355 7.987,126.355 C8.733,126.355 9.321,126.089 9.751,125.557 C10.180,125.025 10.395,124.348 10.395,123.527 C10.395,122.687 10.180,122.001 9.751,121.469 C9.321,120.937 8.733,120.671 7.987,120.671 C7.091,120.671 6.447,121.063 6.055,121.847 L6.055,125.179 ZM21.931,116.947 C23.835,116.947 25.295,117.516 26.313,118.655 C27.330,119.794 27.839,121.324 27.839,123.247 L27.839,124.535 L20.083,124.535 C20.419,125.954 21.492,126.663 23.303,126.663 C24.609,126.663 25.823,126.327 26.943,125.655 L26.943,128.987 C25.935,129.734 24.488,130.107 22.603,130.107 C20.568,130.107 18.930,129.528 17.689,128.371 C16.447,127.214 15.827,125.627 15.827,123.611 C15.827,121.651 16.405,120.050 17.563,118.809 C18.720,117.568 20.176,116.947 21.931,116.947 ZM23.919,122.071 C23.863,121.530 23.676,121.096 23.359,120.769 C23.041,120.442 22.621,120.279 22.099,120.279 C21.109,120.279 20.456,120.876 20.139,122.071 L23.919,122.071 ZM33.858,118.347 C34.549,117.414 35.501,116.947 36.714,116.947 C37.256,116.947 37.657,117.022 37.918,117.171 L37.918,121.399 C37.414,121.138 36.808,121.007 36.098,121.007 C34.848,121.007 34.101,121.483 33.858,122.435 L33.858,129.827 L29.462,129.827 L29.462,117.227 L33.858,117.227 L33.858,118.347 ZM33.831,89.227 L38.227,89.227 L38.227,101.827 L33.831,101.827 L33.831,89.227 ZM36.043,88.163 C35.352,88.163 34.764,87.944 34.279,87.505 C33.793,87.066 33.551,86.502 33.551,85.811 C33.551,85.102 33.793,84.528 34.279,84.089 C34.764,83.650 35.352,83.431 36.043,83.431 C36.733,83.431 37.321,83.650 37.807,84.089 C38.292,84.528 38.535,85.102 38.535,85.811 C38.535,86.502 38.292,87.066 37.807,87.505 C37.321,87.944 36.733,88.163 36.043,88.163 ZM15.967,64.643 L22.715,64.643 L22.715,68.339 L15.967,68.339 L15.967,64.643 ZM26.789,93.021 C26.332,92.713 25.664,92.559 24.787,92.559 C23.518,92.559 22.370,92.858 21.343,93.455 L21.343,89.927 C22.556,89.274 24.059,88.947 25.851,88.947 C27.718,88.947 29.160,89.381 30.177,90.249 C31.194,91.117 31.703,92.382 31.703,94.043 L31.703,101.827 L27.475,101.827 L27.475,101.183 C27.251,101.407 26.859,101.608 26.299,101.785 C25.739,101.962 25.142,102.051 24.507,102.051 C23.200,102.051 22.104,101.692 21.217,100.973 C20.330,100.254 19.887,99.260 19.887,97.991 C19.887,96.796 20.349,95.830 21.273,95.093 C22.197,94.356 23.350,93.987 24.731,93.987 C25.907,93.987 26.822,94.220 27.475,94.687 L27.475,94.239 C27.475,93.735 27.246,93.329 26.789,93.021 ZM25.711,96.703 C25.226,96.703 24.815,96.806 24.479,97.011 C24.143,97.216 23.975,97.515 23.975,97.907 C23.975,98.318 24.143,98.626 24.479,98.831 C24.815,99.036 25.226,99.139 25.711,99.139 C26.570,99.139 27.158,98.859 27.475,98.299 L27.475,97.571 C27.176,96.992 26.588,96.703 25.711,96.703 ZM26.789,37.021 C26.332,36.713 25.664,36.559 24.787,36.559 C23.518,36.559 22.370,36.858 21.343,37.455 L21.343,33.927 C22.556,33.274 24.059,32.947 25.851,32.947 C27.718,32.947 29.160,33.381 30.177,34.249 C31.194,35.117 31.703,36.382 31.703,38.043 L31.703,45.827 L27.475,45.827 L27.475,45.183 C27.251,45.407 26.859,45.608 26.299,45.785 C25.739,45.962 25.142,46.051 24.507,46.051 C23.200,46.051 22.104,45.692 21.217,44.973 C20.330,44.254 19.887,43.260 19.887,41.991 C19.887,40.796 20.349,39.830 21.273,39.093 C22.197,38.356 23.350,37.987 24.731,37.987 C25.907,37.987 26.822,38.220 27.475,38.687 L27.475,38.239 C27.475,37.735 27.246,37.329 26.789,37.021 ZM25.711,40.703 C25.226,40.703 24.815,40.806 24.479,41.011 C24.143,41.216 23.975,41.515 23.975,41.907 C23.975,42.318 24.143,42.626 24.479,42.831 C24.815,43.036 25.226,43.139 25.711,43.139 C26.570,43.139 27.158,42.859 27.475,42.299 L27.475,41.571 C27.176,40.992 26.588,40.703 25.711,40.703 ZM38.227,45.827 L33.831,45.827 L33.831,33.227 L38.227,33.227 L38.227,45.827 ZM34.279,28.089 C34.764,27.650 35.352,27.431 36.043,27.431 C36.733,27.431 37.321,27.650 37.807,28.089 C38.292,28.528 38.535,29.102 38.535,29.811 C38.535,30.502 38.292,31.066 37.807,31.505 C37.321,31.944 36.733,32.163 36.043,32.163 C35.352,32.163 34.764,31.944 34.279,31.505 C33.793,31.066 33.551,30.502 33.551,29.811 C33.551,29.102 33.793,28.528 34.279,28.089 ZM37.149,65.161 C36.859,65.394 36.659,65.726 36.547,66.155 L36.547,73.827 L32.179,73.827 L32.179,66.631 C32.179,65.418 31.703,64.811 30.751,64.811 C30.359,64.811 30.013,64.928 29.715,65.161 C29.416,65.394 29.220,65.726 29.127,66.155 L29.127,73.827 L24.731,73.827 L24.731,61.227 L29.127,61.227 L29.127,62.263 C29.855,61.386 30.937,60.947 32.375,60.947 C33.831,60.947 34.988,61.451 35.847,62.459 C36.817,61.451 38.115,60.947 39.739,60.947 C41.045,60.947 42.081,61.362 42.847,62.193 C43.612,63.024 43.995,64.148 43.995,65.567 L43.995,73.827 L39.599,73.827 L39.599,66.631 C39.599,65.418 39.123,64.811 38.171,64.811 C37.779,64.811 37.438,64.928 37.149,65.161 ZM41.754,111.431 C42.444,111.431 43.032,111.650 43.518,112.089 C44.003,112.528 44.246,113.102 44.246,113.811 C44.246,114.502 44.003,115.066 43.518,115.505 C43.032,115.944 42.444,116.163 41.754,116.163 C41.063,116.163 40.475,115.944 39.990,115.505 C39.504,115.066 39.262,114.502 39.262,113.811 C39.262,113.102 39.504,112.528 39.990,112.089 C40.475,111.650 41.063,111.431 41.754,111.431 ZM43.938,129.827 L39.542,129.827 L39.542,117.227 L43.938,117.227 L43.938,129.827 ZM51.946,116.947 C53.868,116.947 55.422,117.558 56.608,118.781 C57.793,120.004 58.386,121.586 58.386,123.527 C58.386,125.468 57.793,127.050 56.608,128.273 C55.422,129.496 53.868,130.107 51.946,130.107 C50.042,130.107 48.492,129.496 47.298,128.273 C46.103,127.050 45.506,125.468 45.506,123.527 C45.506,121.586 46.103,120.004 47.298,118.781 C48.492,117.558 50.042,116.947 51.946,116.947 ZM50.406,125.655 C50.779,126.196 51.292,126.467 51.946,126.467 C52.618,126.467 53.140,126.201 53.514,125.669 C53.887,125.137 54.074,124.423 54.074,123.527 C54.074,122.631 53.887,121.912 53.514,121.371 C53.140,120.830 52.618,120.559 51.946,120.559 C51.292,120.559 50.779,120.830 50.406,121.371 C50.032,121.912 49.846,122.631 49.846,123.527 C49.846,124.404 50.032,125.114 50.406,125.655 ZM64.742,94.631 C64.742,94.090 64.602,93.656 64.322,93.329 C64.042,93.002 63.631,92.839 63.090,92.839 C62.642,92.839 62.254,92.960 61.928,93.203 C61.601,93.446 61.382,93.782 61.270,94.211 L61.270,101.827 L56.874,101.827 L56.874,89.227 L61.270,89.227 L61.270,90.319 C62.091,89.404 63.220,88.947 64.658,88.947 C66.039,88.947 67.126,89.362 67.920,90.193 C68.713,91.024 69.110,92.148 69.110,93.567 L69.110,101.827 L64.742,101.827 L64.742,94.631 ZM70.944,62.193 C71.738,63.024 72.134,64.148 72.134,65.567 L72.134,73.827 L67.766,73.827 L67.766,66.631 C67.766,66.090 67.626,65.656 67.346,65.329 C67.066,65.002 66.656,64.839 66.114,64.839 C65.666,64.839 65.279,64.960 64.952,65.203 C64.626,65.446 64.406,65.782 64.294,66.211 L64.294,73.827 L59.898,73.827 L59.898,61.227 L64.294,61.227 L64.294,62.319 C65.116,61.404 66.245,60.947 67.682,60.947 C69.064,60.947 70.151,61.362 70.944,62.193 ZM59.143,32.947 C61.047,32.947 62.507,33.516 63.525,34.655 C64.542,35.794 65.051,37.324 65.051,39.247 L65.051,40.535 L57.295,40.535 C57.631,41.954 58.704,42.663 60.515,42.663 C61.821,42.663 63.035,42.327 64.155,41.655 L64.155,44.987 C63.147,45.734 61.700,46.107 59.815,46.107 C57.780,46.107 56.142,45.528 54.901,44.371 C53.659,43.214 53.039,41.627 53.039,39.611 C53.039,37.651 53.617,36.050 54.775,34.809 C55.932,33.568 57.388,32.947 59.143,32.947 ZM61.131,38.071 C61.075,37.530 60.888,37.096 60.571,36.769 C60.253,36.442 59.833,36.279 59.311,36.279 C58.321,36.279 57.668,36.876 57.351,38.071 L61.131,38.071 ZM43.967,33.227 L46.375,40.451 L48.727,33.227 L53.039,33.227 L48.223,45.827 L44.275,45.827 L39.487,33.227 L43.967,33.227 ZM45.451,67.527 C45.451,65.586 46.048,64.004 47.243,62.781 C48.437,61.558 49.987,60.947 51.891,60.947 C53.813,60.947 55.367,61.558 56.553,62.781 C57.738,64.004 58.331,65.586 58.331,67.527 C58.331,69.468 57.738,71.050 56.553,72.273 C55.367,73.496 53.813,74.107 51.891,74.107 C49.987,74.107 48.437,73.496 47.243,72.273 C46.048,71.050 45.451,69.468 45.451,67.527 ZM50.351,69.655 C50.724,70.196 51.237,70.467 51.891,70.467 C52.563,70.467 53.085,70.201 53.459,69.669 C53.832,69.137 54.019,68.423 54.019,67.527 C54.019,66.631 53.832,65.912 53.459,65.371 C53.085,64.830 52.563,64.559 51.891,64.559 C51.237,64.559 50.724,64.830 50.351,65.371 C49.977,65.912 49.791,66.631 49.791,67.527 C49.791,68.404 49.977,69.114 50.351,69.655 ZM54.634,101.827 L50.238,101.827 L50.238,89.227 L54.634,89.227 L54.634,101.827 ZM50.686,84.089 C51.172,83.650 51.760,83.431 52.450,83.431 C53.141,83.431 53.729,83.650 54.214,84.089 C54.700,84.528 54.942,85.102 54.942,85.811 C54.942,86.502 54.700,87.066 54.214,87.505 C53.729,87.944 53.141,88.163 52.450,88.163 C51.760,88.163 51.172,87.944 50.686,87.505 C50.201,87.066 49.958,86.502 49.958,85.811 C49.958,85.102 50.201,84.528 50.686,84.089 ZM46.291,85.755 L46.291,89.227 L48.755,89.227 L48.755,92.643 L46.291,92.643 L46.291,101.827 L41.923,101.827 L41.923,92.643 L39.739,92.643 L39.739,89.227 L41.923,89.227 L41.923,85.755 L46.291,85.755 ZM65.078,116.947 C65.694,116.947 66.286,117.073 66.856,117.325 C67.425,117.577 67.868,117.880 68.186,118.235 L68.186,111.627 L72.582,111.627 L72.582,129.827 L68.186,129.827 L68.186,128.819 C67.868,129.174 67.425,129.477 66.856,129.729 C66.286,129.981 65.694,130.107 65.078,130.107 C63.323,130.107 61.946,129.486 60.948,128.245 C59.949,127.004 59.450,125.431 59.450,123.527 C59.450,121.623 59.949,120.050 60.948,118.809 C61.946,117.568 63.323,116.947 65.078,116.947 ZM64.490,125.557 C64.919,126.089 65.507,126.355 66.254,126.355 C67.168,126.355 67.812,125.963 68.186,125.179 L68.186,121.847 C68.018,121.511 67.756,121.231 67.402,121.007 C67.047,120.783 66.664,120.671 66.254,120.671 C65.507,120.671 64.919,120.937 64.490,121.469 C64.060,122.001 63.846,122.687 63.846,123.527 C63.846,124.348 64.060,125.025 64.490,125.557 Z"/>
</svg>