<svg 
 xmlns="http://www.w3.org/2000/svg"
 xmlns:xlink="http://www.w3.org/1999/xlink"
 width="200px" height="110px">
<defs>
<linearGradient id="PSgrad_0" x1="0%" x2="68.2%" y1="0%" y2="73.135%">
  <stop offset="0%" stop-color="rgb(238,117,24)" stop-opacity="0.95" />
  <stop offset="100%" stop-color="rgb(253,91,47)" stop-opacity="0.95" />
</linearGradient>

</defs>
<path fill-rule="evenodd"  fill="rgb(227, 114, 34)"
 d="M198.400,48.187 C197.824,48.763 197.120,49.051 196.288,49.051 C195.477,49.051 194.784,48.763 194.208,48.187 C193.632,47.611 193.344,46.896 193.344,46.043 C193.344,45.211 193.627,44.507 194.192,43.931 C194.757,43.355 195.456,43.067 196.288,43.067 C197.120,43.067 197.824,43.350 198.400,43.915 C198.976,44.480 199.264,45.190 199.264,46.043 C199.264,46.896 198.976,47.611 198.400,48.187 ZM186.528,47.675 C186.166,48.080 185.659,48.427 185.008,48.715 C184.358,49.003 183.681,49.147 182.976,49.147 C180.971,49.147 179.398,48.438 178.256,47.019 C177.115,45.600 176.545,43.803 176.545,41.627 C176.545,39.451 177.115,37.654 178.256,36.235 C179.398,34.816 180.971,34.107 182.976,34.107 C183.681,34.107 184.358,34.251 185.008,34.539 C185.659,34.827 186.166,35.174 186.528,35.579 L186.528,28.027 L191.553,28.027 L191.553,48.827 L186.528,48.827 L186.528,47.675 ZM186.528,39.707 C186.336,39.323 186.038,39.003 185.633,38.747 C185.227,38.491 184.790,38.363 184.321,38.363 C183.467,38.363 182.795,38.667 182.304,39.275 C181.814,39.883 181.569,40.667 181.569,41.627 C181.569,42.566 181.814,43.339 182.304,43.947 C182.795,44.555 183.467,44.859 184.321,44.859 C185.366,44.859 186.101,44.411 186.528,43.515 L186.528,39.707 ZM175.935,12.603 C175.935,11.984 175.775,11.488 175.455,11.115 C175.135,10.742 174.665,10.555 174.047,10.555 C173.535,10.555 173.092,10.694 172.719,10.971 C172.345,11.248 172.095,11.632 171.967,12.123 L171.967,20.827 L166.943,20.827 L166.943,0.027 L171.967,0.027 L171.967,7.675 C172.905,6.630 174.196,6.107 175.839,6.107 C177.417,6.107 178.660,6.582 179.567,7.531 C180.473,8.480 180.927,9.766 180.927,11.387 L180.927,20.827 L175.935,20.827 L175.935,12.603 ZM162.431,20.827 L157.439,20.827 L157.439,10.331 L154.943,10.331 L154.943,6.427 L157.439,6.427 L157.439,2.459 L162.431,2.459 L162.431,6.427 L165.247,6.427 L165.247,10.331 L162.431,10.331 L162.431,20.827 ZM158.641,36.059 C159.804,37.360 160.385,39.110 160.385,41.307 L160.385,42.779 L151.521,42.779 C151.905,44.400 153.132,45.211 155.201,45.211 C156.694,45.211 158.081,44.827 159.361,44.059 L159.361,47.867 C158.209,48.720 156.556,49.147 154.401,49.147 C152.076,49.147 150.204,48.486 148.785,47.163 C147.366,45.840 146.657,44.027 146.657,41.723 C146.657,39.483 147.318,37.654 148.641,36.235 C149.964,34.816 151.628,34.107 153.633,34.107 C155.809,34.107 157.478,34.758 158.641,36.059 ZM155.265,38.475 C154.902,38.102 154.422,37.915 153.825,37.915 C152.694,37.915 151.948,38.598 151.585,39.963 L155.905,39.963 C155.841,39.344 155.628,38.848 155.265,38.475 ZM148.192,0.027 L153.216,0.027 L153.216,20.827 L148.192,20.827 L148.192,0.027 ZM140.928,20.091 C140.672,20.347 140.224,20.576 139.584,20.779 C138.944,20.981 138.261,21.083 137.536,21.083 C136.042,21.083 134.789,20.672 133.776,19.851 C132.762,19.030 132.256,17.894 132.256,16.443 C132.256,15.078 132.784,13.974 133.840,13.131 C134.896,12.288 136.213,11.867 137.792,11.867 C139.136,11.867 140.181,12.134 140.928,12.667 L140.928,12.155 C140.928,11.579 140.666,11.115 140.144,10.763 C139.621,10.411 138.858,10.235 137.856,10.235 C136.405,10.235 135.093,10.576 133.920,11.259 L133.920,7.227 C135.306,6.480 137.024,6.107 139.072,6.107 C141.205,6.107 142.853,6.603 144.016,7.595 C145.178,8.587 145.760,10.032 145.760,11.931 L145.760,20.827 L140.928,20.827 L140.928,20.091 ZM140.928,15.963 C140.586,15.302 139.914,14.971 138.912,14.971 C138.357,14.971 137.888,15.088 137.504,15.323 C137.120,15.558 136.928,15.899 136.928,16.347 C136.928,16.816 137.120,17.168 137.504,17.403 C137.888,17.638 138.357,17.755 138.912,17.755 C139.893,17.755 140.565,17.435 140.928,16.795 L140.928,15.963 ZM125.984,17.211 C127.477,17.211 128.864,16.827 130.144,16.059 L130.144,19.867 C128.992,20.720 127.339,21.147 125.184,21.147 C122.859,21.147 120.987,20.486 119.568,19.163 C118.149,17.840 117.440,16.027 117.440,13.723 C117.440,11.483 118.101,9.654 119.424,8.235 C120.747,6.816 122.411,6.107 124.416,6.107 C126.592,6.107 128.261,6.758 129.424,8.059 C130.587,9.360 131.168,11.110 131.168,13.307 L131.168,14.779 L122.304,14.779 C122.688,16.400 123.915,17.211 125.984,17.211 ZM126.688,11.963 C126.624,11.344 126.411,10.848 126.048,10.475 C125.685,10.102 125.205,9.915 124.608,9.915 C123.477,9.915 122.731,10.598 122.368,11.963 L126.688,11.963 ZM122.210,34.427 L122.210,48.827 L117.186,48.827 L117.186,47.579 C116.290,48.624 115.010,49.147 113.346,49.147 C111.767,49.147 110.530,48.672 109.634,47.723 C108.738,46.774 108.290,45.488 108.290,43.867 L108.290,34.427 L113.282,34.427 L113.282,42.683 C113.282,44.070 113.900,44.763 115.138,44.763 C115.607,44.763 116.034,44.619 116.418,44.331 C116.802,44.043 117.058,43.654 117.186,43.163 L117.186,34.427 L122.210,34.427 ZM110.752,12.603 C110.752,11.984 110.592,11.488 110.272,11.115 C109.952,10.742 109.483,10.555 108.864,10.555 C108.352,10.555 107.909,10.694 107.536,10.971 C107.163,11.248 106.912,11.632 106.784,12.123 L106.784,20.827 L101.760,20.827 L101.760,0.027 L106.784,0.027 L106.784,7.675 C107.723,6.630 109.013,6.107 110.656,6.107 C112.235,6.107 113.477,6.582 114.384,7.531 C115.291,8.480 115.744,9.766 115.744,11.387 L115.744,20.827 L110.752,20.827 L110.752,12.603 ZM104.530,36.203 C105.884,37.600 106.562,39.408 106.562,41.627 C106.562,43.846 105.884,45.654 104.530,47.051 C103.175,48.448 101.399,49.147 99.202,49.147 C97.026,49.147 95.255,48.448 93.890,47.051 C92.524,45.654 91.842,43.846 91.842,41.627 C91.842,39.408 92.524,37.600 93.890,36.203 C95.255,34.806 97.026,34.107 99.202,34.107 C101.399,34.107 103.175,34.806 104.530,36.203 ZM100.994,39.163 C100.567,38.544 99.970,38.235 99.202,38.235 C98.455,38.235 97.868,38.544 97.442,39.163 C97.015,39.782 96.802,40.603 96.802,41.627 C96.802,42.630 97.015,43.440 97.442,44.059 C97.868,44.678 98.455,44.987 99.202,44.987 C99.970,44.987 100.567,44.683 100.994,44.075 C101.420,43.467 101.634,42.651 101.634,41.627 C101.634,40.603 101.420,39.782 100.994,39.163 ZM88.481,17.211 C89.974,17.211 91.361,16.827 92.641,16.059 L92.641,19.867 C91.489,20.720 89.835,21.147 87.681,21.147 C85.355,21.147 83.483,20.486 82.065,19.163 C80.646,17.840 79.937,16.027 79.937,13.723 C79.937,11.483 80.598,9.654 81.921,8.235 C83.243,6.816 84.907,6.107 86.913,6.107 C89.089,6.107 90.758,6.758 91.921,8.059 C93.083,9.360 93.665,11.110 93.665,13.307 L93.665,14.779 L84.801,14.779 C85.185,16.400 86.411,17.211 88.481,17.211 ZM89.185,11.963 C89.121,11.344 88.907,10.848 88.545,10.475 C88.182,10.102 87.702,9.915 87.105,9.915 C85.974,9.915 85.227,10.598 84.865,11.963 L89.185,11.963 ZM73.249,12.603 C73.249,11.984 73.089,11.488 72.769,11.115 C72.449,10.742 71.980,10.555 71.361,10.555 C70.849,10.555 70.406,10.694 70.033,10.971 C69.660,11.248 69.409,11.632 69.281,12.123 L69.281,20.827 L64.257,20.827 L64.257,0.027 L69.281,0.027 L69.281,7.675 C70.220,6.630 71.510,6.107 73.153,6.107 C74.732,6.107 75.974,6.582 76.881,7.531 C77.788,8.480 78.241,9.766 78.241,11.387 L78.241,20.827 L73.249,20.827 L73.249,12.603 ZM59.745,20.827 L54.753,20.827 L54.753,10.331 L52.257,10.331 L52.257,6.427 L54.753,6.427 L54.753,2.459 L59.745,2.459 L59.745,6.427 L62.561,6.427 L62.561,10.331 L59.745,10.331 L59.745,20.827 ZM55.955,36.059 C57.117,37.360 57.699,39.110 57.699,41.307 L57.699,42.779 L48.835,42.779 C49.219,44.400 50.445,45.211 52.515,45.211 C54.008,45.211 55.395,44.827 56.675,44.059 L56.675,47.867 C55.523,48.720 53.869,49.147 51.715,49.147 C49.389,49.147 47.517,48.486 46.099,47.163 C44.680,45.840 43.971,44.027 43.971,41.723 C43.971,39.483 44.632,37.654 45.955,36.235 C47.277,34.816 48.941,34.107 50.947,34.107 C53.123,34.107 54.792,34.758 55.955,36.059 ZM52.579,38.475 C52.216,38.102 51.736,37.915 51.139,37.915 C50.008,37.915 49.261,38.598 48.899,39.963 L53.219,39.963 C53.155,39.344 52.941,38.848 52.579,38.475 ZM42.338,20.827 L37.346,20.827 L37.346,10.331 L34.850,10.331 L34.850,6.427 L37.346,6.427 L37.346,2.459 L42.338,2.459 L42.338,6.427 L45.154,6.427 L45.154,10.331 L42.338,10.331 L42.338,20.827 ZM28.706,17.211 C30.199,17.211 31.586,16.827 32.866,16.059 L32.866,19.867 C31.714,20.720 30.061,21.147 27.906,21.147 C25.581,21.147 23.709,20.486 22.290,19.163 C20.871,17.840 20.162,16.027 20.162,13.723 C20.162,11.483 20.823,9.654 22.146,8.235 C23.469,6.816 25.133,6.107 27.138,6.107 C29.314,6.107 30.983,6.758 32.146,8.059 C33.309,9.360 33.890,11.110 33.890,13.307 L33.890,14.779 L25.026,14.779 C25.410,16.400 26.637,17.211 28.706,17.211 ZM29.410,11.963 C29.346,11.344 29.133,10.848 28.770,10.475 C28.407,10.102 27.927,9.915 27.330,9.915 C26.199,9.915 25.453,10.598 25.090,11.963 L29.410,11.963 ZM11.171,21.147 C8.142,21.147 5.720,20.214 3.907,18.347 C2.094,16.480 1.187,14.054 1.187,11.067 C1.187,7.995 2.152,5.526 4.083,3.659 C6.014,1.792 8.547,0.859 11.683,0.859 C13.902,0.859 15.800,1.371 17.379,2.395 L17.379,7.387 C15.736,6.192 13.838,5.595 11.683,5.595 C10.104,5.595 8.819,6.086 7.827,7.067 C6.835,8.048 6.339,9.382 6.339,11.067 C6.339,12.731 6.798,14.064 7.715,15.067 C8.632,16.070 9.838,16.571 11.331,16.571 C12.398,16.571 13.240,16.336 13.859,15.867 L13.859,13.947 L11.011,13.947 L11.011,9.851 L18.403,9.851 L18.403,18.523 C16.504,20.272 14.094,21.147 11.171,21.147 ZM8.579,34.107 C10.200,34.107 11.491,34.448 12.451,35.131 L12.451,39.355 C11.512,38.672 10.478,38.331 9.347,38.331 C8.387,38.331 7.592,38.619 6.963,39.195 C6.334,39.771 6.019,40.582 6.019,41.627 C6.019,42.672 6.334,43.483 6.963,44.059 C7.592,44.635 8.387,44.923 9.347,44.923 C10.478,44.923 11.512,44.582 12.451,43.899 L12.451,48.123 C11.491,48.806 10.200,49.147 8.579,49.147 C6.382,49.147 4.579,48.464 3.171,47.099 C1.763,45.734 1.059,43.910 1.059,41.627 C1.059,39.344 1.763,37.520 3.171,36.155 C4.579,34.790 6.382,34.107 8.579,34.107 ZM5.923,90.427 L8.675,98.619 L11.363,90.427 L16.355,90.427 L8.931,109.915 L3.971,109.915 L6.083,104.475 L0.707,90.427 L5.923,90.427 ZM23.715,90.107 C25.912,90.107 27.688,90.806 29.043,92.203 C30.398,93.600 31.075,95.408 31.075,97.627 C31.075,99.846 30.398,101.654 29.043,103.051 C27.688,104.448 25.912,105.147 23.715,105.147 C21.539,105.147 19.768,104.448 18.403,103.051 C17.038,101.654 16.355,99.846 16.355,97.627 C16.355,95.408 17.038,93.600 18.403,92.203 C19.768,90.806 21.539,90.107 23.715,90.107 ZM21.955,100.059 C22.382,100.678 22.968,100.987 23.715,100.987 C24.483,100.987 25.080,100.683 25.507,100.075 C25.934,99.467 26.147,98.651 26.147,97.627 C26.147,96.603 25.934,95.782 25.507,95.163 C25.080,94.544 24.483,94.235 23.715,94.235 C22.968,94.235 22.382,94.544 21.955,95.163 C21.528,95.782 21.315,96.603 21.315,97.627 C21.315,98.630 21.528,99.440 21.955,100.059 ZM37.795,98.683 C37.795,100.070 38.413,100.763 39.651,100.763 C40.120,100.763 40.547,100.619 40.931,100.331 C41.315,100.043 41.571,99.654 41.699,99.163 L41.699,90.427 L46.723,90.427 L46.723,104.827 L41.699,104.827 L41.699,103.579 C40.803,104.624 39.523,105.147 37.859,105.147 C36.280,105.147 35.043,104.672 34.147,103.723 C33.251,102.774 32.803,101.488 32.803,99.867 L32.803,90.427 L37.795,90.427 L37.795,98.683 ZM50.403,62.427 L42.979,81.915 L38.019,81.915 L40.131,76.475 L34.755,62.427 L39.971,62.427 L42.723,70.619 L45.411,62.427 L50.403,62.427 ZM36.355,42.683 L39.043,34.427 L43.971,34.427 L38.467,48.827 L33.955,48.827 L28.483,34.427 L33.603,34.427 L36.355,42.683 ZM33.347,76.827 L28.323,76.827 L28.323,75.579 C27.427,76.624 26.147,77.147 24.483,77.147 C22.904,77.147 21.667,76.672 20.771,75.723 C19.875,74.774 19.427,73.488 19.427,71.867 L19.427,62.427 L24.419,62.427 L24.419,70.683 C24.419,72.070 25.037,72.763 26.275,72.763 C26.744,72.763 27.171,72.619 27.555,72.331 C27.939,72.043 28.195,71.654 28.323,71.163 L28.323,62.427 L33.347,62.427 L33.347,76.827 ZM21.059,34.107 C23.256,34.107 25.032,34.806 26.387,36.203 C27.741,37.600 28.419,39.408 28.419,41.627 C28.419,43.846 27.741,45.654 26.387,47.051 C25.032,48.448 23.256,49.147 21.059,49.147 C18.883,49.147 17.112,48.448 15.747,47.051 C14.381,45.654 13.699,43.846 13.699,41.627 C13.699,39.408 14.381,37.600 15.747,36.203 C17.112,34.806 18.883,34.107 21.059,34.107 ZM19.299,44.059 C19.725,44.678 20.312,44.987 21.059,44.987 C21.827,44.987 22.424,44.683 22.851,44.075 C23.277,43.467 23.491,42.651 23.491,41.627 C23.491,40.603 23.277,39.782 22.851,39.163 C22.424,38.544 21.827,38.235 21.059,38.235 C20.312,38.235 19.725,38.544 19.299,39.163 C18.872,39.782 18.659,40.603 18.659,41.627 C18.659,42.630 18.872,43.440 19.299,44.059 ZM16.611,68.411 C17.208,69.264 17.507,70.235 17.507,71.323 C17.507,73.094 16.936,74.454 15.795,75.403 C14.654,76.352 13.048,76.827 10.979,76.827 L1.955,76.827 L1.955,57.179 L10.371,57.179 C12.440,57.179 14.051,57.638 15.203,58.555 C16.355,59.472 16.931,60.795 16.931,62.523 C16.931,63.547 16.680,64.427 16.179,65.163 C15.678,65.899 15.054,66.406 14.307,66.683 C15.246,66.982 16.014,67.558 16.611,68.411 ZM9.795,61.403 L6.851,61.403 L6.851,64.955 L9.795,64.955 C11.331,64.955 12.099,64.358 12.099,63.163 C12.099,61.990 11.331,61.403 9.795,61.403 ZM11.955,69.307 C11.560,68.966 11.011,68.795 10.307,68.795 L6.851,68.795 L6.851,72.603 L10.307,72.603 C11.011,72.603 11.560,72.432 11.955,72.091 C12.350,71.750 12.547,71.291 12.547,70.715 C12.547,70.118 12.350,69.648 11.955,69.307 ZM61.635,98.235 L63.811,90.427 L67.011,90.427 L69.155,98.235 L71.459,90.427 L76.259,90.427 L71.619,104.827 L67.363,104.827 L65.315,97.531 L63.267,104.827 L59.011,104.827 L54.371,90.427 L59.363,90.427 L61.635,98.235 ZM64.578,35.707 C65.367,34.640 66.455,34.107 67.842,34.107 C68.461,34.107 68.919,34.192 69.218,34.363 L69.218,39.195 C68.642,38.896 67.949,38.747 67.138,38.747 C65.709,38.747 64.855,39.291 64.578,40.379 L64.578,48.827 L59.554,48.827 L59.554,34.427 L64.578,34.427 L64.578,35.707 ZM59.683,76.827 L59.683,66.331 L57.187,66.331 L57.187,62.427 L59.683,62.427 L59.683,58.459 L64.675,58.459 L64.675,62.427 L67.491,62.427 L67.491,66.331 L64.675,66.331 L64.675,76.827 L59.683,76.827 ZM74.210,68.123 L74.210,76.827 L69.186,76.827 L69.186,56.027 L74.210,56.027 L74.210,63.675 C75.149,62.630 76.439,62.107 78.082,62.107 C79.661,62.107 80.903,62.582 81.810,63.531 C82.717,64.480 83.170,65.766 83.170,67.387 L83.170,76.827 L78.178,76.827 L78.178,68.603 C78.178,67.984 78.018,67.488 77.698,67.115 C77.378,66.742 76.909,66.555 76.290,66.555 C75.778,66.555 75.335,66.694 74.962,66.971 C74.589,67.248 74.338,67.632 74.210,68.123 ZM81.859,95.867 C83.203,95.867 84.248,96.134 84.995,96.667 L84.995,96.155 C84.995,95.579 84.734,95.115 84.211,94.763 C83.688,94.411 82.926,94.235 81.923,94.235 C80.472,94.235 79.160,94.576 77.987,95.259 L77.987,91.227 C79.374,90.480 81.091,90.107 83.139,90.107 C85.272,90.107 86.920,90.603 88.083,91.595 C89.246,92.587 89.827,94.032 89.827,95.931 L89.827,104.827 L84.995,104.827 L84.995,104.091 C84.739,104.347 84.291,104.576 83.651,104.779 C83.011,104.981 82.328,105.083 81.603,105.083 C80.110,105.083 78.856,104.672 77.843,103.851 C76.830,103.030 76.323,101.894 76.323,100.443 C76.323,99.078 76.851,97.974 77.907,97.131 C78.963,96.288 80.280,95.867 81.859,95.867 ZM81.571,101.403 C81.955,101.638 82.424,101.755 82.979,101.755 C83.960,101.755 84.632,101.435 84.995,100.795 L84.995,99.963 C84.654,99.302 83.982,98.971 82.979,98.971 C82.424,98.971 81.955,99.088 81.571,99.323 C81.187,99.558 80.995,99.899 80.995,100.347 C80.995,100.816 81.187,101.168 81.571,101.403 ZM96.850,64.059 C98.013,65.360 98.594,67.110 98.594,69.307 L98.594,70.779 L89.730,70.779 C90.114,72.400 91.341,73.211 93.410,73.211 C94.903,73.211 96.290,72.827 97.570,72.059 L97.570,75.867 C96.418,76.720 94.765,77.147 92.610,77.147 C90.285,77.147 88.413,76.486 86.994,75.163 C85.575,73.840 84.866,72.027 84.866,69.723 C84.866,67.483 85.527,65.654 86.850,64.235 C88.173,62.816 89.837,62.107 91.842,62.107 C94.018,62.107 95.687,62.758 96.850,64.059 ZM89.794,67.963 L94.114,67.963 C94.050,67.344 93.837,66.848 93.474,66.475 C93.111,66.102 92.631,65.915 92.034,65.915 C90.903,65.915 90.157,66.598 89.794,67.963 ZM81.410,34.427 L84.162,42.619 L86.850,34.427 L91.842,34.427 L84.418,53.915 L79.458,53.915 L81.570,48.475 L76.194,34.427 L81.410,34.427 ZM97.283,91.675 C98.221,90.630 99.512,90.107 101.155,90.107 C102.733,90.107 103.976,90.582 104.883,91.531 C105.789,92.480 106.243,93.766 106.243,95.387 L106.243,104.827 L101.251,104.827 L101.251,96.603 C101.251,95.984 101.091,95.488 100.771,95.115 C100.451,94.742 99.981,94.555 99.363,94.555 C98.851,94.555 98.408,94.694 98.035,94.971 C97.661,95.248 97.411,95.632 97.283,96.123 L97.283,104.827 L92.259,104.827 L92.259,90.427 L97.283,90.427 L97.283,91.675 ZM113.346,58.459 L113.346,62.427 L116.162,62.427 L116.162,66.331 L113.346,66.331 L113.346,76.827 L108.354,76.827 L108.354,66.331 L105.858,66.331 L105.858,62.427 L108.354,62.427 L108.354,58.459 L113.346,58.459 ZM110.371,86.459 L115.363,86.459 L115.363,90.427 L118.179,90.427 L118.179,94.331 L115.363,94.331 L115.363,104.827 L110.371,104.827 L110.371,94.331 L107.875,94.331 L107.875,90.427 L110.371,90.427 L110.371,86.459 ZM120.930,99.067 C121.762,99.067 122.466,99.350 123.042,99.915 C123.618,100.480 123.906,101.190 123.906,102.043 C123.906,102.896 123.618,103.611 123.042,104.187 C122.466,104.763 121.762,105.051 120.930,105.051 C120.119,105.051 119.426,104.763 118.850,104.187 C118.274,103.611 117.986,102.896 117.986,102.043 C117.986,101.211 118.269,100.507 118.834,99.931 C119.399,99.355 120.098,99.067 120.930,99.067 ZM122.881,68.123 L122.881,76.827 L117.857,76.827 L117.857,56.027 L122.881,56.027 L122.881,63.675 C123.820,62.630 125.110,62.107 126.753,62.107 C128.332,62.107 129.574,62.582 130.481,63.531 C131.388,64.480 131.841,65.766 131.841,67.387 L131.841,76.827 L126.849,76.827 L126.849,68.603 C126.849,67.984 126.689,67.488 126.369,67.115 C126.049,66.742 125.580,66.555 124.961,66.555 C124.449,66.555 124.006,66.694 123.633,66.971 C123.260,67.248 123.009,67.632 122.881,68.123 ZM136.833,55.803 C137.622,55.803 138.294,56.054 138.849,56.555 C139.404,57.056 139.681,57.712 139.681,58.523 C139.681,59.312 139.404,59.958 138.849,60.459 C138.294,60.960 137.622,61.211 136.833,61.211 C136.044,61.211 135.372,60.960 134.817,60.459 C134.262,59.958 133.985,59.312 133.985,58.523 C133.985,57.712 134.262,57.056 134.817,56.555 C135.372,56.054 136.044,55.803 136.833,55.803 ZM139.329,76.827 L134.305,76.827 L134.305,62.427 L139.329,62.427 L139.329,76.827 ZM138.082,38.555 C137.570,38.555 137.127,38.694 136.754,38.971 C136.380,39.248 136.130,39.632 136.002,40.123 L136.002,48.827 L130.978,48.827 L130.978,34.427 L136.002,34.427 L136.002,35.675 C136.940,34.630 138.231,34.107 139.874,34.107 C141.452,34.107 142.695,34.582 143.602,35.531 C144.508,36.480 144.962,37.766 144.962,39.387 L144.962,48.827 L139.970,48.827 L139.970,40.603 C139.970,39.984 139.810,39.488 139.490,39.115 C139.170,38.742 138.700,38.555 138.082,38.555 ZM146.913,63.675 C147.851,62.630 149.142,62.107 150.785,62.107 C152.363,62.107 153.606,62.582 154.513,63.531 C155.419,64.480 155.873,65.766 155.873,67.387 L155.873,76.827 L150.881,76.827 L150.881,68.603 C150.881,67.984 150.721,67.488 150.401,67.115 C150.081,66.742 149.611,66.555 148.993,66.555 C148.481,66.555 148.038,66.694 147.665,66.971 C147.291,67.248 147.041,67.632 146.913,68.123 L146.913,76.827 L141.889,76.827 L141.889,62.427 L146.913,62.427 L146.913,63.675 ZM163.937,76.283 C161.953,76.283 160.395,75.611 159.265,74.267 C158.134,72.923 157.569,71.227 157.569,69.179 C157.569,67.131 158.134,65.440 159.265,64.107 C160.395,62.774 161.953,62.107 163.937,62.107 C165.409,62.107 166.539,62.576 167.329,63.515 L167.329,62.427 L172.289,62.427 L172.289,74.747 C172.289,77.264 171.510,79.141 169.953,80.379 C168.395,81.616 166.379,82.235 163.905,82.235 C161.707,82.235 159.979,81.829 158.721,81.019 L158.721,76.411 C160.107,77.584 161.782,78.171 163.745,78.171 C164.790,78.171 165.649,77.941 166.321,77.483 C166.993,77.024 167.329,76.315 167.329,75.355 L167.329,74.875 C166.518,75.814 165.387,76.283 163.937,76.283 ZM167.329,67.291 C166.838,66.480 166.123,66.075 165.185,66.075 C164.374,66.075 163.729,66.363 163.249,66.939 C162.769,67.515 162.529,68.262 162.529,69.179 C162.529,70.096 162.769,70.843 163.249,71.419 C163.729,71.995 164.374,72.283 165.185,72.283 C166.145,72.283 166.859,71.888 167.329,71.099 L167.329,67.291 ZM163.729,47.163 C162.310,45.840 161.601,44.027 161.601,41.723 C161.601,39.483 162.262,37.654 163.585,36.235 C164.907,34.816 166.571,34.107 168.577,34.107 C170.753,34.107 172.422,34.758 173.585,36.059 C174.747,37.360 175.329,39.110 175.329,41.307 L175.329,42.779 L166.465,42.779 C166.849,44.400 168.075,45.211 170.145,45.211 C171.638,45.211 173.025,44.827 174.305,44.059 L174.305,47.867 C173.153,48.720 171.499,49.147 169.345,49.147 C167.019,49.147 165.147,48.486 163.729,47.163 ZM170.849,39.963 C170.785,39.344 170.571,38.848 170.209,38.475 C169.846,38.102 169.366,37.915 168.769,37.915 C167.638,37.915 166.891,38.598 166.529,39.963 L170.849,39.963 ZM179.745,71.515 L178.625,71.227 C175.723,70.608 174.273,69.136 174.273,66.811 C174.273,65.339 174.817,64.187 175.905,63.355 C176.993,62.523 178.411,62.107 180.161,62.107 C182.123,62.107 183.798,62.534 185.185,63.387 L185.185,67.515 C183.649,66.406 182.134,65.851 180.641,65.851 C179.681,65.851 179.201,66.139 179.201,66.715 C179.201,66.971 179.291,67.163 179.473,67.291 C179.654,67.419 179.937,67.536 180.321,67.643 L181.633,68.027 C183.211,68.454 184.337,69.014 185.009,69.707 C185.681,70.400 186.017,71.355 186.017,72.571 C186.017,74.064 185.446,75.200 184.305,75.979 C183.163,76.758 181.665,77.147 179.809,77.147 C177.526,77.147 175.702,76.688 174.337,75.771 L174.337,71.547 C174.998,72.080 175.819,72.518 176.801,72.859 C177.782,73.200 178.657,73.371 179.425,73.371 C180.513,73.371 181.057,73.083 181.057,72.507 C181.057,72.038 180.619,71.707 179.745,71.515 Z"/>
<path fill="url(#PSgrad_0)"
 d="M198.400,48.187 C197.824,48.763 197.120,49.051 196.288,49.051 C195.477,49.051 194.784,48.763 194.208,48.187 C193.632,47.611 193.344,46.896 193.344,46.043 C193.344,45.211 193.627,44.507 194.192,43.931 C194.757,43.355 195.456,43.067 196.288,43.067 C197.120,43.067 197.824,43.350 198.400,43.915 C198.976,44.480 199.264,45.190 199.264,46.043 C199.264,46.896 198.976,47.611 198.400,48.187 ZM186.528,47.675 C186.166,48.080 185.659,48.427 185.008,48.715 C184.358,49.003 183.681,49.147 182.976,49.147 C180.971,49.147 179.398,48.438 178.256,47.019 C177.115,45.600 176.545,43.803 176.545,41.627 C176.545,39.451 177.115,37.654 178.256,36.235 C179.398,34.816 180.971,34.107 182.976,34.107 C183.681,34.107 184.358,34.251 185.008,34.539 C185.659,34.827 186.166,35.174 186.528,35.579 L186.528,28.027 L191.553,28.027 L191.553,48.827 L186.528,48.827 L186.528,47.675 ZM186.528,39.707 C186.336,39.323 186.038,39.003 185.633,38.747 C185.227,38.491 184.790,38.363 184.321,38.363 C183.467,38.363 182.795,38.667 182.304,39.275 C181.814,39.883 181.569,40.667 181.569,41.627 C181.569,42.566 181.814,43.339 182.304,43.947 C182.795,44.555 183.467,44.859 184.321,44.859 C185.366,44.859 186.101,44.411 186.528,43.515 L186.528,39.707 ZM175.935,12.603 C175.935,11.984 175.775,11.488 175.455,11.115 C175.135,10.742 174.665,10.555 174.047,10.555 C173.535,10.555 173.092,10.694 172.719,10.971 C172.345,11.248 172.095,11.632 171.967,12.123 L171.967,20.827 L166.943,20.827 L166.943,0.027 L171.967,0.027 L171.967,7.675 C172.905,6.630 174.196,6.107 175.839,6.107 C177.417,6.107 178.660,6.582 179.567,7.531 C180.473,8.480 180.927,9.766 180.927,11.387 L180.927,20.827 L175.935,20.827 L175.935,12.603 ZM162.431,20.827 L157.439,20.827 L157.439,10.331 L154.943,10.331 L154.943,6.427 L157.439,6.427 L157.439,2.459 L162.431,2.459 L162.431,6.427 L165.247,6.427 L165.247,10.331 L162.431,10.331 L162.431,20.827 ZM158.641,36.059 C159.804,37.360 160.385,39.110 160.385,41.307 L160.385,42.779 L151.521,42.779 C151.905,44.400 153.132,45.211 155.201,45.211 C156.694,45.211 158.081,44.827 159.361,44.059 L159.361,47.867 C158.209,48.720 156.556,49.147 154.401,49.147 C152.076,49.147 150.204,48.486 148.785,47.163 C147.366,45.840 146.657,44.027 146.657,41.723 C146.657,39.483 147.318,37.654 148.641,36.235 C149.964,34.816 151.628,34.107 153.633,34.107 C155.809,34.107 157.478,34.758 158.641,36.059 ZM155.265,38.475 C154.902,38.102 154.422,37.915 153.825,37.915 C152.694,37.915 151.948,38.598 151.585,39.963 L155.905,39.963 C155.841,39.344 155.628,38.848 155.265,38.475 ZM148.192,0.027 L153.216,0.027 L153.216,20.827 L148.192,20.827 L148.192,0.027 ZM140.928,20.091 C140.672,20.347 140.224,20.576 139.584,20.779 C138.944,20.981 138.261,21.083 137.536,21.083 C136.042,21.083 134.789,20.672 133.776,19.851 C132.762,19.030 132.256,17.894 132.256,16.443 C132.256,15.078 132.784,13.974 133.840,13.131 C134.896,12.288 136.213,11.867 137.792,11.867 C139.136,11.867 140.181,12.134 140.928,12.667 L140.928,12.155 C140.928,11.579 140.666,11.115 140.144,10.763 C139.621,10.411 138.858,10.235 137.856,10.235 C136.405,10.235 135.093,10.576 133.920,11.259 L133.920,7.227 C135.306,6.480 137.024,6.107 139.072,6.107 C141.205,6.107 142.853,6.603 144.016,7.595 C145.178,8.587 145.760,10.032 145.760,11.931 L145.760,20.827 L140.928,20.827 L140.928,20.091 ZM140.928,15.963 C140.586,15.302 139.914,14.971 138.912,14.971 C138.357,14.971 137.888,15.088 137.504,15.323 C137.120,15.558 136.928,15.899 136.928,16.347 C136.928,16.816 137.120,17.168 137.504,17.403 C137.888,17.638 138.357,17.755 138.912,17.755 C139.893,17.755 140.565,17.435 140.928,16.795 L140.928,15.963 ZM125.984,17.211 C127.477,17.211 128.864,16.827 130.144,16.059 L130.144,19.867 C128.992,20.720 127.339,21.147 125.184,21.147 C122.859,21.147 120.987,20.486 119.568,19.163 C118.149,17.840 117.440,16.027 117.440,13.723 C117.440,11.483 118.101,9.654 119.424,8.235 C120.747,6.816 122.411,6.107 124.416,6.107 C126.592,6.107 128.261,6.758 129.424,8.059 C130.587,9.360 131.168,11.110 131.168,13.307 L131.168,14.779 L122.304,14.779 C122.688,16.400 123.915,17.211 125.984,17.211 ZM126.688,11.963 C126.624,11.344 126.411,10.848 126.048,10.475 C125.685,10.102 125.205,9.915 124.608,9.915 C123.477,9.915 122.731,10.598 122.368,11.963 L126.688,11.963 ZM122.210,34.427 L122.210,48.827 L117.186,48.827 L117.186,47.579 C116.290,48.624 115.010,49.147 113.346,49.147 C111.767,49.147 110.530,48.672 109.634,47.723 C108.738,46.774 108.290,45.488 108.290,43.867 L108.290,34.427 L113.282,34.427 L113.282,42.683 C113.282,44.070 113.900,44.763 115.138,44.763 C115.607,44.763 116.034,44.619 116.418,44.331 C116.802,44.043 117.058,43.654 117.186,43.163 L117.186,34.427 L122.210,34.427 ZM110.752,12.603 C110.752,11.984 110.592,11.488 110.272,11.115 C109.952,10.742 109.483,10.555 108.864,10.555 C108.352,10.555 107.909,10.694 107.536,10.971 C107.163,11.248 106.912,11.632 106.784,12.123 L106.784,20.827 L101.760,20.827 L101.760,0.027 L106.784,0.027 L106.784,7.675 C107.723,6.630 109.013,6.107 110.656,6.107 C112.235,6.107 113.477,6.582 114.384,7.531 C115.291,8.480 115.744,9.766 115.744,11.387 L115.744,20.827 L110.752,20.827 L110.752,12.603 ZM104.530,36.203 C105.884,37.600 106.562,39.408 106.562,41.627 C106.562,43.846 105.884,45.654 104.530,47.051 C103.175,48.448 101.399,49.147 99.202,49.147 C97.026,49.147 95.255,48.448 93.890,47.051 C92.524,45.654 91.842,43.846 91.842,41.627 C91.842,39.408 92.524,37.600 93.890,36.203 C95.255,34.806 97.026,34.107 99.202,34.107 C101.399,34.107 103.175,34.806 104.530,36.203 ZM100.994,39.163 C100.567,38.544 99.970,38.235 99.202,38.235 C98.455,38.235 97.868,38.544 97.442,39.163 C97.015,39.782 96.802,40.603 96.802,41.627 C96.802,42.630 97.015,43.440 97.442,44.059 C97.868,44.678 98.455,44.987 99.202,44.987 C99.970,44.987 100.567,44.683 100.994,44.075 C101.420,43.467 101.634,42.651 101.634,41.627 C101.634,40.603 101.420,39.782 100.994,39.163 ZM88.481,17.211 C89.974,17.211 91.361,16.827 92.641,16.059 L92.641,19.867 C91.489,20.720 89.835,21.147 87.681,21.147 C85.355,21.147 83.483,20.486 82.065,19.163 C80.646,17.840 79.937,16.027 79.937,13.723 C79.937,11.483 80.598,9.654 81.921,8.235 C83.243,6.816 84.907,6.107 86.913,6.107 C89.089,6.107 90.758,6.758 91.921,8.059 C93.083,9.360 93.665,11.110 93.665,13.307 L93.665,14.779 L84.801,14.779 C85.185,16.400 86.411,17.211 88.481,17.211 ZM89.185,11.963 C89.121,11.344 88.907,10.848 88.545,10.475 C88.182,10.102 87.702,9.915 87.105,9.915 C85.974,9.915 85.227,10.598 84.865,11.963 L89.185,11.963 ZM73.249,12.603 C73.249,11.984 73.089,11.488 72.769,11.115 C72.449,10.742 71.980,10.555 71.361,10.555 C70.849,10.555 70.406,10.694 70.033,10.971 C69.660,11.248 69.409,11.632 69.281,12.123 L69.281,20.827 L64.257,20.827 L64.257,0.027 L69.281,0.027 L69.281,7.675 C70.220,6.630 71.510,6.107 73.153,6.107 C74.732,6.107 75.974,6.582 76.881,7.531 C77.788,8.480 78.241,9.766 78.241,11.387 L78.241,20.827 L73.249,20.827 L73.249,12.603 ZM59.745,20.827 L54.753,20.827 L54.753,10.331 L52.257,10.331 L52.257,6.427 L54.753,6.427 L54.753,2.459 L59.745,2.459 L59.745,6.427 L62.561,6.427 L62.561,10.331 L59.745,10.331 L59.745,20.827 ZM55.955,36.059 C57.117,37.360 57.699,39.110 57.699,41.307 L57.699,42.779 L48.835,42.779 C49.219,44.400 50.445,45.211 52.515,45.211 C54.008,45.211 55.395,44.827 56.675,44.059 L56.675,47.867 C55.523,48.720 53.869,49.147 51.715,49.147 C49.389,49.147 47.517,48.486 46.099,47.163 C44.680,45.840 43.971,44.027 43.971,41.723 C43.971,39.483 44.632,37.654 45.955,36.235 C47.277,34.816 48.941,34.107 50.947,34.107 C53.123,34.107 54.792,34.758 55.955,36.059 ZM52.579,38.475 C52.216,38.102 51.736,37.915 51.139,37.915 C50.008,37.915 49.261,38.598 48.899,39.963 L53.219,39.963 C53.155,39.344 52.941,38.848 52.579,38.475 ZM42.338,20.827 L37.346,20.827 L37.346,10.331 L34.850,10.331 L34.850,6.427 L37.346,6.427 L37.346,2.459 L42.338,2.459 L42.338,6.427 L45.154,6.427 L45.154,10.331 L42.338,10.331 L42.338,20.827 ZM28.706,17.211 C30.199,17.211 31.586,16.827 32.866,16.059 L32.866,19.867 C31.714,20.720 30.061,21.147 27.906,21.147 C25.581,21.147 23.709,20.486 22.290,19.163 C20.871,17.840 20.162,16.027 20.162,13.723 C20.162,11.483 20.823,9.654 22.146,8.235 C23.469,6.816 25.133,6.107 27.138,6.107 C29.314,6.107 30.983,6.758 32.146,8.059 C33.309,9.360 33.890,11.110 33.890,13.307 L33.890,14.779 L25.026,14.779 C25.410,16.400 26.637,17.211 28.706,17.211 ZM29.410,11.963 C29.346,11.344 29.133,10.848 28.770,10.475 C28.407,10.102 27.927,9.915 27.330,9.915 C26.199,9.915 25.453,10.598 25.090,11.963 L29.410,11.963 ZM11.171,21.147 C8.142,21.147 5.720,20.214 3.907,18.347 C2.094,16.480 1.187,14.054 1.187,11.067 C1.187,7.995 2.152,5.526 4.083,3.659 C6.014,1.792 8.547,0.859 11.683,0.859 C13.902,0.859 15.800,1.371 17.379,2.395 L17.379,7.387 C15.736,6.192 13.838,5.595 11.683,5.595 C10.104,5.595 8.819,6.086 7.827,7.067 C6.835,8.048 6.339,9.382 6.339,11.067 C6.339,12.731 6.798,14.064 7.715,15.067 C8.632,16.070 9.838,16.571 11.331,16.571 C12.398,16.571 13.240,16.336 13.859,15.867 L13.859,13.947 L11.011,13.947 L11.011,9.851 L18.403,9.851 L18.403,18.523 C16.504,20.272 14.094,21.147 11.171,21.147 ZM8.579,34.107 C10.200,34.107 11.491,34.448 12.451,35.131 L12.451,39.355 C11.512,38.672 10.478,38.331 9.347,38.331 C8.387,38.331 7.592,38.619 6.963,39.195 C6.334,39.771 6.019,40.582 6.019,41.627 C6.019,42.672 6.334,43.483 6.963,44.059 C7.592,44.635 8.387,44.923 9.347,44.923 C10.478,44.923 11.512,44.582 12.451,43.899 L12.451,48.123 C11.491,48.806 10.200,49.147 8.579,49.147 C6.382,49.147 4.579,48.464 3.171,47.099 C1.763,45.734 1.059,43.910 1.059,41.627 C1.059,39.344 1.763,37.520 3.171,36.155 C4.579,34.790 6.382,34.107 8.579,34.107 ZM5.923,90.427 L8.675,98.619 L11.363,90.427 L16.355,90.427 L8.931,109.915 L3.971,109.915 L6.083,104.475 L0.707,90.427 L5.923,90.427 ZM23.715,90.107 C25.912,90.107 27.688,90.806 29.043,92.203 C30.398,93.600 31.075,95.408 31.075,97.627 C31.075,99.846 30.398,101.654 29.043,103.051 C27.688,104.448 25.912,105.147 23.715,105.147 C21.539,105.147 19.768,104.448 18.403,103.051 C17.038,101.654 16.355,99.846 16.355,97.627 C16.355,95.408 17.038,93.600 18.403,92.203 C19.768,90.806 21.539,90.107 23.715,90.107 ZM21.955,100.059 C22.382,100.678 22.968,100.987 23.715,100.987 C24.483,100.987 25.080,100.683 25.507,100.075 C25.934,99.467 26.147,98.651 26.147,97.627 C26.147,96.603 25.934,95.782 25.507,95.163 C25.080,94.544 24.483,94.235 23.715,94.235 C22.968,94.235 22.382,94.544 21.955,95.163 C21.528,95.782 21.315,96.603 21.315,97.627 C21.315,98.630 21.528,99.440 21.955,100.059 ZM37.795,98.683 C37.795,100.070 38.413,100.763 39.651,100.763 C40.120,100.763 40.547,100.619 40.931,100.331 C41.315,100.043 41.571,99.654 41.699,99.163 L41.699,90.427 L46.723,90.427 L46.723,104.827 L41.699,104.827 L41.699,103.579 C40.803,104.624 39.523,105.147 37.859,105.147 C36.280,105.147 35.043,104.672 34.147,103.723 C33.251,102.774 32.803,101.488 32.803,99.867 L32.803,90.427 L37.795,90.427 L37.795,98.683 ZM50.403,62.427 L42.979,81.915 L38.019,81.915 L40.131,76.475 L34.755,62.427 L39.971,62.427 L42.723,70.619 L45.411,62.427 L50.403,62.427 ZM36.355,42.683 L39.043,34.427 L43.971,34.427 L38.467,48.827 L33.955,48.827 L28.483,34.427 L33.603,34.427 L36.355,42.683 ZM33.347,76.827 L28.323,76.827 L28.323,75.579 C27.427,76.624 26.147,77.147 24.483,77.147 C22.904,77.147 21.667,76.672 20.771,75.723 C19.875,74.774 19.427,73.488 19.427,71.867 L19.427,62.427 L24.419,62.427 L24.419,70.683 C24.419,72.070 25.037,72.763 26.275,72.763 C26.744,72.763 27.171,72.619 27.555,72.331 C27.939,72.043 28.195,71.654 28.323,71.163 L28.323,62.427 L33.347,62.427 L33.347,76.827 ZM21.059,34.107 C23.256,34.107 25.032,34.806 26.387,36.203 C27.741,37.600 28.419,39.408 28.419,41.627 C28.419,43.846 27.741,45.654 26.387,47.051 C25.032,48.448 23.256,49.147 21.059,49.147 C18.883,49.147 17.112,48.448 15.747,47.051 C14.381,45.654 13.699,43.846 13.699,41.627 C13.699,39.408 14.381,37.600 15.747,36.203 C17.112,34.806 18.883,34.107 21.059,34.107 ZM19.299,44.059 C19.725,44.678 20.312,44.987 21.059,44.987 C21.827,44.987 22.424,44.683 22.851,44.075 C23.277,43.467 23.491,42.651 23.491,41.627 C23.491,40.603 23.277,39.782 22.851,39.163 C22.424,38.544 21.827,38.235 21.059,38.235 C20.312,38.235 19.725,38.544 19.299,39.163 C18.872,39.782 18.659,40.603 18.659,41.627 C18.659,42.630 18.872,43.440 19.299,44.059 ZM16.611,68.411 C17.208,69.264 17.507,70.235 17.507,71.323 C17.507,73.094 16.936,74.454 15.795,75.403 C14.654,76.352 13.048,76.827 10.979,76.827 L1.955,76.827 L1.955,57.179 L10.371,57.179 C12.440,57.179 14.051,57.638 15.203,58.555 C16.355,59.472 16.931,60.795 16.931,62.523 C16.931,63.547 16.680,64.427 16.179,65.163 C15.678,65.899 15.054,66.406 14.307,66.683 C15.246,66.982 16.014,67.558 16.611,68.411 ZM9.795,61.403 L6.851,61.403 L6.851,64.955 L9.795,64.955 C11.331,64.955 12.099,64.358 12.099,63.163 C12.099,61.990 11.331,61.403 9.795,61.403 ZM11.955,69.307 C11.560,68.966 11.011,68.795 10.307,68.795 L6.851,68.795 L6.851,72.603 L10.307,72.603 C11.011,72.603 11.560,72.432 11.955,72.091 C12.350,71.750 12.547,71.291 12.547,70.715 C12.547,70.118 12.350,69.648 11.955,69.307 ZM61.635,98.235 L63.811,90.427 L67.011,90.427 L69.155,98.235 L71.459,90.427 L76.259,90.427 L71.619,104.827 L67.363,104.827 L65.315,97.531 L63.267,104.827 L59.011,104.827 L54.371,90.427 L59.363,90.427 L61.635,98.235 ZM64.578,35.707 C65.367,34.640 66.455,34.107 67.842,34.107 C68.461,34.107 68.919,34.192 69.218,34.363 L69.218,39.195 C68.642,38.896 67.949,38.747 67.138,38.747 C65.709,38.747 64.855,39.291 64.578,40.379 L64.578,48.827 L59.554,48.827 L59.554,34.427 L64.578,34.427 L64.578,35.707 ZM59.683,76.827 L59.683,66.331 L57.187,66.331 L57.187,62.427 L59.683,62.427 L59.683,58.459 L64.675,58.459 L64.675,62.427 L67.491,62.427 L67.491,66.331 L64.675,66.331 L64.675,76.827 L59.683,76.827 ZM74.210,68.123 L74.210,76.827 L69.186,76.827 L69.186,56.027 L74.210,56.027 L74.210,63.675 C75.149,62.630 76.439,62.107 78.082,62.107 C79.661,62.107 80.903,62.582 81.810,63.531 C82.717,64.480 83.170,65.766 83.170,67.387 L83.170,76.827 L78.178,76.827 L78.178,68.603 C78.178,67.984 78.018,67.488 77.698,67.115 C77.378,66.742 76.909,66.555 76.290,66.555 C75.778,66.555 75.335,66.694 74.962,66.971 C74.589,67.248 74.338,67.632 74.210,68.123 ZM81.859,95.867 C83.203,95.867 84.248,96.134 84.995,96.667 L84.995,96.155 C84.995,95.579 84.734,95.115 84.211,94.763 C83.688,94.411 82.926,94.235 81.923,94.235 C80.472,94.235 79.160,94.576 77.987,95.259 L77.987,91.227 C79.374,90.480 81.091,90.107 83.139,90.107 C85.272,90.107 86.920,90.603 88.083,91.595 C89.246,92.587 89.827,94.032 89.827,95.931 L89.827,104.827 L84.995,104.827 L84.995,104.091 C84.739,104.347 84.291,104.576 83.651,104.779 C83.011,104.981 82.328,105.083 81.603,105.083 C80.110,105.083 78.856,104.672 77.843,103.851 C76.830,103.030 76.323,101.894 76.323,100.443 C76.323,99.078 76.851,97.974 77.907,97.131 C78.963,96.288 80.280,95.867 81.859,95.867 ZM81.571,101.403 C81.955,101.638 82.424,101.755 82.979,101.755 C83.960,101.755 84.632,101.435 84.995,100.795 L84.995,99.963 C84.654,99.302 83.982,98.971 82.979,98.971 C82.424,98.971 81.955,99.088 81.571,99.323 C81.187,99.558 80.995,99.899 80.995,100.347 C80.995,100.816 81.187,101.168 81.571,101.403 ZM96.850,64.059 C98.013,65.360 98.594,67.110 98.594,69.307 L98.594,70.779 L89.730,70.779 C90.114,72.400 91.341,73.211 93.410,73.211 C94.903,73.211 96.290,72.827 97.570,72.059 L97.570,75.867 C96.418,76.720 94.765,77.147 92.610,77.147 C90.285,77.147 88.413,76.486 86.994,75.163 C85.575,73.840 84.866,72.027 84.866,69.723 C84.866,67.483 85.527,65.654 86.850,64.235 C88.173,62.816 89.837,62.107 91.842,62.107 C94.018,62.107 95.687,62.758 96.850,64.059 ZM89.794,67.963 L94.114,67.963 C94.050,67.344 93.837,66.848 93.474,66.475 C93.111,66.102 92.631,65.915 92.034,65.915 C90.903,65.915 90.157,66.598 89.794,67.963 ZM81.410,34.427 L84.162,42.619 L86.850,34.427 L91.842,34.427 L84.418,53.915 L79.458,53.915 L81.570,48.475 L76.194,34.427 L81.410,34.427 ZM97.283,91.675 C98.221,90.630 99.512,90.107 101.155,90.107 C102.733,90.107 103.976,90.582 104.883,91.531 C105.789,92.480 106.243,93.766 106.243,95.387 L106.243,104.827 L101.251,104.827 L101.251,96.603 C101.251,95.984 101.091,95.488 100.771,95.115 C100.451,94.742 99.981,94.555 99.363,94.555 C98.851,94.555 98.408,94.694 98.035,94.971 C97.661,95.248 97.411,95.632 97.283,96.123 L97.283,104.827 L92.259,104.827 L92.259,90.427 L97.283,90.427 L97.283,91.675 ZM113.346,58.459 L113.346,62.427 L116.162,62.427 L116.162,66.331 L113.346,66.331 L113.346,76.827 L108.354,76.827 L108.354,66.331 L105.858,66.331 L105.858,62.427 L108.354,62.427 L108.354,58.459 L113.346,58.459 ZM110.371,86.459 L115.363,86.459 L115.363,90.427 L118.179,90.427 L118.179,94.331 L115.363,94.331 L115.363,104.827 L110.371,104.827 L110.371,94.331 L107.875,94.331 L107.875,90.427 L110.371,90.427 L110.371,86.459 ZM120.930,99.067 C121.762,99.067 122.466,99.350 123.042,99.915 C123.618,100.480 123.906,101.190 123.906,102.043 C123.906,102.896 123.618,103.611 123.042,104.187 C122.466,104.763 121.762,105.051 120.930,105.051 C120.119,105.051 119.426,104.763 118.850,104.187 C118.274,103.611 117.986,102.896 117.986,102.043 C117.986,101.211 118.269,100.507 118.834,99.931 C119.399,99.355 120.098,99.067 120.930,99.067 ZM122.881,68.123 L122.881,76.827 L117.857,76.827 L117.857,56.027 L122.881,56.027 L122.881,63.675 C123.820,62.630 125.110,62.107 126.753,62.107 C128.332,62.107 129.574,62.582 130.481,63.531 C131.388,64.480 131.841,65.766 131.841,67.387 L131.841,76.827 L126.849,76.827 L126.849,68.603 C126.849,67.984 126.689,67.488 126.369,67.115 C126.049,66.742 125.580,66.555 124.961,66.555 C124.449,66.555 124.006,66.694 123.633,66.971 C123.260,67.248 123.009,67.632 122.881,68.123 ZM136.833,55.803 C137.622,55.803 138.294,56.054 138.849,56.555 C139.404,57.056 139.681,57.712 139.681,58.523 C139.681,59.312 139.404,59.958 138.849,60.459 C138.294,60.960 137.622,61.211 136.833,61.211 C136.044,61.211 135.372,60.960 134.817,60.459 C134.262,59.958 133.985,59.312 133.985,58.523 C133.985,57.712 134.262,57.056 134.817,56.555 C135.372,56.054 136.044,55.803 136.833,55.803 ZM139.329,76.827 L134.305,76.827 L134.305,62.427 L139.329,62.427 L139.329,76.827 ZM138.082,38.555 C137.570,38.555 137.127,38.694 136.754,38.971 C136.380,39.248 136.130,39.632 136.002,40.123 L136.002,48.827 L130.978,48.827 L130.978,34.427 L136.002,34.427 L136.002,35.675 C136.940,34.630 138.231,34.107 139.874,34.107 C141.452,34.107 142.695,34.582 143.602,35.531 C144.508,36.480 144.962,37.766 144.962,39.387 L144.962,48.827 L139.970,48.827 L139.970,40.603 C139.970,39.984 139.810,39.488 139.490,39.115 C139.170,38.742 138.700,38.555 138.082,38.555 ZM146.913,63.675 C147.851,62.630 149.142,62.107 150.785,62.107 C152.363,62.107 153.606,62.582 154.513,63.531 C155.419,64.480 155.873,65.766 155.873,67.387 L155.873,76.827 L150.881,76.827 L150.881,68.603 C150.881,67.984 150.721,67.488 150.401,67.115 C150.081,66.742 149.611,66.555 148.993,66.555 C148.481,66.555 148.038,66.694 147.665,66.971 C147.291,67.248 147.041,67.632 146.913,68.123 L146.913,76.827 L141.889,76.827 L141.889,62.427 L146.913,62.427 L146.913,63.675 ZM163.937,76.283 C161.953,76.283 160.395,75.611 159.265,74.267 C158.134,72.923 157.569,71.227 157.569,69.179 C157.569,67.131 158.134,65.440 159.265,64.107 C160.395,62.774 161.953,62.107 163.937,62.107 C165.409,62.107 166.539,62.576 167.329,63.515 L167.329,62.427 L172.289,62.427 L172.289,74.747 C172.289,77.264 171.510,79.141 169.953,80.379 C168.395,81.616 166.379,82.235 163.905,82.235 C161.707,82.235 159.979,81.829 158.721,81.019 L158.721,76.411 C160.107,77.584 161.782,78.171 163.745,78.171 C164.790,78.171 165.649,77.941 166.321,77.483 C166.993,77.024 167.329,76.315 167.329,75.355 L167.329,74.875 C166.518,75.814 165.387,76.283 163.937,76.283 ZM167.329,67.291 C166.838,66.480 166.123,66.075 165.185,66.075 C164.374,66.075 163.729,66.363 163.249,66.939 C162.769,67.515 162.529,68.262 162.529,69.179 C162.529,70.096 162.769,70.843 163.249,71.419 C163.729,71.995 164.374,72.283 165.185,72.283 C166.145,72.283 166.859,71.888 167.329,71.099 L167.329,67.291 ZM163.729,47.163 C162.310,45.840 161.601,44.027 161.601,41.723 C161.601,39.483 162.262,37.654 163.585,36.235 C164.907,34.816 166.571,34.107 168.577,34.107 C170.753,34.107 172.422,34.758 173.585,36.059 C174.747,37.360 175.329,39.110 175.329,41.307 L175.329,42.779 L166.465,42.779 C166.849,44.400 168.075,45.211 170.145,45.211 C171.638,45.211 173.025,44.827 174.305,44.059 L174.305,47.867 C173.153,48.720 171.499,49.147 169.345,49.147 C167.019,49.147 165.147,48.486 163.729,47.163 ZM170.849,39.963 C170.785,39.344 170.571,38.848 170.209,38.475 C169.846,38.102 169.366,37.915 168.769,37.915 C167.638,37.915 166.891,38.598 166.529,39.963 L170.849,39.963 ZM179.745,71.515 L178.625,71.227 C175.723,70.608 174.273,69.136 174.273,66.811 C174.273,65.339 174.817,64.187 175.905,63.355 C176.993,62.523 178.411,62.107 180.161,62.107 C182.123,62.107 183.798,62.534 185.185,63.387 L185.185,67.515 C183.649,66.406 182.134,65.851 180.641,65.851 C179.681,65.851 179.201,66.139 179.201,66.715 C179.201,66.971 179.291,67.163 179.473,67.291 C179.654,67.419 179.937,67.536 180.321,67.643 L181.633,68.027 C183.211,68.454 184.337,69.014 185.009,69.707 C185.681,70.400 186.017,71.355 186.017,72.571 C186.017,74.064 185.446,75.200 184.305,75.979 C183.163,76.758 181.665,77.147 179.809,77.147 C177.526,77.147 175.702,76.688 174.337,75.771 L174.337,71.547 C174.998,72.080 175.819,72.518 176.801,72.859 C177.782,73.200 178.657,73.371 179.425,73.371 C180.513,73.371 181.057,73.083 181.057,72.507 C181.057,72.038 180.619,71.707 179.745,71.515 Z"/>
</svg>