<svg 
 xmlns="http://www.w3.org/2000/svg"
 xmlns:xlink="http://www.w3.org/1999/xlink"
 width="224px" height="83px">
<defs>
<linearGradient id="PSgrad_0" x1="0%" x2="68.2%" y1="0%" y2="73.135%">
  <stop offset="0%" stop-color="rgb(238,117,24)" stop-opacity="0.95" />
  <stop offset="100%" stop-color="rgb(253,91,47)" stop-opacity="0.95" />
</linearGradient>

</defs>
<path fill-rule="evenodd"  fill="rgb(227, 114, 34)"
 d="M218.551,21.827 L218.551,1.027 L223.575,1.027 L223.575,21.827 L218.551,21.827 ZM211.288,21.091 C211.032,21.347 210.584,21.576 209.944,21.779 C209.304,21.981 208.621,22.083 207.896,22.083 C206.402,22.083 205.149,21.672 204.136,20.851 C203.122,20.030 202.616,18.894 202.616,17.443 C202.616,16.078 203.144,14.974 204.200,14.131 C205.256,13.288 206.573,12.867 208.152,12.867 C209.496,12.867 210.541,13.134 211.288,13.667 L211.288,13.155 C211.288,12.579 211.026,12.115 210.504,11.763 C209.981,11.411 209.218,11.235 208.216,11.235 C206.765,11.235 205.453,11.576 204.280,12.259 L204.280,8.227 C205.666,7.480 207.384,7.107 209.432,7.107 C211.565,7.107 213.213,7.603 214.376,8.595 C215.538,9.587 216.120,11.032 216.120,12.931 L216.120,21.827 L211.288,21.827 L211.288,21.091 ZM211.288,16.963 C210.946,16.302 210.274,15.971 209.272,15.971 C208.717,15.971 208.248,16.088 207.864,16.323 C207.480,16.558 207.288,16.899 207.288,17.347 C207.288,17.816 207.480,18.168 207.864,18.403 C208.248,18.638 208.717,18.755 209.272,18.755 C210.253,18.755 210.925,18.435 211.288,17.795 L211.288,16.963 ZM199.256,21.827 L194.264,21.827 L194.264,11.331 L191.768,11.331 L191.768,7.427 L194.264,7.427 L194.264,3.459 L199.256,3.459 L199.256,7.427 L202.072,7.427 L202.072,11.331 L199.256,11.331 L199.256,21.827 ZM198.280,37.059 C199.443,38.360 200.024,40.110 200.024,42.307 L200.024,43.779 L191.160,43.779 C191.544,45.400 192.771,46.211 194.840,46.211 C196.333,46.211 197.720,45.827 199.000,45.059 L199.000,48.867 C197.848,49.720 196.195,50.147 194.040,50.147 C191.715,50.147 189.843,49.486 188.424,48.163 C187.005,46.840 186.296,45.027 186.296,42.723 C186.296,40.483 186.957,38.654 188.280,37.235 C189.603,35.816 191.267,35.107 193.272,35.107 C195.448,35.107 197.117,35.758 198.280,37.059 ZM191.224,40.963 L195.544,40.963 C195.480,40.344 195.267,39.848 194.904,39.475 C194.541,39.102 194.061,38.915 193.464,38.915 C192.333,38.915 191.587,39.598 191.224,40.963 ZM187.544,6.211 C186.755,6.211 186.083,5.960 185.528,5.459 C184.973,4.958 184.696,4.312 184.696,3.523 C184.696,2.712 184.973,2.056 185.528,1.555 C186.083,1.054 186.755,0.803 187.544,0.803 C188.333,0.803 189.005,1.054 189.560,1.555 C190.115,2.056 190.392,2.712 190.392,3.523 C190.392,4.312 190.115,4.958 189.560,5.459 C189.005,5.960 188.333,6.211 187.544,6.211 ZM176.824,22.147 C176.120,22.147 175.443,22.003 174.792,21.715 C174.141,21.427 173.635,21.080 173.272,20.675 L173.272,26.915 L168.248,26.915 L168.248,7.427 L173.272,7.427 L173.272,8.579 C173.635,8.174 174.141,7.827 174.792,7.539 C175.443,7.251 176.120,7.107 176.824,7.107 C178.829,7.107 180.403,7.822 181.544,9.251 C182.685,10.680 183.256,12.472 183.256,14.627 C183.256,16.760 182.685,18.547 181.544,19.987 C180.403,21.427 178.829,22.147 176.824,22.147 ZM177.496,12.275 C177.005,11.667 176.333,11.363 175.480,11.363 C174.456,11.363 173.720,11.811 173.272,12.707 L173.272,16.515 C173.699,17.411 174.435,17.859 175.480,17.859 C176.333,17.859 177.005,17.555 177.496,16.947 C177.987,16.339 178.232,15.566 178.232,14.627 C178.232,13.667 177.987,12.883 177.496,12.275 ZM160.729,12.643 L162.041,13.027 C163.619,13.454 164.745,14.014 165.417,14.707 C166.089,15.400 166.425,16.355 166.425,17.571 C166.425,19.064 165.854,20.200 164.713,20.979 C163.571,21.758 162.073,22.147 160.217,22.147 C157.934,22.147 156.110,21.688 154.745,20.771 L154.745,16.547 C155.406,17.080 156.227,17.518 157.209,17.859 C158.190,18.200 159.065,18.371 159.833,18.371 C160.921,18.371 161.465,18.083 161.465,17.507 C161.465,17.038 161.027,16.707 160.153,16.515 L159.033,16.227 C156.131,15.608 154.681,14.136 154.681,11.811 C154.681,10.339 155.225,9.187 156.313,8.355 C157.401,7.523 158.819,7.107 160.569,7.107 C162.531,7.107 164.206,7.534 165.593,8.387 L165.593,12.515 C164.057,11.406 162.542,10.851 161.049,10.851 C160.089,10.851 159.609,11.139 159.609,11.715 C159.609,11.971 159.699,12.163 159.881,12.291 C160.062,12.419 160.345,12.536 160.729,12.643 ZM154.777,40.355 C153.838,39.672 152.803,39.331 151.673,39.331 C150.713,39.331 149.918,39.619 149.289,40.195 C148.659,40.771 148.345,41.582 148.345,42.627 C148.345,43.672 148.659,44.483 149.289,45.059 C149.918,45.635 150.713,45.923 151.673,45.923 C152.803,45.923 153.838,45.582 154.777,44.899 L154.777,49.123 C153.817,49.806 152.526,50.147 150.905,50.147 C148.707,50.147 146.905,49.464 145.497,48.099 C144.089,46.734 143.385,44.910 143.385,42.627 C143.385,40.344 144.089,38.520 145.497,37.155 C146.905,35.790 148.707,35.107 150.905,35.107 C152.526,35.107 153.817,35.448 154.777,36.131 L154.777,40.355 ZM146.009,22.147 C143.833,22.147 142.062,21.448 140.697,20.051 C139.332,18.654 138.649,16.846 138.649,14.627 C138.649,12.408 139.332,10.600 140.697,9.203 C142.062,7.806 143.833,7.107 146.009,7.107 C148.206,7.107 149.982,7.806 151.337,9.203 C152.692,10.600 153.369,12.408 153.369,14.627 C153.369,16.846 152.692,18.654 151.337,20.051 C149.982,21.448 148.206,22.147 146.009,22.147 ZM147.801,12.163 C147.374,11.544 146.777,11.235 146.009,11.235 C145.262,11.235 144.676,11.544 144.249,12.163 C143.822,12.782 143.609,13.603 143.609,14.627 C143.609,15.630 143.822,16.440 144.249,17.059 C144.676,17.678 145.262,17.987 146.009,17.987 C146.777,17.987 147.374,17.683 147.801,17.075 C148.228,16.467 148.441,15.651 148.441,14.627 C148.441,13.603 148.228,12.782 147.801,12.163 ZM142.394,63.107 C143.972,63.107 145.215,63.582 146.122,64.531 C147.028,65.480 147.482,66.766 147.482,68.387 L147.482,77.827 L142.490,77.827 L142.490,69.603 C142.490,68.984 142.330,68.488 142.010,68.115 C141.690,67.742 141.220,67.555 140.602,67.555 C140.090,67.555 139.647,67.694 139.274,67.971 C138.900,68.248 138.650,68.632 138.522,69.123 L138.522,77.827 L133.498,77.827 L133.498,57.027 L138.522,57.027 L138.522,64.675 C139.460,63.630 140.751,63.107 142.394,63.107 ZM131.641,14.051 L124.057,14.051 L124.057,21.827 L118.905,21.827 L118.905,2.179 L124.057,2.179 L124.057,9.635 L131.641,9.635 L131.641,2.179 L136.793,2.179 L136.793,21.827 L131.641,21.827 L131.641,14.051 ZM120.745,36.595 C121.908,37.587 122.489,39.032 122.489,40.931 L122.489,49.827 L117.657,49.827 L117.657,49.091 C117.401,49.347 116.953,49.576 116.313,49.779 C115.673,49.981 114.990,50.083 114.265,50.083 C112.772,50.083 111.518,49.672 110.505,48.851 C109.492,48.030 108.985,46.894 108.985,45.443 C108.985,44.078 109.513,42.974 110.569,42.131 C111.625,41.288 112.942,40.867 114.521,40.867 C115.865,40.867 116.910,41.134 117.657,41.667 L117.657,41.155 C117.657,40.579 117.396,40.115 116.873,39.763 C116.350,39.411 115.588,39.235 114.585,39.235 C113.134,39.235 111.822,39.576 110.649,40.259 L110.649,36.227 C112.036,35.480 113.753,35.107 115.801,35.107 C117.934,35.107 119.582,35.603 120.745,36.595 ZM117.657,44.963 C117.316,44.302 116.644,43.971 115.641,43.971 C115.086,43.971 114.617,44.088 114.233,44.323 C113.849,44.558 113.657,44.899 113.657,45.347 C113.657,45.816 113.849,46.168 114.233,46.403 C114.617,46.638 115.086,46.755 115.641,46.755 C116.622,46.755 117.294,46.435 117.657,45.795 L117.657,44.963 ZM108.026,21.827 L103.034,21.827 L103.034,11.331 L100.538,11.331 L100.538,7.427 L103.034,7.427 L103.034,3.459 L108.026,3.459 L108.026,7.427 L110.842,7.427 L110.842,11.331 L108.026,11.331 L108.026,21.827 ZM93.818,20.579 C92.922,21.624 91.642,22.147 89.978,22.147 C88.399,22.147 87.162,21.672 86.266,20.723 C85.370,19.774 84.922,18.488 84.922,16.867 L84.922,7.427 L89.914,7.427 L89.914,15.683 C89.914,17.070 90.532,17.763 91.770,17.763 C92.239,17.763 92.666,17.619 93.050,17.331 C93.434,17.043 93.690,16.654 93.818,16.163 L93.818,7.427 L98.842,7.427 L98.842,21.827 L93.818,21.827 L93.818,20.579 ZM75.834,22.147 C73.658,22.147 71.887,21.448 70.522,20.051 C69.156,18.654 68.474,16.846 68.474,14.627 C68.474,12.408 69.156,10.600 70.522,9.203 C71.887,7.806 73.658,7.107 75.834,7.107 C78.031,7.107 79.807,7.806 81.162,9.203 C82.516,10.600 83.194,12.408 83.194,14.627 C83.194,16.846 82.516,18.654 81.162,20.051 C79.807,21.448 78.031,22.147 75.834,22.147 ZM77.626,12.163 C77.199,11.544 76.602,11.235 75.834,11.235 C75.087,11.235 74.500,11.544 74.074,12.163 C73.647,12.782 73.434,13.603 73.434,14.627 C73.434,15.630 73.647,16.440 74.074,17.059 C74.500,17.678 75.087,17.987 75.834,17.987 C76.602,17.987 77.199,17.683 77.626,17.075 C78.052,16.467 78.266,15.651 78.266,14.627 C78.266,13.603 78.052,12.782 77.626,12.163 ZM55.962,18.211 C57.455,18.211 58.842,17.827 60.122,17.059 L60.122,20.867 C58.970,21.720 57.317,22.147 55.162,22.147 C52.837,22.147 50.965,21.486 49.546,20.163 C48.127,18.840 47.418,17.027 47.418,14.723 C47.418,12.483 48.079,10.654 49.402,9.235 C50.725,7.816 52.389,7.107 54.394,7.107 C56.570,7.107 58.239,7.758 59.402,9.059 C60.565,10.360 61.146,12.110 61.146,14.307 L61.146,15.779 L52.282,15.779 C52.666,17.400 53.893,18.211 55.962,18.211 ZM56.666,12.963 C56.602,12.344 56.389,11.848 56.026,11.475 C55.663,11.102 55.183,10.915 54.586,10.915 C53.455,10.915 52.709,11.598 52.346,12.963 L56.666,12.963 ZM47.579,21.827 L41.947,21.827 L37.595,15.523 L37.595,21.827 L32.571,21.827 L32.571,1.027 L37.595,1.027 L37.595,12.867 L41.691,7.427 L47.451,7.427 L42.107,14.083 L47.579,21.827 ZM38.107,35.107 C38.811,35.107 39.488,35.251 40.139,35.539 C40.789,35.827 41.296,36.174 41.659,36.579 L41.659,29.027 L46.683,29.027 L46.683,49.827 L41.659,49.827 L41.659,48.675 C41.296,49.080 40.789,49.427 40.139,49.715 C39.488,50.003 38.811,50.147 38.107,50.147 C36.101,50.147 34.528,49.438 33.387,48.019 C32.245,46.600 31.675,44.803 31.675,42.627 C31.675,40.451 32.245,38.654 33.387,37.235 C34.528,35.816 36.101,35.107 38.107,35.107 ZM37.435,44.947 C37.925,45.555 38.597,45.859 39.451,45.859 C40.496,45.859 41.232,45.411 41.659,44.515 L41.659,40.707 C41.467,40.323 41.168,40.003 40.763,39.747 C40.357,39.491 39.920,39.363 39.451,39.363 C38.597,39.363 37.925,39.667 37.435,40.275 C36.944,40.883 36.699,41.667 36.699,42.627 C36.699,43.566 36.944,44.339 37.435,44.947 ZM19.131,82.915 L21.243,77.475 L15.867,63.427 L21.083,63.427 L23.835,71.619 L26.523,63.427 L31.515,63.427 L24.091,82.915 L19.131,82.915 ZM25.307,21.091 C25.051,21.347 24.603,21.576 23.963,21.779 C23.323,21.981 22.640,22.083 21.915,22.083 C20.421,22.083 19.168,21.672 18.155,20.851 C17.141,20.030 16.635,18.894 16.635,17.443 C16.635,16.078 17.163,14.974 18.219,14.131 C19.275,13.288 20.592,12.867 22.171,12.867 C23.515,12.867 24.560,13.134 25.307,13.667 L25.307,13.155 C25.307,12.579 25.045,12.115 24.523,11.763 C24.000,11.411 23.237,11.235 22.235,11.235 C20.784,11.235 19.472,11.576 18.299,12.259 L18.299,8.227 C19.685,7.480 21.403,7.107 23.451,7.107 C25.584,7.107 27.232,7.603 28.395,8.595 C29.557,9.587 30.139,11.032 30.139,12.931 L30.139,21.827 L25.307,21.827 L25.307,21.091 ZM25.307,16.963 C24.965,16.302 24.293,15.971 23.291,15.971 C22.736,15.971 22.267,16.088 21.883,16.323 C21.499,16.558 21.307,16.899 21.307,17.347 C21.307,17.816 21.499,18.168 21.883,18.403 C22.267,18.638 22.736,18.755 23.291,18.755 C24.272,18.755 24.944,18.435 25.307,17.795 L25.307,16.963 ZM15.995,49.827 L15.995,35.427 L21.019,35.427 L21.019,36.675 C21.957,35.630 23.248,35.107 24.891,35.107 C26.469,35.107 27.712,35.582 28.619,36.531 C29.525,37.480 29.979,38.766 29.979,40.387 L29.979,49.827 L24.987,49.827 L24.987,41.603 C24.987,40.984 24.827,40.488 24.507,40.115 C24.187,39.742 23.717,39.555 23.099,39.555 C22.587,39.555 22.144,39.694 21.771,39.971 C21.397,40.248 21.147,40.632 21.019,41.123 L21.019,49.827 L15.995,49.827 ZM11.323,21.827 L6.171,21.827 L6.171,6.595 L0.123,6.595 L0.123,2.179 L17.403,2.179 L17.403,6.595 L11.323,6.595 L11.323,21.827 ZM5.595,40.867 C6.939,40.867 7.984,41.134 8.731,41.667 L8.731,41.155 C8.731,40.579 8.470,40.115 7.947,39.763 C7.424,39.411 6.662,39.235 5.659,39.235 C4.208,39.235 2.896,39.576 1.723,40.259 L1.723,36.227 C3.110,35.480 4.827,35.107 6.875,35.107 C9.008,35.107 10.656,35.603 11.819,36.595 C12.982,37.587 13.563,39.032 13.563,40.931 L13.563,49.827 L8.731,49.827 L8.731,49.091 C8.475,49.347 8.027,49.576 7.387,49.779 C6.747,49.981 6.064,50.083 5.339,50.083 C3.846,50.083 2.592,49.672 1.579,48.851 C0.566,48.030 0.059,46.894 0.059,45.443 C0.059,44.078 0.587,42.974 1.643,42.131 C2.699,41.288 4.016,40.867 5.595,40.867 ZM5.307,46.403 C5.691,46.638 6.160,46.755 6.715,46.755 C7.696,46.755 8.368,46.435 8.731,45.795 L8.731,44.963 C8.390,44.302 7.718,43.971 6.715,43.971 C6.160,43.971 5.691,44.088 5.307,44.323 C4.923,44.558 4.731,44.899 4.731,45.347 C4.731,45.816 4.923,46.168 5.307,46.403 ZM5.851,64.579 C6.214,64.174 6.720,63.827 7.371,63.539 C8.022,63.251 8.699,63.107 9.403,63.107 C11.408,63.107 12.982,63.816 14.123,65.235 C15.264,66.654 15.835,68.451 15.835,70.627 C15.835,72.803 15.264,74.600 14.123,76.019 C12.982,77.438 11.408,78.147 9.403,78.147 C8.699,78.147 8.022,78.003 7.371,77.715 C6.720,77.427 6.214,77.080 5.851,76.675 L5.851,77.827 L0.827,77.827 L0.827,57.027 L5.851,57.027 L5.851,64.579 ZM5.851,72.515 C6.278,73.411 7.014,73.859 8.059,73.859 C8.912,73.859 9.584,73.555 10.075,72.947 C10.566,72.339 10.811,71.566 10.811,70.627 C10.811,69.667 10.566,68.883 10.075,68.275 C9.584,67.667 8.912,67.363 8.059,67.363 C7.590,67.363 7.152,67.491 6.747,67.747 C6.342,68.003 6.043,68.323 5.851,68.707 L5.851,72.515 ZM43.835,73.955 C45.861,73.955 46.875,73.134 46.875,71.491 C46.875,70.488 46.411,69.752 45.483,69.283 C44.555,68.814 43.387,68.622 41.979,68.707 L41.979,68.611 L45.019,62.595 L38.619,62.595 L38.619,58.179 L51.675,58.179 L51.675,58.275 L47.835,65.923 C50.373,67.011 51.643,68.856 51.643,71.459 C51.643,73.507 50.949,75.134 49.563,76.339 C48.176,77.544 46.448,78.147 44.379,78.147 C42.075,78.147 40.123,77.592 38.523,76.483 L38.523,71.779 C40.144,73.230 41.915,73.955 43.835,73.955 ZM62.107,58.179 L62.107,77.827 L57.115,77.827 L57.115,63.747 L52.539,65.955 L52.539,61.091 L58.651,58.179 L62.107,58.179 ZM69.626,45.379 L69.626,49.827 L55.578,49.827 L55.578,30.179 L69.626,30.179 L69.626,34.595 L60.634,34.595 L60.634,37.667 L68.858,37.667 L68.858,41.987 L60.634,41.987 L60.634,45.379 L69.626,45.379 ZM70.906,35.427 L76.314,35.427 L78.554,38.883 L80.826,35.427 L86.010,35.427 L81.178,42.467 L86.234,49.827 L80.794,49.827 L78.330,46.083 L75.866,49.827 L70.682,49.827 L75.706,42.499 L70.906,35.427 ZM81.562,66.179 L86.970,58.179 L91.706,58.179 L91.706,77.827 L86.650,77.827 L86.650,66.563 L81.626,73.603 L81.498,73.603 L76.442,66.563 L76.442,77.827 L71.418,77.827 L71.418,58.179 L76.186,58.179 L81.562,66.179 ZM94.202,31.459 L94.202,35.427 L97.018,35.427 L97.018,39.331 L94.202,39.331 L94.202,49.827 L89.210,49.827 L89.210,39.331 L86.714,39.331 L86.714,35.427 L89.210,35.427 L89.210,31.459 L94.202,31.459 ZM99.130,68.867 C100.474,68.867 101.519,69.134 102.266,69.667 L102.266,69.155 C102.266,68.579 102.005,68.115 101.482,67.763 C100.959,67.411 100.197,67.235 99.194,67.235 C97.743,67.235 96.431,67.576 95.258,68.259 L95.258,64.227 C96.645,63.480 98.362,63.107 100.410,63.107 C102.543,63.107 104.191,63.603 105.354,64.595 C106.517,65.587 107.098,67.032 107.098,68.931 L107.098,77.827 L102.266,77.827 L102.266,77.091 C102.010,77.347 101.562,77.576 100.922,77.779 C100.282,77.981 99.599,78.083 98.874,78.083 C97.381,78.083 96.127,77.672 95.114,76.851 C94.101,76.030 93.594,74.894 93.594,73.443 C93.594,72.078 94.122,70.974 95.178,70.131 C96.234,69.288 97.551,68.867 99.130,68.867 ZM98.842,74.403 C99.226,74.638 99.695,74.755 100.250,74.755 C101.231,74.755 101.903,74.435 102.266,73.795 L102.266,72.963 C101.925,72.302 101.253,71.971 100.250,71.971 C99.695,71.971 99.226,72.088 98.842,72.323 C98.458,72.558 98.266,72.899 98.266,73.347 C98.266,73.816 98.458,74.168 98.842,74.403 ZM103.737,41.379 L103.737,49.827 L98.713,49.827 L98.713,35.427 L103.737,35.427 L103.737,36.707 C104.526,35.640 105.614,35.107 107.001,35.107 C107.620,35.107 108.078,35.192 108.377,35.363 L108.377,40.195 C107.801,39.896 107.108,39.747 106.297,39.747 C104.868,39.747 104.014,40.291 103.737,41.379 ZM114.554,64.707 C115.343,63.640 116.431,63.107 117.818,63.107 C118.436,63.107 118.895,63.192 119.194,63.363 L119.194,68.195 C118.618,67.896 117.924,67.747 117.114,67.747 C115.684,67.747 114.831,68.291 114.554,69.379 L114.554,77.827 L109.530,77.827 L109.530,63.427 L114.554,63.427 L114.554,64.707 ZM127.610,63.107 C129.231,63.107 130.522,63.448 131.482,64.131 L131.482,68.355 C130.543,67.672 129.508,67.331 128.378,67.331 C127.418,67.331 126.623,67.619 125.994,68.195 C125.364,68.771 125.050,69.582 125.050,70.627 C125.050,71.672 125.364,72.483 125.994,73.059 C126.623,73.635 127.418,73.923 128.378,73.923 C129.508,73.923 130.543,73.582 131.482,72.899 L131.482,77.123 C130.522,77.806 129.231,78.147 127.610,78.147 C125.412,78.147 123.610,77.464 122.202,76.099 C120.794,74.734 120.090,72.910 120.090,70.627 C120.090,68.344 120.794,66.520 122.202,65.155 C123.610,63.790 125.412,63.107 127.610,63.107 ZM130.393,40.643 L131.705,41.027 C133.283,41.454 134.409,42.014 135.081,42.707 C135.753,43.400 136.089,44.355 136.089,45.571 C136.089,47.064 135.518,48.200 134.377,48.979 C133.235,49.758 131.737,50.147 129.881,50.147 C127.598,50.147 125.774,49.688 124.409,48.771 L124.409,44.547 C125.070,45.080 125.891,45.518 126.873,45.859 C127.854,46.200 128.729,46.371 129.497,46.371 C130.585,46.371 131.129,46.083 131.129,45.507 C131.129,45.038 130.691,44.707 129.817,44.515 L128.697,44.227 C125.795,43.608 124.345,42.136 124.345,39.811 C124.345,38.339 124.889,37.187 125.977,36.355 C127.065,35.523 128.483,35.107 130.233,35.107 C132.195,35.107 133.870,35.534 135.257,36.387 L135.257,40.515 C133.721,39.406 132.206,38.851 130.713,38.851 C129.753,38.851 129.273,39.139 129.273,39.715 C129.273,39.971 129.363,40.163 129.545,40.291 C129.726,40.419 130.009,40.536 130.393,40.643 ZM149.740,57.847 L151.120,58.649 L151.120,57.044 L152.519,57.044 L152.519,58.649 L153.881,57.847 L154.590,59.041 L153.191,59.843 L154.590,60.645 L153.881,61.839 L152.519,61.037 L152.519,62.641 L151.120,62.641 L151.120,61.037 L149.740,61.839 L149.049,60.645 L150.430,59.843 L149.049,59.041 L149.740,57.847 ZM163.384,35.107 C165.581,35.107 167.357,35.806 168.712,37.203 C170.067,38.600 170.744,40.408 170.744,42.627 C170.744,44.846 170.067,46.654 168.712,48.051 C167.357,49.448 165.581,50.147 163.384,50.147 C161.208,50.147 159.437,49.448 158.072,48.051 C156.707,46.654 156.024,44.846 156.024,42.627 C156.024,40.408 156.707,38.600 158.072,37.203 C159.437,35.806 161.208,35.107 163.384,35.107 ZM161.624,45.059 C162.051,45.678 162.637,45.987 163.384,45.987 C164.152,45.987 164.749,45.683 165.176,45.075 C165.603,44.467 165.816,43.651 165.816,42.627 C165.816,41.603 165.603,40.782 165.176,40.163 C164.749,39.544 164.152,39.235 163.384,39.235 C162.637,39.235 162.051,39.544 161.624,40.163 C161.197,40.782 160.984,41.603 160.984,42.627 C160.984,43.630 161.197,44.440 161.624,45.059 ZM190.040,7.427 L190.040,21.827 L185.016,21.827 L185.016,7.427 L190.040,7.427 ZM178.680,43.683 L181.368,35.427 L186.296,35.427 L180.792,49.827 L176.280,49.827 L170.808,35.427 L175.928,35.427 L178.680,43.683 ZM206.904,36.707 C207.693,35.640 208.781,35.107 210.168,35.107 C210.786,35.107 211.245,35.192 211.544,35.363 L211.544,40.195 C210.968,39.896 210.274,39.747 209.464,39.747 C208.034,39.747 207.181,40.291 206.904,41.379 L206.904,49.827 L201.880,49.827 L201.880,35.427 L206.904,35.427 L206.904,36.707 Z"/>
<path fill="url(#PSgrad_0)"
 d="M218.551,21.827 L218.551,1.027 L223.575,1.027 L223.575,21.827 L218.551,21.827 ZM211.288,21.091 C211.032,21.347 210.584,21.576 209.944,21.779 C209.304,21.981 208.621,22.083 207.896,22.083 C206.402,22.083 205.149,21.672 204.136,20.851 C203.122,20.030 202.616,18.894 202.616,17.443 C202.616,16.078 203.144,14.974 204.200,14.131 C205.256,13.288 206.573,12.867 208.152,12.867 C209.496,12.867 210.541,13.134 211.288,13.667 L211.288,13.155 C211.288,12.579 211.026,12.115 210.504,11.763 C209.981,11.411 209.218,11.235 208.216,11.235 C206.765,11.235 205.453,11.576 204.280,12.259 L204.280,8.227 C205.666,7.480 207.384,7.107 209.432,7.107 C211.565,7.107 213.213,7.603 214.376,8.595 C215.538,9.587 216.120,11.032 216.120,12.931 L216.120,21.827 L211.288,21.827 L211.288,21.091 ZM211.288,16.963 C210.946,16.302 210.274,15.971 209.272,15.971 C208.717,15.971 208.248,16.088 207.864,16.323 C207.480,16.558 207.288,16.899 207.288,17.347 C207.288,17.816 207.480,18.168 207.864,18.403 C208.248,18.638 208.717,18.755 209.272,18.755 C210.253,18.755 210.925,18.435 211.288,17.795 L211.288,16.963 ZM199.256,21.827 L194.264,21.827 L194.264,11.331 L191.768,11.331 L191.768,7.427 L194.264,7.427 L194.264,3.459 L199.256,3.459 L199.256,7.427 L202.072,7.427 L202.072,11.331 L199.256,11.331 L199.256,21.827 ZM198.280,37.059 C199.443,38.360 200.024,40.110 200.024,42.307 L200.024,43.779 L191.160,43.779 C191.544,45.400 192.771,46.211 194.840,46.211 C196.333,46.211 197.720,45.827 199.000,45.059 L199.000,48.867 C197.848,49.720 196.195,50.147 194.040,50.147 C191.715,50.147 189.843,49.486 188.424,48.163 C187.005,46.840 186.296,45.027 186.296,42.723 C186.296,40.483 186.957,38.654 188.280,37.235 C189.603,35.816 191.267,35.107 193.272,35.107 C195.448,35.107 197.117,35.758 198.280,37.059 ZM191.224,40.963 L195.544,40.963 C195.480,40.344 195.267,39.848 194.904,39.475 C194.541,39.102 194.061,38.915 193.464,38.915 C192.333,38.915 191.587,39.598 191.224,40.963 ZM187.544,6.211 C186.755,6.211 186.083,5.960 185.528,5.459 C184.973,4.958 184.696,4.312 184.696,3.523 C184.696,2.712 184.973,2.056 185.528,1.555 C186.083,1.054 186.755,0.803 187.544,0.803 C188.333,0.803 189.005,1.054 189.560,1.555 C190.115,2.056 190.392,2.712 190.392,3.523 C190.392,4.312 190.115,4.958 189.560,5.459 C189.005,5.960 188.333,6.211 187.544,6.211 ZM176.824,22.147 C176.120,22.147 175.443,22.003 174.792,21.715 C174.141,21.427 173.635,21.080 173.272,20.675 L173.272,26.915 L168.248,26.915 L168.248,7.427 L173.272,7.427 L173.272,8.579 C173.635,8.174 174.141,7.827 174.792,7.539 C175.443,7.251 176.120,7.107 176.824,7.107 C178.829,7.107 180.403,7.822 181.544,9.251 C182.685,10.680 183.256,12.472 183.256,14.627 C183.256,16.760 182.685,18.547 181.544,19.987 C180.403,21.427 178.829,22.147 176.824,22.147 ZM177.496,12.275 C177.005,11.667 176.333,11.363 175.480,11.363 C174.456,11.363 173.720,11.811 173.272,12.707 L173.272,16.515 C173.699,17.411 174.435,17.859 175.480,17.859 C176.333,17.859 177.005,17.555 177.496,16.947 C177.987,16.339 178.232,15.566 178.232,14.627 C178.232,13.667 177.987,12.883 177.496,12.275 ZM160.729,12.643 L162.041,13.027 C163.619,13.454 164.745,14.014 165.417,14.707 C166.089,15.400 166.425,16.355 166.425,17.571 C166.425,19.064 165.854,20.200 164.713,20.979 C163.571,21.758 162.073,22.147 160.217,22.147 C157.934,22.147 156.110,21.688 154.745,20.771 L154.745,16.547 C155.406,17.080 156.227,17.518 157.209,17.859 C158.190,18.200 159.065,18.371 159.833,18.371 C160.921,18.371 161.465,18.083 161.465,17.507 C161.465,17.038 161.027,16.707 160.153,16.515 L159.033,16.227 C156.131,15.608 154.681,14.136 154.681,11.811 C154.681,10.339 155.225,9.187 156.313,8.355 C157.401,7.523 158.819,7.107 160.569,7.107 C162.531,7.107 164.206,7.534 165.593,8.387 L165.593,12.515 C164.057,11.406 162.542,10.851 161.049,10.851 C160.089,10.851 159.609,11.139 159.609,11.715 C159.609,11.971 159.699,12.163 159.881,12.291 C160.062,12.419 160.345,12.536 160.729,12.643 ZM154.777,40.355 C153.838,39.672 152.803,39.331 151.673,39.331 C150.713,39.331 149.918,39.619 149.289,40.195 C148.659,40.771 148.345,41.582 148.345,42.627 C148.345,43.672 148.659,44.483 149.289,45.059 C149.918,45.635 150.713,45.923 151.673,45.923 C152.803,45.923 153.838,45.582 154.777,44.899 L154.777,49.123 C153.817,49.806 152.526,50.147 150.905,50.147 C148.707,50.147 146.905,49.464 145.497,48.099 C144.089,46.734 143.385,44.910 143.385,42.627 C143.385,40.344 144.089,38.520 145.497,37.155 C146.905,35.790 148.707,35.107 150.905,35.107 C152.526,35.107 153.817,35.448 154.777,36.131 L154.777,40.355 ZM146.009,22.147 C143.833,22.147 142.062,21.448 140.697,20.051 C139.332,18.654 138.649,16.846 138.649,14.627 C138.649,12.408 139.332,10.600 140.697,9.203 C142.062,7.806 143.833,7.107 146.009,7.107 C148.206,7.107 149.982,7.806 151.337,9.203 C152.692,10.600 153.369,12.408 153.369,14.627 C153.369,16.846 152.692,18.654 151.337,20.051 C149.982,21.448 148.206,22.147 146.009,22.147 ZM147.801,12.163 C147.374,11.544 146.777,11.235 146.009,11.235 C145.262,11.235 144.676,11.544 144.249,12.163 C143.822,12.782 143.609,13.603 143.609,14.627 C143.609,15.630 143.822,16.440 144.249,17.059 C144.676,17.678 145.262,17.987 146.009,17.987 C146.777,17.987 147.374,17.683 147.801,17.075 C148.228,16.467 148.441,15.651 148.441,14.627 C148.441,13.603 148.228,12.782 147.801,12.163 ZM142.394,63.107 C143.972,63.107 145.215,63.582 146.122,64.531 C147.028,65.480 147.482,66.766 147.482,68.387 L147.482,77.827 L142.490,77.827 L142.490,69.603 C142.490,68.984 142.330,68.488 142.010,68.115 C141.690,67.742 141.220,67.555 140.602,67.555 C140.090,67.555 139.647,67.694 139.274,67.971 C138.900,68.248 138.650,68.632 138.522,69.123 L138.522,77.827 L133.498,77.827 L133.498,57.027 L138.522,57.027 L138.522,64.675 C139.460,63.630 140.751,63.107 142.394,63.107 ZM131.641,14.051 L124.057,14.051 L124.057,21.827 L118.905,21.827 L118.905,2.179 L124.057,2.179 L124.057,9.635 L131.641,9.635 L131.641,2.179 L136.793,2.179 L136.793,21.827 L131.641,21.827 L131.641,14.051 ZM120.745,36.595 C121.908,37.587 122.489,39.032 122.489,40.931 L122.489,49.827 L117.657,49.827 L117.657,49.091 C117.401,49.347 116.953,49.576 116.313,49.779 C115.673,49.981 114.990,50.083 114.265,50.083 C112.772,50.083 111.518,49.672 110.505,48.851 C109.492,48.030 108.985,46.894 108.985,45.443 C108.985,44.078 109.513,42.974 110.569,42.131 C111.625,41.288 112.942,40.867 114.521,40.867 C115.865,40.867 116.910,41.134 117.657,41.667 L117.657,41.155 C117.657,40.579 117.396,40.115 116.873,39.763 C116.350,39.411 115.588,39.235 114.585,39.235 C113.134,39.235 111.822,39.576 110.649,40.259 L110.649,36.227 C112.036,35.480 113.753,35.107 115.801,35.107 C117.934,35.107 119.582,35.603 120.745,36.595 ZM117.657,44.963 C117.316,44.302 116.644,43.971 115.641,43.971 C115.086,43.971 114.617,44.088 114.233,44.323 C113.849,44.558 113.657,44.899 113.657,45.347 C113.657,45.816 113.849,46.168 114.233,46.403 C114.617,46.638 115.086,46.755 115.641,46.755 C116.622,46.755 117.294,46.435 117.657,45.795 L117.657,44.963 ZM108.026,21.827 L103.034,21.827 L103.034,11.331 L100.538,11.331 L100.538,7.427 L103.034,7.427 L103.034,3.459 L108.026,3.459 L108.026,7.427 L110.842,7.427 L110.842,11.331 L108.026,11.331 L108.026,21.827 ZM93.818,20.579 C92.922,21.624 91.642,22.147 89.978,22.147 C88.399,22.147 87.162,21.672 86.266,20.723 C85.370,19.774 84.922,18.488 84.922,16.867 L84.922,7.427 L89.914,7.427 L89.914,15.683 C89.914,17.070 90.532,17.763 91.770,17.763 C92.239,17.763 92.666,17.619 93.050,17.331 C93.434,17.043 93.690,16.654 93.818,16.163 L93.818,7.427 L98.842,7.427 L98.842,21.827 L93.818,21.827 L93.818,20.579 ZM75.834,22.147 C73.658,22.147 71.887,21.448 70.522,20.051 C69.156,18.654 68.474,16.846 68.474,14.627 C68.474,12.408 69.156,10.600 70.522,9.203 C71.887,7.806 73.658,7.107 75.834,7.107 C78.031,7.107 79.807,7.806 81.162,9.203 C82.516,10.600 83.194,12.408 83.194,14.627 C83.194,16.846 82.516,18.654 81.162,20.051 C79.807,21.448 78.031,22.147 75.834,22.147 ZM77.626,12.163 C77.199,11.544 76.602,11.235 75.834,11.235 C75.087,11.235 74.500,11.544 74.074,12.163 C73.647,12.782 73.434,13.603 73.434,14.627 C73.434,15.630 73.647,16.440 74.074,17.059 C74.500,17.678 75.087,17.987 75.834,17.987 C76.602,17.987 77.199,17.683 77.626,17.075 C78.052,16.467 78.266,15.651 78.266,14.627 C78.266,13.603 78.052,12.782 77.626,12.163 ZM55.962,18.211 C57.455,18.211 58.842,17.827 60.122,17.059 L60.122,20.867 C58.970,21.720 57.317,22.147 55.162,22.147 C52.837,22.147 50.965,21.486 49.546,20.163 C48.127,18.840 47.418,17.027 47.418,14.723 C47.418,12.483 48.079,10.654 49.402,9.235 C50.725,7.816 52.389,7.107 54.394,7.107 C56.570,7.107 58.239,7.758 59.402,9.059 C60.565,10.360 61.146,12.110 61.146,14.307 L61.146,15.779 L52.282,15.779 C52.666,17.400 53.893,18.211 55.962,18.211 ZM56.666,12.963 C56.602,12.344 56.389,11.848 56.026,11.475 C55.663,11.102 55.183,10.915 54.586,10.915 C53.455,10.915 52.709,11.598 52.346,12.963 L56.666,12.963 ZM47.579,21.827 L41.947,21.827 L37.595,15.523 L37.595,21.827 L32.571,21.827 L32.571,1.027 L37.595,1.027 L37.595,12.867 L41.691,7.427 L47.451,7.427 L42.107,14.083 L47.579,21.827 ZM38.107,35.107 C38.811,35.107 39.488,35.251 40.139,35.539 C40.789,35.827 41.296,36.174 41.659,36.579 L41.659,29.027 L46.683,29.027 L46.683,49.827 L41.659,49.827 L41.659,48.675 C41.296,49.080 40.789,49.427 40.139,49.715 C39.488,50.003 38.811,50.147 38.107,50.147 C36.101,50.147 34.528,49.438 33.387,48.019 C32.245,46.600 31.675,44.803 31.675,42.627 C31.675,40.451 32.245,38.654 33.387,37.235 C34.528,35.816 36.101,35.107 38.107,35.107 ZM37.435,44.947 C37.925,45.555 38.597,45.859 39.451,45.859 C40.496,45.859 41.232,45.411 41.659,44.515 L41.659,40.707 C41.467,40.323 41.168,40.003 40.763,39.747 C40.357,39.491 39.920,39.363 39.451,39.363 C38.597,39.363 37.925,39.667 37.435,40.275 C36.944,40.883 36.699,41.667 36.699,42.627 C36.699,43.566 36.944,44.339 37.435,44.947 ZM19.131,82.915 L21.243,77.475 L15.867,63.427 L21.083,63.427 L23.835,71.619 L26.523,63.427 L31.515,63.427 L24.091,82.915 L19.131,82.915 ZM25.307,21.091 C25.051,21.347 24.603,21.576 23.963,21.779 C23.323,21.981 22.640,22.083 21.915,22.083 C20.421,22.083 19.168,21.672 18.155,20.851 C17.141,20.030 16.635,18.894 16.635,17.443 C16.635,16.078 17.163,14.974 18.219,14.131 C19.275,13.288 20.592,12.867 22.171,12.867 C23.515,12.867 24.560,13.134 25.307,13.667 L25.307,13.155 C25.307,12.579 25.045,12.115 24.523,11.763 C24.000,11.411 23.237,11.235 22.235,11.235 C20.784,11.235 19.472,11.576 18.299,12.259 L18.299,8.227 C19.685,7.480 21.403,7.107 23.451,7.107 C25.584,7.107 27.232,7.603 28.395,8.595 C29.557,9.587 30.139,11.032 30.139,12.931 L30.139,21.827 L25.307,21.827 L25.307,21.091 ZM25.307,16.963 C24.965,16.302 24.293,15.971 23.291,15.971 C22.736,15.971 22.267,16.088 21.883,16.323 C21.499,16.558 21.307,16.899 21.307,17.347 C21.307,17.816 21.499,18.168 21.883,18.403 C22.267,18.638 22.736,18.755 23.291,18.755 C24.272,18.755 24.944,18.435 25.307,17.795 L25.307,16.963 ZM15.995,49.827 L15.995,35.427 L21.019,35.427 L21.019,36.675 C21.957,35.630 23.248,35.107 24.891,35.107 C26.469,35.107 27.712,35.582 28.619,36.531 C29.525,37.480 29.979,38.766 29.979,40.387 L29.979,49.827 L24.987,49.827 L24.987,41.603 C24.987,40.984 24.827,40.488 24.507,40.115 C24.187,39.742 23.717,39.555 23.099,39.555 C22.587,39.555 22.144,39.694 21.771,39.971 C21.397,40.248 21.147,40.632 21.019,41.123 L21.019,49.827 L15.995,49.827 ZM11.323,21.827 L6.171,21.827 L6.171,6.595 L0.123,6.595 L0.123,2.179 L17.403,2.179 L17.403,6.595 L11.323,6.595 L11.323,21.827 ZM5.595,40.867 C6.939,40.867 7.984,41.134 8.731,41.667 L8.731,41.155 C8.731,40.579 8.470,40.115 7.947,39.763 C7.424,39.411 6.662,39.235 5.659,39.235 C4.208,39.235 2.896,39.576 1.723,40.259 L1.723,36.227 C3.110,35.480 4.827,35.107 6.875,35.107 C9.008,35.107 10.656,35.603 11.819,36.595 C12.982,37.587 13.563,39.032 13.563,40.931 L13.563,49.827 L8.731,49.827 L8.731,49.091 C8.475,49.347 8.027,49.576 7.387,49.779 C6.747,49.981 6.064,50.083 5.339,50.083 C3.846,50.083 2.592,49.672 1.579,48.851 C0.566,48.030 0.059,46.894 0.059,45.443 C0.059,44.078 0.587,42.974 1.643,42.131 C2.699,41.288 4.016,40.867 5.595,40.867 ZM5.307,46.403 C5.691,46.638 6.160,46.755 6.715,46.755 C7.696,46.755 8.368,46.435 8.731,45.795 L8.731,44.963 C8.390,44.302 7.718,43.971 6.715,43.971 C6.160,43.971 5.691,44.088 5.307,44.323 C4.923,44.558 4.731,44.899 4.731,45.347 C4.731,45.816 4.923,46.168 5.307,46.403 ZM5.851,64.579 C6.214,64.174 6.720,63.827 7.371,63.539 C8.022,63.251 8.699,63.107 9.403,63.107 C11.408,63.107 12.982,63.816 14.123,65.235 C15.264,66.654 15.835,68.451 15.835,70.627 C15.835,72.803 15.264,74.600 14.123,76.019 C12.982,77.438 11.408,78.147 9.403,78.147 C8.699,78.147 8.022,78.003 7.371,77.715 C6.720,77.427 6.214,77.080 5.851,76.675 L5.851,77.827 L0.827,77.827 L0.827,57.027 L5.851,57.027 L5.851,64.579 ZM5.851,72.515 C6.278,73.411 7.014,73.859 8.059,73.859 C8.912,73.859 9.584,73.555 10.075,72.947 C10.566,72.339 10.811,71.566 10.811,70.627 C10.811,69.667 10.566,68.883 10.075,68.275 C9.584,67.667 8.912,67.363 8.059,67.363 C7.590,67.363 7.152,67.491 6.747,67.747 C6.342,68.003 6.043,68.323 5.851,68.707 L5.851,72.515 ZM43.835,73.955 C45.861,73.955 46.875,73.134 46.875,71.491 C46.875,70.488 46.411,69.752 45.483,69.283 C44.555,68.814 43.387,68.622 41.979,68.707 L41.979,68.611 L45.019,62.595 L38.619,62.595 L38.619,58.179 L51.675,58.179 L51.675,58.275 L47.835,65.923 C50.373,67.011 51.643,68.856 51.643,71.459 C51.643,73.507 50.949,75.134 49.563,76.339 C48.176,77.544 46.448,78.147 44.379,78.147 C42.075,78.147 40.123,77.592 38.523,76.483 L38.523,71.779 C40.144,73.230 41.915,73.955 43.835,73.955 ZM62.107,58.179 L62.107,77.827 L57.115,77.827 L57.115,63.747 L52.539,65.955 L52.539,61.091 L58.651,58.179 L62.107,58.179 ZM69.626,45.379 L69.626,49.827 L55.578,49.827 L55.578,30.179 L69.626,30.179 L69.626,34.595 L60.634,34.595 L60.634,37.667 L68.858,37.667 L68.858,41.987 L60.634,41.987 L60.634,45.379 L69.626,45.379 ZM70.906,35.427 L76.314,35.427 L78.554,38.883 L80.826,35.427 L86.010,35.427 L81.178,42.467 L86.234,49.827 L80.794,49.827 L78.330,46.083 L75.866,49.827 L70.682,49.827 L75.706,42.499 L70.906,35.427 ZM81.562,66.179 L86.970,58.179 L91.706,58.179 L91.706,77.827 L86.650,77.827 L86.650,66.563 L81.626,73.603 L81.498,73.603 L76.442,66.563 L76.442,77.827 L71.418,77.827 L71.418,58.179 L76.186,58.179 L81.562,66.179 ZM94.202,31.459 L94.202,35.427 L97.018,35.427 L97.018,39.331 L94.202,39.331 L94.202,49.827 L89.210,49.827 L89.210,39.331 L86.714,39.331 L86.714,35.427 L89.210,35.427 L89.210,31.459 L94.202,31.459 ZM99.130,68.867 C100.474,68.867 101.519,69.134 102.266,69.667 L102.266,69.155 C102.266,68.579 102.005,68.115 101.482,67.763 C100.959,67.411 100.197,67.235 99.194,67.235 C97.743,67.235 96.431,67.576 95.258,68.259 L95.258,64.227 C96.645,63.480 98.362,63.107 100.410,63.107 C102.543,63.107 104.191,63.603 105.354,64.595 C106.517,65.587 107.098,67.032 107.098,68.931 L107.098,77.827 L102.266,77.827 L102.266,77.091 C102.010,77.347 101.562,77.576 100.922,77.779 C100.282,77.981 99.599,78.083 98.874,78.083 C97.381,78.083 96.127,77.672 95.114,76.851 C94.101,76.030 93.594,74.894 93.594,73.443 C93.594,72.078 94.122,70.974 95.178,70.131 C96.234,69.288 97.551,68.867 99.130,68.867 ZM98.842,74.403 C99.226,74.638 99.695,74.755 100.250,74.755 C101.231,74.755 101.903,74.435 102.266,73.795 L102.266,72.963 C101.925,72.302 101.253,71.971 100.250,71.971 C99.695,71.971 99.226,72.088 98.842,72.323 C98.458,72.558 98.266,72.899 98.266,73.347 C98.266,73.816 98.458,74.168 98.842,74.403 ZM103.737,41.379 L103.737,49.827 L98.713,49.827 L98.713,35.427 L103.737,35.427 L103.737,36.707 C104.526,35.640 105.614,35.107 107.001,35.107 C107.620,35.107 108.078,35.192 108.377,35.363 L108.377,40.195 C107.801,39.896 107.108,39.747 106.297,39.747 C104.868,39.747 104.014,40.291 103.737,41.379 ZM114.554,64.707 C115.343,63.640 116.431,63.107 117.818,63.107 C118.436,63.107 118.895,63.192 119.194,63.363 L119.194,68.195 C118.618,67.896 117.924,67.747 117.114,67.747 C115.684,67.747 114.831,68.291 114.554,69.379 L114.554,77.827 L109.530,77.827 L109.530,63.427 L114.554,63.427 L114.554,64.707 ZM127.610,63.107 C129.231,63.107 130.522,63.448 131.482,64.131 L131.482,68.355 C130.543,67.672 129.508,67.331 128.378,67.331 C127.418,67.331 126.623,67.619 125.994,68.195 C125.364,68.771 125.050,69.582 125.050,70.627 C125.050,71.672 125.364,72.483 125.994,73.059 C126.623,73.635 127.418,73.923 128.378,73.923 C129.508,73.923 130.543,73.582 131.482,72.899 L131.482,77.123 C130.522,77.806 129.231,78.147 127.610,78.147 C125.412,78.147 123.610,77.464 122.202,76.099 C120.794,74.734 120.090,72.910 120.090,70.627 C120.090,68.344 120.794,66.520 122.202,65.155 C123.610,63.790 125.412,63.107 127.610,63.107 ZM130.393,40.643 L131.705,41.027 C133.283,41.454 134.409,42.014 135.081,42.707 C135.753,43.400 136.089,44.355 136.089,45.571 C136.089,47.064 135.518,48.200 134.377,48.979 C133.235,49.758 131.737,50.147 129.881,50.147 C127.598,50.147 125.774,49.688 124.409,48.771 L124.409,44.547 C125.070,45.080 125.891,45.518 126.873,45.859 C127.854,46.200 128.729,46.371 129.497,46.371 C130.585,46.371 131.129,46.083 131.129,45.507 C131.129,45.038 130.691,44.707 129.817,44.515 L128.697,44.227 C125.795,43.608 124.345,42.136 124.345,39.811 C124.345,38.339 124.889,37.187 125.977,36.355 C127.065,35.523 128.483,35.107 130.233,35.107 C132.195,35.107 133.870,35.534 135.257,36.387 L135.257,40.515 C133.721,39.406 132.206,38.851 130.713,38.851 C129.753,38.851 129.273,39.139 129.273,39.715 C129.273,39.971 129.363,40.163 129.545,40.291 C129.726,40.419 130.009,40.536 130.393,40.643 ZM149.740,57.847 L151.120,58.649 L151.120,57.044 L152.519,57.044 L152.519,58.649 L153.881,57.847 L154.590,59.041 L153.191,59.843 L154.590,60.645 L153.881,61.839 L152.519,61.037 L152.519,62.641 L151.120,62.641 L151.120,61.037 L149.740,61.839 L149.049,60.645 L150.430,59.843 L149.049,59.041 L149.740,57.847 ZM163.384,35.107 C165.581,35.107 167.357,35.806 168.712,37.203 C170.067,38.600 170.744,40.408 170.744,42.627 C170.744,44.846 170.067,46.654 168.712,48.051 C167.357,49.448 165.581,50.147 163.384,50.147 C161.208,50.147 159.437,49.448 158.072,48.051 C156.707,46.654 156.024,44.846 156.024,42.627 C156.024,40.408 156.707,38.600 158.072,37.203 C159.437,35.806 161.208,35.107 163.384,35.107 ZM161.624,45.059 C162.051,45.678 162.637,45.987 163.384,45.987 C164.152,45.987 164.749,45.683 165.176,45.075 C165.603,44.467 165.816,43.651 165.816,42.627 C165.816,41.603 165.603,40.782 165.176,40.163 C164.749,39.544 164.152,39.235 163.384,39.235 C162.637,39.235 162.051,39.544 161.624,40.163 C161.197,40.782 160.984,41.603 160.984,42.627 C160.984,43.630 161.197,44.440 161.624,45.059 ZM190.040,7.427 L190.040,21.827 L185.016,21.827 L185.016,7.427 L190.040,7.427 ZM178.680,43.683 L181.368,35.427 L186.296,35.427 L180.792,49.827 L176.280,49.827 L170.808,35.427 L175.928,35.427 L178.680,43.683 ZM206.904,36.707 C207.693,35.640 208.781,35.107 210.168,35.107 C210.786,35.107 211.245,35.192 211.544,35.363 L211.544,40.195 C210.968,39.896 210.274,39.747 209.464,39.747 C208.034,39.747 207.181,40.291 206.904,41.379 L206.904,49.827 L201.880,49.827 L201.880,35.427 L206.904,35.427 L206.904,36.707 Z"/>
</svg>