<svg 
 xmlns="http://www.w3.org/2000/svg"
 xmlns:xlink="http://www.w3.org/1999/xlink"
 width="204px" height="110px">
<defs>
<linearGradient id="PSgrad_0" x1="0%" x2="64.279%" y1="0%" y2="76.604%">
  <stop offset="0%" stop-color="rgb(238,117,24)" stop-opacity="0.95" />
  <stop offset="100%" stop-color="rgb(253,91,47)" stop-opacity="0.95" />
</linearGradient>

</defs>
<path fill-rule="evenodd"  fill="rgb(227, 114, 34)"
 d="M202.880,48.187 C202.304,48.763 201.600,49.051 200.768,49.051 C199.957,49.051 199.264,48.763 198.688,48.187 C198.112,47.611 197.824,46.896 197.824,46.043 C197.824,45.211 198.107,44.507 198.672,43.931 C199.237,43.355 199.936,43.067 200.768,43.067 C201.600,43.067 202.304,43.350 202.880,43.915 C203.456,44.480 203.744,45.190 203.744,46.043 C203.744,46.896 203.456,47.611 202.880,48.187 ZM190.689,47.675 C190.326,48.080 189.819,48.427 189.168,48.715 C188.518,49.003 187.841,49.147 187.136,49.147 C185.131,49.147 183.558,48.438 182.416,47.019 C181.275,45.600 180.705,43.803 180.705,41.627 C180.705,39.451 181.275,37.654 182.416,36.235 C183.558,34.816 185.131,34.107 187.136,34.107 C187.841,34.107 188.518,34.251 189.168,34.539 C189.819,34.827 190.326,35.174 190.689,35.579 L190.689,28.027 L195.713,28.027 L195.713,48.827 L190.689,48.827 L190.689,47.675 ZM190.689,39.707 C190.497,39.323 190.198,39.003 189.793,38.747 C189.387,38.491 188.950,38.363 188.481,38.363 C187.627,38.363 186.955,38.667 186.465,39.275 C185.974,39.883 185.729,40.667 185.729,41.627 C185.729,42.566 185.974,43.339 186.465,43.947 C186.955,44.555 187.627,44.859 188.481,44.859 C189.526,44.859 190.261,44.411 190.689,43.515 L190.689,39.707 ZM180.095,12.603 C180.095,11.984 179.935,11.488 179.615,11.115 C179.295,10.742 178.825,10.555 178.207,10.555 C177.695,10.555 177.252,10.694 176.879,10.971 C176.505,11.248 176.255,11.632 176.127,12.123 L176.127,20.827 L171.103,20.827 L171.103,0.027 L176.127,0.027 L176.127,7.675 C177.065,6.630 178.356,6.107 179.999,6.107 C181.577,6.107 182.820,6.582 183.727,7.531 C184.633,8.480 185.087,9.766 185.087,11.387 L185.087,20.827 L180.095,20.827 L180.095,12.603 ZM166.271,20.827 L161.279,20.827 L161.279,10.331 L158.783,10.331 L158.783,6.427 L161.279,6.427 L161.279,2.459 L166.271,2.459 L166.271,6.427 L169.087,6.427 L169.087,10.331 L166.271,10.331 L166.271,20.827 ZM162.161,36.059 C163.324,37.360 163.905,39.110 163.905,41.307 L163.905,42.779 L155.041,42.779 C155.425,44.400 156.652,45.211 158.721,45.211 C160.214,45.211 161.601,44.827 162.881,44.059 L162.881,47.867 C161.729,48.720 160.076,49.147 157.921,49.147 C155.596,49.147 153.724,48.486 152.305,47.163 C150.886,45.840 150.177,44.027 150.177,41.723 C150.177,39.483 150.838,37.654 152.161,36.235 C153.484,34.816 155.148,34.107 157.153,34.107 C159.329,34.107 160.998,34.758 162.161,36.059 ZM158.785,38.475 C158.422,38.102 157.942,37.915 157.345,37.915 C156.214,37.915 155.468,38.598 155.105,39.963 L159.425,39.963 C159.361,39.344 159.148,38.848 158.785,38.475 ZM151.712,0.027 L156.736,0.027 L156.736,20.827 L151.712,20.827 L151.712,0.027 ZM144.128,20.091 C143.872,20.347 143.424,20.576 142.784,20.779 C142.144,20.981 141.461,21.083 140.736,21.083 C139.242,21.083 137.989,20.672 136.976,19.851 C135.962,19.030 135.456,17.894 135.456,16.443 C135.456,15.078 135.984,13.974 137.040,13.131 C138.096,12.288 139.413,11.867 140.992,11.867 C142.336,11.867 143.381,12.134 144.128,12.667 L144.128,12.155 C144.128,11.579 143.866,11.115 143.344,10.763 C142.821,10.411 142.058,10.235 141.056,10.235 C139.605,10.235 138.293,10.576 137.120,11.259 L137.120,7.227 C138.506,6.480 140.224,6.107 142.272,6.107 C144.405,6.107 146.053,6.603 147.216,7.595 C148.378,8.587 148.960,10.032 148.960,11.931 L148.960,20.827 L144.128,20.827 L144.128,20.091 ZM144.128,15.963 C143.786,15.302 143.114,14.971 142.112,14.971 C141.557,14.971 141.088,15.088 140.704,15.323 C140.320,15.558 140.128,15.899 140.128,16.347 C140.128,16.816 140.320,17.168 140.704,17.403 C141.088,17.638 141.557,17.755 142.112,17.755 C143.093,17.755 143.765,17.435 144.128,16.795 L144.128,15.963 ZM139.202,35.675 C140.140,34.630 141.431,34.107 143.074,34.107 C144.652,34.107 145.895,34.582 146.802,35.531 C147.708,36.480 148.162,37.766 148.162,39.387 L148.162,48.827 L143.170,48.827 L143.170,40.603 C143.170,39.984 143.010,39.488 142.690,39.115 C142.370,38.742 141.900,38.555 141.282,38.555 C140.770,38.555 140.327,38.694 139.954,38.971 C139.580,39.248 139.330,39.632 139.202,40.123 L139.202,48.827 L134.178,48.827 L134.178,34.427 L139.202,34.427 L139.202,35.675 ZM128.864,17.211 C130.357,17.211 131.744,16.827 133.024,16.059 L133.024,19.867 C131.872,20.720 130.219,21.147 128.064,21.147 C125.739,21.147 123.867,20.486 122.448,19.163 C121.029,17.840 120.320,16.027 120.320,13.723 C120.320,11.483 120.981,9.654 122.304,8.235 C123.627,6.816 125.291,6.107 127.296,6.107 C129.472,6.107 131.141,6.758 132.304,8.059 C133.467,9.360 134.048,11.110 134.048,13.307 L134.048,14.779 L125.184,14.779 C125.568,16.400 126.795,17.211 128.864,17.211 ZM129.568,11.963 C129.504,11.344 129.291,10.848 128.928,10.475 C128.565,10.102 128.085,9.915 127.488,9.915 C126.357,9.915 125.611,10.598 125.248,11.963 L129.568,11.963 ZM124.770,34.427 L124.770,48.827 L119.746,48.827 L119.746,47.579 C118.850,48.624 117.570,49.147 115.906,49.147 C114.327,49.147 113.090,48.672 112.194,47.723 C111.298,46.774 110.850,45.488 110.850,43.867 L110.850,34.427 L115.842,34.427 L115.842,42.683 C115.842,44.070 116.460,44.763 117.698,44.763 C118.167,44.763 118.594,44.619 118.978,44.331 C119.362,44.043 119.618,43.654 119.746,43.163 L119.746,34.427 L124.770,34.427 ZM113.312,12.603 C113.312,11.984 113.152,11.488 112.832,11.115 C112.512,10.742 112.043,10.555 111.424,10.555 C110.912,10.555 110.469,10.694 110.096,10.971 C109.723,11.248 109.472,11.632 109.344,12.123 L109.344,20.827 L104.320,20.827 L104.320,0.027 L109.344,0.027 L109.344,7.675 C110.283,6.630 111.573,6.107 113.216,6.107 C114.795,6.107 116.037,6.582 116.944,7.531 C117.851,8.480 118.304,9.766 118.304,11.387 L118.304,20.827 L113.312,20.827 L113.312,12.603 ZM106.770,36.203 C108.124,37.600 108.802,39.408 108.802,41.627 C108.802,43.846 108.124,45.654 106.770,47.051 C105.415,48.448 103.639,49.147 101.442,49.147 C99.266,49.147 97.495,48.448 96.130,47.051 C94.764,45.654 94.082,43.846 94.082,41.627 C94.082,39.408 94.764,37.600 96.130,36.203 C97.495,34.806 99.266,34.107 101.442,34.107 C103.639,34.107 105.415,34.806 106.770,36.203 ZM103.234,39.163 C102.807,38.544 102.210,38.235 101.442,38.235 C100.695,38.235 100.108,38.544 99.682,39.163 C99.255,39.782 99.042,40.603 99.042,41.627 C99.042,42.630 99.255,43.440 99.682,44.059 C100.108,44.678 100.695,44.987 101.442,44.987 C102.210,44.987 102.807,44.683 103.234,44.075 C103.660,43.467 103.874,42.651 103.874,41.627 C103.874,40.603 103.660,39.782 103.234,39.163 ZM90.401,17.211 C91.894,17.211 93.281,16.827 94.561,16.059 L94.561,19.867 C93.409,20.720 91.755,21.147 89.601,21.147 C87.275,21.147 85.403,20.486 83.985,19.163 C82.566,17.840 81.857,16.027 81.857,13.723 C81.857,11.483 82.518,9.654 83.841,8.235 C85.163,6.816 86.827,6.107 88.833,6.107 C91.009,6.107 92.678,6.758 93.841,8.059 C95.003,9.360 95.585,11.110 95.585,13.307 L95.585,14.779 L86.721,14.779 C87.105,16.400 88.331,17.211 90.401,17.211 ZM91.105,11.963 C91.041,11.344 90.827,10.848 90.465,10.475 C90.102,10.102 89.622,9.915 89.025,9.915 C87.894,9.915 87.147,10.598 86.785,11.963 L91.105,11.963 ZM74.849,12.603 C74.849,11.984 74.689,11.488 74.369,11.115 C74.049,10.742 73.580,10.555 72.961,10.555 C72.449,10.555 72.006,10.694 71.633,10.971 C71.260,11.248 71.009,11.632 70.881,12.123 L70.881,20.827 L65.857,20.827 L65.857,0.027 L70.881,0.027 L70.881,7.675 C71.820,6.630 73.110,6.107 74.753,6.107 C76.332,6.107 77.574,6.582 78.481,7.531 C79.388,8.480 79.841,9.766 79.841,11.387 L79.841,20.827 L74.849,20.827 L74.849,12.603 ZM61.025,20.827 L56.033,20.827 L56.033,10.331 L53.537,10.331 L53.537,6.427 L56.033,6.427 L56.033,2.459 L61.025,2.459 L61.025,6.427 L63.841,6.427 L63.841,10.331 L61.025,10.331 L61.025,20.827 ZM56.915,36.059 C58.077,37.360 58.659,39.110 58.659,41.307 L58.659,42.779 L49.795,42.779 C50.179,44.400 51.405,45.211 53.475,45.211 C54.968,45.211 56.355,44.827 57.635,44.059 L57.635,47.867 C56.483,48.720 54.829,49.147 52.675,49.147 C50.349,49.147 48.477,48.486 47.059,47.163 C45.640,45.840 44.931,44.027 44.931,41.723 C44.931,39.483 45.592,37.654 46.915,36.235 C48.237,34.816 49.901,34.107 51.907,34.107 C54.083,34.107 55.752,34.758 56.915,36.059 ZM53.539,38.475 C53.176,38.102 52.696,37.915 52.099,37.915 C50.968,37.915 50.221,38.598 49.859,39.963 L54.179,39.963 C54.115,39.344 53.901,38.848 53.539,38.475 ZM42.978,20.827 L37.986,20.827 L37.986,10.331 L35.490,10.331 L35.490,6.427 L37.986,6.427 L37.986,2.459 L42.978,2.459 L42.978,6.427 L45.794,6.427 L45.794,10.331 L42.978,10.331 L42.978,20.827 ZM39.683,34.427 L44.611,34.427 L39.107,48.827 L34.595,48.827 L29.123,34.427 L34.243,34.427 L36.995,42.683 L39.683,34.427 ZM29.026,17.211 C30.519,17.211 31.906,16.827 33.186,16.059 L33.186,19.867 C32.034,20.720 30.381,21.147 28.226,21.147 C25.901,21.147 24.029,20.486 22.610,19.163 C21.191,17.840 20.482,16.027 20.482,13.723 C20.482,11.483 21.143,9.654 22.466,8.235 C23.789,6.816 25.453,6.107 27.458,6.107 C29.634,6.107 31.303,6.758 32.466,8.059 C33.629,9.360 34.210,11.110 34.210,13.307 L34.210,14.779 L25.346,14.779 C25.730,16.400 26.957,17.211 29.026,17.211 ZM29.730,11.963 C29.666,11.344 29.453,10.848 29.090,10.475 C28.727,10.102 28.247,9.915 27.650,9.915 C26.519,9.915 25.773,10.598 25.410,11.963 L29.730,11.963 ZM11.171,21.147 C8.142,21.147 5.720,20.214 3.907,18.347 C2.094,16.480 1.187,14.054 1.187,11.067 C1.187,7.995 2.152,5.526 4.083,3.659 C6.014,1.792 8.547,0.859 11.683,0.859 C13.902,0.859 15.800,1.371 17.379,2.395 L17.379,7.387 C15.736,6.192 13.838,5.595 11.683,5.595 C10.104,5.595 8.819,6.086 7.827,7.067 C6.835,8.048 6.339,9.382 6.339,11.067 C6.339,12.731 6.798,14.064 7.715,15.067 C8.632,16.070 9.838,16.571 11.331,16.571 C12.398,16.571 13.240,16.336 13.859,15.867 L13.859,13.947 L11.011,13.947 L11.011,9.851 L18.403,9.851 L18.403,18.523 C16.504,20.272 14.094,21.147 11.171,21.147 ZM8.579,34.107 C10.200,34.107 11.491,34.448 12.451,35.131 L12.451,39.355 C11.512,38.672 10.478,38.331 9.347,38.331 C8.387,38.331 7.592,38.619 6.963,39.195 C6.334,39.771 6.019,40.582 6.019,41.627 C6.019,42.672 6.334,43.483 6.963,44.059 C7.592,44.635 8.387,44.923 9.347,44.923 C10.478,44.923 11.512,44.582 12.451,43.899 L12.451,48.123 C11.491,48.806 10.200,49.147 8.579,49.147 C6.382,49.147 4.579,48.464 3.171,47.099 C1.763,45.734 1.059,43.910 1.059,41.627 C1.059,39.344 1.763,37.520 3.171,36.155 C4.579,34.790 6.382,34.107 8.579,34.107 ZM5.923,90.427 L8.675,98.619 L11.363,90.427 L16.355,90.427 L8.931,109.915 L3.971,109.915 L6.083,104.475 L0.707,90.427 L5.923,90.427 ZM24.035,90.107 C26.232,90.107 28.008,90.806 29.363,92.203 C30.718,93.600 31.395,95.408 31.395,97.627 C31.395,99.846 30.718,101.654 29.363,103.051 C28.008,104.448 26.232,105.147 24.035,105.147 C21.859,105.147 20.088,104.448 18.723,103.051 C17.358,101.654 16.675,99.846 16.675,97.627 C16.675,95.408 17.358,93.600 18.723,92.203 C20.088,90.806 21.859,90.107 24.035,90.107 ZM22.275,100.059 C22.702,100.678 23.288,100.987 24.035,100.987 C24.803,100.987 25.400,100.683 25.827,100.075 C26.254,99.467 26.467,98.651 26.467,97.627 C26.467,96.603 26.254,95.782 25.827,95.163 C25.400,94.544 24.803,94.235 24.035,94.235 C23.288,94.235 22.702,94.544 22.275,95.163 C21.848,95.782 21.635,96.603 21.635,97.627 C21.635,98.630 21.848,99.440 22.275,100.059 ZM33.667,76.827 L28.643,76.827 L28.643,75.579 C27.747,76.624 26.467,77.147 24.803,77.147 C23.224,77.147 21.987,76.672 21.091,75.723 C20.195,74.774 19.747,73.488 19.747,71.867 L19.747,62.427 L24.739,62.427 L24.739,70.683 C24.739,72.070 25.357,72.763 26.595,72.763 C27.064,72.763 27.491,72.619 27.875,72.331 C28.259,72.043 28.515,71.654 28.643,71.163 L28.643,62.427 L33.667,62.427 L33.667,76.827 ZM21.379,34.107 C23.576,34.107 25.352,34.806 26.707,36.203 C28.061,37.600 28.739,39.408 28.739,41.627 C28.739,43.846 28.061,45.654 26.707,47.051 C25.352,48.448 23.576,49.147 21.379,49.147 C19.203,49.147 17.432,48.448 16.067,47.051 C14.701,45.654 14.019,43.846 14.019,41.627 C14.019,39.408 14.701,37.600 16.067,36.203 C17.432,34.806 19.203,34.107 21.379,34.107 ZM19.619,44.059 C20.045,44.678 20.632,44.987 21.379,44.987 C22.147,44.987 22.744,44.683 23.171,44.075 C23.597,43.467 23.811,42.651 23.811,41.627 C23.811,40.603 23.597,39.782 23.171,39.163 C22.744,38.544 22.147,38.235 21.379,38.235 C20.632,38.235 20.045,38.544 19.619,39.163 C19.192,39.782 18.979,40.603 18.979,41.627 C18.979,42.630 19.192,43.440 19.619,44.059 ZM16.611,68.411 C17.208,69.264 17.507,70.235 17.507,71.323 C17.507,73.094 16.936,74.454 15.795,75.403 C14.654,76.352 13.048,76.827 10.979,76.827 L1.955,76.827 L1.955,57.179 L10.371,57.179 C12.440,57.179 14.051,57.638 15.203,58.555 C16.355,59.472 16.931,60.795 16.931,62.523 C16.931,63.547 16.680,64.427 16.179,65.163 C15.678,65.899 15.054,66.406 14.307,66.683 C15.246,66.982 16.014,67.558 16.611,68.411 ZM9.795,61.403 L6.851,61.403 L6.851,64.955 L9.795,64.955 C11.331,64.955 12.099,64.358 12.099,63.163 C12.099,61.990 11.331,61.403 9.795,61.403 ZM11.955,69.307 C11.560,68.966 11.011,68.795 10.307,68.795 L6.851,68.795 L6.851,72.603 L10.307,72.603 C11.011,72.603 11.560,72.432 11.955,72.091 C12.350,71.750 12.547,71.291 12.547,70.715 C12.547,70.118 12.350,69.648 11.955,69.307 ZM38.435,98.683 C38.435,100.070 39.053,100.763 40.291,100.763 C40.760,100.763 41.187,100.619 41.571,100.331 C41.955,100.043 42.211,99.654 42.339,99.163 L42.339,90.427 L47.363,90.427 L47.363,104.827 L42.339,104.827 L42.339,103.579 C41.443,104.624 40.163,105.147 38.499,105.147 C36.920,105.147 35.683,104.672 34.787,103.723 C33.891,102.774 33.443,101.488 33.443,99.867 L33.443,90.427 L38.435,90.427 L38.435,98.683 ZM40.611,62.427 L43.363,70.619 L46.051,62.427 L51.043,62.427 L43.619,81.915 L38.659,81.915 L40.771,76.475 L35.395,62.427 L40.611,62.427 ZM65.858,35.707 C66.647,34.640 67.735,34.107 69.122,34.107 C69.741,34.107 70.199,34.192 70.498,34.363 L70.498,39.195 C69.922,38.896 69.229,38.747 68.418,38.747 C66.989,38.747 66.135,39.291 65.858,40.379 L65.858,48.827 L60.834,48.827 L60.834,34.427 L65.858,34.427 L65.858,35.707 ZM60.963,76.827 L60.963,66.331 L58.467,66.331 L58.467,62.427 L60.963,62.427 L60.963,58.459 L65.955,58.459 L65.955,62.427 L68.771,62.427 L68.771,66.331 L65.955,66.331 L65.955,76.827 L60.963,76.827 ZM62.915,98.235 L65.091,90.427 L68.291,90.427 L70.435,98.235 L72.739,90.427 L77.539,90.427 L72.899,104.827 L68.643,104.827 L66.595,97.531 L64.547,104.827 L60.291,104.827 L55.651,90.427 L60.643,90.427 L62.915,98.235 ZM75.810,68.123 L75.810,76.827 L70.786,76.827 L70.786,56.027 L75.810,56.027 L75.810,63.675 C76.749,62.630 78.039,62.107 79.682,62.107 C81.261,62.107 82.503,62.582 83.410,63.531 C84.317,64.480 84.770,65.766 84.770,67.387 L84.770,76.827 L79.778,76.827 L79.778,68.603 C79.778,67.984 79.618,67.488 79.298,67.115 C78.978,66.742 78.509,66.555 77.890,66.555 C77.378,66.555 76.935,66.694 76.562,66.971 C76.189,67.248 75.938,67.632 75.810,68.123 ZM83.459,95.867 C84.803,95.867 85.848,96.134 86.595,96.667 L86.595,96.155 C86.595,95.579 86.334,95.115 85.811,94.763 C85.288,94.411 84.526,94.235 83.523,94.235 C82.072,94.235 80.760,94.576 79.587,95.259 L79.587,91.227 C80.974,90.480 82.691,90.107 84.739,90.107 C86.872,90.107 88.520,90.603 89.683,91.595 C90.846,92.587 91.427,94.032 91.427,95.931 L91.427,104.827 L86.595,104.827 L86.595,104.091 C86.339,104.347 85.891,104.576 85.251,104.779 C84.611,104.981 83.928,105.083 83.203,105.083 C81.710,105.083 80.456,104.672 79.443,103.851 C78.430,103.030 77.923,101.894 77.923,100.443 C77.923,99.078 78.451,97.974 79.507,97.131 C80.563,96.288 81.880,95.867 83.459,95.867 ZM83.171,101.403 C83.555,101.638 84.024,101.755 84.579,101.755 C85.560,101.755 86.232,101.435 86.595,100.795 L86.595,99.963 C86.254,99.302 85.582,98.971 84.579,98.971 C84.024,98.971 83.555,99.088 83.171,99.323 C82.787,99.558 82.595,99.899 82.595,100.347 C82.595,100.816 82.787,101.168 83.171,101.403 ZM98.770,64.059 C99.933,65.360 100.514,67.110 100.514,69.307 L100.514,70.779 L91.650,70.779 C92.034,72.400 93.261,73.211 95.330,73.211 C96.823,73.211 98.210,72.827 99.490,72.059 L99.490,75.867 C98.338,76.720 96.685,77.147 94.530,77.147 C92.205,77.147 90.333,76.486 88.914,75.163 C87.495,73.840 86.786,72.027 86.786,69.723 C86.786,67.483 87.447,65.654 88.770,64.235 C90.093,62.816 91.757,62.107 93.762,62.107 C95.938,62.107 97.607,62.758 98.770,64.059 ZM91.714,67.963 L96.034,67.963 C95.970,67.344 95.757,66.848 95.394,66.475 C95.031,66.102 94.551,65.915 93.954,65.915 C92.823,65.915 92.077,66.598 91.714,67.963 ZM83.330,34.427 L86.082,42.619 L88.770,34.427 L93.762,34.427 L86.338,53.915 L81.378,53.915 L83.490,48.475 L78.114,34.427 L83.330,34.427 ZM99.203,91.675 C100.141,90.630 101.432,90.107 103.075,90.107 C104.653,90.107 105.896,90.582 106.803,91.531 C107.709,92.480 108.163,93.766 108.163,95.387 L108.163,104.827 L103.171,104.827 L103.171,96.603 C103.171,95.984 103.011,95.488 102.691,95.115 C102.371,94.742 101.901,94.555 101.283,94.555 C100.771,94.555 100.328,94.694 99.955,94.971 C99.581,95.248 99.331,95.632 99.203,96.123 L99.203,104.827 L94.179,104.827 L94.179,90.427 L99.203,90.427 L99.203,91.675 ZM110.914,58.459 L115.906,58.459 L115.906,62.427 L118.722,62.427 L118.722,66.331 L115.906,66.331 L115.906,76.827 L110.914,76.827 L110.914,66.331 L108.418,66.331 L108.418,62.427 L110.914,62.427 L110.914,58.459 ZM112.611,86.459 L117.603,86.459 L117.603,90.427 L120.419,90.427 L120.419,94.331 L117.603,94.331 L117.603,104.827 L112.611,104.827 L112.611,94.331 L110.115,94.331 L110.115,90.427 L112.611,90.427 L112.611,86.459 ZM123.490,99.067 C124.322,99.067 125.026,99.350 125.602,99.915 C126.178,100.480 126.466,101.190 126.466,102.043 C126.466,102.896 126.178,103.611 125.602,104.187 C125.026,104.763 124.322,105.051 123.490,105.051 C122.679,105.051 121.986,104.763 121.410,104.187 C120.834,103.611 120.546,102.896 120.546,102.043 C120.546,101.211 120.829,100.507 121.394,99.931 C121.959,99.355 122.658,99.067 123.490,99.067 ZM125.761,76.827 L120.737,76.827 L120.737,56.027 L125.761,56.027 L125.761,63.675 C126.700,62.630 127.990,62.107 129.633,62.107 C131.212,62.107 132.454,62.582 133.361,63.531 C134.268,64.480 134.721,65.766 134.721,67.387 L134.721,76.827 L129.729,76.827 L129.729,68.603 C129.729,67.984 129.569,67.488 129.249,67.115 C128.929,66.742 128.460,66.555 127.841,66.555 C127.329,66.555 126.886,66.694 126.513,66.971 C126.140,67.248 125.889,67.632 125.761,68.123 L125.761,76.827 ZM140.033,55.803 C140.822,55.803 141.494,56.054 142.049,56.555 C142.604,57.056 142.881,57.712 142.881,58.523 C142.881,59.312 142.604,59.958 142.049,60.459 C141.494,60.960 140.822,61.211 140.033,61.211 C139.244,61.211 138.572,60.960 138.017,60.459 C137.462,59.958 137.185,59.312 137.185,58.523 C137.185,57.712 137.462,57.056 138.017,56.555 C138.572,56.054 139.244,55.803 140.033,55.803 ZM142.529,76.827 L137.505,76.827 L137.505,62.427 L142.529,62.427 L142.529,76.827 ZM150.433,63.675 C151.371,62.630 152.662,62.107 154.305,62.107 C155.883,62.107 157.126,62.582 158.033,63.531 C158.939,64.480 159.393,65.766 159.393,67.387 L159.393,76.827 L154.401,76.827 L154.401,68.603 C154.401,67.984 154.241,67.488 153.921,67.115 C153.601,66.742 153.131,66.555 152.513,66.555 C152.001,66.555 151.558,66.694 151.185,66.971 C150.811,67.248 150.561,67.632 150.433,68.123 L150.433,76.827 L145.409,76.827 L145.409,62.427 L150.433,62.427 L150.433,63.675 ZM167.777,76.283 C165.793,76.283 164.235,75.611 163.105,74.267 C161.974,72.923 161.409,71.227 161.409,69.179 C161.409,67.131 161.974,65.440 163.105,64.107 C164.235,62.774 165.793,62.107 167.777,62.107 C169.249,62.107 170.379,62.576 171.169,63.515 L171.169,62.427 L176.129,62.427 L176.129,74.747 C176.129,77.264 175.350,79.141 173.793,80.379 C172.235,81.616 170.219,82.235 167.745,82.235 C165.547,82.235 163.819,81.829 162.561,81.019 L162.561,76.411 C163.947,77.584 165.622,78.171 167.585,78.171 C168.630,78.171 169.489,77.941 170.161,77.483 C170.833,77.024 171.169,76.315 171.169,75.355 L171.169,74.875 C170.358,75.814 169.227,76.283 167.777,76.283 ZM171.169,67.291 C170.678,66.480 169.963,66.075 169.025,66.075 C168.214,66.075 167.569,66.363 167.089,66.939 C166.609,67.515 166.369,68.262 166.369,69.179 C166.369,70.096 166.609,70.843 167.089,71.419 C167.569,71.995 168.214,72.283 169.025,72.283 C169.985,72.283 170.699,71.888 171.169,71.099 L171.169,67.291 ZM167.569,47.163 C166.150,45.840 165.441,44.027 165.441,41.723 C165.441,39.483 166.102,37.654 167.425,36.235 C168.747,34.816 170.411,34.107 172.417,34.107 C174.593,34.107 176.262,34.758 177.425,36.059 C178.587,37.360 179.169,39.110 179.169,41.307 L179.169,42.779 L170.305,42.779 C170.689,44.400 171.915,45.211 173.985,45.211 C175.478,45.211 176.865,44.827 178.145,44.059 L178.145,47.867 C176.993,48.720 175.339,49.147 173.185,49.147 C170.859,49.147 168.987,48.486 167.569,47.163 ZM174.689,39.963 C174.625,39.344 174.411,38.848 174.049,38.475 C173.686,38.102 173.206,37.915 172.609,37.915 C171.478,37.915 170.731,38.598 170.369,39.963 L174.689,39.963 ZM183.905,71.515 L182.785,71.227 C179.883,70.608 178.433,69.136 178.433,66.811 C178.433,65.339 178.977,64.187 180.065,63.355 C181.153,62.523 182.571,62.107 184.321,62.107 C186.283,62.107 187.958,62.534 189.345,63.387 L189.345,67.515 C187.809,66.406 186.294,65.851 184.801,65.851 C183.841,65.851 183.361,66.139 183.361,66.715 C183.361,66.971 183.451,67.163 183.633,67.291 C183.814,67.419 184.097,67.536 184.481,67.643 L185.793,68.027 C187.371,68.454 188.497,69.014 189.169,69.707 C189.841,70.400 190.177,71.355 190.177,72.571 C190.177,74.064 189.606,75.200 188.465,75.979 C187.323,76.758 185.825,77.147 183.969,77.147 C181.686,77.147 179.862,76.688 178.497,75.771 L178.497,71.547 C179.158,72.080 179.979,72.518 180.961,72.859 C181.942,73.200 182.817,73.371 183.585,73.371 C184.673,73.371 185.217,73.083 185.217,72.507 C185.217,72.038 184.779,71.707 183.905,71.515 Z"/>
<path fill="url(#PSgrad_0)"
 d="M202.880,48.187 C202.304,48.763 201.600,49.051 200.768,49.051 C199.957,49.051 199.264,48.763 198.688,48.187 C198.112,47.611 197.824,46.896 197.824,46.043 C197.824,45.211 198.107,44.507 198.672,43.931 C199.237,43.355 199.936,43.067 200.768,43.067 C201.600,43.067 202.304,43.350 202.880,43.915 C203.456,44.480 203.744,45.190 203.744,46.043 C203.744,46.896 203.456,47.611 202.880,48.187 ZM190.689,47.675 C190.326,48.080 189.819,48.427 189.168,48.715 C188.518,49.003 187.841,49.147 187.136,49.147 C185.131,49.147 183.558,48.438 182.416,47.019 C181.275,45.600 180.705,43.803 180.705,41.627 C180.705,39.451 181.275,37.654 182.416,36.235 C183.558,34.816 185.131,34.107 187.136,34.107 C187.841,34.107 188.518,34.251 189.168,34.539 C189.819,34.827 190.326,35.174 190.689,35.579 L190.689,28.027 L195.713,28.027 L195.713,48.827 L190.689,48.827 L190.689,47.675 ZM190.689,39.707 C190.497,39.323 190.198,39.003 189.793,38.747 C189.387,38.491 188.950,38.363 188.481,38.363 C187.627,38.363 186.955,38.667 186.465,39.275 C185.974,39.883 185.729,40.667 185.729,41.627 C185.729,42.566 185.974,43.339 186.465,43.947 C186.955,44.555 187.627,44.859 188.481,44.859 C189.526,44.859 190.261,44.411 190.689,43.515 L190.689,39.707 ZM180.095,12.603 C180.095,11.984 179.935,11.488 179.615,11.115 C179.295,10.742 178.825,10.555 178.207,10.555 C177.695,10.555 177.252,10.694 176.879,10.971 C176.505,11.248 176.255,11.632 176.127,12.123 L176.127,20.827 L171.103,20.827 L171.103,0.027 L176.127,0.027 L176.127,7.675 C177.065,6.630 178.356,6.107 179.999,6.107 C181.577,6.107 182.820,6.582 183.727,7.531 C184.633,8.480 185.087,9.766 185.087,11.387 L185.087,20.827 L180.095,20.827 L180.095,12.603 ZM166.271,20.827 L161.279,20.827 L161.279,10.331 L158.783,10.331 L158.783,6.427 L161.279,6.427 L161.279,2.459 L166.271,2.459 L166.271,6.427 L169.087,6.427 L169.087,10.331 L166.271,10.331 L166.271,20.827 ZM162.161,36.059 C163.324,37.360 163.905,39.110 163.905,41.307 L163.905,42.779 L155.041,42.779 C155.425,44.400 156.652,45.211 158.721,45.211 C160.214,45.211 161.601,44.827 162.881,44.059 L162.881,47.867 C161.729,48.720 160.076,49.147 157.921,49.147 C155.596,49.147 153.724,48.486 152.305,47.163 C150.886,45.840 150.177,44.027 150.177,41.723 C150.177,39.483 150.838,37.654 152.161,36.235 C153.484,34.816 155.148,34.107 157.153,34.107 C159.329,34.107 160.998,34.758 162.161,36.059 ZM158.785,38.475 C158.422,38.102 157.942,37.915 157.345,37.915 C156.214,37.915 155.468,38.598 155.105,39.963 L159.425,39.963 C159.361,39.344 159.148,38.848 158.785,38.475 ZM151.712,0.027 L156.736,0.027 L156.736,20.827 L151.712,20.827 L151.712,0.027 ZM144.128,20.091 C143.872,20.347 143.424,20.576 142.784,20.779 C142.144,20.981 141.461,21.083 140.736,21.083 C139.242,21.083 137.989,20.672 136.976,19.851 C135.962,19.030 135.456,17.894 135.456,16.443 C135.456,15.078 135.984,13.974 137.040,13.131 C138.096,12.288 139.413,11.867 140.992,11.867 C142.336,11.867 143.381,12.134 144.128,12.667 L144.128,12.155 C144.128,11.579 143.866,11.115 143.344,10.763 C142.821,10.411 142.058,10.235 141.056,10.235 C139.605,10.235 138.293,10.576 137.120,11.259 L137.120,7.227 C138.506,6.480 140.224,6.107 142.272,6.107 C144.405,6.107 146.053,6.603 147.216,7.595 C148.378,8.587 148.960,10.032 148.960,11.931 L148.960,20.827 L144.128,20.827 L144.128,20.091 ZM144.128,15.963 C143.786,15.302 143.114,14.971 142.112,14.971 C141.557,14.971 141.088,15.088 140.704,15.323 C140.320,15.558 140.128,15.899 140.128,16.347 C140.128,16.816 140.320,17.168 140.704,17.403 C141.088,17.638 141.557,17.755 142.112,17.755 C143.093,17.755 143.765,17.435 144.128,16.795 L144.128,15.963 ZM139.202,35.675 C140.140,34.630 141.431,34.107 143.074,34.107 C144.652,34.107 145.895,34.582 146.802,35.531 C147.708,36.480 148.162,37.766 148.162,39.387 L148.162,48.827 L143.170,48.827 L143.170,40.603 C143.170,39.984 143.010,39.488 142.690,39.115 C142.370,38.742 141.900,38.555 141.282,38.555 C140.770,38.555 140.327,38.694 139.954,38.971 C139.580,39.248 139.330,39.632 139.202,40.123 L139.202,48.827 L134.178,48.827 L134.178,34.427 L139.202,34.427 L139.202,35.675 ZM128.864,17.211 C130.357,17.211 131.744,16.827 133.024,16.059 L133.024,19.867 C131.872,20.720 130.219,21.147 128.064,21.147 C125.739,21.147 123.867,20.486 122.448,19.163 C121.029,17.840 120.320,16.027 120.320,13.723 C120.320,11.483 120.981,9.654 122.304,8.235 C123.627,6.816 125.291,6.107 127.296,6.107 C129.472,6.107 131.141,6.758 132.304,8.059 C133.467,9.360 134.048,11.110 134.048,13.307 L134.048,14.779 L125.184,14.779 C125.568,16.400 126.795,17.211 128.864,17.211 ZM129.568,11.963 C129.504,11.344 129.291,10.848 128.928,10.475 C128.565,10.102 128.085,9.915 127.488,9.915 C126.357,9.915 125.611,10.598 125.248,11.963 L129.568,11.963 ZM124.770,34.427 L124.770,48.827 L119.746,48.827 L119.746,47.579 C118.850,48.624 117.570,49.147 115.906,49.147 C114.327,49.147 113.090,48.672 112.194,47.723 C111.298,46.774 110.850,45.488 110.850,43.867 L110.850,34.427 L115.842,34.427 L115.842,42.683 C115.842,44.070 116.460,44.763 117.698,44.763 C118.167,44.763 118.594,44.619 118.978,44.331 C119.362,44.043 119.618,43.654 119.746,43.163 L119.746,34.427 L124.770,34.427 ZM113.312,12.603 C113.312,11.984 113.152,11.488 112.832,11.115 C112.512,10.742 112.043,10.555 111.424,10.555 C110.912,10.555 110.469,10.694 110.096,10.971 C109.723,11.248 109.472,11.632 109.344,12.123 L109.344,20.827 L104.320,20.827 L104.320,0.027 L109.344,0.027 L109.344,7.675 C110.283,6.630 111.573,6.107 113.216,6.107 C114.795,6.107 116.037,6.582 116.944,7.531 C117.851,8.480 118.304,9.766 118.304,11.387 L118.304,20.827 L113.312,20.827 L113.312,12.603 ZM106.770,36.203 C108.124,37.600 108.802,39.408 108.802,41.627 C108.802,43.846 108.124,45.654 106.770,47.051 C105.415,48.448 103.639,49.147 101.442,49.147 C99.266,49.147 97.495,48.448 96.130,47.051 C94.764,45.654 94.082,43.846 94.082,41.627 C94.082,39.408 94.764,37.600 96.130,36.203 C97.495,34.806 99.266,34.107 101.442,34.107 C103.639,34.107 105.415,34.806 106.770,36.203 ZM103.234,39.163 C102.807,38.544 102.210,38.235 101.442,38.235 C100.695,38.235 100.108,38.544 99.682,39.163 C99.255,39.782 99.042,40.603 99.042,41.627 C99.042,42.630 99.255,43.440 99.682,44.059 C100.108,44.678 100.695,44.987 101.442,44.987 C102.210,44.987 102.807,44.683 103.234,44.075 C103.660,43.467 103.874,42.651 103.874,41.627 C103.874,40.603 103.660,39.782 103.234,39.163 ZM90.401,17.211 C91.894,17.211 93.281,16.827 94.561,16.059 L94.561,19.867 C93.409,20.720 91.755,21.147 89.601,21.147 C87.275,21.147 85.403,20.486 83.985,19.163 C82.566,17.840 81.857,16.027 81.857,13.723 C81.857,11.483 82.518,9.654 83.841,8.235 C85.163,6.816 86.827,6.107 88.833,6.107 C91.009,6.107 92.678,6.758 93.841,8.059 C95.003,9.360 95.585,11.110 95.585,13.307 L95.585,14.779 L86.721,14.779 C87.105,16.400 88.331,17.211 90.401,17.211 ZM91.105,11.963 C91.041,11.344 90.827,10.848 90.465,10.475 C90.102,10.102 89.622,9.915 89.025,9.915 C87.894,9.915 87.147,10.598 86.785,11.963 L91.105,11.963 ZM74.849,12.603 C74.849,11.984 74.689,11.488 74.369,11.115 C74.049,10.742 73.580,10.555 72.961,10.555 C72.449,10.555 72.006,10.694 71.633,10.971 C71.260,11.248 71.009,11.632 70.881,12.123 L70.881,20.827 L65.857,20.827 L65.857,0.027 L70.881,0.027 L70.881,7.675 C71.820,6.630 73.110,6.107 74.753,6.107 C76.332,6.107 77.574,6.582 78.481,7.531 C79.388,8.480 79.841,9.766 79.841,11.387 L79.841,20.827 L74.849,20.827 L74.849,12.603 ZM61.025,20.827 L56.033,20.827 L56.033,10.331 L53.537,10.331 L53.537,6.427 L56.033,6.427 L56.033,2.459 L61.025,2.459 L61.025,6.427 L63.841,6.427 L63.841,10.331 L61.025,10.331 L61.025,20.827 ZM56.915,36.059 C58.077,37.360 58.659,39.110 58.659,41.307 L58.659,42.779 L49.795,42.779 C50.179,44.400 51.405,45.211 53.475,45.211 C54.968,45.211 56.355,44.827 57.635,44.059 L57.635,47.867 C56.483,48.720 54.829,49.147 52.675,49.147 C50.349,49.147 48.477,48.486 47.059,47.163 C45.640,45.840 44.931,44.027 44.931,41.723 C44.931,39.483 45.592,37.654 46.915,36.235 C48.237,34.816 49.901,34.107 51.907,34.107 C54.083,34.107 55.752,34.758 56.915,36.059 ZM53.539,38.475 C53.176,38.102 52.696,37.915 52.099,37.915 C50.968,37.915 50.221,38.598 49.859,39.963 L54.179,39.963 C54.115,39.344 53.901,38.848 53.539,38.475 ZM42.978,20.827 L37.986,20.827 L37.986,10.331 L35.490,10.331 L35.490,6.427 L37.986,6.427 L37.986,2.459 L42.978,2.459 L42.978,6.427 L45.794,6.427 L45.794,10.331 L42.978,10.331 L42.978,20.827 ZM39.683,34.427 L44.611,34.427 L39.107,48.827 L34.595,48.827 L29.123,34.427 L34.243,34.427 L36.995,42.683 L39.683,34.427 ZM29.026,17.211 C30.519,17.211 31.906,16.827 33.186,16.059 L33.186,19.867 C32.034,20.720 30.381,21.147 28.226,21.147 C25.901,21.147 24.029,20.486 22.610,19.163 C21.191,17.840 20.482,16.027 20.482,13.723 C20.482,11.483 21.143,9.654 22.466,8.235 C23.789,6.816 25.453,6.107 27.458,6.107 C29.634,6.107 31.303,6.758 32.466,8.059 C33.629,9.360 34.210,11.110 34.210,13.307 L34.210,14.779 L25.346,14.779 C25.730,16.400 26.957,17.211 29.026,17.211 ZM29.730,11.963 C29.666,11.344 29.453,10.848 29.090,10.475 C28.727,10.102 28.247,9.915 27.650,9.915 C26.519,9.915 25.773,10.598 25.410,11.963 L29.730,11.963 ZM11.171,21.147 C8.142,21.147 5.720,20.214 3.907,18.347 C2.094,16.480 1.187,14.054 1.187,11.067 C1.187,7.995 2.152,5.526 4.083,3.659 C6.014,1.792 8.547,0.859 11.683,0.859 C13.902,0.859 15.800,1.371 17.379,2.395 L17.379,7.387 C15.736,6.192 13.838,5.595 11.683,5.595 C10.104,5.595 8.819,6.086 7.827,7.067 C6.835,8.048 6.339,9.382 6.339,11.067 C6.339,12.731 6.798,14.064 7.715,15.067 C8.632,16.070 9.838,16.571 11.331,16.571 C12.398,16.571 13.240,16.336 13.859,15.867 L13.859,13.947 L11.011,13.947 L11.011,9.851 L18.403,9.851 L18.403,18.523 C16.504,20.272 14.094,21.147 11.171,21.147 ZM8.579,34.107 C10.200,34.107 11.491,34.448 12.451,35.131 L12.451,39.355 C11.512,38.672 10.478,38.331 9.347,38.331 C8.387,38.331 7.592,38.619 6.963,39.195 C6.334,39.771 6.019,40.582 6.019,41.627 C6.019,42.672 6.334,43.483 6.963,44.059 C7.592,44.635 8.387,44.923 9.347,44.923 C10.478,44.923 11.512,44.582 12.451,43.899 L12.451,48.123 C11.491,48.806 10.200,49.147 8.579,49.147 C6.382,49.147 4.579,48.464 3.171,47.099 C1.763,45.734 1.059,43.910 1.059,41.627 C1.059,39.344 1.763,37.520 3.171,36.155 C4.579,34.790 6.382,34.107 8.579,34.107 ZM5.923,90.427 L8.675,98.619 L11.363,90.427 L16.355,90.427 L8.931,109.915 L3.971,109.915 L6.083,104.475 L0.707,90.427 L5.923,90.427 ZM24.035,90.107 C26.232,90.107 28.008,90.806 29.363,92.203 C30.718,93.600 31.395,95.408 31.395,97.627 C31.395,99.846 30.718,101.654 29.363,103.051 C28.008,104.448 26.232,105.147 24.035,105.147 C21.859,105.147 20.088,104.448 18.723,103.051 C17.358,101.654 16.675,99.846 16.675,97.627 C16.675,95.408 17.358,93.600 18.723,92.203 C20.088,90.806 21.859,90.107 24.035,90.107 ZM22.275,100.059 C22.702,100.678 23.288,100.987 24.035,100.987 C24.803,100.987 25.400,100.683 25.827,100.075 C26.254,99.467 26.467,98.651 26.467,97.627 C26.467,96.603 26.254,95.782 25.827,95.163 C25.400,94.544 24.803,94.235 24.035,94.235 C23.288,94.235 22.702,94.544 22.275,95.163 C21.848,95.782 21.635,96.603 21.635,97.627 C21.635,98.630 21.848,99.440 22.275,100.059 ZM33.667,76.827 L28.643,76.827 L28.643,75.579 C27.747,76.624 26.467,77.147 24.803,77.147 C23.224,77.147 21.987,76.672 21.091,75.723 C20.195,74.774 19.747,73.488 19.747,71.867 L19.747,62.427 L24.739,62.427 L24.739,70.683 C24.739,72.070 25.357,72.763 26.595,72.763 C27.064,72.763 27.491,72.619 27.875,72.331 C28.259,72.043 28.515,71.654 28.643,71.163 L28.643,62.427 L33.667,62.427 L33.667,76.827 ZM21.379,34.107 C23.576,34.107 25.352,34.806 26.707,36.203 C28.061,37.600 28.739,39.408 28.739,41.627 C28.739,43.846 28.061,45.654 26.707,47.051 C25.352,48.448 23.576,49.147 21.379,49.147 C19.203,49.147 17.432,48.448 16.067,47.051 C14.701,45.654 14.019,43.846 14.019,41.627 C14.019,39.408 14.701,37.600 16.067,36.203 C17.432,34.806 19.203,34.107 21.379,34.107 ZM19.619,44.059 C20.045,44.678 20.632,44.987 21.379,44.987 C22.147,44.987 22.744,44.683 23.171,44.075 C23.597,43.467 23.811,42.651 23.811,41.627 C23.811,40.603 23.597,39.782 23.171,39.163 C22.744,38.544 22.147,38.235 21.379,38.235 C20.632,38.235 20.045,38.544 19.619,39.163 C19.192,39.782 18.979,40.603 18.979,41.627 C18.979,42.630 19.192,43.440 19.619,44.059 ZM16.611,68.411 C17.208,69.264 17.507,70.235 17.507,71.323 C17.507,73.094 16.936,74.454 15.795,75.403 C14.654,76.352 13.048,76.827 10.979,76.827 L1.955,76.827 L1.955,57.179 L10.371,57.179 C12.440,57.179 14.051,57.638 15.203,58.555 C16.355,59.472 16.931,60.795 16.931,62.523 C16.931,63.547 16.680,64.427 16.179,65.163 C15.678,65.899 15.054,66.406 14.307,66.683 C15.246,66.982 16.014,67.558 16.611,68.411 ZM9.795,61.403 L6.851,61.403 L6.851,64.955 L9.795,64.955 C11.331,64.955 12.099,64.358 12.099,63.163 C12.099,61.990 11.331,61.403 9.795,61.403 ZM11.955,69.307 C11.560,68.966 11.011,68.795 10.307,68.795 L6.851,68.795 L6.851,72.603 L10.307,72.603 C11.011,72.603 11.560,72.432 11.955,72.091 C12.350,71.750 12.547,71.291 12.547,70.715 C12.547,70.118 12.350,69.648 11.955,69.307 ZM38.435,98.683 C38.435,100.070 39.053,100.763 40.291,100.763 C40.760,100.763 41.187,100.619 41.571,100.331 C41.955,100.043 42.211,99.654 42.339,99.163 L42.339,90.427 L47.363,90.427 L47.363,104.827 L42.339,104.827 L42.339,103.579 C41.443,104.624 40.163,105.147 38.499,105.147 C36.920,105.147 35.683,104.672 34.787,103.723 C33.891,102.774 33.443,101.488 33.443,99.867 L33.443,90.427 L38.435,90.427 L38.435,98.683 ZM40.611,62.427 L43.363,70.619 L46.051,62.427 L51.043,62.427 L43.619,81.915 L38.659,81.915 L40.771,76.475 L35.395,62.427 L40.611,62.427 ZM65.858,35.707 C66.647,34.640 67.735,34.107 69.122,34.107 C69.741,34.107 70.199,34.192 70.498,34.363 L70.498,39.195 C69.922,38.896 69.229,38.747 68.418,38.747 C66.989,38.747 66.135,39.291 65.858,40.379 L65.858,48.827 L60.834,48.827 L60.834,34.427 L65.858,34.427 L65.858,35.707 ZM60.963,76.827 L60.963,66.331 L58.467,66.331 L58.467,62.427 L60.963,62.427 L60.963,58.459 L65.955,58.459 L65.955,62.427 L68.771,62.427 L68.771,66.331 L65.955,66.331 L65.955,76.827 L60.963,76.827 ZM62.915,98.235 L65.091,90.427 L68.291,90.427 L70.435,98.235 L72.739,90.427 L77.539,90.427 L72.899,104.827 L68.643,104.827 L66.595,97.531 L64.547,104.827 L60.291,104.827 L55.651,90.427 L60.643,90.427 L62.915,98.235 ZM75.810,68.123 L75.810,76.827 L70.786,76.827 L70.786,56.027 L75.810,56.027 L75.810,63.675 C76.749,62.630 78.039,62.107 79.682,62.107 C81.261,62.107 82.503,62.582 83.410,63.531 C84.317,64.480 84.770,65.766 84.770,67.387 L84.770,76.827 L79.778,76.827 L79.778,68.603 C79.778,67.984 79.618,67.488 79.298,67.115 C78.978,66.742 78.509,66.555 77.890,66.555 C77.378,66.555 76.935,66.694 76.562,66.971 C76.189,67.248 75.938,67.632 75.810,68.123 ZM83.459,95.867 C84.803,95.867 85.848,96.134 86.595,96.667 L86.595,96.155 C86.595,95.579 86.334,95.115 85.811,94.763 C85.288,94.411 84.526,94.235 83.523,94.235 C82.072,94.235 80.760,94.576 79.587,95.259 L79.587,91.227 C80.974,90.480 82.691,90.107 84.739,90.107 C86.872,90.107 88.520,90.603 89.683,91.595 C90.846,92.587 91.427,94.032 91.427,95.931 L91.427,104.827 L86.595,104.827 L86.595,104.091 C86.339,104.347 85.891,104.576 85.251,104.779 C84.611,104.981 83.928,105.083 83.203,105.083 C81.710,105.083 80.456,104.672 79.443,103.851 C78.430,103.030 77.923,101.894 77.923,100.443 C77.923,99.078 78.451,97.974 79.507,97.131 C80.563,96.288 81.880,95.867 83.459,95.867 ZM83.171,101.403 C83.555,101.638 84.024,101.755 84.579,101.755 C85.560,101.755 86.232,101.435 86.595,100.795 L86.595,99.963 C86.254,99.302 85.582,98.971 84.579,98.971 C84.024,98.971 83.555,99.088 83.171,99.323 C82.787,99.558 82.595,99.899 82.595,100.347 C82.595,100.816 82.787,101.168 83.171,101.403 ZM98.770,64.059 C99.933,65.360 100.514,67.110 100.514,69.307 L100.514,70.779 L91.650,70.779 C92.034,72.400 93.261,73.211 95.330,73.211 C96.823,73.211 98.210,72.827 99.490,72.059 L99.490,75.867 C98.338,76.720 96.685,77.147 94.530,77.147 C92.205,77.147 90.333,76.486 88.914,75.163 C87.495,73.840 86.786,72.027 86.786,69.723 C86.786,67.483 87.447,65.654 88.770,64.235 C90.093,62.816 91.757,62.107 93.762,62.107 C95.938,62.107 97.607,62.758 98.770,64.059 ZM91.714,67.963 L96.034,67.963 C95.970,67.344 95.757,66.848 95.394,66.475 C95.031,66.102 94.551,65.915 93.954,65.915 C92.823,65.915 92.077,66.598 91.714,67.963 ZM83.330,34.427 L86.082,42.619 L88.770,34.427 L93.762,34.427 L86.338,53.915 L81.378,53.915 L83.490,48.475 L78.114,34.427 L83.330,34.427 ZM99.203,91.675 C100.141,90.630 101.432,90.107 103.075,90.107 C104.653,90.107 105.896,90.582 106.803,91.531 C107.709,92.480 108.163,93.766 108.163,95.387 L108.163,104.827 L103.171,104.827 L103.171,96.603 C103.171,95.984 103.011,95.488 102.691,95.115 C102.371,94.742 101.901,94.555 101.283,94.555 C100.771,94.555 100.328,94.694 99.955,94.971 C99.581,95.248 99.331,95.632 99.203,96.123 L99.203,104.827 L94.179,104.827 L94.179,90.427 L99.203,90.427 L99.203,91.675 ZM110.914,58.459 L115.906,58.459 L115.906,62.427 L118.722,62.427 L118.722,66.331 L115.906,66.331 L115.906,76.827 L110.914,76.827 L110.914,66.331 L108.418,66.331 L108.418,62.427 L110.914,62.427 L110.914,58.459 ZM112.611,86.459 L117.603,86.459 L117.603,90.427 L120.419,90.427 L120.419,94.331 L117.603,94.331 L117.603,104.827 L112.611,104.827 L112.611,94.331 L110.115,94.331 L110.115,90.427 L112.611,90.427 L112.611,86.459 ZM123.490,99.067 C124.322,99.067 125.026,99.350 125.602,99.915 C126.178,100.480 126.466,101.190 126.466,102.043 C126.466,102.896 126.178,103.611 125.602,104.187 C125.026,104.763 124.322,105.051 123.490,105.051 C122.679,105.051 121.986,104.763 121.410,104.187 C120.834,103.611 120.546,102.896 120.546,102.043 C120.546,101.211 120.829,100.507 121.394,99.931 C121.959,99.355 122.658,99.067 123.490,99.067 ZM125.761,76.827 L120.737,76.827 L120.737,56.027 L125.761,56.027 L125.761,63.675 C126.700,62.630 127.990,62.107 129.633,62.107 C131.212,62.107 132.454,62.582 133.361,63.531 C134.268,64.480 134.721,65.766 134.721,67.387 L134.721,76.827 L129.729,76.827 L129.729,68.603 C129.729,67.984 129.569,67.488 129.249,67.115 C128.929,66.742 128.460,66.555 127.841,66.555 C127.329,66.555 126.886,66.694 126.513,66.971 C126.140,67.248 125.889,67.632 125.761,68.123 L125.761,76.827 ZM140.033,55.803 C140.822,55.803 141.494,56.054 142.049,56.555 C142.604,57.056 142.881,57.712 142.881,58.523 C142.881,59.312 142.604,59.958 142.049,60.459 C141.494,60.960 140.822,61.211 140.033,61.211 C139.244,61.211 138.572,60.960 138.017,60.459 C137.462,59.958 137.185,59.312 137.185,58.523 C137.185,57.712 137.462,57.056 138.017,56.555 C138.572,56.054 139.244,55.803 140.033,55.803 ZM142.529,76.827 L137.505,76.827 L137.505,62.427 L142.529,62.427 L142.529,76.827 ZM150.433,63.675 C151.371,62.630 152.662,62.107 154.305,62.107 C155.883,62.107 157.126,62.582 158.033,63.531 C158.939,64.480 159.393,65.766 159.393,67.387 L159.393,76.827 L154.401,76.827 L154.401,68.603 C154.401,67.984 154.241,67.488 153.921,67.115 C153.601,66.742 153.131,66.555 152.513,66.555 C152.001,66.555 151.558,66.694 151.185,66.971 C150.811,67.248 150.561,67.632 150.433,68.123 L150.433,76.827 L145.409,76.827 L145.409,62.427 L150.433,62.427 L150.433,63.675 ZM167.777,76.283 C165.793,76.283 164.235,75.611 163.105,74.267 C161.974,72.923 161.409,71.227 161.409,69.179 C161.409,67.131 161.974,65.440 163.105,64.107 C164.235,62.774 165.793,62.107 167.777,62.107 C169.249,62.107 170.379,62.576 171.169,63.515 L171.169,62.427 L176.129,62.427 L176.129,74.747 C176.129,77.264 175.350,79.141 173.793,80.379 C172.235,81.616 170.219,82.235 167.745,82.235 C165.547,82.235 163.819,81.829 162.561,81.019 L162.561,76.411 C163.947,77.584 165.622,78.171 167.585,78.171 C168.630,78.171 169.489,77.941 170.161,77.483 C170.833,77.024 171.169,76.315 171.169,75.355 L171.169,74.875 C170.358,75.814 169.227,76.283 167.777,76.283 ZM171.169,67.291 C170.678,66.480 169.963,66.075 169.025,66.075 C168.214,66.075 167.569,66.363 167.089,66.939 C166.609,67.515 166.369,68.262 166.369,69.179 C166.369,70.096 166.609,70.843 167.089,71.419 C167.569,71.995 168.214,72.283 169.025,72.283 C169.985,72.283 170.699,71.888 171.169,71.099 L171.169,67.291 ZM167.569,47.163 C166.150,45.840 165.441,44.027 165.441,41.723 C165.441,39.483 166.102,37.654 167.425,36.235 C168.747,34.816 170.411,34.107 172.417,34.107 C174.593,34.107 176.262,34.758 177.425,36.059 C178.587,37.360 179.169,39.110 179.169,41.307 L179.169,42.779 L170.305,42.779 C170.689,44.400 171.915,45.211 173.985,45.211 C175.478,45.211 176.865,44.827 178.145,44.059 L178.145,47.867 C176.993,48.720 175.339,49.147 173.185,49.147 C170.859,49.147 168.987,48.486 167.569,47.163 ZM174.689,39.963 C174.625,39.344 174.411,38.848 174.049,38.475 C173.686,38.102 173.206,37.915 172.609,37.915 C171.478,37.915 170.731,38.598 170.369,39.963 L174.689,39.963 ZM183.905,71.515 L182.785,71.227 C179.883,70.608 178.433,69.136 178.433,66.811 C178.433,65.339 178.977,64.187 180.065,63.355 C181.153,62.523 182.571,62.107 184.321,62.107 C186.283,62.107 187.958,62.534 189.345,63.387 L189.345,67.515 C187.809,66.406 186.294,65.851 184.801,65.851 C183.841,65.851 183.361,66.139 183.361,66.715 C183.361,66.971 183.451,67.163 183.633,67.291 C183.814,67.419 184.097,67.536 184.481,67.643 L185.793,68.027 C187.371,68.454 188.497,69.014 189.169,69.707 C189.841,70.400 190.177,71.355 190.177,72.571 C190.177,74.064 189.606,75.200 188.465,75.979 C187.323,76.758 185.825,77.147 183.969,77.147 C181.686,77.147 179.862,76.688 178.497,75.771 L178.497,71.547 C179.158,72.080 179.979,72.518 180.961,72.859 C181.942,73.200 182.817,73.371 183.585,73.371 C184.673,73.371 185.217,73.083 185.217,72.507 C185.217,72.038 184.779,71.707 183.905,71.515 Z"/>
</svg>