<svg 
 xmlns="http://www.w3.org/2000/svg"
 xmlns:xlink="http://www.w3.org/1999/xlink"
 width="144px" height="56px">
<defs>
<linearGradient id="PSgrad_0" x1="0%" x2="64.279%" y1="0%" y2="76.604%">
  <stop offset="0%" stop-color="rgb(238,117,24)" stop-opacity="0.95" />
  <stop offset="100%" stop-color="rgb(253,91,47)" stop-opacity="0.95" />
</linearGradient>

</defs>
<path fill-rule="evenodd"  fill="rgb(227, 114, 34)"
 d="M138.593,21.827 L138.593,21.091 C138.337,21.347 137.889,21.576 137.249,21.779 C136.609,21.981 135.926,22.083 135.201,22.083 C133.707,22.083 132.454,21.672 131.441,20.851 C130.427,20.030 129.921,18.894 129.921,17.443 C129.921,16.078 130.449,14.974 131.505,14.131 C132.561,13.288 133.878,12.867 135.457,12.867 C136.801,12.867 137.846,13.134 138.593,13.667 L138.593,13.155 C138.593,12.579 138.331,12.115 137.809,11.763 C137.286,11.411 136.523,11.235 135.521,11.235 C134.070,11.235 132.758,11.576 131.585,12.259 L131.585,8.227 C132.971,7.480 134.689,7.107 136.737,7.107 C138.870,7.107 140.518,7.603 141.681,8.595 C142.843,9.587 143.425,11.032 143.425,12.931 L143.425,21.827 L138.593,21.827 ZM138.593,16.963 C138.251,16.302 137.579,15.971 136.577,15.971 C136.022,15.971 135.553,16.088 135.169,16.323 C134.785,16.558 134.593,16.899 134.593,17.347 C134.593,17.816 134.785,18.168 135.169,18.403 C135.553,18.638 136.022,18.755 136.577,18.755 C137.558,18.755 138.230,18.435 138.593,17.795 L138.593,16.963 ZM122.753,12.643 L124.065,13.027 C125.644,13.454 126.769,14.014 127.441,14.707 C128.113,15.400 128.449,16.355 128.449,17.571 C128.449,19.064 127.878,20.200 126.737,20.979 C125.596,21.758 124.097,22.147 122.241,22.147 C119.958,22.147 118.134,21.688 116.769,20.771 L116.769,16.547 C117.430,17.080 118.252,17.518 119.233,17.859 C120.214,18.200 121.089,18.371 121.857,18.371 C122.945,18.371 123.489,18.083 123.489,17.507 C123.489,17.038 123.052,16.707 122.177,16.515 L121.057,16.227 C118.156,15.608 116.705,14.136 116.705,11.811 C116.705,10.339 117.249,9.187 118.337,8.355 C119.425,7.523 120.844,7.107 122.593,7.107 C124.556,7.107 126.230,7.534 127.617,8.387 L127.617,12.515 C126.081,11.406 124.566,10.851 123.073,10.851 C122.113,10.851 121.633,11.139 121.633,11.715 C121.633,11.971 121.724,12.163 121.905,12.291 C122.086,12.419 122.369,12.536 122.753,12.643 ZM117.921,47.043 C117.921,47.896 117.633,48.611 117.057,49.187 C116.481,49.763 115.777,50.051 114.945,50.051 C114.134,50.051 113.441,49.763 112.865,49.187 C112.289,48.611 112.001,47.896 112.001,47.043 C112.001,46.211 112.284,45.507 112.849,44.931 C113.414,44.355 114.113,44.067 114.945,44.067 C115.777,44.067 116.481,44.350 117.057,44.915 C117.633,45.480 117.921,46.190 117.921,47.043 ZM111.906,6.211 C111.116,6.211 110.444,5.960 109.890,5.459 C109.335,4.958 109.058,4.312 109.058,3.523 C109.058,2.712 109.335,2.056 109.890,1.555 C110.444,1.054 111.116,0.803 111.906,0.803 C112.695,0.803 113.367,1.054 113.922,1.555 C114.476,2.056 114.754,2.712 114.754,3.523 C114.754,4.312 114.476,4.958 113.922,5.459 C113.367,5.960 112.695,6.211 111.906,6.211 ZM95.298,21.827 L87.970,2.179 L93.474,2.179 L97.922,14.883 L102.370,2.179 L107.650,2.179 L100.322,21.827 L95.298,21.827 ZM89.026,36.707 C89.815,35.640 90.903,35.107 92.290,35.107 C92.908,35.107 93.367,35.192 93.666,35.363 L93.666,40.195 C93.090,39.896 92.396,39.747 91.586,39.747 C90.156,39.747 89.303,40.291 89.026,41.379 L89.026,49.827 L84.002,49.827 L84.002,35.427 L89.026,35.427 L89.026,36.707 ZM76.418,49.091 C76.162,49.347 75.714,49.576 75.074,49.779 C74.434,49.981 73.751,50.083 73.026,50.083 C71.533,50.083 70.279,49.672 69.266,48.851 C68.253,48.030 67.746,46.894 67.746,45.443 C67.746,44.078 68.274,42.974 69.330,42.131 C70.386,41.288 71.703,40.867 73.282,40.867 C74.626,40.867 75.671,41.134 76.418,41.667 L76.418,41.155 C76.418,40.579 76.157,40.115 75.634,39.763 C75.111,39.411 74.349,39.235 73.346,39.235 C71.895,39.235 70.583,39.576 69.410,40.259 L69.410,36.227 C70.797,35.480 72.514,35.107 74.562,35.107 C76.695,35.107 78.343,35.603 79.506,36.595 C80.669,37.587 81.250,39.032 81.250,40.931 L81.250,49.827 L76.418,49.827 L76.418,49.091 ZM76.418,44.963 C76.077,44.302 75.405,43.971 74.402,43.971 C73.847,43.971 73.378,44.088 72.994,44.323 C72.610,44.558 72.418,44.899 72.418,45.347 C72.418,45.816 72.610,46.168 72.994,46.403 C73.378,46.638 73.847,46.755 74.402,46.755 C75.383,46.755 76.055,46.435 76.418,45.795 L76.418,44.963 ZM74.946,21.091 C74.690,21.347 74.242,21.576 73.602,21.779 C72.962,21.981 72.279,22.083 71.554,22.083 C70.061,22.083 68.807,21.672 67.794,20.851 C66.781,20.030 66.274,18.894 66.274,17.443 C66.274,16.078 66.802,14.974 67.858,14.131 C68.914,13.288 70.231,12.867 71.810,12.867 C73.154,12.867 74.199,13.134 74.946,13.667 L74.946,13.155 C74.946,12.579 74.685,12.115 74.162,11.763 C73.639,11.411 72.877,11.235 71.874,11.235 C70.423,11.235 69.111,11.576 67.938,12.259 L67.938,8.227 C69.325,7.480 71.042,7.107 73.090,7.107 C75.223,7.107 76.871,7.603 78.034,8.595 C79.197,9.587 79.778,11.032 79.778,12.931 L79.778,21.827 L74.946,21.827 L74.946,21.091 ZM74.946,16.963 C74.605,16.302 73.933,15.971 72.930,15.971 C72.375,15.971 71.906,16.088 71.522,16.323 C71.138,16.558 70.946,16.899 70.946,17.347 C70.946,17.816 71.138,18.168 71.522,18.403 C71.906,18.638 72.375,18.755 72.930,18.755 C73.911,18.755 74.583,18.435 74.946,17.795 L74.946,16.963 ZM62.306,50.147 C60.109,50.147 58.306,49.464 56.898,48.099 C55.490,46.734 54.786,44.910 54.786,42.627 C54.786,40.344 55.490,38.520 56.898,37.155 C58.306,35.790 60.109,35.107 62.306,35.107 C63.927,35.107 65.218,35.448 66.178,36.131 L66.178,40.355 C65.239,39.672 64.205,39.331 63.074,39.331 C62.114,39.331 61.319,39.619 60.690,40.195 C60.061,40.771 59.746,41.582 59.746,42.627 C59.746,43.672 60.061,44.483 60.690,45.059 C61.319,45.635 62.114,45.923 63.074,45.923 C64.205,45.923 65.239,45.582 66.178,44.899 L66.178,49.123 C65.218,49.806 63.927,50.147 62.306,50.147 ZM52.706,13.603 C52.706,12.984 52.546,12.488 52.226,12.115 C51.906,11.742 51.437,11.555 50.818,11.555 C50.306,11.555 49.863,11.694 49.490,11.971 C49.117,12.248 48.866,12.632 48.738,13.123 L48.738,21.827 L43.714,21.827 L43.714,1.027 L48.738,1.027 L48.738,8.675 C49.677,7.630 50.967,7.107 52.610,7.107 C54.189,7.107 55.431,7.582 56.338,8.531 C57.245,9.480 57.698,10.766 57.698,12.387 L57.698,21.827 L52.706,21.827 L52.706,13.603 ZM38.883,21.827 L33.891,21.827 L33.891,11.331 L31.395,11.331 L31.395,7.427 L33.891,7.427 L33.891,3.459 L38.883,3.459 L38.883,7.427 L41.699,7.427 L41.699,11.331 L38.883,11.331 L38.883,21.827 ZM35.715,29.123 L35.715,33.219 C35.373,33.027 34.979,32.931 34.531,32.931 C33.336,32.931 32.739,33.507 32.739,34.659 L32.739,35.427 L35.523,35.427 L35.523,39.331 L32.739,39.331 L32.739,49.827 L27.779,49.827 L27.779,39.331 L25.635,39.331 L25.635,35.427 L27.779,35.427 L27.779,34.371 C27.779,32.643 28.275,31.272 29.267,30.259 C30.259,29.246 31.629,28.739 33.379,28.739 C34.232,28.739 35.011,28.867 35.715,29.123 ZM26.851,6.211 C26.062,6.211 25.390,5.960 24.835,5.459 C24.280,4.958 24.003,4.312 24.003,3.523 C24.003,2.712 24.280,2.056 24.835,1.555 C25.390,1.054 26.062,0.803 26.851,0.803 C27.640,0.803 28.312,1.054 28.867,1.555 C29.422,2.056 29.699,2.712 29.699,3.523 C29.699,4.312 29.422,4.958 28.867,5.459 C28.312,5.960 27.640,6.211 26.851,6.211 ZM23.203,33.459 C22.648,33.960 21.976,34.211 21.187,34.211 C20.397,34.211 19.725,33.960 19.171,33.459 C18.616,32.958 18.339,32.312 18.339,31.523 C18.339,30.712 18.616,30.056 19.171,29.555 C19.725,29.054 20.397,28.803 21.187,28.803 C21.976,28.803 22.648,29.054 23.203,29.555 C23.757,30.056 24.035,30.712 24.035,31.523 C24.035,32.312 23.757,32.958 23.203,33.459 ZM13.699,21.827 L11.651,14.531 L9.603,21.827 L5.347,21.827 L0.707,7.427 L5.699,7.427 L7.971,15.235 L10.147,7.427 L13.347,7.427 L15.491,15.235 L17.795,7.427 L22.595,7.427 L17.955,21.827 L13.699,21.827 ZM7.427,49.283 C5.443,49.283 3.886,48.611 2.755,47.267 C1.624,45.923 1.059,44.227 1.059,42.179 C1.059,40.131 1.624,38.440 2.755,37.107 C3.886,35.774 5.443,35.107 7.427,35.107 C8.899,35.107 10.030,35.576 10.819,36.515 L10.819,35.427 L15.779,35.427 L15.779,47.747 C15.779,50.264 15.000,52.141 13.443,53.379 C11.886,54.616 9.870,55.235 7.395,55.235 C5.198,55.235 3.470,54.829 2.211,54.019 L2.211,49.411 C3.598,50.584 5.272,51.171 7.235,51.171 C8.280,51.171 9.139,50.941 9.811,50.483 C10.483,50.024 10.819,49.315 10.819,48.355 L10.819,47.875 C10.008,48.814 8.878,49.283 7.427,49.283 ZM10.819,40.291 C10.328,39.480 9.614,39.075 8.675,39.075 C7.864,39.075 7.219,39.363 6.739,39.939 C6.259,40.515 6.019,41.262 6.019,42.179 C6.019,43.096 6.259,43.843 6.739,44.419 C7.219,44.995 7.864,45.283 8.675,45.283 C9.635,45.283 10.350,44.888 10.819,44.099 L10.819,40.291 ZM23.683,49.827 L18.659,49.827 L18.659,35.427 L23.683,35.427 L23.683,49.827 ZM29.347,21.827 L24.323,21.827 L24.323,7.427 L29.347,7.427 L29.347,21.827 ZM39.171,31.459 L44.163,31.459 L44.163,35.427 L46.979,35.427 L46.979,39.331 L44.163,39.331 L44.163,49.827 L39.171,49.827 L39.171,39.331 L36.675,39.331 L36.675,35.427 L39.171,35.427 L39.171,31.459 ZM109.378,7.427 L114.402,7.427 L114.402,21.827 L109.378,21.827 L109.378,7.427 ZM101.314,35.107 C102.018,35.107 102.695,35.251 103.346,35.539 C103.996,35.827 104.503,36.174 104.866,36.579 L104.866,29.027 L109.890,29.027 L109.890,49.827 L104.866,49.827 L104.866,48.675 C104.503,49.080 103.996,49.427 103.346,49.715 C102.695,50.003 102.018,50.147 101.314,50.147 C99.308,50.147 97.735,49.438 96.594,48.019 C95.452,46.600 94.882,44.803 94.882,42.627 C94.882,40.451 95.452,38.654 96.594,37.235 C97.735,35.816 99.308,35.107 101.314,35.107 ZM100.642,44.947 C101.132,45.555 101.804,45.859 102.658,45.859 C103.703,45.859 104.439,45.411 104.866,44.515 L104.866,40.707 C104.674,40.323 104.375,40.003 103.970,39.747 C103.564,39.491 103.127,39.363 102.658,39.363 C101.804,39.363 101.132,39.667 100.642,40.275 C100.151,40.883 99.906,41.667 99.906,42.627 C99.906,43.566 100.151,44.339 100.642,44.947 ZM119.827,29.847 L121.208,30.649 L121.208,29.044 L122.607,29.044 L122.607,30.649 L123.969,29.847 L124.678,31.041 L123.278,31.843 L124.678,32.645 L123.969,33.839 L122.607,33.037 L122.607,34.641 L121.208,34.641 L121.208,33.037 L119.827,33.839 L119.137,32.645 L120.517,31.843 L119.137,31.041 L119.827,29.847 Z"/>
<path fill="url(#PSgrad_0)"
 d="M138.593,21.827 L138.593,21.091 C138.337,21.347 137.889,21.576 137.249,21.779 C136.609,21.981 135.926,22.083 135.201,22.083 C133.707,22.083 132.454,21.672 131.441,20.851 C130.427,20.030 129.921,18.894 129.921,17.443 C129.921,16.078 130.449,14.974 131.505,14.131 C132.561,13.288 133.878,12.867 135.457,12.867 C136.801,12.867 137.846,13.134 138.593,13.667 L138.593,13.155 C138.593,12.579 138.331,12.115 137.809,11.763 C137.286,11.411 136.523,11.235 135.521,11.235 C134.070,11.235 132.758,11.576 131.585,12.259 L131.585,8.227 C132.971,7.480 134.689,7.107 136.737,7.107 C138.870,7.107 140.518,7.603 141.681,8.595 C142.843,9.587 143.425,11.032 143.425,12.931 L143.425,21.827 L138.593,21.827 ZM138.593,16.963 C138.251,16.302 137.579,15.971 136.577,15.971 C136.022,15.971 135.553,16.088 135.169,16.323 C134.785,16.558 134.593,16.899 134.593,17.347 C134.593,17.816 134.785,18.168 135.169,18.403 C135.553,18.638 136.022,18.755 136.577,18.755 C137.558,18.755 138.230,18.435 138.593,17.795 L138.593,16.963 ZM122.753,12.643 L124.065,13.027 C125.644,13.454 126.769,14.014 127.441,14.707 C128.113,15.400 128.449,16.355 128.449,17.571 C128.449,19.064 127.878,20.200 126.737,20.979 C125.596,21.758 124.097,22.147 122.241,22.147 C119.958,22.147 118.134,21.688 116.769,20.771 L116.769,16.547 C117.430,17.080 118.252,17.518 119.233,17.859 C120.214,18.200 121.089,18.371 121.857,18.371 C122.945,18.371 123.489,18.083 123.489,17.507 C123.489,17.038 123.052,16.707 122.177,16.515 L121.057,16.227 C118.156,15.608 116.705,14.136 116.705,11.811 C116.705,10.339 117.249,9.187 118.337,8.355 C119.425,7.523 120.844,7.107 122.593,7.107 C124.556,7.107 126.230,7.534 127.617,8.387 L127.617,12.515 C126.081,11.406 124.566,10.851 123.073,10.851 C122.113,10.851 121.633,11.139 121.633,11.715 C121.633,11.971 121.724,12.163 121.905,12.291 C122.086,12.419 122.369,12.536 122.753,12.643 ZM117.921,47.043 C117.921,47.896 117.633,48.611 117.057,49.187 C116.481,49.763 115.777,50.051 114.945,50.051 C114.134,50.051 113.441,49.763 112.865,49.187 C112.289,48.611 112.001,47.896 112.001,47.043 C112.001,46.211 112.284,45.507 112.849,44.931 C113.414,44.355 114.113,44.067 114.945,44.067 C115.777,44.067 116.481,44.350 117.057,44.915 C117.633,45.480 117.921,46.190 117.921,47.043 ZM111.906,6.211 C111.116,6.211 110.444,5.960 109.890,5.459 C109.335,4.958 109.058,4.312 109.058,3.523 C109.058,2.712 109.335,2.056 109.890,1.555 C110.444,1.054 111.116,0.803 111.906,0.803 C112.695,0.803 113.367,1.054 113.922,1.555 C114.476,2.056 114.754,2.712 114.754,3.523 C114.754,4.312 114.476,4.958 113.922,5.459 C113.367,5.960 112.695,6.211 111.906,6.211 ZM95.298,21.827 L87.970,2.179 L93.474,2.179 L97.922,14.883 L102.370,2.179 L107.650,2.179 L100.322,21.827 L95.298,21.827 ZM89.026,36.707 C89.815,35.640 90.903,35.107 92.290,35.107 C92.908,35.107 93.367,35.192 93.666,35.363 L93.666,40.195 C93.090,39.896 92.396,39.747 91.586,39.747 C90.156,39.747 89.303,40.291 89.026,41.379 L89.026,49.827 L84.002,49.827 L84.002,35.427 L89.026,35.427 L89.026,36.707 ZM76.418,49.091 C76.162,49.347 75.714,49.576 75.074,49.779 C74.434,49.981 73.751,50.083 73.026,50.083 C71.533,50.083 70.279,49.672 69.266,48.851 C68.253,48.030 67.746,46.894 67.746,45.443 C67.746,44.078 68.274,42.974 69.330,42.131 C70.386,41.288 71.703,40.867 73.282,40.867 C74.626,40.867 75.671,41.134 76.418,41.667 L76.418,41.155 C76.418,40.579 76.157,40.115 75.634,39.763 C75.111,39.411 74.349,39.235 73.346,39.235 C71.895,39.235 70.583,39.576 69.410,40.259 L69.410,36.227 C70.797,35.480 72.514,35.107 74.562,35.107 C76.695,35.107 78.343,35.603 79.506,36.595 C80.669,37.587 81.250,39.032 81.250,40.931 L81.250,49.827 L76.418,49.827 L76.418,49.091 ZM76.418,44.963 C76.077,44.302 75.405,43.971 74.402,43.971 C73.847,43.971 73.378,44.088 72.994,44.323 C72.610,44.558 72.418,44.899 72.418,45.347 C72.418,45.816 72.610,46.168 72.994,46.403 C73.378,46.638 73.847,46.755 74.402,46.755 C75.383,46.755 76.055,46.435 76.418,45.795 L76.418,44.963 ZM74.946,21.091 C74.690,21.347 74.242,21.576 73.602,21.779 C72.962,21.981 72.279,22.083 71.554,22.083 C70.061,22.083 68.807,21.672 67.794,20.851 C66.781,20.030 66.274,18.894 66.274,17.443 C66.274,16.078 66.802,14.974 67.858,14.131 C68.914,13.288 70.231,12.867 71.810,12.867 C73.154,12.867 74.199,13.134 74.946,13.667 L74.946,13.155 C74.946,12.579 74.685,12.115 74.162,11.763 C73.639,11.411 72.877,11.235 71.874,11.235 C70.423,11.235 69.111,11.576 67.938,12.259 L67.938,8.227 C69.325,7.480 71.042,7.107 73.090,7.107 C75.223,7.107 76.871,7.603 78.034,8.595 C79.197,9.587 79.778,11.032 79.778,12.931 L79.778,21.827 L74.946,21.827 L74.946,21.091 ZM74.946,16.963 C74.605,16.302 73.933,15.971 72.930,15.971 C72.375,15.971 71.906,16.088 71.522,16.323 C71.138,16.558 70.946,16.899 70.946,17.347 C70.946,17.816 71.138,18.168 71.522,18.403 C71.906,18.638 72.375,18.755 72.930,18.755 C73.911,18.755 74.583,18.435 74.946,17.795 L74.946,16.963 ZM62.306,50.147 C60.109,50.147 58.306,49.464 56.898,48.099 C55.490,46.734 54.786,44.910 54.786,42.627 C54.786,40.344 55.490,38.520 56.898,37.155 C58.306,35.790 60.109,35.107 62.306,35.107 C63.927,35.107 65.218,35.448 66.178,36.131 L66.178,40.355 C65.239,39.672 64.205,39.331 63.074,39.331 C62.114,39.331 61.319,39.619 60.690,40.195 C60.061,40.771 59.746,41.582 59.746,42.627 C59.746,43.672 60.061,44.483 60.690,45.059 C61.319,45.635 62.114,45.923 63.074,45.923 C64.205,45.923 65.239,45.582 66.178,44.899 L66.178,49.123 C65.218,49.806 63.927,50.147 62.306,50.147 ZM52.706,13.603 C52.706,12.984 52.546,12.488 52.226,12.115 C51.906,11.742 51.437,11.555 50.818,11.555 C50.306,11.555 49.863,11.694 49.490,11.971 C49.117,12.248 48.866,12.632 48.738,13.123 L48.738,21.827 L43.714,21.827 L43.714,1.027 L48.738,1.027 L48.738,8.675 C49.677,7.630 50.967,7.107 52.610,7.107 C54.189,7.107 55.431,7.582 56.338,8.531 C57.245,9.480 57.698,10.766 57.698,12.387 L57.698,21.827 L52.706,21.827 L52.706,13.603 ZM38.883,21.827 L33.891,21.827 L33.891,11.331 L31.395,11.331 L31.395,7.427 L33.891,7.427 L33.891,3.459 L38.883,3.459 L38.883,7.427 L41.699,7.427 L41.699,11.331 L38.883,11.331 L38.883,21.827 ZM35.715,29.123 L35.715,33.219 C35.373,33.027 34.979,32.931 34.531,32.931 C33.336,32.931 32.739,33.507 32.739,34.659 L32.739,35.427 L35.523,35.427 L35.523,39.331 L32.739,39.331 L32.739,49.827 L27.779,49.827 L27.779,39.331 L25.635,39.331 L25.635,35.427 L27.779,35.427 L27.779,34.371 C27.779,32.643 28.275,31.272 29.267,30.259 C30.259,29.246 31.629,28.739 33.379,28.739 C34.232,28.739 35.011,28.867 35.715,29.123 ZM26.851,6.211 C26.062,6.211 25.390,5.960 24.835,5.459 C24.280,4.958 24.003,4.312 24.003,3.523 C24.003,2.712 24.280,2.056 24.835,1.555 C25.390,1.054 26.062,0.803 26.851,0.803 C27.640,0.803 28.312,1.054 28.867,1.555 C29.422,2.056 29.699,2.712 29.699,3.523 C29.699,4.312 29.422,4.958 28.867,5.459 C28.312,5.960 27.640,6.211 26.851,6.211 ZM23.203,33.459 C22.648,33.960 21.976,34.211 21.187,34.211 C20.397,34.211 19.725,33.960 19.171,33.459 C18.616,32.958 18.339,32.312 18.339,31.523 C18.339,30.712 18.616,30.056 19.171,29.555 C19.725,29.054 20.397,28.803 21.187,28.803 C21.976,28.803 22.648,29.054 23.203,29.555 C23.757,30.056 24.035,30.712 24.035,31.523 C24.035,32.312 23.757,32.958 23.203,33.459 ZM13.699,21.827 L11.651,14.531 L9.603,21.827 L5.347,21.827 L0.707,7.427 L5.699,7.427 L7.971,15.235 L10.147,7.427 L13.347,7.427 L15.491,15.235 L17.795,7.427 L22.595,7.427 L17.955,21.827 L13.699,21.827 ZM7.427,49.283 C5.443,49.283 3.886,48.611 2.755,47.267 C1.624,45.923 1.059,44.227 1.059,42.179 C1.059,40.131 1.624,38.440 2.755,37.107 C3.886,35.774 5.443,35.107 7.427,35.107 C8.899,35.107 10.030,35.576 10.819,36.515 L10.819,35.427 L15.779,35.427 L15.779,47.747 C15.779,50.264 15.000,52.141 13.443,53.379 C11.886,54.616 9.870,55.235 7.395,55.235 C5.198,55.235 3.470,54.829 2.211,54.019 L2.211,49.411 C3.598,50.584 5.272,51.171 7.235,51.171 C8.280,51.171 9.139,50.941 9.811,50.483 C10.483,50.024 10.819,49.315 10.819,48.355 L10.819,47.875 C10.008,48.814 8.878,49.283 7.427,49.283 ZM10.819,40.291 C10.328,39.480 9.614,39.075 8.675,39.075 C7.864,39.075 7.219,39.363 6.739,39.939 C6.259,40.515 6.019,41.262 6.019,42.179 C6.019,43.096 6.259,43.843 6.739,44.419 C7.219,44.995 7.864,45.283 8.675,45.283 C9.635,45.283 10.350,44.888 10.819,44.099 L10.819,40.291 ZM23.683,49.827 L18.659,49.827 L18.659,35.427 L23.683,35.427 L23.683,49.827 ZM29.347,21.827 L24.323,21.827 L24.323,7.427 L29.347,7.427 L29.347,21.827 ZM39.171,31.459 L44.163,31.459 L44.163,35.427 L46.979,35.427 L46.979,39.331 L44.163,39.331 L44.163,49.827 L39.171,49.827 L39.171,39.331 L36.675,39.331 L36.675,35.427 L39.171,35.427 L39.171,31.459 ZM109.378,7.427 L114.402,7.427 L114.402,21.827 L109.378,21.827 L109.378,7.427 ZM101.314,35.107 C102.018,35.107 102.695,35.251 103.346,35.539 C103.996,35.827 104.503,36.174 104.866,36.579 L104.866,29.027 L109.890,29.027 L109.890,49.827 L104.866,49.827 L104.866,48.675 C104.503,49.080 103.996,49.427 103.346,49.715 C102.695,50.003 102.018,50.147 101.314,50.147 C99.308,50.147 97.735,49.438 96.594,48.019 C95.452,46.600 94.882,44.803 94.882,42.627 C94.882,40.451 95.452,38.654 96.594,37.235 C97.735,35.816 99.308,35.107 101.314,35.107 ZM100.642,44.947 C101.132,45.555 101.804,45.859 102.658,45.859 C103.703,45.859 104.439,45.411 104.866,44.515 L104.866,40.707 C104.674,40.323 104.375,40.003 103.970,39.747 C103.564,39.491 103.127,39.363 102.658,39.363 C101.804,39.363 101.132,39.667 100.642,40.275 C100.151,40.883 99.906,41.667 99.906,42.627 C99.906,43.566 100.151,44.339 100.642,44.947 ZM119.827,29.847 L121.208,30.649 L121.208,29.044 L122.607,29.044 L122.607,30.649 L123.969,29.847 L124.678,31.041 L123.278,31.843 L124.678,32.645 L123.969,33.839 L122.607,33.037 L122.607,34.641 L121.208,34.641 L121.208,33.037 L119.827,33.839 L119.137,32.645 L120.517,31.843 L119.137,31.041 L119.827,29.847 Z"/>
</svg>