<svg 
 xmlns="http://www.w3.org/2000/svg"
 xmlns:xlink="http://www.w3.org/1999/xlink"
 width="229px" height="83px">
<defs>
<linearGradient id="PSgrad_0" x1="0%" x2="64.279%" y1="0%" y2="76.604%">
  <stop offset="0%" stop-color="rgb(238,117,24)" stop-opacity="0.95" />
  <stop offset="100%" stop-color="rgb(253,91,47)" stop-opacity="0.95" />
</linearGradient>

</defs>
<path fill-rule="evenodd"  fill="rgb(227, 114, 34)"
 d="M223.671,21.827 L223.671,1.027 L228.695,1.027 L228.695,21.827 L223.671,21.827 ZM216.088,21.091 C215.832,21.347 215.384,21.576 214.744,21.779 C214.104,21.981 213.421,22.083 212.696,22.083 C211.202,22.083 209.949,21.672 208.936,20.851 C207.922,20.030 207.416,18.894 207.416,17.443 C207.416,16.078 207.944,14.974 209.000,14.131 C210.056,13.288 211.373,12.867 212.952,12.867 C214.296,12.867 215.341,13.134 216.088,13.667 L216.088,13.155 C216.088,12.579 215.826,12.115 215.304,11.763 C214.781,11.411 214.018,11.235 213.016,11.235 C211.565,11.235 210.253,11.576 209.080,12.259 L209.080,8.227 C210.466,7.480 212.184,7.107 214.232,7.107 C216.365,7.107 218.013,7.603 219.176,8.595 C220.338,9.587 220.920,11.032 220.920,12.931 L220.920,21.827 L216.088,21.827 L216.088,21.091 ZM216.088,16.963 C215.746,16.302 215.074,15.971 214.072,15.971 C213.517,15.971 213.048,16.088 212.664,16.323 C212.280,16.558 212.088,16.899 212.088,17.347 C212.088,17.816 212.280,18.168 212.664,18.403 C213.048,18.638 213.517,18.755 214.072,18.755 C215.053,18.755 215.725,18.435 216.088,17.795 L216.088,16.963 ZM211.704,36.707 C212.493,35.640 213.581,35.107 214.968,35.107 C215.586,35.107 216.045,35.192 216.344,35.363 L216.344,40.195 C215.768,39.896 215.074,39.747 214.264,39.747 C212.834,39.747 211.981,40.291 211.704,41.379 L211.704,49.827 L206.680,49.827 L206.680,35.427 L211.704,35.427 L211.704,36.707 ZM203.736,21.827 L198.744,21.827 L198.744,11.331 L196.248,11.331 L196.248,7.427 L198.744,7.427 L198.744,3.459 L203.736,3.459 L203.736,7.427 L206.552,7.427 L206.552,11.331 L203.736,11.331 L203.736,21.827 ZM202.760,37.059 C203.923,38.360 204.504,40.110 204.504,42.307 L204.504,43.779 L195.640,43.779 C196.024,45.400 197.251,46.211 199.320,46.211 C200.813,46.211 202.200,45.827 203.480,45.059 L203.480,48.867 C202.328,49.720 200.675,50.147 198.520,50.147 C196.195,50.147 194.323,49.486 192.904,48.163 C191.485,46.840 190.776,45.027 190.776,42.723 C190.776,40.483 191.437,38.654 192.760,37.235 C194.083,35.816 195.747,35.107 197.752,35.107 C199.928,35.107 201.597,35.758 202.760,37.059 ZM195.704,40.963 L200.024,40.963 C199.960,40.344 199.747,39.848 199.384,39.475 C199.021,39.102 198.541,38.915 197.944,38.915 C196.813,38.915 196.067,39.598 195.704,40.963 ZM191.704,6.211 C190.915,6.211 190.243,5.960 189.688,5.459 C189.133,4.958 188.856,4.312 188.856,3.523 C188.856,2.712 189.133,2.056 189.688,1.555 C190.243,1.054 190.915,0.803 191.704,0.803 C192.493,0.803 193.165,1.054 193.720,1.555 C194.275,2.056 194.552,2.712 194.552,3.523 C194.552,4.312 194.275,4.958 193.720,5.459 C193.165,5.960 192.493,6.211 191.704,6.211 ZM180.664,22.147 C179.960,22.147 179.283,22.003 178.632,21.715 C177.981,21.427 177.475,21.080 177.112,20.675 L177.112,26.915 L172.088,26.915 L172.088,7.427 L177.112,7.427 L177.112,8.579 C177.475,8.174 177.981,7.827 178.632,7.539 C179.283,7.251 179.960,7.107 180.664,7.107 C182.669,7.107 184.243,7.822 185.384,9.251 C186.525,10.680 187.096,12.472 187.096,14.627 C187.096,16.760 186.525,18.547 185.384,19.987 C184.243,21.427 182.669,22.147 180.664,22.147 ZM181.336,12.275 C180.845,11.667 180.173,11.363 179.320,11.363 C178.296,11.363 177.560,11.811 177.112,12.707 L177.112,16.515 C177.539,17.411 178.275,17.859 179.320,17.859 C180.173,17.859 180.845,17.555 181.336,16.947 C181.827,16.339 182.072,15.566 182.072,14.627 C182.072,13.667 181.827,12.883 181.336,12.275 ZM174.584,42.627 C174.584,44.846 173.907,46.654 172.552,48.051 C171.197,49.448 169.421,50.147 167.224,50.147 C165.048,50.147 163.277,49.448 161.912,48.051 C160.547,46.654 159.864,44.846 159.864,42.627 C159.864,40.408 160.547,38.600 161.912,37.203 C163.277,35.806 165.048,35.107 167.224,35.107 C169.421,35.107 171.197,35.806 172.552,37.203 C173.907,38.600 174.584,40.408 174.584,42.627 ZM169.016,40.163 C168.589,39.544 167.992,39.235 167.224,39.235 C166.477,39.235 165.891,39.544 165.464,40.163 C165.037,40.782 164.824,41.603 164.824,42.627 C164.824,43.630 165.037,44.440 165.464,45.059 C165.891,45.678 166.477,45.987 167.224,45.987 C167.992,45.987 168.589,45.683 169.016,45.075 C169.443,44.467 169.656,43.651 169.656,42.627 C169.656,41.603 169.443,40.782 169.016,40.163 ZM164.249,12.643 L165.561,13.027 C167.139,13.454 168.265,14.014 168.937,14.707 C169.609,15.400 169.945,16.355 169.945,17.571 C169.945,19.064 169.374,20.200 168.233,20.979 C167.091,21.758 165.593,22.147 163.737,22.147 C161.454,22.147 159.630,21.688 158.265,20.771 L158.265,16.547 C158.926,17.080 159.747,17.518 160.729,17.859 C161.710,18.200 162.585,18.371 163.353,18.371 C164.441,18.371 164.985,18.083 164.985,17.507 C164.985,17.038 164.547,16.707 163.673,16.515 L162.553,16.227 C159.651,15.608 158.201,14.136 158.201,11.811 C158.201,10.339 158.745,9.187 159.833,8.355 C160.921,7.523 162.339,7.107 164.089,7.107 C166.051,7.107 167.726,7.534 169.113,8.387 L169.113,12.515 C167.577,11.406 166.062,10.851 164.569,10.851 C163.609,10.851 163.129,11.139 163.129,11.715 C163.129,11.971 163.219,12.163 163.401,12.291 C163.582,12.419 163.865,12.536 164.249,12.643 ZM158.297,40.355 C157.358,39.672 156.323,39.331 155.193,39.331 C154.233,39.331 153.438,39.619 152.809,40.195 C152.179,40.771 151.865,41.582 151.865,42.627 C151.865,43.672 152.179,44.483 152.809,45.059 C153.438,45.635 154.233,45.923 155.193,45.923 C156.323,45.923 157.358,45.582 158.297,44.899 L158.297,49.123 C157.337,49.806 156.046,50.147 154.425,50.147 C152.227,50.147 150.425,49.464 149.017,48.099 C147.609,46.734 146.905,44.910 146.905,42.627 C146.905,40.344 147.609,38.520 149.017,37.155 C150.425,35.790 152.227,35.107 154.425,35.107 C156.046,35.107 157.337,35.448 158.297,36.131 L158.297,40.355 ZM149.209,22.147 C147.033,22.147 145.262,21.448 143.897,20.051 C142.532,18.654 141.849,16.846 141.849,14.627 C141.849,12.408 142.532,10.600 143.897,9.203 C145.262,7.806 147.033,7.107 149.209,7.107 C151.406,7.107 153.182,7.806 154.537,9.203 C155.892,10.600 156.569,12.408 156.569,14.627 C156.569,16.846 155.892,18.654 154.537,20.051 C153.182,21.448 151.406,22.147 149.209,22.147 ZM151.001,12.163 C150.574,11.544 149.977,11.235 149.209,11.235 C148.462,11.235 147.876,11.544 147.449,12.163 C147.022,12.782 146.809,13.603 146.809,14.627 C146.809,15.630 147.022,16.440 147.449,17.059 C147.876,17.678 148.462,17.987 149.209,17.987 C149.977,17.987 150.574,17.683 151.001,17.075 C151.428,16.467 151.641,15.651 151.641,14.627 C151.641,13.603 151.428,12.782 151.001,12.163 ZM145.594,63.107 C147.172,63.107 148.415,63.582 149.322,64.531 C150.228,65.480 150.682,66.766 150.682,68.387 L150.682,77.827 L145.690,77.827 L145.690,69.603 C145.690,68.984 145.530,68.488 145.210,68.115 C144.890,67.742 144.420,67.555 143.802,67.555 C143.290,67.555 142.847,67.694 142.474,67.971 C142.100,68.248 141.850,68.632 141.722,69.123 L141.722,77.827 L136.698,77.827 L136.698,57.027 L141.722,57.027 L141.722,64.675 C142.660,63.630 143.951,63.107 145.594,63.107 ZM134.521,14.051 L126.937,14.051 L126.937,21.827 L121.785,21.827 L121.785,2.179 L126.937,2.179 L126.937,9.635 L134.521,9.635 L134.521,2.179 L139.673,2.179 L139.673,21.827 L134.521,21.827 L134.521,14.051 ZM123.305,36.595 C124.468,37.587 125.049,39.032 125.049,40.931 L125.049,49.827 L120.217,49.827 L120.217,49.091 C119.961,49.347 119.513,49.576 118.873,49.779 C118.233,49.981 117.550,50.083 116.825,50.083 C115.332,50.083 114.078,49.672 113.065,48.851 C112.052,48.030 111.545,46.894 111.545,45.443 C111.545,44.078 112.073,42.974 113.129,42.131 C114.185,41.288 115.502,40.867 117.081,40.867 C118.425,40.867 119.470,41.134 120.217,41.667 L120.217,41.155 C120.217,40.579 119.956,40.115 119.433,39.763 C118.910,39.411 118.148,39.235 117.145,39.235 C115.694,39.235 114.382,39.576 113.209,40.259 L113.209,36.227 C114.596,35.480 116.313,35.107 118.361,35.107 C120.494,35.107 122.142,35.603 123.305,36.595 ZM120.217,44.963 C119.876,44.302 119.204,43.971 118.201,43.971 C117.646,43.971 117.177,44.088 116.793,44.323 C116.409,44.558 116.217,44.899 116.217,45.347 C116.217,45.816 116.409,46.168 116.793,46.403 C117.177,46.638 117.646,46.755 118.201,46.755 C119.182,46.755 119.854,46.435 120.217,45.795 L120.217,44.963 ZM110.266,21.827 L105.274,21.827 L105.274,11.331 L102.778,11.331 L102.778,7.427 L105.274,7.427 L105.274,3.459 L110.266,3.459 L110.266,7.427 L113.082,7.427 L113.082,11.331 L110.266,11.331 L110.266,21.827 ZM105.977,36.707 C106.766,35.640 107.854,35.107 109.241,35.107 C109.860,35.107 110.318,35.192 110.617,35.363 L110.617,40.195 C110.041,39.896 109.348,39.747 108.537,39.747 C107.108,39.747 106.254,40.291 105.977,41.379 L105.977,49.827 L100.953,49.827 L100.953,35.427 L105.977,35.427 L105.977,36.707 ZM95.738,20.579 C94.842,21.624 93.562,22.147 91.898,22.147 C90.319,22.147 89.082,21.672 88.186,20.723 C87.290,19.774 86.842,18.488 86.842,16.867 L86.842,7.427 L91.834,7.427 L91.834,15.683 C91.834,17.070 92.452,17.763 93.690,17.763 C94.159,17.763 94.586,17.619 94.970,17.331 C95.354,17.043 95.610,16.654 95.738,16.163 L95.738,7.427 L100.762,7.427 L100.762,21.827 L95.738,21.827 L95.738,20.579 ZM77.434,22.147 C75.258,22.147 73.487,21.448 72.122,20.051 C70.756,18.654 70.074,16.846 70.074,14.627 C70.074,12.408 70.756,10.600 72.122,9.203 C73.487,7.806 75.258,7.107 77.434,7.107 C79.631,7.107 81.407,7.806 82.762,9.203 C84.116,10.600 84.794,12.408 84.794,14.627 C84.794,16.846 84.116,18.654 82.762,20.051 C81.407,21.448 79.631,22.147 77.434,22.147 ZM79.226,12.163 C78.799,11.544 78.202,11.235 77.434,11.235 C76.687,11.235 76.100,11.544 75.674,12.163 C75.247,12.782 75.034,13.603 75.034,14.627 C75.034,15.630 75.247,16.440 75.674,17.059 C76.100,17.678 76.687,17.987 77.434,17.987 C78.202,17.987 78.799,17.683 79.226,17.075 C79.652,16.467 79.866,15.651 79.866,14.627 C79.866,13.603 79.652,12.782 79.226,12.163 ZM56.922,18.211 C58.415,18.211 59.802,17.827 61.082,17.059 L61.082,20.867 C59.930,21.720 58.277,22.147 56.122,22.147 C53.797,22.147 51.925,21.486 50.506,20.163 C49.087,18.840 48.378,17.027 48.378,14.723 C48.378,12.483 49.039,10.654 50.362,9.235 C51.685,7.816 53.349,7.107 55.354,7.107 C57.530,7.107 59.199,7.758 60.362,9.059 C61.525,10.360 62.106,12.110 62.106,14.307 L62.106,15.779 L53.242,15.779 C53.626,17.400 54.853,18.211 56.922,18.211 ZM57.626,12.963 C57.562,12.344 57.349,11.848 56.986,11.475 C56.623,11.102 56.143,10.915 55.546,10.915 C54.415,10.915 53.669,11.598 53.306,12.963 L57.626,12.963 ZM42.587,21.827 L38.235,15.523 L38.235,21.827 L33.211,21.827 L33.211,1.027 L38.235,1.027 L38.235,12.867 L42.331,7.427 L48.091,7.427 L42.747,14.083 L48.219,21.827 L42.587,21.827 ZM38.747,35.107 C39.451,35.107 40.128,35.251 40.779,35.539 C41.429,35.827 41.936,36.174 42.299,36.579 L42.299,29.027 L47.323,29.027 L47.323,49.827 L42.299,49.827 L42.299,48.675 C41.936,49.080 41.429,49.427 40.779,49.715 C40.128,50.003 39.451,50.147 38.747,50.147 C36.741,50.147 35.168,49.438 34.027,48.019 C32.885,46.600 32.315,44.803 32.315,42.627 C32.315,40.451 32.885,38.654 34.027,37.235 C35.168,35.816 36.741,35.107 38.747,35.107 ZM38.075,44.947 C38.565,45.555 39.237,45.859 40.091,45.859 C41.136,45.859 41.872,45.411 42.299,44.515 L42.299,40.707 C42.107,40.323 41.808,40.003 41.403,39.747 C40.997,39.491 40.560,39.363 40.091,39.363 C39.237,39.363 38.565,39.667 38.075,40.275 C37.584,40.883 37.339,41.667 37.339,42.627 C37.339,43.566 37.584,44.339 38.075,44.947 ZM19.451,82.915 L21.563,77.475 L16.187,63.427 L21.403,63.427 L24.155,71.619 L26.843,63.427 L31.835,63.427 L24.411,82.915 L19.451,82.915 ZM25.627,21.091 C25.371,21.347 24.923,21.576 24.283,21.779 C23.643,21.981 22.960,22.083 22.235,22.083 C20.741,22.083 19.488,21.672 18.475,20.851 C17.461,20.030 16.955,18.894 16.955,17.443 C16.955,16.078 17.483,14.974 18.539,14.131 C19.595,13.288 20.912,12.867 22.491,12.867 C23.835,12.867 24.880,13.134 25.627,13.667 L25.627,13.155 C25.627,12.579 25.365,12.115 24.843,11.763 C24.320,11.411 23.557,11.235 22.555,11.235 C21.104,11.235 19.792,11.576 18.619,12.259 L18.619,8.227 C20.005,7.480 21.723,7.107 23.771,7.107 C25.904,7.107 27.552,7.603 28.715,8.595 C29.877,9.587 30.459,11.032 30.459,12.931 L30.459,21.827 L25.627,21.827 L25.627,21.091 ZM25.627,16.963 C25.285,16.302 24.613,15.971 23.611,15.971 C23.056,15.971 22.587,16.088 22.203,16.323 C21.819,16.558 21.627,16.899 21.627,17.347 C21.627,17.816 21.819,18.168 22.203,18.403 C22.587,18.638 23.056,18.755 23.611,18.755 C24.592,18.755 25.264,18.435 25.627,17.795 L25.627,16.963 ZM16.315,49.827 L16.315,35.427 L21.339,35.427 L21.339,36.675 C22.277,35.630 23.568,35.107 25.211,35.107 C26.789,35.107 28.032,35.582 28.939,36.531 C29.845,37.480 30.299,38.766 30.299,40.387 L30.299,49.827 L25.307,49.827 L25.307,41.603 C25.307,40.984 25.147,40.488 24.827,40.115 C24.507,39.742 24.037,39.555 23.419,39.555 C22.907,39.555 22.464,39.694 22.091,39.971 C21.717,40.248 21.467,40.632 21.339,41.123 L21.339,49.827 L16.315,49.827 ZM11.323,21.827 L6.171,21.827 L6.171,6.595 L0.123,6.595 L0.123,2.179 L17.403,2.179 L17.403,6.595 L11.323,6.595 L11.323,21.827 ZM5.595,40.867 C6.939,40.867 7.984,41.134 8.731,41.667 L8.731,41.155 C8.731,40.579 8.470,40.115 7.947,39.763 C7.424,39.411 6.662,39.235 5.659,39.235 C4.208,39.235 2.896,39.576 1.723,40.259 L1.723,36.227 C3.110,35.480 4.827,35.107 6.875,35.107 C9.008,35.107 10.656,35.603 11.819,36.595 C12.982,37.587 13.563,39.032 13.563,40.931 L13.563,49.827 L8.731,49.827 L8.731,49.091 C8.475,49.347 8.027,49.576 7.387,49.779 C6.747,49.981 6.064,50.083 5.339,50.083 C3.846,50.083 2.592,49.672 1.579,48.851 C0.566,48.030 0.059,46.894 0.059,45.443 C0.059,44.078 0.587,42.974 1.643,42.131 C2.699,41.288 4.016,40.867 5.595,40.867 ZM5.307,46.403 C5.691,46.638 6.160,46.755 6.715,46.755 C7.696,46.755 8.368,46.435 8.731,45.795 L8.731,44.963 C8.390,44.302 7.718,43.971 6.715,43.971 C6.160,43.971 5.691,44.088 5.307,44.323 C4.923,44.558 4.731,44.899 4.731,45.347 C4.731,45.816 4.923,46.168 5.307,46.403 ZM5.851,64.579 C6.214,64.174 6.720,63.827 7.371,63.539 C8.022,63.251 8.699,63.107 9.403,63.107 C11.408,63.107 12.982,63.816 14.123,65.235 C15.264,66.654 15.835,68.451 15.835,70.627 C15.835,72.803 15.264,74.600 14.123,76.019 C12.982,77.438 11.408,78.147 9.403,78.147 C8.699,78.147 8.022,78.003 7.371,77.715 C6.720,77.427 6.214,77.080 5.851,76.675 L5.851,77.827 L0.827,77.827 L0.827,57.027 L5.851,57.027 L5.851,64.579 ZM5.851,72.515 C6.278,73.411 7.014,73.859 8.059,73.859 C8.912,73.859 9.584,73.555 10.075,72.947 C10.566,72.339 10.811,71.566 10.811,70.627 C10.811,69.667 10.566,68.883 10.075,68.275 C9.584,67.667 8.912,67.363 8.059,67.363 C7.590,67.363 7.152,67.491 6.747,67.747 C6.342,68.003 6.043,68.323 5.851,68.707 L5.851,72.515 ZM44.795,73.955 C46.821,73.955 47.835,73.134 47.835,71.491 C47.835,70.488 47.371,69.752 46.443,69.283 C45.515,68.814 44.347,68.622 42.939,68.707 L42.939,68.611 L45.979,62.595 L39.579,62.595 L39.579,58.179 L52.635,58.179 L52.635,58.275 L48.795,65.923 C51.333,67.011 52.603,68.856 52.603,71.459 C52.603,73.507 51.909,75.134 50.523,76.339 C49.136,77.544 47.408,78.147 45.339,78.147 C43.035,78.147 41.083,77.592 39.483,76.483 L39.483,71.779 C41.104,73.230 42.875,73.955 44.795,73.955 ZM63.387,58.179 L63.387,77.827 L58.395,77.827 L58.395,63.747 L53.819,65.955 L53.819,61.091 L59.931,58.179 L63.387,58.179 ZM70.906,45.379 L70.906,49.827 L56.858,49.827 L56.858,30.179 L70.906,30.179 L70.906,34.595 L61.914,34.595 L61.914,37.667 L70.138,37.667 L70.138,41.987 L61.914,41.987 L61.914,45.379 L70.906,45.379 ZM72.506,35.427 L77.914,35.427 L80.154,38.883 L82.426,35.427 L87.610,35.427 L82.778,42.467 L87.834,49.827 L82.394,49.827 L79.930,46.083 L77.466,49.827 L72.282,49.827 L77.306,42.499 L72.506,35.427 ZM83.482,66.179 L88.890,58.179 L93.626,58.179 L93.626,77.827 L88.570,77.827 L88.570,66.563 L83.546,73.603 L83.418,73.603 L78.362,66.563 L78.362,77.827 L73.338,77.827 L73.338,58.179 L78.106,58.179 L83.482,66.179 ZM96.122,31.459 L96.122,35.427 L98.938,35.427 L98.938,39.331 L96.122,39.331 L96.122,49.827 L91.130,49.827 L91.130,39.331 L88.634,39.331 L88.634,35.427 L91.130,35.427 L91.130,31.459 L96.122,31.459 ZM101.370,68.867 C102.714,68.867 103.759,69.134 104.506,69.667 L104.506,69.155 C104.506,68.579 104.245,68.115 103.722,67.763 C103.199,67.411 102.437,67.235 101.434,67.235 C99.983,67.235 98.671,67.576 97.498,68.259 L97.498,64.227 C98.885,63.480 100.602,63.107 102.650,63.107 C104.783,63.107 106.431,63.603 107.594,64.595 C108.757,65.587 109.338,67.032 109.338,68.931 L109.338,77.827 L104.506,77.827 L104.506,77.091 C104.250,77.347 103.802,77.576 103.162,77.779 C102.522,77.981 101.839,78.083 101.114,78.083 C99.621,78.083 98.367,77.672 97.354,76.851 C96.341,76.030 95.834,74.894 95.834,73.443 C95.834,72.078 96.362,70.974 97.418,70.131 C98.474,69.288 99.791,68.867 101.370,68.867 ZM101.082,74.403 C101.466,74.638 101.935,74.755 102.490,74.755 C103.471,74.755 104.143,74.435 104.506,73.795 L104.506,72.963 C104.165,72.302 103.493,71.971 102.490,71.971 C101.935,71.971 101.466,72.088 101.082,72.323 C100.698,72.558 100.506,72.899 100.506,73.347 C100.506,73.816 100.698,74.168 101.082,74.403 ZM117.114,64.707 C117.903,63.640 118.991,63.107 120.378,63.107 C120.996,63.107 121.455,63.192 121.754,63.363 L121.754,68.195 C121.178,67.896 120.484,67.747 119.674,67.747 C118.244,67.747 117.391,68.291 117.114,69.379 L117.114,77.827 L112.090,77.827 L112.090,63.427 L117.114,63.427 L117.114,64.707 ZM130.490,63.107 C132.111,63.107 133.402,63.448 134.362,64.131 L134.362,68.355 C133.423,67.672 132.388,67.331 131.258,67.331 C130.298,67.331 129.503,67.619 128.874,68.195 C128.244,68.771 127.930,69.582 127.930,70.627 C127.930,71.672 128.244,72.483 128.874,73.059 C129.503,73.635 130.298,73.923 131.258,73.923 C132.388,73.923 133.423,73.582 134.362,72.899 L134.362,77.123 C133.402,77.806 132.111,78.147 130.490,78.147 C128.292,78.147 126.490,77.464 125.082,76.099 C123.674,74.734 122.970,72.910 122.970,70.627 C122.970,68.344 123.674,66.520 125.082,65.155 C126.490,63.790 128.292,63.107 130.490,63.107 ZM133.273,40.643 L134.585,41.027 C136.163,41.454 137.289,42.014 137.961,42.707 C138.633,43.400 138.969,44.355 138.969,45.571 C138.969,47.064 138.398,48.200 137.257,48.979 C136.115,49.758 134.617,50.147 132.761,50.147 C130.478,50.147 128.654,49.688 127.289,48.771 L127.289,44.547 C127.950,45.080 128.771,45.518 129.753,45.859 C130.734,46.200 131.609,46.371 132.377,46.371 C133.465,46.371 134.009,46.083 134.009,45.507 C134.009,45.038 133.571,44.707 132.697,44.515 L131.577,44.227 C128.675,43.608 127.225,42.136 127.225,39.811 C127.225,38.339 127.769,37.187 128.857,36.355 C129.945,35.523 131.363,35.107 133.113,35.107 C135.075,35.107 136.750,35.534 138.137,36.387 L138.137,40.515 C136.601,39.406 135.086,38.851 133.593,38.851 C132.633,38.851 132.153,39.139 132.153,39.715 C132.153,39.971 132.243,40.163 132.425,40.291 C132.606,40.419 132.889,40.536 133.273,40.643 ZM153.260,57.847 L154.640,58.649 L154.640,57.044 L156.039,57.044 L156.039,58.649 L157.401,57.847 L158.110,59.041 L156.711,59.843 L158.110,60.645 L157.401,61.839 L156.039,61.037 L156.039,62.641 L154.640,62.641 L154.640,61.037 L153.260,61.839 L152.569,60.645 L153.950,59.843 L152.569,59.041 L153.260,57.847 ZM194.200,7.427 L194.200,21.827 L189.176,21.827 L189.176,7.427 L194.200,7.427 ZM182.840,43.683 L185.528,35.427 L190.456,35.427 L184.952,49.827 L180.440,49.827 L174.968,35.427 L180.088,35.427 L182.840,43.683 Z"/>
<path fill="url(#PSgrad_0)"
 d="M223.671,21.827 L223.671,1.027 L228.695,1.027 L228.695,21.827 L223.671,21.827 ZM216.088,21.091 C215.832,21.347 215.384,21.576 214.744,21.779 C214.104,21.981 213.421,22.083 212.696,22.083 C211.202,22.083 209.949,21.672 208.936,20.851 C207.922,20.030 207.416,18.894 207.416,17.443 C207.416,16.078 207.944,14.974 209.000,14.131 C210.056,13.288 211.373,12.867 212.952,12.867 C214.296,12.867 215.341,13.134 216.088,13.667 L216.088,13.155 C216.088,12.579 215.826,12.115 215.304,11.763 C214.781,11.411 214.018,11.235 213.016,11.235 C211.565,11.235 210.253,11.576 209.080,12.259 L209.080,8.227 C210.466,7.480 212.184,7.107 214.232,7.107 C216.365,7.107 218.013,7.603 219.176,8.595 C220.338,9.587 220.920,11.032 220.920,12.931 L220.920,21.827 L216.088,21.827 L216.088,21.091 ZM216.088,16.963 C215.746,16.302 215.074,15.971 214.072,15.971 C213.517,15.971 213.048,16.088 212.664,16.323 C212.280,16.558 212.088,16.899 212.088,17.347 C212.088,17.816 212.280,18.168 212.664,18.403 C213.048,18.638 213.517,18.755 214.072,18.755 C215.053,18.755 215.725,18.435 216.088,17.795 L216.088,16.963 ZM211.704,36.707 C212.493,35.640 213.581,35.107 214.968,35.107 C215.586,35.107 216.045,35.192 216.344,35.363 L216.344,40.195 C215.768,39.896 215.074,39.747 214.264,39.747 C212.834,39.747 211.981,40.291 211.704,41.379 L211.704,49.827 L206.680,49.827 L206.680,35.427 L211.704,35.427 L211.704,36.707 ZM203.736,21.827 L198.744,21.827 L198.744,11.331 L196.248,11.331 L196.248,7.427 L198.744,7.427 L198.744,3.459 L203.736,3.459 L203.736,7.427 L206.552,7.427 L206.552,11.331 L203.736,11.331 L203.736,21.827 ZM202.760,37.059 C203.923,38.360 204.504,40.110 204.504,42.307 L204.504,43.779 L195.640,43.779 C196.024,45.400 197.251,46.211 199.320,46.211 C200.813,46.211 202.200,45.827 203.480,45.059 L203.480,48.867 C202.328,49.720 200.675,50.147 198.520,50.147 C196.195,50.147 194.323,49.486 192.904,48.163 C191.485,46.840 190.776,45.027 190.776,42.723 C190.776,40.483 191.437,38.654 192.760,37.235 C194.083,35.816 195.747,35.107 197.752,35.107 C199.928,35.107 201.597,35.758 202.760,37.059 ZM195.704,40.963 L200.024,40.963 C199.960,40.344 199.747,39.848 199.384,39.475 C199.021,39.102 198.541,38.915 197.944,38.915 C196.813,38.915 196.067,39.598 195.704,40.963 ZM191.704,6.211 C190.915,6.211 190.243,5.960 189.688,5.459 C189.133,4.958 188.856,4.312 188.856,3.523 C188.856,2.712 189.133,2.056 189.688,1.555 C190.243,1.054 190.915,0.803 191.704,0.803 C192.493,0.803 193.165,1.054 193.720,1.555 C194.275,2.056 194.552,2.712 194.552,3.523 C194.552,4.312 194.275,4.958 193.720,5.459 C193.165,5.960 192.493,6.211 191.704,6.211 ZM180.664,22.147 C179.960,22.147 179.283,22.003 178.632,21.715 C177.981,21.427 177.475,21.080 177.112,20.675 L177.112,26.915 L172.088,26.915 L172.088,7.427 L177.112,7.427 L177.112,8.579 C177.475,8.174 177.981,7.827 178.632,7.539 C179.283,7.251 179.960,7.107 180.664,7.107 C182.669,7.107 184.243,7.822 185.384,9.251 C186.525,10.680 187.096,12.472 187.096,14.627 C187.096,16.760 186.525,18.547 185.384,19.987 C184.243,21.427 182.669,22.147 180.664,22.147 ZM181.336,12.275 C180.845,11.667 180.173,11.363 179.320,11.363 C178.296,11.363 177.560,11.811 177.112,12.707 L177.112,16.515 C177.539,17.411 178.275,17.859 179.320,17.859 C180.173,17.859 180.845,17.555 181.336,16.947 C181.827,16.339 182.072,15.566 182.072,14.627 C182.072,13.667 181.827,12.883 181.336,12.275 ZM174.584,42.627 C174.584,44.846 173.907,46.654 172.552,48.051 C171.197,49.448 169.421,50.147 167.224,50.147 C165.048,50.147 163.277,49.448 161.912,48.051 C160.547,46.654 159.864,44.846 159.864,42.627 C159.864,40.408 160.547,38.600 161.912,37.203 C163.277,35.806 165.048,35.107 167.224,35.107 C169.421,35.107 171.197,35.806 172.552,37.203 C173.907,38.600 174.584,40.408 174.584,42.627 ZM169.016,40.163 C168.589,39.544 167.992,39.235 167.224,39.235 C166.477,39.235 165.891,39.544 165.464,40.163 C165.037,40.782 164.824,41.603 164.824,42.627 C164.824,43.630 165.037,44.440 165.464,45.059 C165.891,45.678 166.477,45.987 167.224,45.987 C167.992,45.987 168.589,45.683 169.016,45.075 C169.443,44.467 169.656,43.651 169.656,42.627 C169.656,41.603 169.443,40.782 169.016,40.163 ZM164.249,12.643 L165.561,13.027 C167.139,13.454 168.265,14.014 168.937,14.707 C169.609,15.400 169.945,16.355 169.945,17.571 C169.945,19.064 169.374,20.200 168.233,20.979 C167.091,21.758 165.593,22.147 163.737,22.147 C161.454,22.147 159.630,21.688 158.265,20.771 L158.265,16.547 C158.926,17.080 159.747,17.518 160.729,17.859 C161.710,18.200 162.585,18.371 163.353,18.371 C164.441,18.371 164.985,18.083 164.985,17.507 C164.985,17.038 164.547,16.707 163.673,16.515 L162.553,16.227 C159.651,15.608 158.201,14.136 158.201,11.811 C158.201,10.339 158.745,9.187 159.833,8.355 C160.921,7.523 162.339,7.107 164.089,7.107 C166.051,7.107 167.726,7.534 169.113,8.387 L169.113,12.515 C167.577,11.406 166.062,10.851 164.569,10.851 C163.609,10.851 163.129,11.139 163.129,11.715 C163.129,11.971 163.219,12.163 163.401,12.291 C163.582,12.419 163.865,12.536 164.249,12.643 ZM158.297,40.355 C157.358,39.672 156.323,39.331 155.193,39.331 C154.233,39.331 153.438,39.619 152.809,40.195 C152.179,40.771 151.865,41.582 151.865,42.627 C151.865,43.672 152.179,44.483 152.809,45.059 C153.438,45.635 154.233,45.923 155.193,45.923 C156.323,45.923 157.358,45.582 158.297,44.899 L158.297,49.123 C157.337,49.806 156.046,50.147 154.425,50.147 C152.227,50.147 150.425,49.464 149.017,48.099 C147.609,46.734 146.905,44.910 146.905,42.627 C146.905,40.344 147.609,38.520 149.017,37.155 C150.425,35.790 152.227,35.107 154.425,35.107 C156.046,35.107 157.337,35.448 158.297,36.131 L158.297,40.355 ZM149.209,22.147 C147.033,22.147 145.262,21.448 143.897,20.051 C142.532,18.654 141.849,16.846 141.849,14.627 C141.849,12.408 142.532,10.600 143.897,9.203 C145.262,7.806 147.033,7.107 149.209,7.107 C151.406,7.107 153.182,7.806 154.537,9.203 C155.892,10.600 156.569,12.408 156.569,14.627 C156.569,16.846 155.892,18.654 154.537,20.051 C153.182,21.448 151.406,22.147 149.209,22.147 ZM151.001,12.163 C150.574,11.544 149.977,11.235 149.209,11.235 C148.462,11.235 147.876,11.544 147.449,12.163 C147.022,12.782 146.809,13.603 146.809,14.627 C146.809,15.630 147.022,16.440 147.449,17.059 C147.876,17.678 148.462,17.987 149.209,17.987 C149.977,17.987 150.574,17.683 151.001,17.075 C151.428,16.467 151.641,15.651 151.641,14.627 C151.641,13.603 151.428,12.782 151.001,12.163 ZM145.594,63.107 C147.172,63.107 148.415,63.582 149.322,64.531 C150.228,65.480 150.682,66.766 150.682,68.387 L150.682,77.827 L145.690,77.827 L145.690,69.603 C145.690,68.984 145.530,68.488 145.210,68.115 C144.890,67.742 144.420,67.555 143.802,67.555 C143.290,67.555 142.847,67.694 142.474,67.971 C142.100,68.248 141.850,68.632 141.722,69.123 L141.722,77.827 L136.698,77.827 L136.698,57.027 L141.722,57.027 L141.722,64.675 C142.660,63.630 143.951,63.107 145.594,63.107 ZM134.521,14.051 L126.937,14.051 L126.937,21.827 L121.785,21.827 L121.785,2.179 L126.937,2.179 L126.937,9.635 L134.521,9.635 L134.521,2.179 L139.673,2.179 L139.673,21.827 L134.521,21.827 L134.521,14.051 ZM123.305,36.595 C124.468,37.587 125.049,39.032 125.049,40.931 L125.049,49.827 L120.217,49.827 L120.217,49.091 C119.961,49.347 119.513,49.576 118.873,49.779 C118.233,49.981 117.550,50.083 116.825,50.083 C115.332,50.083 114.078,49.672 113.065,48.851 C112.052,48.030 111.545,46.894 111.545,45.443 C111.545,44.078 112.073,42.974 113.129,42.131 C114.185,41.288 115.502,40.867 117.081,40.867 C118.425,40.867 119.470,41.134 120.217,41.667 L120.217,41.155 C120.217,40.579 119.956,40.115 119.433,39.763 C118.910,39.411 118.148,39.235 117.145,39.235 C115.694,39.235 114.382,39.576 113.209,40.259 L113.209,36.227 C114.596,35.480 116.313,35.107 118.361,35.107 C120.494,35.107 122.142,35.603 123.305,36.595 ZM120.217,44.963 C119.876,44.302 119.204,43.971 118.201,43.971 C117.646,43.971 117.177,44.088 116.793,44.323 C116.409,44.558 116.217,44.899 116.217,45.347 C116.217,45.816 116.409,46.168 116.793,46.403 C117.177,46.638 117.646,46.755 118.201,46.755 C119.182,46.755 119.854,46.435 120.217,45.795 L120.217,44.963 ZM110.266,21.827 L105.274,21.827 L105.274,11.331 L102.778,11.331 L102.778,7.427 L105.274,7.427 L105.274,3.459 L110.266,3.459 L110.266,7.427 L113.082,7.427 L113.082,11.331 L110.266,11.331 L110.266,21.827 ZM105.977,36.707 C106.766,35.640 107.854,35.107 109.241,35.107 C109.860,35.107 110.318,35.192 110.617,35.363 L110.617,40.195 C110.041,39.896 109.348,39.747 108.537,39.747 C107.108,39.747 106.254,40.291 105.977,41.379 L105.977,49.827 L100.953,49.827 L100.953,35.427 L105.977,35.427 L105.977,36.707 ZM95.738,20.579 C94.842,21.624 93.562,22.147 91.898,22.147 C90.319,22.147 89.082,21.672 88.186,20.723 C87.290,19.774 86.842,18.488 86.842,16.867 L86.842,7.427 L91.834,7.427 L91.834,15.683 C91.834,17.070 92.452,17.763 93.690,17.763 C94.159,17.763 94.586,17.619 94.970,17.331 C95.354,17.043 95.610,16.654 95.738,16.163 L95.738,7.427 L100.762,7.427 L100.762,21.827 L95.738,21.827 L95.738,20.579 ZM77.434,22.147 C75.258,22.147 73.487,21.448 72.122,20.051 C70.756,18.654 70.074,16.846 70.074,14.627 C70.074,12.408 70.756,10.600 72.122,9.203 C73.487,7.806 75.258,7.107 77.434,7.107 C79.631,7.107 81.407,7.806 82.762,9.203 C84.116,10.600 84.794,12.408 84.794,14.627 C84.794,16.846 84.116,18.654 82.762,20.051 C81.407,21.448 79.631,22.147 77.434,22.147 ZM79.226,12.163 C78.799,11.544 78.202,11.235 77.434,11.235 C76.687,11.235 76.100,11.544 75.674,12.163 C75.247,12.782 75.034,13.603 75.034,14.627 C75.034,15.630 75.247,16.440 75.674,17.059 C76.100,17.678 76.687,17.987 77.434,17.987 C78.202,17.987 78.799,17.683 79.226,17.075 C79.652,16.467 79.866,15.651 79.866,14.627 C79.866,13.603 79.652,12.782 79.226,12.163 ZM56.922,18.211 C58.415,18.211 59.802,17.827 61.082,17.059 L61.082,20.867 C59.930,21.720 58.277,22.147 56.122,22.147 C53.797,22.147 51.925,21.486 50.506,20.163 C49.087,18.840 48.378,17.027 48.378,14.723 C48.378,12.483 49.039,10.654 50.362,9.235 C51.685,7.816 53.349,7.107 55.354,7.107 C57.530,7.107 59.199,7.758 60.362,9.059 C61.525,10.360 62.106,12.110 62.106,14.307 L62.106,15.779 L53.242,15.779 C53.626,17.400 54.853,18.211 56.922,18.211 ZM57.626,12.963 C57.562,12.344 57.349,11.848 56.986,11.475 C56.623,11.102 56.143,10.915 55.546,10.915 C54.415,10.915 53.669,11.598 53.306,12.963 L57.626,12.963 ZM42.587,21.827 L38.235,15.523 L38.235,21.827 L33.211,21.827 L33.211,1.027 L38.235,1.027 L38.235,12.867 L42.331,7.427 L48.091,7.427 L42.747,14.083 L48.219,21.827 L42.587,21.827 ZM38.747,35.107 C39.451,35.107 40.128,35.251 40.779,35.539 C41.429,35.827 41.936,36.174 42.299,36.579 L42.299,29.027 L47.323,29.027 L47.323,49.827 L42.299,49.827 L42.299,48.675 C41.936,49.080 41.429,49.427 40.779,49.715 C40.128,50.003 39.451,50.147 38.747,50.147 C36.741,50.147 35.168,49.438 34.027,48.019 C32.885,46.600 32.315,44.803 32.315,42.627 C32.315,40.451 32.885,38.654 34.027,37.235 C35.168,35.816 36.741,35.107 38.747,35.107 ZM38.075,44.947 C38.565,45.555 39.237,45.859 40.091,45.859 C41.136,45.859 41.872,45.411 42.299,44.515 L42.299,40.707 C42.107,40.323 41.808,40.003 41.403,39.747 C40.997,39.491 40.560,39.363 40.091,39.363 C39.237,39.363 38.565,39.667 38.075,40.275 C37.584,40.883 37.339,41.667 37.339,42.627 C37.339,43.566 37.584,44.339 38.075,44.947 ZM19.451,82.915 L21.563,77.475 L16.187,63.427 L21.403,63.427 L24.155,71.619 L26.843,63.427 L31.835,63.427 L24.411,82.915 L19.451,82.915 ZM25.627,21.091 C25.371,21.347 24.923,21.576 24.283,21.779 C23.643,21.981 22.960,22.083 22.235,22.083 C20.741,22.083 19.488,21.672 18.475,20.851 C17.461,20.030 16.955,18.894 16.955,17.443 C16.955,16.078 17.483,14.974 18.539,14.131 C19.595,13.288 20.912,12.867 22.491,12.867 C23.835,12.867 24.880,13.134 25.627,13.667 L25.627,13.155 C25.627,12.579 25.365,12.115 24.843,11.763 C24.320,11.411 23.557,11.235 22.555,11.235 C21.104,11.235 19.792,11.576 18.619,12.259 L18.619,8.227 C20.005,7.480 21.723,7.107 23.771,7.107 C25.904,7.107 27.552,7.603 28.715,8.595 C29.877,9.587 30.459,11.032 30.459,12.931 L30.459,21.827 L25.627,21.827 L25.627,21.091 ZM25.627,16.963 C25.285,16.302 24.613,15.971 23.611,15.971 C23.056,15.971 22.587,16.088 22.203,16.323 C21.819,16.558 21.627,16.899 21.627,17.347 C21.627,17.816 21.819,18.168 22.203,18.403 C22.587,18.638 23.056,18.755 23.611,18.755 C24.592,18.755 25.264,18.435 25.627,17.795 L25.627,16.963 ZM16.315,49.827 L16.315,35.427 L21.339,35.427 L21.339,36.675 C22.277,35.630 23.568,35.107 25.211,35.107 C26.789,35.107 28.032,35.582 28.939,36.531 C29.845,37.480 30.299,38.766 30.299,40.387 L30.299,49.827 L25.307,49.827 L25.307,41.603 C25.307,40.984 25.147,40.488 24.827,40.115 C24.507,39.742 24.037,39.555 23.419,39.555 C22.907,39.555 22.464,39.694 22.091,39.971 C21.717,40.248 21.467,40.632 21.339,41.123 L21.339,49.827 L16.315,49.827 ZM11.323,21.827 L6.171,21.827 L6.171,6.595 L0.123,6.595 L0.123,2.179 L17.403,2.179 L17.403,6.595 L11.323,6.595 L11.323,21.827 ZM5.595,40.867 C6.939,40.867 7.984,41.134 8.731,41.667 L8.731,41.155 C8.731,40.579 8.470,40.115 7.947,39.763 C7.424,39.411 6.662,39.235 5.659,39.235 C4.208,39.235 2.896,39.576 1.723,40.259 L1.723,36.227 C3.110,35.480 4.827,35.107 6.875,35.107 C9.008,35.107 10.656,35.603 11.819,36.595 C12.982,37.587 13.563,39.032 13.563,40.931 L13.563,49.827 L8.731,49.827 L8.731,49.091 C8.475,49.347 8.027,49.576 7.387,49.779 C6.747,49.981 6.064,50.083 5.339,50.083 C3.846,50.083 2.592,49.672 1.579,48.851 C0.566,48.030 0.059,46.894 0.059,45.443 C0.059,44.078 0.587,42.974 1.643,42.131 C2.699,41.288 4.016,40.867 5.595,40.867 ZM5.307,46.403 C5.691,46.638 6.160,46.755 6.715,46.755 C7.696,46.755 8.368,46.435 8.731,45.795 L8.731,44.963 C8.390,44.302 7.718,43.971 6.715,43.971 C6.160,43.971 5.691,44.088 5.307,44.323 C4.923,44.558 4.731,44.899 4.731,45.347 C4.731,45.816 4.923,46.168 5.307,46.403 ZM5.851,64.579 C6.214,64.174 6.720,63.827 7.371,63.539 C8.022,63.251 8.699,63.107 9.403,63.107 C11.408,63.107 12.982,63.816 14.123,65.235 C15.264,66.654 15.835,68.451 15.835,70.627 C15.835,72.803 15.264,74.600 14.123,76.019 C12.982,77.438 11.408,78.147 9.403,78.147 C8.699,78.147 8.022,78.003 7.371,77.715 C6.720,77.427 6.214,77.080 5.851,76.675 L5.851,77.827 L0.827,77.827 L0.827,57.027 L5.851,57.027 L5.851,64.579 ZM5.851,72.515 C6.278,73.411 7.014,73.859 8.059,73.859 C8.912,73.859 9.584,73.555 10.075,72.947 C10.566,72.339 10.811,71.566 10.811,70.627 C10.811,69.667 10.566,68.883 10.075,68.275 C9.584,67.667 8.912,67.363 8.059,67.363 C7.590,67.363 7.152,67.491 6.747,67.747 C6.342,68.003 6.043,68.323 5.851,68.707 L5.851,72.515 ZM44.795,73.955 C46.821,73.955 47.835,73.134 47.835,71.491 C47.835,70.488 47.371,69.752 46.443,69.283 C45.515,68.814 44.347,68.622 42.939,68.707 L42.939,68.611 L45.979,62.595 L39.579,62.595 L39.579,58.179 L52.635,58.179 L52.635,58.275 L48.795,65.923 C51.333,67.011 52.603,68.856 52.603,71.459 C52.603,73.507 51.909,75.134 50.523,76.339 C49.136,77.544 47.408,78.147 45.339,78.147 C43.035,78.147 41.083,77.592 39.483,76.483 L39.483,71.779 C41.104,73.230 42.875,73.955 44.795,73.955 ZM63.387,58.179 L63.387,77.827 L58.395,77.827 L58.395,63.747 L53.819,65.955 L53.819,61.091 L59.931,58.179 L63.387,58.179 ZM70.906,45.379 L70.906,49.827 L56.858,49.827 L56.858,30.179 L70.906,30.179 L70.906,34.595 L61.914,34.595 L61.914,37.667 L70.138,37.667 L70.138,41.987 L61.914,41.987 L61.914,45.379 L70.906,45.379 ZM72.506,35.427 L77.914,35.427 L80.154,38.883 L82.426,35.427 L87.610,35.427 L82.778,42.467 L87.834,49.827 L82.394,49.827 L79.930,46.083 L77.466,49.827 L72.282,49.827 L77.306,42.499 L72.506,35.427 ZM83.482,66.179 L88.890,58.179 L93.626,58.179 L93.626,77.827 L88.570,77.827 L88.570,66.563 L83.546,73.603 L83.418,73.603 L78.362,66.563 L78.362,77.827 L73.338,77.827 L73.338,58.179 L78.106,58.179 L83.482,66.179 ZM96.122,31.459 L96.122,35.427 L98.938,35.427 L98.938,39.331 L96.122,39.331 L96.122,49.827 L91.130,49.827 L91.130,39.331 L88.634,39.331 L88.634,35.427 L91.130,35.427 L91.130,31.459 L96.122,31.459 ZM101.370,68.867 C102.714,68.867 103.759,69.134 104.506,69.667 L104.506,69.155 C104.506,68.579 104.245,68.115 103.722,67.763 C103.199,67.411 102.437,67.235 101.434,67.235 C99.983,67.235 98.671,67.576 97.498,68.259 L97.498,64.227 C98.885,63.480 100.602,63.107 102.650,63.107 C104.783,63.107 106.431,63.603 107.594,64.595 C108.757,65.587 109.338,67.032 109.338,68.931 L109.338,77.827 L104.506,77.827 L104.506,77.091 C104.250,77.347 103.802,77.576 103.162,77.779 C102.522,77.981 101.839,78.083 101.114,78.083 C99.621,78.083 98.367,77.672 97.354,76.851 C96.341,76.030 95.834,74.894 95.834,73.443 C95.834,72.078 96.362,70.974 97.418,70.131 C98.474,69.288 99.791,68.867 101.370,68.867 ZM101.082,74.403 C101.466,74.638 101.935,74.755 102.490,74.755 C103.471,74.755 104.143,74.435 104.506,73.795 L104.506,72.963 C104.165,72.302 103.493,71.971 102.490,71.971 C101.935,71.971 101.466,72.088 101.082,72.323 C100.698,72.558 100.506,72.899 100.506,73.347 C100.506,73.816 100.698,74.168 101.082,74.403 ZM117.114,64.707 C117.903,63.640 118.991,63.107 120.378,63.107 C120.996,63.107 121.455,63.192 121.754,63.363 L121.754,68.195 C121.178,67.896 120.484,67.747 119.674,67.747 C118.244,67.747 117.391,68.291 117.114,69.379 L117.114,77.827 L112.090,77.827 L112.090,63.427 L117.114,63.427 L117.114,64.707 ZM130.490,63.107 C132.111,63.107 133.402,63.448 134.362,64.131 L134.362,68.355 C133.423,67.672 132.388,67.331 131.258,67.331 C130.298,67.331 129.503,67.619 128.874,68.195 C128.244,68.771 127.930,69.582 127.930,70.627 C127.930,71.672 128.244,72.483 128.874,73.059 C129.503,73.635 130.298,73.923 131.258,73.923 C132.388,73.923 133.423,73.582 134.362,72.899 L134.362,77.123 C133.402,77.806 132.111,78.147 130.490,78.147 C128.292,78.147 126.490,77.464 125.082,76.099 C123.674,74.734 122.970,72.910 122.970,70.627 C122.970,68.344 123.674,66.520 125.082,65.155 C126.490,63.790 128.292,63.107 130.490,63.107 ZM133.273,40.643 L134.585,41.027 C136.163,41.454 137.289,42.014 137.961,42.707 C138.633,43.400 138.969,44.355 138.969,45.571 C138.969,47.064 138.398,48.200 137.257,48.979 C136.115,49.758 134.617,50.147 132.761,50.147 C130.478,50.147 128.654,49.688 127.289,48.771 L127.289,44.547 C127.950,45.080 128.771,45.518 129.753,45.859 C130.734,46.200 131.609,46.371 132.377,46.371 C133.465,46.371 134.009,46.083 134.009,45.507 C134.009,45.038 133.571,44.707 132.697,44.515 L131.577,44.227 C128.675,43.608 127.225,42.136 127.225,39.811 C127.225,38.339 127.769,37.187 128.857,36.355 C129.945,35.523 131.363,35.107 133.113,35.107 C135.075,35.107 136.750,35.534 138.137,36.387 L138.137,40.515 C136.601,39.406 135.086,38.851 133.593,38.851 C132.633,38.851 132.153,39.139 132.153,39.715 C132.153,39.971 132.243,40.163 132.425,40.291 C132.606,40.419 132.889,40.536 133.273,40.643 ZM153.260,57.847 L154.640,58.649 L154.640,57.044 L156.039,57.044 L156.039,58.649 L157.401,57.847 L158.110,59.041 L156.711,59.843 L158.110,60.645 L157.401,61.839 L156.039,61.037 L156.039,62.641 L154.640,62.641 L154.640,61.037 L153.260,61.839 L152.569,60.645 L153.950,59.843 L152.569,59.041 L153.260,57.847 ZM194.200,7.427 L194.200,21.827 L189.176,21.827 L189.176,7.427 L194.200,7.427 ZM182.840,43.683 L185.528,35.427 L190.456,35.427 L184.952,49.827 L180.440,49.827 L174.968,35.427 L180.088,35.427 L182.840,43.683 Z"/>
</svg>